%!PS-Adobe-3.0 EPSF-3.0
%%Title: plots/Ackley2.eps
%%Creator: matplotlib version 2.2.2, http://matplotlib.org/
%%CreationDate: Mon Jul 30 07:38:01 2018
%%Orientation: portrait
%%BoundingBox: 75 223 536 568
%%EndComments
%%BeginProlog
/mpldict 9 dict def
mpldict begin
/m { moveto } bind def
/l { lineto } bind def
/r { rlineto } bind def
/c { curveto } bind def
/cl { closepath } bind def
/box {
m
1 index 0 r
0 exch r
neg 0 r
cl
} bind def
/clipbox {
box
clip
newpath
} bind def
%!PS-Adobe-3.0 Resource-Font
%%Title: DejaVu Sans
%%Copyright: Copyright (c) 2003 by Bitstream, Inc. All Rights Reserved. Copyright (c) 2006 by Tavmjong Bah. All Rights Reserved. DejaVu changes are in public domain 
%%Creator: Converted from TrueType to type 3 by PPR
25 dict begin
/_d{bind def}bind def
/_m{moveto}_d
/_l{lineto}_d
/_cl{closepath eofill}_d
/_c{curveto}_d
/_sc{7 -1 roll{setcachedevice}{pop pop pop pop pop pop}ifelse}_d
/_e{exec}_d
/FontName /DejaVuSans def
/PaintType 0 def
/FontMatrix[.001 0 0 .001 0 0]def
/FontBBox[-1021 -463 1793 1232]def
/FontType 3 def
/Encoding [ /parenleft /parenright /zero /one /two /three /four /five /six /eight /I /a /e /i /n /o /r /t /minus ] def
/FontInfo 10 dict dup begin
/FamilyName (DejaVu Sans) def
/FullName (DejaVu Sans) def
/Notice (Copyright (c) 2003 by Bitstream, Inc. All Rights Reserved. Copyright (c) 2006 by Tavmjong Bah. All Rights Reserved. DejaVu changes are in public domain ) def
/Weight (Book) def
/Version (Version 2.35) def
/ItalicAngle 0.0 def
/isFixedPitch false def
/UnderlinePosition -130 def
/UnderlineThickness 90 def
end readonly def
/CharStrings 20 dict dup begin
/.notdef 0 def
/parenleft{390 0 86 -131 310 759 _sc
310 759 _m
266 683 234 609 213 536 _c
191 463 181 389 181 314 _c
181 238 191 164 213 91 _c
234 17 266 -56 310 -131 _c
232 -131 _l
183 -54 146 20 122 94 _c
98 168 86 241 86 314 _c
86 386 98 459 122 533 _c
146 607 182 682 232 759 _c
310 759 _l
_cl}_d
/parenright{390 0 80 -131 304 759 _sc
80 759 _m
158 759 _l
206 682 243 607 267 533 _c
291 459 304 386 304 314 _c
304 241 291 168 267 94 _c
243 20 206 -54 158 -131 _c
80 -131 _l
123 -56 155 17 177 91 _c
198 164 209 238 209 314 _c
209 389 198 463 177 536 _c
155 609 123 683 80 759 _c
_cl}_d
/zero{636 0 66 -13 570 742 _sc
318 664 _m
267 664 229 639 203 589 _c
177 539 165 464 165 364 _c
165 264 177 189 203 139 _c
229 89 267 64 318 64 _c
369 64 407 89 433 139 _c
458 189 471 264 471 364 _c
471 464 458 539 433 589 _c
407 639 369 664 318 664 _c
318 742 _m
399 742 461 709 505 645 _c
548 580 570 486 570 364 _c
570 241 548 147 505 83 _c
461 19 399 -13 318 -13 _c
236 -13 173 19 130 83 _c
87 147 66 241 66 364 _c
66 486 87 580 130 645 _c
173 709 236 742 318 742 _c
_cl}_d
/one{636 0 110 0 544 729 _sc
124 83 _m
285 83 _l
285 639 _l
110 604 _l
110 694 _l
284 729 _l
383 729 _l
383 83 _l
544 83 _l
544 0 _l
124 0 _l
124 83 _l
_cl}_d
/two{{636 0 73 0 536 742 _sc
192 83 _m
536 83 _l
536 0 _l
73 0 _l
73 83 _l
110 121 161 173 226 239 _c
290 304 331 346 348 365 _c
380 400 402 430 414 455 _c
426 479 433 504 433 528 _c
433 566 419 598 392 622 _c
365 646 330 659 286 659 _c
255 659 222 653 188 643 _c
154 632 117 616 78 594 _c
78 694 _l
118 710 155 722 189 730 _c
223 738 255 742 284 742 _c
}_e{359 742 419 723 464 685 _c
509 647 532 597 532 534 _c
532 504 526 475 515 449 _c
504 422 484 390 454 354 _c
446 344 420 317 376 272 _c
332 227 271 164 192 83 _c
_cl}_e}_d
/three{{636 0 76 -13 556 742 _sc
406 393 _m
453 383 490 362 516 330 _c
542 298 556 258 556 212 _c
556 140 531 84 482 45 _c
432 6 362 -13 271 -13 _c
240 -13 208 -10 176 -4 _c
144 1 110 10 76 22 _c
76 117 _l
103 101 133 89 166 81 _c
198 73 232 69 268 69 _c
330 69 377 81 409 105 _c
441 129 458 165 458 212 _c
458 254 443 288 413 312 _c
383 336 341 349 287 349 _c
}_e{202 349 _l
202 430 _l
291 430 _l
339 430 376 439 402 459 _c
428 478 441 506 441 543 _c
441 580 427 609 401 629 _c
374 649 336 659 287 659 _c
260 659 231 656 200 650 _c
169 644 135 635 98 623 _c
98 711 _l
135 721 170 729 203 734 _c
235 739 266 742 296 742 _c
370 742 429 725 473 691 _c
517 657 539 611 539 553 _c
539 513 527 479 504 451 _c
481 423 448 403 406 393 _c
_cl}_e}_d
/four{636 0 49 0 580 729 _sc
378 643 _m
129 254 _l
378 254 _l
378 643 _l
352 729 _m
476 729 _l
476 254 _l
580 254 _l
580 172 _l
476 172 _l
476 0 _l
378 0 _l
378 172 _l
49 172 _l
49 267 _l
352 729 _l
_cl}_d
/five{{636 0 77 -13 549 729 _sc
108 729 _m
495 729 _l
495 646 _l
198 646 _l
198 467 _l
212 472 227 476 241 478 _c
255 480 270 482 284 482 _c
365 482 429 459 477 415 _c
525 370 549 310 549 234 _c
549 155 524 94 475 51 _c
426 8 357 -13 269 -13 _c
238 -13 207 -10 175 -6 _c
143 -1 111 6 77 17 _c
77 116 _l
106 100 136 88 168 80 _c
199 72 232 69 267 69 _c
}_e{323 69 368 83 401 113 _c
433 143 450 183 450 234 _c
450 284 433 324 401 354 _c
368 384 323 399 267 399 _c
241 399 214 396 188 390 _c
162 384 135 375 108 363 _c
108 729 _l
_cl}_e}_d
/six{{636 0 70 -13 573 742 _sc
330 404 _m
286 404 251 388 225 358 _c
199 328 186 286 186 234 _c
186 181 199 139 225 109 _c
251 79 286 64 330 64 _c
374 64 409 79 435 109 _c
461 139 474 181 474 234 _c
474 286 461 328 435 358 _c
409 388 374 404 330 404 _c
526 713 _m
526 623 _l
501 635 476 644 451 650 _c
425 656 400 659 376 659 _c
310 659 260 637 226 593 _c
}_e{192 549 172 482 168 394 _c
187 422 211 444 240 459 _c
269 474 301 482 336 482 _c
409 482 467 459 509 415 _c
551 371 573 310 573 234 _c
573 159 550 99 506 54 _c
462 9 403 -13 330 -13 _c
246 -13 181 19 137 83 _c
92 147 70 241 70 364 _c
70 479 97 571 152 639 _c
206 707 280 742 372 742 _c
396 742 421 739 447 735 _c
472 730 498 723 526 713 _c
_cl}_e}_d
/eight{{636 0 68 -13 568 742 _sc
318 346 _m
271 346 234 333 207 308 _c
180 283 167 249 167 205 _c
167 161 180 126 207 101 _c
234 76 271 64 318 64 _c
364 64 401 76 428 102 _c
455 127 469 161 469 205 _c
469 249 455 283 429 308 _c
402 333 365 346 318 346 _c
219 388 _m
177 398 144 418 120 447 _c
96 476 85 511 85 553 _c
85 611 105 657 147 691 _c
188 725 245 742 318 742 _c
}_e{390 742 447 725 489 691 _c
530 657 551 611 551 553 _c
551 511 539 476 515 447 _c
491 418 459 398 417 388 _c
464 377 501 355 528 323 _c
554 291 568 251 568 205 _c
568 134 546 80 503 43 _c
459 5 398 -13 318 -13 _c
237 -13 175 5 132 43 _c
89 80 68 134 68 205 _c
68 251 81 291 108 323 _c
134 355 171 377 219 388 _c
183 544 _m
183 506 194 476 218 455 _c
}_e{242 434 275 424 318 424 _c
360 424 393 434 417 455 _c
441 476 453 506 453 544 _c
453 582 441 611 417 632 _c
393 653 360 664 318 664 _c
275 664 242 653 218 632 _c
194 611 183 582 183 544 _c
_cl}_e}_d
/I{295 0 98 0 197 729 _sc
98 729 _m
197 729 _l
197 0 _l
98 0 _l
98 729 _l
_cl}_d
/a{{613 0 60 -13 522 560 _sc
343 275 _m
270 275 220 266 192 250 _c
164 233 150 205 150 165 _c
150 133 160 107 181 89 _c
202 70 231 61 267 61 _c
317 61 357 78 387 114 _c
417 149 432 196 432 255 _c
432 275 _l
343 275 _l
522 312 _m
522 0 _l
432 0 _l
432 83 _l
411 49 385 25 355 10 _c
325 -5 287 -13 243 -13 _c
187 -13 142 2 109 33 _c
76 64 60 106 60 159 _c
}_e{60 220 80 266 122 298 _c
163 329 224 345 306 345 _c
432 345 _l
432 354 _l
432 395 418 427 391 450 _c
364 472 326 484 277 484 _c
245 484 215 480 185 472 _c
155 464 127 453 100 439 _c
100 522 _l
132 534 164 544 195 550 _c
226 556 256 560 286 560 _c
365 560 424 539 463 498 _c
502 457 522 395 522 312 _c
_cl}_e}_d
/e{{615 0 55 -13 562 560 _sc
562 296 _m
562 252 _l
149 252 _l
153 190 171 142 205 110 _c
238 78 284 62 344 62 _c
378 62 412 66 444 74 _c
476 82 509 95 541 113 _c
541 28 _l
509 14 476 3 442 -3 _c
408 -9 373 -13 339 -13 _c
251 -13 182 12 131 62 _c
80 112 55 181 55 268 _c
55 357 79 428 127 481 _c
175 533 241 560 323 560 _c
397 560 455 536 498 489 _c
}_e{540 441 562 377 562 296 _c
472 322 _m
471 371 457 410 431 440 _c
404 469 368 484 324 484 _c
274 484 234 469 204 441 _c
174 413 156 373 152 322 _c
472 322 _l
_cl}_e}_d
/i{278 0 94 0 184 760 _sc
94 547 _m
184 547 _l
184 0 _l
94 0 _l
94 547 _l
94 760 _m
184 760 _l
184 646 _l
94 646 _l
94 760 _l
_cl}_d
/n{634 0 91 0 549 560 _sc
549 330 _m
549 0 _l
459 0 _l
459 327 _l
459 379 448 417 428 443 _c
408 469 378 482 338 482 _c
289 482 251 466 223 435 _c
195 404 181 362 181 309 _c
181 0 _l
91 0 _l
91 547 _l
181 547 _l
181 462 _l
202 494 227 519 257 535 _c
286 551 320 560 358 560 _c
420 560 468 540 500 501 _c
532 462 549 405 549 330 _c
_cl}_d
/o{612 0 55 -13 557 560 _sc
306 484 _m
258 484 220 465 192 427 _c
164 389 150 338 150 273 _c
150 207 163 156 191 118 _c
219 80 257 62 306 62 _c
354 62 392 80 420 118 _c
448 156 462 207 462 273 _c
462 337 448 389 420 427 _c
392 465 354 484 306 484 _c
306 560 _m
384 560 445 534 490 484 _c
534 433 557 363 557 273 _c
557 183 534 113 490 63 _c
445 12 384 -13 306 -13 _c
227 -13 165 12 121 63 _c
77 113 55 183 55 273 _c
55 363 77 433 121 484 _c
165 534 227 560 306 560 _c
_cl}_d
/r{411 0 91 0 411 560 _sc
411 463 _m
401 469 390 473 378 476 _c
366 478 353 480 339 480 _c
288 480 249 463 222 430 _c
194 397 181 350 181 288 _c
181 0 _l
91 0 _l
91 547 _l
181 547 _l
181 462 _l
199 495 224 520 254 536 _c
284 552 321 560 365 560 _c
371 560 378 559 386 559 _c
393 558 401 557 411 555 _c
411 463 _l
_cl}_d
/t{392 0 27 0 368 702 _sc
183 702 _m
183 547 _l
368 547 _l
368 477 _l
183 477 _l
183 180 _l
183 135 189 106 201 94 _c
213 81 238 75 276 75 _c
368 75 _l
368 0 _l
276 0 _l
206 0 158 13 132 39 _c
106 65 93 112 93 180 _c
93 477 _l
27 477 _l
27 547 _l
93 547 _l
93 702 _l
183 702 _l
_cl}_d
/minus{838 0 106 272 732 355 _sc
106 355 _m
732 355 _l
732 272 _l
106 272 _l
106 355 _l
_cl}_d
end readonly def

/BuildGlyph
 {exch begin
 CharStrings exch
 2 copy known not{pop /.notdef}if
 true 3 1 roll get exec
 end}_d

/BuildChar {
 1 index /Encoding get exch get
 1 index /BuildGlyph get exec
}_d

FontName currentdict end definefont pop
%!PS-Adobe-3.0 Resource-Font
%%Title: DejaVu Sans Oblique
%%Copyright: Copyright (c) 2003 by Bitstream, Inc. All Rights Reserved. Copyright (c) 2006 by Tavmjong Bah. All Rights Reserved. DejaVu changes are in public domain 
%%Creator: Converted from TrueType to type 3 by PPR
25 dict begin
/_d{bind def}bind def
/_m{moveto}_d
/_l{lineto}_d
/_cl{closepath eofill}_d
/_c{curveto}_d
/_sc{7 -1 roll{setcachedevice}{pop pop pop pop pop pop}ifelse}_d
/_e{exec}_d
/FontName /DejaVuSans-Oblique def
/PaintType 0 def
/FontMatrix[.001 0 0 .001 0 0]def
/FontBBox[-1016 -350 1659 1068]def
/FontType 3 def
/Encoding [ /A /B /C /X /b /d /e /f /g /l /o /s /t ] def
/FontInfo 10 dict dup begin
/FamilyName (DejaVu Sans) def
/FullName (DejaVu Sans Oblique) def
/Notice (Copyright (c) 2003 by Bitstream, Inc. All Rights Reserved. Copyright (c) 2006 by Tavmjong Bah. All Rights Reserved. DejaVu changes are in public domain ) def
/Weight (Oblique) def
/Version (Version 2.35) def
/ItalicAngle -11.0 def
/isFixedPitch false def
/UnderlinePosition -130 def
/UnderlineThickness 90 def
end readonly def
/CharStrings 14 dict dup begin
/.notdef 0 def
/A{684 0 -52 0 615 729 _sc
368 729 _m
480 729 _l
615 0 _l
512 0 _l
482 187 _l
154 187 _l
51 0 _l
-52 0 _l
368 729 _l
404 632 _m
199 269 _l
467 269 _l
404 632 _l
_cl}_d
/B{{686 0 27 0 625 729 _sc
169 729 _m
421 729 _l
489 729 540 716 574 691 _c
608 665 625 627 625 576 _c
625 529 610 489 581 455 _c
552 421 514 400 467 393 _c
507 383 537 366 557 340 _c
577 314 588 280 588 238 _c
588 164 560 106 506 64 _c
452 21 378 0 284 0 _c
27 0 _l
169 729 _l
193 348 _m
141 81 _l
300 81 _l
359 81 405 94 437 122 _c
469 149 486 188 486 238 _c
}_e{486 276 475 303 454 321 _c
432 339 398 348 351 348 _c
193 348 _l
251 648 _m
208 428 _l
355 428 _l
407 428 448 439 478 462 _c
507 485 522 517 522 557 _c
522 588 512 611 492 626 _c
472 640 440 648 397 648 _c
251 648 _l
_cl}_e}_d
/C{{698 0 42 -13 695 742 _sc
695 673 _m
675 569 _l
643 600 610 623 575 639 _c
540 654 502 662 462 662 _c
406 662 357 648 315 622 _c
273 595 236 554 206 500 _c
186 464 171 427 161 388 _c
151 349 146 310 146 270 _c
146 203 163 152 197 118 _c
231 83 281 66 347 66 _c
392 66 435 73 477 87 _c
519 101 559 123 599 153 _c
576 36 _l
537 19 498 7 458 -1 _c
}_e{418 -9 379 -13 340 -13 _c
246 -13 173 12 121 62 _c
68 112 42 183 42 274 _c
42 332 52 389 72 445 _c
92 501 120 552 158 598 _c
198 647 243 683 294 707 _c
345 730 404 742 472 742 _c
514 742 553 736 590 725 _c
627 713 662 696 695 673 _c
_cl}_e}_d
/X{685 0 -42 0 703 729 _sc
137 729 _m
237 729 _l
362 466 _l
588 729 _l
703 729 _l
403 381 _l
584 0 _l
485 0 _l
338 307 _l
72 0 _l
-42 0 _l
298 392 _l
137 729 _l
_cl}_d
/b{{635 0 36 -13 587 760 _sc
495 334 _m
495 381 484 418 462 445 _c
440 471 411 485 373 485 _c
345 485 319 478 295 464 _c
271 450 250 431 232 406 _c
213 378 198 347 187 311 _c
176 275 171 240 171 205 _c
171 160 181 125 203 99 _c
224 73 253 61 291 61 _c
319 61 345 67 369 81 _c
393 94 415 113 433 139 _c
451 165 466 196 478 232 _c
489 268 495 302 495 334 _c
216 464 _m
}_e{238 494 265 517 299 534 _c
332 551 367 560 404 560 _c
460 560 504 541 537 503 _c
570 465 587 414 587 350 _c
587 297 577 246 558 197 _c
538 147 511 103 475 65 _c
451 39 424 20 394 7 _c
363 -6 331 -13 298 -13 _c
262 -13 232 -5 206 11 _c
180 27 158 51 142 83 _c
126 0 _l
36 0 _l
184 760 _l
274 760 _l
216 464 _l
_cl}_e}_d
/d{{635 0 46 -13 639 760 _sc
418 82 _m
394 50 365 27 332 11 _c
299 -5 263 -13 223 -13 _c
168 -13 125 5 93 42 _c
61 79 46 130 46 195 _c
46 249 55 300 75 349 _c
94 398 122 442 158 481 _c
182 507 209 526 239 540 _c
269 553 301 560 335 560 _c
370 560 401 551 428 534 _c
454 517 475 493 490 462 _c
549 760 _l
639 760 _l
491 0 _l
401 0 _l
418 82 _l
139 211 _m
}_e{139 163 149 126 171 100 _c
192 74 222 61 260 61 _c
288 61 314 67 338 81 _c
362 95 383 115 401 141 _c
420 168 435 200 446 236 _c
457 272 463 307 463 342 _c
463 387 452 422 431 448 _c
409 473 380 486 343 486 _c
314 486 287 479 263 466 _c
239 452 218 433 201 408 _c
182 381 167 350 156 314 _c
144 278 139 243 139 211 _c
_cl}_e}_d
/e{{615 0 46 -13 571 560 _sc
481 322 _m
481 327 482 332 483 338 _c
483 344 484 349 484 355 _c
484 395 472 426 449 449 _c
425 472 394 484 354 484 _c
309 484 270 469 236 441 _c
202 413 176 373 158 322 _c
481 322 _l
559 252 _m
141 252 _l
139 239 137 229 137 222 _c
136 215 136 209 136 204 _c
136 158 150 123 178 99 _c
206 74 245 62 296 62 _c
334 62 371 66 406 75 _c
}_e{441 83 474 96 504 114 _c
487 25 _l
454 11 420 2 386 -4 _c
352 -10 317 -13 282 -13 _c
206 -13 147 5 107 41 _c
66 77 46 128 46 195 _c
46 251 56 304 76 353 _c
96 402 126 446 166 485 _c
191 509 221 527 256 540 _c
291 553 328 560 368 560 _c
430 560 479 541 516 504 _c
552 467 571 417 571 355 _c
571 340 570 324 568 307 _c
566 289 563 271 559 252 _c
_cl}_e}_d
/f{352 0 68 0 478 760 _sc
478 760 _m
464 685 _l
378 685 _l
345 685 321 678 307 665 _c
292 652 281 629 274 595 _c
264 547 _l
412 547 _l
399 477 _l
251 477 _l
158 0 _l
68 0 _l
161 477 _l
75 477 _l
88 547 _l
174 547 _l
181 585 _l
193 649 215 695 246 721 _c
277 747 326 760 393 760 _c
478 760 _l
_cl}_d
/g{{635 0 32 -207 596 560 _sc
596 547 _m
503 68 _l
485 -24 450 -92 400 -138 _c
349 -184 281 -207 196 -207 _c
164 -207 134 -204 107 -200 _c
80 -195 55 -188 32 -178 _c
49 -91 _l
71 -105 94 -115 119 -122 _c
143 -129 170 -133 198 -133 _c
255 -133 302 -117 339 -86 _c
375 -55 399 -11 411 47 _c
419 88 _l
393 59 364 37 331 22 _c
298 7 262 0 224 0 _c
168 0 125 18 93 55 _c
}_e{61 91 46 142 46 206 _c
46 256 55 306 75 354 _c
94 402 121 445 156 483 _c
178 507 205 526 236 540 _c
267 553 299 560 333 560 _c
369 560 401 551 429 534 _c
456 517 476 493 490 462 _c
506 547 _l
596 547 _l
461 346 _m
461 390 450 425 429 449 _c
408 473 379 485 341 485 _c
317 485 294 480 273 471 _c
251 461 233 448 218 431 _c
193 403 174 370 160 332 _c
}_e{146 294 139 255 139 215 _c
139 169 149 135 170 111 _c
191 87 221 75 261 75 _c
318 75 366 100 404 152 _c
442 204 461 268 461 346 _c
_cl}_e}_d
/l{278 0 35 0 273 760 _sc
183 760 _m
273 760 _l
125 0 _l
35 0 _l
183 760 _l
_cl}_d
/o{{612 0 46 -13 566 560 _sc
254 -13 _m
190 -13 139 6 102 45 _c
64 84 46 138 46 207 _c
46 247 52 287 65 328 _c
77 369 94 404 115 432 _c
147 476 183 508 223 529 _c
263 549 308 560 358 560 _c
420 560 470 540 508 502 _c
546 463 566 412 566 350 _c
566 306 559 263 547 220 _c
534 177 517 142 497 114 _c
465 70 429 37 389 17 _c
349 -3 304 -13 254 -13 _c
139 210 _m
}_e{139 160 149 123 170 99 _c
190 74 222 62 264 62 _c
324 62 373 88 413 141 _c
453 193 473 260 473 341 _c
473 388 462 424 441 448 _c
420 472 389 484 348 484 _c
314 484 283 476 257 460 _c
231 444 207 420 187 388 _c
171 364 159 336 151 305 _c
143 274 139 242 139 210 _c
_cl}_e}_d
/s{{521 0 11 -13 500 560 _sc
500 531 _m
483 446 _l
459 458 433 468 407 475 _c
381 481 354 485 326 485 _c
278 485 241 477 214 461 _c
187 445 174 423 174 395 _c
174 363 205 338 269 321 _c
273 319 277 318 279 318 _c
308 309 _l
368 292 408 274 428 256 _c
448 238 458 213 458 182 _c
458 124 435 77 389 41 _c
343 5 282 -13 208 -13 _c
179 -13 149 -10 117 -5 _c
}_e{85 0 49 8 11 20 _c
29 113 _l
61 95 94 82 126 74 _c
158 65 188 61 218 61 _c
262 61 297 70 325 89 _c
352 108 366 132 366 161 _c
366 192 330 217 258 237 _c
249 239 _l
218 247 _l
172 259 138 274 117 294 _c
96 314 86 339 86 370 _c
86 428 107 475 151 509 _c
195 543 254 560 330 560 _c
360 560 389 557 417 552 _c
445 547 472 540 500 531 _c
_cl}_e}_d
/t{{392 0 64 0 423 702 _sc
423 547 _m
409 477 _l
230 477 _l
172 180 _l
170 169 168 160 167 152 _c
166 144 166 139 166 135 _c
166 114 172 99 185 89 _c
197 79 217 75 245 75 _c
336 75 _l
321 0 _l
235 0 _l
181 0 141 10 115 31 _c
89 52 76 84 76 126 _c
76 133 76 141 77 150 _c
78 159 80 169 82 180 _c
140 477 _l
64 477 _l
78 547 _l
153 547 _l
183 702 _l
}_e{273 702 _l
243 547 _l
423 547 _l
_cl}_e}_d
end readonly def

/BuildGlyph
 {exch begin
 CharStrings exch
 2 copy known not{pop /.notdef}if
 true 3 1 roll get exec
 end}_d

/BuildChar {
 1 index /Encoding get exch get
 1 index /BuildGlyph get exec
}_d

FontName currentdict end definefont pop
end
%%EndProlog
mpldict begin
75.6 223.2 translate
460.8 345.6 0 0 clipbox
gsave
0 0 m
460.8 0 l
460.8 345.6 l
0 345.6 l
cl
1.000 setgray
fill
grestore
gsave
57.6 38.016 m
414.72 38.016 l
414.72 304.128 l
57.6 304.128 l
cl
1.000 setgray
fill
grestore
0.800 setlinewidth
1 setlinejoin
0 setlinecap
[] 0 setdash
0.000 setgray
gsave
/o {
gsave
newpath
translate
0.8 setlinewidth
1 setlinejoin
0 setlinecap
0 0 m
0 -3.5 l

gsave
0.000 setgray
fill
grestore
stroke
grestore
} bind def
73.8327 38.016 o
grestore
/DejaVuSans findfont
10.000 scalefont
setfont
gsave
70.653040 23.422250 translate
0.000000 rotate
0.000000 0.000000 m /zero glyphshow
grestore
gsave
/o {
gsave
newpath
translate
0.8 setlinewidth
1 setlinejoin
0 setlinecap
0 0 m
0 -3.5 l

gsave
0.000 setgray
fill
grestore
stroke
grestore
} bind def
138.777 38.016 o
grestore
gsave
126.057875 23.422250 translate
0.000000 rotate
0.000000 0.000000 m /one glyphshow
6.362305 0.000000 m /zero glyphshow
12.724609 0.000000 m /zero glyphshow
19.086914 0.000000 m /zero glyphshow
grestore
gsave
/o {
gsave
newpath
translate
0.8 setlinewidth
1 setlinejoin
0 setlinecap
0 0 m
0 -3.5 l

gsave
0.000 setgray
fill
grestore
stroke
grestore
} bind def
203.721 38.016 o
grestore
gsave
191.001773 23.422250 translate
0.000000 rotate
0.000000 0.000000 m /two glyphshow
6.362305 0.000000 m /zero glyphshow
12.724609 0.000000 m /zero glyphshow
19.086914 0.000000 m /zero glyphshow
grestore
gsave
/o {
gsave
newpath
translate
0.8 setlinewidth
1 setlinejoin
0 setlinecap
0 0 m
0 -3.5 l

gsave
0.000 setgray
fill
grestore
stroke
grestore
} bind def
268.664 38.016 o
grestore
gsave
255.945671 23.422250 translate
0.000000 rotate
0.000000 0.000000 m /three glyphshow
6.362305 0.000000 m /zero glyphshow
12.724609 0.000000 m /zero glyphshow
19.086914 0.000000 m /zero glyphshow
grestore
gsave
/o {
gsave
newpath
translate
0.8 setlinewidth
1 setlinejoin
0 setlinecap
0 0 m
0 -3.5 l

gsave
0.000 setgray
fill
grestore
stroke
grestore
} bind def
333.608 38.016 o
grestore
gsave
320.889569 23.422250 translate
0.000000 rotate
0.000000 0.000000 m /four glyphshow
6.362305 0.000000 m /zero glyphshow
12.724609 0.000000 m /zero glyphshow
19.086914 0.000000 m /zero glyphshow
grestore
gsave
/o {
gsave
newpath
translate
0.8 setlinewidth
1 setlinejoin
0 setlinecap
0 0 m
0 -3.5 l

gsave
0.000 setgray
fill
grestore
stroke
grestore
} bind def
398.552 38.016 o
grestore
gsave
385.833467 23.422250 translate
0.000000 rotate
0.000000 0.000000 m /five glyphshow
6.362305 0.000000 m /zero glyphshow
12.724609 0.000000 m /zero glyphshow
19.086914 0.000000 m /zero glyphshow
grestore
/DejaVuSans findfont
14.000 scalefont
setfont
gsave
206.480312 6.703500 translate
0.000000 rotate
0.000000 0.000000 m /I glyphshow
4.128906 0.000000 m /t glyphshow
9.618164 0.000000 m /e glyphshow
18.231445 0.000000 m /r glyphshow
23.987305 0.000000 m /a glyphshow
32.566406 0.000000 m /t glyphshow
38.055664 0.000000 m /i glyphshow
41.945312 0.000000 m /o glyphshow
50.510742 0.000000 m /n glyphshow
grestore
gsave
/o {
gsave
newpath
translate
0.8 setlinewidth
1 setlinejoin
0 setlinecap
0 0 m
-3.5 0 l

gsave
0.000 setgray
fill
grestore
stroke
grestore
} bind def
57.6 44.8786 o
grestore
/DejaVuSans findfont
10.000 scalefont
setfont
gsave
29.506250 41.081699 translate
0.000000 rotate
0.000000 0.000000 m /minus glyphshow
8.378906 0.000000 m /one glyphshow
14.741211 0.000000 m /two glyphshow
grestore
gsave
/o {
gsave
newpath
translate
0.8 setlinewidth
1 setlinejoin
0 setlinecap
0 0 m
-3.5 0 l

gsave
0.000 setgray
fill
grestore
stroke
grestore
} bind def
57.6 81.9834 o
grestore
gsave
29.506250 78.186548 translate
0.000000 rotate
0.000000 0.000000 m /minus glyphshow
8.378906 0.000000 m /one glyphshow
14.741211 0.000000 m /zero glyphshow
grestore
gsave
/o {
gsave
newpath
translate
0.8 setlinewidth
1 setlinejoin
0 setlinecap
0 0 m
-3.5 0 l

gsave
0.000 setgray
fill
grestore
stroke
grestore
} bind def
57.6 119.088 o
grestore
gsave
35.865625 115.291397 translate
0.000000 rotate
0.000000 0.000000 m /minus glyphshow
8.378906 0.000000 m /eight glyphshow
grestore
gsave
/o {
gsave
newpath
translate
0.8 setlinewidth
1 setlinejoin
0 setlinecap
0 0 m
-3.5 0 l

gsave
0.000 setgray
fill
grestore
stroke
grestore
} bind def
57.6 156.193 o
grestore
gsave
35.865625 152.396246 translate
0.000000 rotate
0.000000 0.000000 m /minus glyphshow
8.378906 0.000000 m /six glyphshow
grestore
gsave
/o {
gsave
newpath
translate
0.8 setlinewidth
1 setlinejoin
0 setlinecap
0 0 m
-3.5 0 l

gsave
0.000 setgray
fill
grestore
stroke
grestore
} bind def
57.6 193.298 o
grestore
gsave
35.865625 189.501095 translate
0.000000 rotate
0.000000 0.000000 m /minus glyphshow
8.378906 0.000000 m /four glyphshow
grestore
gsave
/o {
gsave
newpath
translate
0.8 setlinewidth
1 setlinejoin
0 setlinecap
0 0 m
-3.5 0 l

gsave
0.000 setgray
fill
grestore
stroke
grestore
} bind def
57.6 230.403 o
grestore
gsave
35.865625 226.605945 translate
0.000000 rotate
0.000000 0.000000 m /minus glyphshow
8.378906 0.000000 m /two glyphshow
grestore
gsave
/o {
gsave
newpath
translate
0.8 setlinewidth
1 setlinejoin
0 setlinecap
0 0 m
-3.5 0 l

gsave
0.000 setgray
fill
grestore
stroke
grestore
} bind def
57.6 267.508 o
grestore
gsave
44.240625 263.710794 translate
0.000000 rotate
0.000000 0.000000 m /zero glyphshow
grestore
gsave
/o {
gsave
newpath
translate
0.8 setlinewidth
1 setlinejoin
0 setlinecap
0 0 m
-3.5 0 l

gsave
0.000 setgray
fill
grestore
stroke
grestore
} bind def
57.6 304.613 o
grestore
gsave
44.240625 300.815643 translate
0.000000 rotate
0.000000 0.000000 m /two glyphshow
grestore
gsave
22.506250 133.572000 translate
90.000000 rotate
/DejaVuSans-Oblique findfont
14.0 scalefont
setfont
0.000000 0.359375 moveto
/l glyphshow

3.889648 0.359375 moveto
/o glyphshow

12.455078 0.359375 moveto
/g glyphshow

21.341797 0.359375 moveto
/f glyphshow

/DejaVuSans findfont
9.8 scalefont
setfont
26.270508 -1.937500 moveto
/two glyphshow

/DejaVuSans findfont
14.0 scalefont
setfont
32.888379 0.359375 moveto
/parenleft glyphshow

/DejaVuSans-Oblique findfont
14.0 scalefont
setfont
38.350293 0.359375 moveto
/X glyphshow

/DejaVuSans-Oblique findfont
9.8 scalefont
setfont
47.941113 -1.937500 moveto
/b glyphshow

54.161816 -1.937500 moveto
/e glyphshow

60.191113 -1.937500 moveto
/s glyphshow

65.296875 -1.937500 moveto
/t glyphshow

/DejaVuSans findfont
14.0 scalefont
setfont
69.522168 0.359375 moveto
/parenright glyphshow


grestore
1.500 setlinewidth
2 setlinecap
0.122 0.467 0.706 setrgbcolor
gsave
357.1 266.1 57.6 38.02 clipbox
73.832727 292.032 m
80.781724 291.140759 l
86.431843 289.90801 l
87.990497 289.385685 l
89.224431 289.020025 l
89.679038 288.865099 l
90.263533 288.630797 l
90.653197 288.468563 l
92.796345 287.567409 l
93.121065 287.409014 l
93.445784 287.261671 l
94.160167 286.962723 l
94.614775 286.665437 l
95.394101 286.320528 l
96.563092 285.677545 l
96.952755 285.493858 l
97.991857 284.843917 l
98.381521 284.596477 l
98.966016 284.257408 l
100.849389 283.340405 l
102.53793 282.455431 l
102.927594 282.255581 l
103.512089 281.880249 l
104.096584 281.633418 l
104.746023 281.268455 l
105.265574 280.982476 l
106.174788 280.488689 l
112.928954 277.03546 l
115.331878 275.950313 l
116.500868 275.32897 l
117.604914 274.811965 l
118.384241 274.472656 l
120.52739 273.501534 l
121.241773 273.172438 l
121.956156 272.836293 l
126.372341 270.694994 l
128.125826 269.7273 l
128.515489 269.399949 l
129.619536 268.708965 l
131.373021 267.53483 l
131.762684 267.343746 l
132.347179 266.814999 l
132.606955 266.621736 l
133.061562 266.269834 l
133.321338 266.084212 l
134.100664 265.490621 l
134.295496 265.284155 l
135.009879 264.713545 l
135.204711 264.589894 l
135.399542 264.243722 l
135.659318 264.083486 l
136.178869 263.699452 l
137.282915 262.719723 l
139.231232 260.748489 l
139.426064 260.568676 l
139.68584 260.424441 l
140.010559 260.113597 l
140.400223 259.7456 l
141.309437 258.622016 l
141.504269 258.381221 l
141.569213 258.340713 l
141.764044 258.016846 l
142.673259 257.002798 l
142.868091 256.754254 l
143.062922 256.635253 l
143.257754 256.434521 l
143.842249 255.680184 l
143.972137 255.397255 l
144.037081 255.38602 l
144.296856 255.019242 l
144.816408 254.667495 l
144.881352 254.623246 l
145.076183 254.272521 l
145.271015 254.183674 l
145.530791 253.808106 l
145.725622 253.683383 l
145.920454 253.217137 l
146.245173 253.066664 l
146.699781 252.138858 l
146.764725 252.127411 l
147.0245 251.501659 l
147.34922 251.122375 l
147.479107 250.831587 l
147.608995 250.743435 l
147.803827 250.473673 l
147.868771 250.440258 l
148.648098 248.485298 l
149.752144 247.664598 l
149.946976 247.067418 l
150.141807 246.898349 l
150.271695 246.745675 l
150.401583 246.568934 l
150.596415 245.739185 l
150.726302 245.711857 l
150.921134 245.316489 l
151.18091 244.859291 l
151.505629 244.60346 l
151.700461 243.646635 l
152.02518 243.529785 l
152.220012 243.06785 l
152.479788 242.869705 l
152.674619 242.363689 l
153.19417 241.223072 l
153.389002 241.017237 l
153.583834 240.76876 l
153.713722 240.661339 l
154.168329 240.351168 l
154.493048 239.695157 l
154.557992 239.640248 l
154.752824 239.039691 l
155.0126 238.870734 l
155.337319 238.761648 l
156.116646 237.898939 l
156.18159 237.870801 l
156.441365 237.360582 l
157.02586 237.065234 l
157.220692 236.635841 l
157.545412 236.328329 l
157.675299 235.663391 l
157.935075 235.089511 l
158.194851 234.463373 l
158.454626 234.311375 l
158.584514 234.217822 l
158.714402 233.812728 l
158.779346 233.806732 l
158.909233 233.532244 l
159.169009 233.395614 l
159.428785 232.966348 l
159.623616 232.916085 l
159.818448 232.679147 l
160.467887 232.198793 l
160.662719 231.92778 l
160.727663 231.914583 l
160.922494 231.459639 l
161.052382 231.409632 l
161.247214 231.16036 l
161.831709 230.774672 l
161.896653 230.771821 l
162.026541 230.56389 l
162.35126 230.409385 l
162.546092 229.34183 l
162.67598 229.231403 l
162.935755 229.016258 l
163.065643 228.989943 l
163.325419 228.429696 l
163.455306 228.411361 l
163.585194 228.157959 l
164.039801 227.781586 l
164.234633 227.264327 l
164.429465 227.017858 l
164.559353 226.912132 l
164.819128 226.565444 l
165.078904 226.446002 l
165.338679 226.208215 l
165.533511 225.648661 l
167.286996 224.606357 l
167.611716 224.089482 l
168.066323 223.861348 l
168.261155 223.097006 l
168.391043 222.857036 l
168.715762 222.404253 l
169.235313 222.172754 l
169.365201 222.001034 l
169.495089 221.944092 l
169.624977 221.704843 l
169.754864 221.57875 l
170.144528 220.935415 l
170.404303 220.708086 l
170.793967 220.290619 l
171.053742 220.156479 l
171.248574 219.79309 l
171.898013 218.85532 l
172.157789 218.721725 l
172.35262 218.211095 l
172.807228 217.845319 l
172.937115 217.573795 l
173.521611 216.443984 l
173.716442 216.391337 l
173.911274 216.228619 l
174.235993 216.045879 l
174.430825 215.710368 l
174.495769 215.701579 l
174.755545 215.148677 l
175.01532 214.95982 l
175.924535 213.357754 l
176.444086 213.100528 l
176.703861 212.915719 l
176.898693 212.667051 l
177.807908 212.088808 l
178.197571 211.914151 l
178.392403 211.575986 l
178.652178 211.410925 l
178.911954 211.0821 l
179.041842 211.04667 l
179.301617 210.641968 l
179.951056 209.98555 l
180.275776 209.615696 l
180.34072 209.601247 l
180.535551 209.415861 l
181.314878 208.707949 l
181.50971 208.375557 l
181.769486 208.239253 l
181.964317 207.833694 l
182.094205 207.771289 l
182.6787 207.104907 l
182.873532 206.998179 l
183.458027 206.68072 l
183.717802 206.569211 l
183.912634 206.306909 l
184.302298 206.063281 l
184.497129 205.842295 l
184.756905 205.575527 l
184.951737 205.247128 l
185.146568 205.058109 l
185.471288 204.903803 l
185.860951 204.586525 l
186.250614 204.32482 l
186.445446 203.902184 l
186.964997 203.108395 l
187.029941 203.100712 l
187.159829 202.835525 l
187.224773 202.824348 l
187.419605 202.576064 l
188.0041 202.242389 l
188.458707 201.832593 l
188.718483 201.666777 l
188.978258 201.362028 l
189.302978 200.720414 l
189.757585 200.628132 l
189.952417 200.454771 l
190.212192 200.365236 l
191.900734 198.858579 l
192.160509 198.750017 l
192.485229 198.509105 l
192.809948 198.326811 l
193.00478 198.14873 l
193.329499 198.01579 l
193.524331 197.533151 l
193.849051 197.342003 l
194.433546 196.487076 l
194.693321 196.320158 l
194.888153 196.223535 l
195.927255 195.521582 l
196.251975 194.735183 l
196.381863 194.648375 l
196.771526 194.347724 l
196.901414 194.307301 l
197.291077 193.500627 l
197.420965 193.455404 l
197.615797 193.284755 l
197.940516 193.098752 l
198.330179 193.017777 l
198.849731 192.262667 l
198.979618 192.231731 l
199.109506 191.699359 l
199.239394 191.571069 l
199.49917 191.247563 l
199.758945 191.130183 l
200.798048 189.587994 l
200.992879 189.261309 l
201.707262 188.780114 l
201.902094 188.643935 l
202.486589 188.242933 l
202.811308 187.943597 l
202.876252 187.941839 l
203.071084 187.654081 l
203.460747 187.403822 l
203.655579 187.220862 l
204.305018 186.632918 l
205.019401 186.31247 l
205.214233 186.044211 l
205.279177 185.942103 l
205.474008 185.510574 l
206.253335 185.079368 l
206.707942 184.671835 l
206.83783 184.61065 l
207.032662 184.496024 l
207.16255 184.473742 l
207.292437 184.193837 l
207.617157 184.03083 l
208.071764 183.482251 l
208.266596 183.368962 l
208.461428 183.189434 l
208.591315 183.118503 l
208.851091 182.657258 l
209.240754 182.530495 l
209.50053 182.369654 l
209.825249 182.089084 l
210.409744 181.922011 l
210.539632 181.601139 l
210.734464 181.514561 l
211.189071 181.158215 l
211.383903 180.963088 l
212.098286 180.609932 l
212.293118 180.253111 l
212.487949 180.044626 l
212.682781 179.570793 l
212.942557 179.517775 l
213.137388 178.62319 l
213.462108 178.468874 l
213.981659 178.027387 l
214.111547 177.923067 l
214.306378 177.740211 l
214.566154 177.421307 l
215.280537 176.979011 l
215.410425 176.70812 l
215.540312 176.624761 l
215.6702 176.346133 l
216.449527 176.007622 l
216.644359 175.590738 l
217.16391 175.469069 l
217.423685 175.229933 l
217.488629 175.187915 l
217.683461 174.882766 l
218.073124 174.678124 l
218.267956 174.506217 l
218.982339 174.118591 l
219.112227 173.910418 l
219.307059 173.685129 l
219.696722 173.299162 l
220.021441 172.652452 l
220.281217 172.497373 l
220.476049 171.993294 l
220.67088 171.934156 l
220.865712 171.615315 l
221.255375 171.408235 l
221.450207 170.991032 l
221.969758 170.596279 l
222.229534 169.953603 l
222.684141 169.751934 l
222.749085 169.689991 l
223.008861 169.017591 l
223.268636 168.687566 l
223.398524 168.296108 l
223.983019 167.840622 l
224.372683 167.350991 l
224.632458 167.280431 l
224.892234 166.948194 l
225.022122 166.89537 l
225.216953 166.552433 l
225.541673 166.438389 l
225.931336 166.004251 l
226.061224 165.850887 l
226.450887 165.46174 l
226.710663 165.318898 l
226.840551 165.201448 l
227.749765 164.765092 l
228.074485 164.036894 l
228.464148 163.764423 l
229.438307 162.872609 l
229.633138 162.282512 l
229.698082 162.270076 l
229.892914 162.086538 l
230.022802 161.981081 l
230.217633 161.711289 l
230.347521 161.585992 l
230.477409 161.269943 l
230.607297 161.248686 l
230.867072 160.941342 l
231.256736 160.786825 l
231.646399 160.317769 l
232.101006 159.949729 l
232.360782 159.902862 l
232.685501 159.453998 l
232.945277 159.354094 l
233.140109 159.080369 l
233.33494 159.002431 l
233.854492 158.146314 l
234.179211 157.895476 l
234.763706 156.998591 l
235.023482 156.890915 l
235.218313 156.398238 l
235.672921 155.648702 l
235.802809 155.500188 l
235.99764 155.177947 l
236.192472 154.992106 l
236.387304 154.822106 l
236.971799 154.296315 l
237.49135 153.631658 l
237.621238 153.439863 l
237.881013 152.917941 l
238.725284 152.425358 l
238.920116 152.357269 l
239.114947 151.961579 l
239.569555 151.471372 l
239.764386 151.315221 l
240.024162 150.927578 l
240.218994 150.708058 l
241.647759 149.760761 l
242.49203 149.325477 l
242.686862 148.610176 l
242.881693 148.257569 l
243.076525 148.118691 l
243.271357 147.726022 l
243.66102 147.640582 l
243.920796 147.235911 l
244.050684 147.208485 l
244.245515 146.880178 l
244.765066 146.166387 l
245.089786 145.61977 l
245.284618 145.499718 l
245.544393 145.189684 l
245.869113 144.995262 l
245.999001 144.658429 l
247.038103 143.761016 l
247.49271 142.693471 l
247.752486 142.568359 l
248.142149 142.231609 l
248.401925 141.87081 l
248.6617 141.786022 l
248.856532 141.62987 l
249.441027 141.38683 l
249.895634 141.071532 l
250.090466 140.534757 l
250.480129 140.326739 l
250.674961 139.883744 l
251.584176 139.044943 l
251.714064 138.741263 l
252.81811 137.984691 l
253.077885 137.562212 l
253.272717 137.509335 l
253.467549 137.123597 l
253.857212 136.880754 l
254.246876 136.640331 l
254.441707 136.42573 l
254.701483 136.256124 l
254.896315 135.762172 l
255.026202 135.620397 l
255.48081 134.999671 l
255.870473 134.841296 l
256.065305 134.375495 l
257.169351 133.438577 l
257.364183 133.237755 l
258.078566 131.752016 l
258.468229 131.413304 l
259.3125 130.080181 l
259.832051 129.779075 l
260.091826 129.243372 l
260.48149 129.098353 l
260.676321 128.930263 l
261.001041 128.556613 l
261.130929 128.45976 l
261.390704 128.102065 l
262.105087 127.54895 l
262.234975 127.237346 l
262.364863 127.159511 l
262.624638 126.926986 l
262.81947 126.835318 l
263.014302 126.514967 l
263.209133 126.336197 l
263.533853 126.116262 l
263.663741 125.772227 l
263.923516 125.576864 l
264.118348 125.244623 l
264.378124 125.080223 l
264.508011 124.870902 l
264.637899 124.805918 l
264.897675 124.24579 l
265.092507 123.682799 l
265.287338 123.536313 l
266.001721 122.985983 l
266.261497 122.911018 l
266.65116 122.343 l
267.300599 121.67862 l
267.560375 121.580347 l
267.82015 121.276992 l
269.378804 119.518843 l
269.508692 119.456932 l
269.898355 118.40589 l
269.963299 118.399661 l
270.158131 118.110007 l
270.937457 117.326129 l
271.262177 116.894302 l
271.781728 116.140139 l
272.301279 115.820581 l
272.690943 115.386107 l
272.950718 115.234131 l
273.210494 114.680023 l
273.470269 114.47571 l
274.574316 113.297545 l
274.639259 113.240686 l
274.769147 112.888367 l
274.834091 112.870404 l
275.028923 112.342581 l
275.288698 112.07574 l
275.548474 111.794342 l
275.80825 111.458342 l
276.197913 111.276015 l
276.587576 110.990137 l
276.847352 110.778289 l
276.97724 110.69038 l
277.237015 110.423014 l
277.496791 110.328667 l
277.886454 110.020742 l
278.081286 109.420295 l
278.535893 108.980559 l
278.795669 108.81984 l
279.380164 107.892346 l
279.445108 107.880975 l
279.63994 107.612536 l
279.964659 107.318682 l
280.159491 106.939678 l
280.354323 106.862828 l
280.549154 106.669718 l
280.743986 106.556704 l
281.263537 105.991735 l
281.588257 105.765503 l
281.848032 105.552648 l
282.172752 105.181699 l
282.302639 104.919883 l
282.562415 104.601151 l
282.757247 104.288178 l
283.731405 103.295131 l
283.796349 103.283266 l
284.121069 102.737497 l
284.250956 102.632486 l
284.64062 102.242652 l
284.705564 102.22794 l
284.900395 101.969773 l
285.225115 101.711615 l
285.419947 101.555476 l
286.199273 101.042001 l
286.459049 100.928696 l
286.718824 100.408787 l
286.913656 99.756026 l
287.043544 99.647175 l
287.173432 99.419168 l
287.628039 99.224997 l
288.277478 98.741139 l
288.602198 98.232525 l
288.861973 98.017244 l
288.991861 97.264801 l
289.706244 96.908915 l
289.966019 96.51949 l
290.225795 96.141942 l
290.420627 95.710529 l
290.745346 95.300038 l
291.005122 95.117143 l
292.433888 93.696064 l
292.693663 93.381112 l
292.888495 93.208586 l
293.018383 93.11987 l
293.732765 92.144518 l
294.771868 91.421993 l
294.9667 91.030603 l
295.161531 90.59848 l
296.005802 89.546526 l
296.265577 88.98325 l
296.330521 88.976754 l
296.655241 88.420722 l
296.97996 88.276751 l
298.343782 86.531814 l
298.863333 85.975227 l
299.058165 85.770989 l
299.188053 85.70581 l
299.382885 85.592635 l
299.64266 85.291275 l
299.837492 84.763309 l
300.097267 84.649255 l
300.292099 84.506352 l
300.421987 84.19673 l
300.486931 84.180363 l
300.681763 83.95892 l
302.240416 82.774863 l
302.500192 82.279814 l
302.695023 82.177337 l
302.889855 82.023087 l
303.019743 81.975033 l
303.084687 81.891787 l
303.279518 81.553704 l
304.318621 80.11907 l
305.682443 78.957297 l
306.331882 78.634353 l
306.396826 78.63037 l
306.526713 78.506199 l
306.591657 78.504974 l
306.786489 78.368841 l
308.734806 76.77297 l
308.929638 76.556502 l
309.059525 76.508823 l
309.254357 76.289486 l
309.514133 76.057779 l
309.96874 75.753363 l
310.553235 75.161964 l
310.618179 75.153777 l
310.813011 74.661985 l
311.397506 74.440438 l
311.657281 73.855133 l
313.150991 73.150816 l
313.280879 72.554296 l
313.605598 72.14696 l
313.865374 71.943405 l
314.319981 71.674809 l
314.449869 71.258936 l
315.099308 70.87706 l
315.29414 70.742389 l
315.683803 70.61799 l
315.943579 70.231361 l
316.398186 70.076497 l
316.722905 69.545605 l
316.982681 69.462246 l
317.112569 69.265799 l
317.242456 69.195227 l
317.567176 68.893346 l
318.606278 68.484451 l
318.80111 68.239927 l
319.060886 68.122775 l
319.255717 68.017191 l
319.9701 67.826502 l
320.164932 67.498001 l
320.684483 67.339874 l
320.879315 67.255447 l
321.723585 67.086657 l
322.048305 66.993489 l
322.6328 66.82342 l
322.762688 66.177476 l
323.606958 65.908312 l
323.80179 65.701297 l
324.451229 65.401567 l
327.698424 64.792095 l
330.426068 64.491165 l
331.724946 64.373209 l
332.114609 64.300148 l
334.777309 64.140431 l
335.166972 64.115964 l
339.12855 63.984168 l
348.025864 63.933443 l
398.487273 63.933174 l
398.487273 63.933174 l
stroke
grestore
1.000 setlinewidth
0 setlinecap
gsave
357.1 266.1 57.6 38.02 clipbox
/o {
gsave
newpath
translate
1.0 setlinewidth
1 setlinejoin
0 setlinecap
0 -3 m
0.795609 -3 1.55874 -2.683901 2.12132 -2.12132 c
2.683901 -1.55874 3 -0.795609 3 0 c
3 0.795609 2.683901 1.55874 2.12132 2.12132 c
1.55874 2.683901 0.795609 3 0 3 c
-0.795609 3 -1.55874 2.683901 -2.12132 2.12132 c
-2.683901 1.55874 -3 0.795609 -3 0 c
-3 -0.795609 -2.683901 -1.55874 -2.12132 -2.12132 c
-1.55874 -2.683901 -0.795609 -3 0 -3 c
cl

gsave
0.122 0.467 0.706 setrgbcolor
fill
grestore
stroke
grestore
} bind def
73.8327 292.032 o
120.203 273.671 o
166.573 225.082 o
212.943 179.518 o
259.312 130.08 o
305.682 78.9573 o
352.052 63.9332 o
398.422 63.9332 o
grestore
1.500 setlinewidth
2 setlinecap
1.000 0.498 0.055 setrgbcolor
gsave
357.1 266.1 57.6 38.02 clipbox
73.832727 292.019279 m
76.755203 291.568535 l
79.093183 291.053935 l
80.521949 290.646263 l
82.794985 289.764622 l
83.184649 289.556286 l
87.081282 287.289504 l
89.484207 285.578032 l
89.808926 285.31318 l
90.653197 284.812916 l
91.692299 283.941627 l
92.081963 283.703383 l
92.406682 283.399836 l
93.121065 282.824916 l
93.70556 282.440559 l
94.160167 282.189856 l
94.614775 281.716398 l
95.069382 281.351453 l
95.653877 280.84758 l
96.36826 280.378739 l
100.459725 277.55265 l
101.693659 276.831198 l
102.53793 276.175864 l
102.992537 275.916029 l
103.512089 275.481861 l
105.20063 274.416651 l
105.525349 274.170316 l
107.86333 272.676256 l
108.252993 272.368463 l
108.642657 272.093799 l
109.616815 271.389373 l
110.590973 270.586211 l
110.850749 270.186675 l
111.954795 269.14934 l
112.53929 268.501423 l
112.669178 268.346997 l
113.383561 267.407151 l
113.773224 267.069911 l
114.097944 266.559636 l
114.35772 266.276458 l
114.617495 265.964717 l
115.072102 265.390539 l
115.20199 265.344616 l
115.591654 264.687719 l
116.111205 264.109468 l
116.565812 263.74657 l
117.085363 263.034528 l
117.215251 262.91874 l
118.059522 261.766686 l
118.18941 261.606412 l
120.007839 258.237142 l
120.917053 256.638414 l
121.111885 256.108903 l
121.891212 254.592087 l
122.215931 254.304138 l
122.800426 253.422209 l
122.995258 253.276829 l
123.969416 251.893045 l
124.099304 251.400361 l
124.35908 251.191411 l
124.683799 250.793471 l
124.813687 250.635874 l
124.943575 250.425437 l
125.138407 249.489332 l
125.398182 249.101172 l
125.593014 248.545863 l
125.787846 248.356596 l
125.982677 248.05989 l
126.177509 247.738603 l
126.891892 247.249 l
127.086724 247.092274 l
128.125826 245.996226 l
128.320658 245.699357 l
129.424704 244.885362 l
129.554592 244.136701 l
129.749423 243.937292 l
129.944255 243.801261 l
130.139087 243.393621 l
130.333918 243.288306 l
130.723582 243.072098 l
130.918414 242.89407 l
131.308077 242.574379 l
131.437965 242.268611 l
132.087404 242.088934 l
133.775945 241.099899 l
133.970777 240.978237 l
134.230552 240.83078 l
136.113925 240.277293 l
136.243813 240.062329 l
136.893252 239.898371 l
137.737523 239.485843 l
138.51685 239.329374 l
139.231232 239.185888 l
143.257754 238.380538 l
143.387642 238.37777 l
143.51753 238.105968 l
144.68652 237.970797 l
144.881352 237.900007 l
146.245173 237.757973 l
146.375061 237.415171 l
146.764725 237.40172 l
146.894612 237.215465 l
148.258434 237.137804 l
150.206751 237.026073 l
151.895293 236.924899 l
152.02518 236.597719 l
154.168329 236.490623 l
154.363161 236.387398 l
155.207431 236.377657 l
155.337319 236.176048 l
158.974177 236.113214 l
159.104065 235.965448 l
160.597775 235.94411 l
160.727663 235.524354 l
167.286996 235.439837 l
167.481828 235.326778 l
169.430145 235.301259 l
169.624977 235.037868 l
175.210152 234.965429 l
175.34004 234.84099 l
175.989479 234.840376 l
176.119366 234.358141 l
180.016 234.30611 l
180.145888 234.030229 l
180.275776 234.030194 l
180.405664 233.452902 l
180.470608 233.452897 l
180.600495 233.076875 l
183.393083 232.972646 l
183.522971 229.244953 l
185.3414 229.226245 l
185.536232 229.124173 l
186.640278 229.124034 l
186.770166 219.664561 l
186.900053 218.905292 l
187.094885 218.849211 l
189.108146 218.807202 l
189.238034 218.327271 l
190.147248 218.327188 l
190.277136 211.258915 l
190.796687 211.25881 l
190.926575 205.302514 l
192.290397 205.302015 l
192.420285 204.908562 l
245.934057 204.88329 l
246.128888 204.583451 l
247.362822 204.549717 l
247.49271 203.617682 l
247.687542 203.616691 l
247.81743 202.404379 l
249.505971 202.384005 l
249.700803 202.277521 l
249.895634 202.162477 l
250.285298 202.160014 l
250.415186 202.037732 l
250.610017 202.03656 l
250.739905 198.030127 l
250.804849 198.030121 l
250.999681 197.648484 l
251.3244 197.636162 l
251.519232 197.525345 l
251.64912 197.496456 l
251.779007 197.230237 l
252.363503 197.21398 l
252.49339 194.431109 l
252.623278 194.404071 l
252.753166 193.498177 l
255.026202 193.4227 l
255.221034 193.283103 l
255.415866 193.277785 l
255.545754 193.108768 l
256.454968 193.082249 l
256.584856 192.282394 l
257.104407 192.272888 l
257.169351 192.006568 l
257.364183 189.165104 l
258.143509 189.04181 l
258.338341 188.864353 l
258.533173 188.800099 l
258.792948 188.754309 l
259.117668 188.404656 l
259.572275 188.307874 l
259.702163 188.171878 l
260.676321 188.160626 l
260.806209 187.617438 l
261.001041 187.616688 l
261.130929 186.718773 l
261.195873 186.686389 l
261.32576 184.602583 l
262.299919 184.516813 l
262.429807 183.616306 l
262.494751 183.616303 l
262.624638 182.936476 l
263.468909 182.888651 l
263.598797 182.228193 l
264.378124 182.205352 l
264.508011 179.196386 l
264.767787 179.179462 l
264.897675 177.905201 l
265.15745 177.875611 l
265.287338 177.679004 l
265.871833 177.599433 l
266.066665 177.534126 l
267.82015 177.453726 l
267.950038 176.026441 l
268.729365 175.98653 l
268.924196 175.89791 l
269.31386 175.852207 l
269.443748 175.291646 l
269.833411 175.162613 l
270.093187 175.152128 l
270.223074 174.922737 l
270.612738 174.881002 l
270.937457 174.447112 l
271.197233 174.438265 l
271.327121 171.298733 l
271.457008 171.293614 l
271.586896 169.856942 l
271.911616 169.847064 l
272.041504 169.396422 l
272.690943 169.32658 l
272.885774 169.268516 l
273.665101 169.147303 l
273.794989 169.113994 l
273.924877 167.858827 l
274.184652 167.761035 l
274.31454 167.204077 l
275.743306 167.115064 l
275.873194 166.839689 l
276.522633 166.765155 l
276.65252 166.261366 l
277.496791 166.190944 l
277.626679 165.846142 l
277.756567 165.846142 l
277.886454 164.573199 l
278.730725 164.499893 l
278.860613 164.389704 l
280.354323 164.257059 l
280.419266 164.250933 l
280.549154 163.632555 l
280.614098 163.632555 l
280.743986 162.317996 l
281.393425 162.307289 l
281.523313 161.859972 l
282.367583 161.838931 l
282.692303 161.491137 l
283.731405 161.380762 l
283.926237 161.273882 l
284.250956 161.2147 l
284.770508 160.865981 l
285.549834 160.815266 l
285.679722 160.602502 l
285.744666 160.602489 l
285.939498 157.974603 l
286.199273 157.929112 l
288.277478 157.430762 l
288.407366 154.176461 l
288.861973 154.080652 l
289.056805 154.031868 l
289.186693 153.758688 l
289.901075 153.664872 l
290.095907 153.624732 l
290.290739 152.971457 l
290.81029 152.929826 l
290.875234 152.833988 l
291.070066 152.010925 l
291.329841 151.931701 l
291.524673 151.8332 l
291.914336 151.760501 l
292.044224 146.359937 l
293.862653 146.012122 l
293.992541 145.199123 l
294.252317 145.1983 l
294.447148 145.077912 l
294.577036 145.021622 l
294.706924 144.799129 l
294.771868 144.798891 l
295.096587 143.905171 l
295.226475 142.81938 l
295.291419 142.584373 l
295.421307 141.930923 l
295.746026 141.928875 l
295.940858 141.274976 l
296.785129 141.264476 l
296.915016 140.581305 l
297.174792 140.472669 l
297.239736 140.469849 l
297.369624 140.320397 l
298.278838 140.174847 l
298.408726 139.942282 l
298.928277 139.845374 l
299.188053 139.704191 l
299.317941 138.147611 l
299.64266 138.142507 l
299.772548 137.136009 l
300.097267 137.018914 l
300.227155 136.858488 l
300.941538 136.837053 l
301.071426 136.014405 l
301.266258 136.006381 l
301.396145 135.807682 l
301.655921 131.511608 l
302.435248 131.327927 l
302.824911 131.31939 l
303.019743 130.184637 l
303.79907 130.015782 l
304.058845 129.842938 l
304.513453 129.829249 l
304.64334 128.947025 l
304.838172 128.893076 l
304.96806 127.337329 l
305.033004 127.335944 l
305.162891 125.611949 l
305.292779 125.426038 l
305.682443 125.378529 l
305.81233 125.180412 l
305.877274 125.180148 l
306.007162 124.561405 l
306.201994 124.532172 l
306.266938 124.449829 l
306.396826 123.530714 l
307.176152 123.472936 l
307.30604 123.012997 l
307.500872 122.999629 l
307.63076 122.864683 l
308.79975 122.6988 l
308.929638 121.107178 l
309.449189 121.028387 l
309.579077 120.72838 l
309.838852 120.719187 l
310.033684 120.60655 l
310.163572 120.596101 l
310.293459 120.111818 l
310.423347 120.04454 l
310.553235 116.376352 l
310.748067 116.310691 l
311.397506 116.212812 l
311.527393 114.882058 l
311.787169 114.851003 l
311.917057 114.683739 l
312.046945 114.0023 l
312.241776 113.940913 l
312.371664 110.123428 l
312.826271 109.796001 l
312.956159 109.749802 l
313.280879 108.932759 l
313.865374 108.827751 l
314.125149 108.683785 l
314.384925 108.683459 l
314.514813 108.440879 l
315.29414 108.385843 l
315.488971 108.083989 l
315.683803 107.8967 l
315.943579 107.294176 l
316.333242 107.275746 l
316.593018 103.535151 l
316.787849 103.477775 l
317.3074 103.429011 l
317.502232 103.340236 l
317.826952 103.286727 l
317.956839 102.053188 l
318.866054 101.983421 l
319.060886 101.753721 l
319.12583 101.750108 l
319.385605 96.666593 l
319.580437 96.567177 l
319.645381 96.525656 l
319.840212 95.664051 l
320.424707 95.563943 l
320.554595 94.499322 l
321.204034 94.443552 l
321.333922 93.503025 l
321.398866 93.502994 l
321.528754 93.370184 l
321.723585 93.362401 l
321.918417 93.150441 l
322.373024 93.125221 l
322.567856 89.259045 l
322.762688 89.150641 l
322.892576 89.04758 l
322.95752 89.004568 l
323.087407 88.803452 l
323.412127 88.730086 l
323.606958 88.624508 l
323.736846 88.562846 l
323.866734 88.134594 l
324.451229 88.028105 l
324.905836 86.672567 l
325.620219 86.470932 l
325.815051 86.150969 l
326.074827 86.111983 l
326.204714 85.654189 l
326.594378 85.608155 l
326.724266 84.98421 l
326.984041 84.929837 l
327.178873 84.758503 l
327.503592 84.712259 l
327.63348 84.37644 l
328.347863 84.331431 l
328.412807 84.260007 l
328.542695 82.973144 l
328.607639 82.972414 l
328.932358 81.785024 l
329.646741 81.624988 l
329.776629 81.411472 l
330.036404 81.408036 l
330.166292 81.195441 l
330.361124 81.188569 l
330.750787 80.534097 l
330.880675 80.533836 l
331.010563 80.357584 l
331.140451 80.326998 l
331.46517 78.963138 l
332.049665 78.949726 l
332.179553 78.753031 l
332.374385 78.711171 l
332.504272 78.545259 l
332.893936 78.425727 l
333.088768 78.185842 l
333.153711 78.058839 l
333.283599 77.070701 l
333.608319 77.051042 l
333.738207 76.407831 l
333.868094 76.38778 l
333.997982 76.172087 l
334.387646 76.070764 l
334.517533 74.439183 l
335.556636 74.327479 l
335.686523 73.394894 l
336.206075 73.392882 l
336.46585 72.775556 l
336.985401 72.681539 l
337.245177 70.869445 l
337.504953 70.862256 l
337.63484 69.697559 l
337.764728 69.688321 l
337.894616 67.950982 l
338.024504 67.744333 l
338.284279 67.71929 l
338.414167 65.524133 l
338.544055 65.434002 l
338.933718 65.252165 l
339.323382 65.202783 l
339.45327 64.990485 l
339.648101 63.426632 l
339.907877 62.972916 l
340.037765 62.97237 l
340.167652 62.563459 l
340.29754 62.562949 l
340.427428 62.167177 l
340.62226 62.16557 l
340.817091 61.958765 l
341.401586 61.947624 l
341.531474 61.010769 l
341.726306 60.931838 l
341.79125 60.931838 l
341.921138 60.761657 l
342.765408 60.749049 l
343.090128 60.289442 l
343.155072 60.28902 l
343.28496 58.514138 l
343.999342 58.491553 l
344.12923 56.610838 l
344.259118 56.386445 l
345.817772 56.309913 l
346.077547 56.185509 l
346.402267 56.174385 l
346.532154 56.060439 l
346.921818 56.03195 l
347.051706 55.893812 l
347.766088 55.846549 l
348.090808 53.943508 l
349.064966 53.933466 l
349.194854 53.669608 l
350.948339 53.573281 l
351.143171 53.510966 l
352.636881 53.405165 l
352.766769 52.935123 l
353.870815 52.824418 l
355.364525 52.7517 l
355.494412 52.486436 l
355.94902 52.458999 l
356.078907 52.00703 l
356.663402 52.004193 l
356.79329 51.579197 l
358.741607 51.395938 l
358.871495 51.234988 l
360.300261 51.184891 l
362.11869 51.170221 l
362.248578 51.024433 l
367.379146 50.840798 l
367.703865 50.807131 l
397.44817 50.707774 l
397.643002 50.402712 l
398.032665 50.29207 l
398.357385 50.247502 l
398.487273 50.112 l
398.487273 50.112 l
stroke
grestore
1.000 setlinewidth
0 setlinejoin
0 setlinecap
gsave
357.1 266.1 57.6 38.02 clipbox
/o {
gsave
newpath
translate
1.0 setlinewidth
0 setlinejoin
0 setlinecap
-3 -3 m
3 -3 l
3 3 l
-3 3 l
cl

gsave
1.000 0.498 0.055 setrgbcolor
fill
grestore
stroke
grestore
} bind def
73.8327 292.019 o
120.203 257.907 o
166.573 235.453 o
212.943 204.883 o
259.312 188.313 o
305.682 125.379 o
352.052 53.4315 o
398.422 50.126 o
grestore
0.800 setlinewidth
2 setlinecap
[] 0 setdash
0.000 setgray
gsave
57.6 38.016 m
57.6 304.128 l
stroke
grestore
gsave
414.72 38.016 m
414.72 304.128 l
stroke
grestore
gsave
57.6 38.016 m
414.72 38.016 l
stroke
grestore
gsave
57.6 304.128 m
414.72 304.128 l
stroke
grestore
1.000 setlinewidth
0 setlinecap
0.800 setgray
gsave
348.72 265.456125 m
407.72 265.456125 l
409.053333 265.456125 409.72 266.122792 409.72 267.456125 c
409.72 297.128 l
409.72 298.461333 409.053333 299.128 407.72 299.128 c
348.72 299.128 l
347.386667 299.128 346.72 298.461333 346.72 297.128 c
346.72 267.456125 l
346.72 266.122792 347.386667 265.456125 348.72 265.456125 c
cl
gsave
1.000 setgray
fill
grestore
stroke
grestore
1.500 setlinewidth
1 setlinejoin
2 setlinecap
[] 0 setdash
0.122 0.467 0.706 setrgbcolor
gsave
350.72 291.03425 m
370.72 291.03425 l
stroke
grestore
1.000 setlinewidth
0 setlinecap
gsave
/o {
gsave
newpath
translate
1.0 setlinewidth
1 setlinejoin
0 setlinecap
0 -3 m
0.795609 -3 1.55874 -2.683901 2.12132 -2.12132 c
2.683901 -1.55874 3 -0.795609 3 0 c
3 0.795609 2.683901 1.55874 2.12132 2.12132 c
1.55874 2.683901 0.795609 3 0 3 c
-0.795609 3 -1.55874 2.683901 -2.12132 2.12132 c
-2.683901 1.55874 -3 0.795609 -3 0 c
-3 -0.795609 -2.683901 -1.55874 -2.12132 -2.12132 c
-1.55874 -2.683901 -0.795609 -3 0 -3 c
cl

gsave
0.122 0.467 0.706 setrgbcolor
fill
grestore
stroke
grestore
} bind def
360.72 291.034 o
grestore
0.000 setgray
gsave
378.720000 287.534250 translate
0.000000 rotate
/DejaVuSans-Oblique findfont
10.0 scalefont
setfont
0.000000 0.578125 moveto
/A glyphshow

6.840820 0.578125 moveto
/B glyphshow

13.701172 0.578125 moveto
/C glyphshow


grestore
1.500 setlinewidth
2 setlinecap
1.000 0.498 0.055 setrgbcolor
gsave
350.72 275.03425 m
370.72 275.03425 l
stroke
grestore
1.000 setlinewidth
0 setlinejoin
0 setlinecap
gsave
/o {
gsave
newpath
translate
1.0 setlinewidth
0 setlinejoin
0 setlinecap
-3 -3 m
3 -3 l
3 3 l
-3 3 l
cl

gsave
1.000 0.498 0.055 setrgbcolor
fill
grestore
stroke
grestore
} bind def
360.72 275.034 o
grestore
0.000 setgray
gsave
378.720000 271.534250 translate
0.000000 rotate
/DejaVuSans-Oblique findfont
10.0 scalefont
setfont
0.000000 0.856250 moveto
/A glyphshow

6.840820 0.856250 moveto
/B glyphshow

13.701172 0.856250 moveto
/C glyphshow

/DejaVuSans-Oblique findfont
7.0 scalefont
setfont
21.403646 4.684375 moveto
/d glyphshow


grestore

end
showpage
