%!PS-Adobe-3.0 EPSF-3.0
%%Title: plots/Ackley1.eps
%%Creator: matplotlib version 2.2.2, http://matplotlib.org/
%%CreationDate: Sun Jul 29 16:24:46 2018
%%Orientation: portrait
%%BoundingBox: 75 223 536 568
%%EndComments
%%BeginProlog
/mpldict 9 dict def
mpldict begin
/m { moveto } bind def
/l { lineto } bind def
/r { rlineto } bind def
/c { curveto } bind def
/cl { closepath } bind def
/box {
m
1 index 0 r
0 exch r
neg 0 r
cl
} bind def
/clipbox {
box
clip
newpath
} bind def
%!PS-Adobe-3.0 Resource-Font
%%Title: DejaVu Sans
%%Copyright: Copyright (c) 2003 by Bitstream, Inc. All Rights Reserved. Copyright (c) 2006 by Tavmjong Bah. All Rights Reserved. DejaVu changes are in public domain 
%%Creator: Converted from TrueType to type 3 by PPR
25 dict begin
/_d{bind def}bind def
/_m{moveto}_d
/_l{lineto}_d
/_cl{closepath eofill}_d
/_c{curveto}_d
/_sc{7 -1 roll{setcachedevice}{pop pop pop pop pop pop}ifelse}_d
/_e{exec}_d
/FontName /DejaVuSans def
/PaintType 0 def
/FontMatrix[.001 0 0 .001 0 0]def
/FontBBox[-1021 -463 1793 1232]def
/FontType 3 def
/Encoding [ /parenleft /parenright /zero /one /two /three /four /five /six /eight /I /a /e /i /n /o /r /t /minus ] def
/FontInfo 10 dict dup begin
/FamilyName (DejaVu Sans) def
/FullName (DejaVu Sans) def
/Notice (Copyright (c) 2003 by Bitstream, Inc. All Rights Reserved. Copyright (c) 2006 by Tavmjong Bah. All Rights Reserved. DejaVu changes are in public domain ) def
/Weight (Book) def
/Version (Version 2.35) def
/ItalicAngle 0.0 def
/isFixedPitch false def
/UnderlinePosition -130 def
/UnderlineThickness 90 def
end readonly def
/CharStrings 20 dict dup begin
/.notdef 0 def
/parenleft{390 0 86 -131 310 759 _sc
310 759 _m
266 683 234 609 213 536 _c
191 463 181 389 181 314 _c
181 238 191 164 213 91 _c
234 17 266 -56 310 -131 _c
232 -131 _l
183 -54 146 20 122 94 _c
98 168 86 241 86 314 _c
86 386 98 459 122 533 _c
146 607 182 682 232 759 _c
310 759 _l
_cl}_d
/parenright{390 0 80 -131 304 759 _sc
80 759 _m
158 759 _l
206 682 243 607 267 533 _c
291 459 304 386 304 314 _c
304 241 291 168 267 94 _c
243 20 206 -54 158 -131 _c
80 -131 _l
123 -56 155 17 177 91 _c
198 164 209 238 209 314 _c
209 389 198 463 177 536 _c
155 609 123 683 80 759 _c
_cl}_d
/zero{636 0 66 -13 570 742 _sc
318 664 _m
267 664 229 639 203 589 _c
177 539 165 464 165 364 _c
165 264 177 189 203 139 _c
229 89 267 64 318 64 _c
369 64 407 89 433 139 _c
458 189 471 264 471 364 _c
471 464 458 539 433 589 _c
407 639 369 664 318 664 _c
318 742 _m
399 742 461 709 505 645 _c
548 580 570 486 570 364 _c
570 241 548 147 505 83 _c
461 19 399 -13 318 -13 _c
236 -13 173 19 130 83 _c
87 147 66 241 66 364 _c
66 486 87 580 130 645 _c
173 709 236 742 318 742 _c
_cl}_d
/one{636 0 110 0 544 729 _sc
124 83 _m
285 83 _l
285 639 _l
110 604 _l
110 694 _l
284 729 _l
383 729 _l
383 83 _l
544 83 _l
544 0 _l
124 0 _l
124 83 _l
_cl}_d
/two{{636 0 73 0 536 742 _sc
192 83 _m
536 83 _l
536 0 _l
73 0 _l
73 83 _l
110 121 161 173 226 239 _c
290 304 331 346 348 365 _c
380 400 402 430 414 455 _c
426 479 433 504 433 528 _c
433 566 419 598 392 622 _c
365 646 330 659 286 659 _c
255 659 222 653 188 643 _c
154 632 117 616 78 594 _c
78 694 _l
118 710 155 722 189 730 _c
223 738 255 742 284 742 _c
}_e{359 742 419 723 464 685 _c
509 647 532 597 532 534 _c
532 504 526 475 515 449 _c
504 422 484 390 454 354 _c
446 344 420 317 376 272 _c
332 227 271 164 192 83 _c
_cl}_e}_d
/three{{636 0 76 -13 556 742 _sc
406 393 _m
453 383 490 362 516 330 _c
542 298 556 258 556 212 _c
556 140 531 84 482 45 _c
432 6 362 -13 271 -13 _c
240 -13 208 -10 176 -4 _c
144 1 110 10 76 22 _c
76 117 _l
103 101 133 89 166 81 _c
198 73 232 69 268 69 _c
330 69 377 81 409 105 _c
441 129 458 165 458 212 _c
458 254 443 288 413 312 _c
383 336 341 349 287 349 _c
}_e{202 349 _l
202 430 _l
291 430 _l
339 430 376 439 402 459 _c
428 478 441 506 441 543 _c
441 580 427 609 401 629 _c
374 649 336 659 287 659 _c
260 659 231 656 200 650 _c
169 644 135 635 98 623 _c
98 711 _l
135 721 170 729 203 734 _c
235 739 266 742 296 742 _c
370 742 429 725 473 691 _c
517 657 539 611 539 553 _c
539 513 527 479 504 451 _c
481 423 448 403 406 393 _c
_cl}_e}_d
/four{636 0 49 0 580 729 _sc
378 643 _m
129 254 _l
378 254 _l
378 643 _l
352 729 _m
476 729 _l
476 254 _l
580 254 _l
580 172 _l
476 172 _l
476 0 _l
378 0 _l
378 172 _l
49 172 _l
49 267 _l
352 729 _l
_cl}_d
/five{{636 0 77 -13 549 729 _sc
108 729 _m
495 729 _l
495 646 _l
198 646 _l
198 467 _l
212 472 227 476 241 478 _c
255 480 270 482 284 482 _c
365 482 429 459 477 415 _c
525 370 549 310 549 234 _c
549 155 524 94 475 51 _c
426 8 357 -13 269 -13 _c
238 -13 207 -10 175 -6 _c
143 -1 111 6 77 17 _c
77 116 _l
106 100 136 88 168 80 _c
199 72 232 69 267 69 _c
}_e{323 69 368 83 401 113 _c
433 143 450 183 450 234 _c
450 284 433 324 401 354 _c
368 384 323 399 267 399 _c
241 399 214 396 188 390 _c
162 384 135 375 108 363 _c
108 729 _l
_cl}_e}_d
/six{{636 0 70 -13 573 742 _sc
330 404 _m
286 404 251 388 225 358 _c
199 328 186 286 186 234 _c
186 181 199 139 225 109 _c
251 79 286 64 330 64 _c
374 64 409 79 435 109 _c
461 139 474 181 474 234 _c
474 286 461 328 435 358 _c
409 388 374 404 330 404 _c
526 713 _m
526 623 _l
501 635 476 644 451 650 _c
425 656 400 659 376 659 _c
310 659 260 637 226 593 _c
}_e{192 549 172 482 168 394 _c
187 422 211 444 240 459 _c
269 474 301 482 336 482 _c
409 482 467 459 509 415 _c
551 371 573 310 573 234 _c
573 159 550 99 506 54 _c
462 9 403 -13 330 -13 _c
246 -13 181 19 137 83 _c
92 147 70 241 70 364 _c
70 479 97 571 152 639 _c
206 707 280 742 372 742 _c
396 742 421 739 447 735 _c
472 730 498 723 526 713 _c
_cl}_e}_d
/eight{{636 0 68 -13 568 742 _sc
318 346 _m
271 346 234 333 207 308 _c
180 283 167 249 167 205 _c
167 161 180 126 207 101 _c
234 76 271 64 318 64 _c
364 64 401 76 428 102 _c
455 127 469 161 469 205 _c
469 249 455 283 429 308 _c
402 333 365 346 318 346 _c
219 388 _m
177 398 144 418 120 447 _c
96 476 85 511 85 553 _c
85 611 105 657 147 691 _c
188 725 245 742 318 742 _c
}_e{390 742 447 725 489 691 _c
530 657 551 611 551 553 _c
551 511 539 476 515 447 _c
491 418 459 398 417 388 _c
464 377 501 355 528 323 _c
554 291 568 251 568 205 _c
568 134 546 80 503 43 _c
459 5 398 -13 318 -13 _c
237 -13 175 5 132 43 _c
89 80 68 134 68 205 _c
68 251 81 291 108 323 _c
134 355 171 377 219 388 _c
183 544 _m
183 506 194 476 218 455 _c
}_e{242 434 275 424 318 424 _c
360 424 393 434 417 455 _c
441 476 453 506 453 544 _c
453 582 441 611 417 632 _c
393 653 360 664 318 664 _c
275 664 242 653 218 632 _c
194 611 183 582 183 544 _c
_cl}_e}_d
/I{295 0 98 0 197 729 _sc
98 729 _m
197 729 _l
197 0 _l
98 0 _l
98 729 _l
_cl}_d
/a{{613 0 60 -13 522 560 _sc
343 275 _m
270 275 220 266 192 250 _c
164 233 150 205 150 165 _c
150 133 160 107 181 89 _c
202 70 231 61 267 61 _c
317 61 357 78 387 114 _c
417 149 432 196 432 255 _c
432 275 _l
343 275 _l
522 312 _m
522 0 _l
432 0 _l
432 83 _l
411 49 385 25 355 10 _c
325 -5 287 -13 243 -13 _c
187 -13 142 2 109 33 _c
76 64 60 106 60 159 _c
}_e{60 220 80 266 122 298 _c
163 329 224 345 306 345 _c
432 345 _l
432 354 _l
432 395 418 427 391 450 _c
364 472 326 484 277 484 _c
245 484 215 480 185 472 _c
155 464 127 453 100 439 _c
100 522 _l
132 534 164 544 195 550 _c
226 556 256 560 286 560 _c
365 560 424 539 463 498 _c
502 457 522 395 522 312 _c
_cl}_e}_d
/e{{615 0 55 -13 562 560 _sc
562 296 _m
562 252 _l
149 252 _l
153 190 171 142 205 110 _c
238 78 284 62 344 62 _c
378 62 412 66 444 74 _c
476 82 509 95 541 113 _c
541 28 _l
509 14 476 3 442 -3 _c
408 -9 373 -13 339 -13 _c
251 -13 182 12 131 62 _c
80 112 55 181 55 268 _c
55 357 79 428 127 481 _c
175 533 241 560 323 560 _c
397 560 455 536 498 489 _c
}_e{540 441 562 377 562 296 _c
472 322 _m
471 371 457 410 431 440 _c
404 469 368 484 324 484 _c
274 484 234 469 204 441 _c
174 413 156 373 152 322 _c
472 322 _l
_cl}_e}_d
/i{278 0 94 0 184 760 _sc
94 547 _m
184 547 _l
184 0 _l
94 0 _l
94 547 _l
94 760 _m
184 760 _l
184 646 _l
94 646 _l
94 760 _l
_cl}_d
/n{634 0 91 0 549 560 _sc
549 330 _m
549 0 _l
459 0 _l
459 327 _l
459 379 448 417 428 443 _c
408 469 378 482 338 482 _c
289 482 251 466 223 435 _c
195 404 181 362 181 309 _c
181 0 _l
91 0 _l
91 547 _l
181 547 _l
181 462 _l
202 494 227 519 257 535 _c
286 551 320 560 358 560 _c
420 560 468 540 500 501 _c
532 462 549 405 549 330 _c
_cl}_d
/o{612 0 55 -13 557 560 _sc
306 484 _m
258 484 220 465 192 427 _c
164 389 150 338 150 273 _c
150 207 163 156 191 118 _c
219 80 257 62 306 62 _c
354 62 392 80 420 118 _c
448 156 462 207 462 273 _c
462 337 448 389 420 427 _c
392 465 354 484 306 484 _c
306 560 _m
384 560 445 534 490 484 _c
534 433 557 363 557 273 _c
557 183 534 113 490 63 _c
445 12 384 -13 306 -13 _c
227 -13 165 12 121 63 _c
77 113 55 183 55 273 _c
55 363 77 433 121 484 _c
165 534 227 560 306 560 _c
_cl}_d
/r{411 0 91 0 411 560 _sc
411 463 _m
401 469 390 473 378 476 _c
366 478 353 480 339 480 _c
288 480 249 463 222 430 _c
194 397 181 350 181 288 _c
181 0 _l
91 0 _l
91 547 _l
181 547 _l
181 462 _l
199 495 224 520 254 536 _c
284 552 321 560 365 560 _c
371 560 378 559 386 559 _c
393 558 401 557 411 555 _c
411 463 _l
_cl}_d
/t{392 0 27 0 368 702 _sc
183 702 _m
183 547 _l
368 547 _l
368 477 _l
183 477 _l
183 180 _l
183 135 189 106 201 94 _c
213 81 238 75 276 75 _c
368 75 _l
368 0 _l
276 0 _l
206 0 158 13 132 39 _c
106 65 93 112 93 180 _c
93 477 _l
27 477 _l
27 547 _l
93 547 _l
93 702 _l
183 702 _l
_cl}_d
/minus{838 0 106 272 732 355 _sc
106 355 _m
732 355 _l
732 272 _l
106 272 _l
106 355 _l
_cl}_d
end readonly def

/BuildGlyph
 {exch begin
 CharStrings exch
 2 copy known not{pop /.notdef}if
 true 3 1 roll get exec
 end}_d

/BuildChar {
 1 index /Encoding get exch get
 1 index /BuildGlyph get exec
}_d

FontName currentdict end definefont pop
%!PS-Adobe-3.0 Resource-Font
%%Title: DejaVu Sans Oblique
%%Copyright: Copyright (c) 2003 by Bitstream, Inc. All Rights Reserved. Copyright (c) 2006 by Tavmjong Bah. All Rights Reserved. DejaVu changes are in public domain 
%%Creator: Converted from TrueType to type 3 by PPR
25 dict begin
/_d{bind def}bind def
/_m{moveto}_d
/_l{lineto}_d
/_cl{closepath eofill}_d
/_c{curveto}_d
/_sc{7 -1 roll{setcachedevice}{pop pop pop pop pop pop}ifelse}_d
/_e{exec}_d
/FontName /DejaVuSans-Oblique def
/PaintType 0 def
/FontMatrix[.001 0 0 .001 0 0]def
/FontBBox[-1016 -350 1659 1068]def
/FontType 3 def
/Encoding [ /A /B /C /X /b /d /e /f /g /l /o /s /t ] def
/FontInfo 10 dict dup begin
/FamilyName (DejaVu Sans) def
/FullName (DejaVu Sans Oblique) def
/Notice (Copyright (c) 2003 by Bitstream, Inc. All Rights Reserved. Copyright (c) 2006 by Tavmjong Bah. All Rights Reserved. DejaVu changes are in public domain ) def
/Weight (Oblique) def
/Version (Version 2.35) def
/ItalicAngle -11.0 def
/isFixedPitch false def
/UnderlinePosition -130 def
/UnderlineThickness 90 def
end readonly def
/CharStrings 14 dict dup begin
/.notdef 0 def
/A{684 0 -52 0 615 729 _sc
368 729 _m
480 729 _l
615 0 _l
512 0 _l
482 187 _l
154 187 _l
51 0 _l
-52 0 _l
368 729 _l
404 632 _m
199 269 _l
467 269 _l
404 632 _l
_cl}_d
/B{{686 0 27 0 625 729 _sc
169 729 _m
421 729 _l
489 729 540 716 574 691 _c
608 665 625 627 625 576 _c
625 529 610 489 581 455 _c
552 421 514 400 467 393 _c
507 383 537 366 557 340 _c
577 314 588 280 588 238 _c
588 164 560 106 506 64 _c
452 21 378 0 284 0 _c
27 0 _l
169 729 _l
193 348 _m
141 81 _l
300 81 _l
359 81 405 94 437 122 _c
469 149 486 188 486 238 _c
}_e{486 276 475 303 454 321 _c
432 339 398 348 351 348 _c
193 348 _l
251 648 _m
208 428 _l
355 428 _l
407 428 448 439 478 462 _c
507 485 522 517 522 557 _c
522 588 512 611 492 626 _c
472 640 440 648 397 648 _c
251 648 _l
_cl}_e}_d
/C{{698 0 42 -13 695 742 _sc
695 673 _m
675 569 _l
643 600 610 623 575 639 _c
540 654 502 662 462 662 _c
406 662 357 648 315 622 _c
273 595 236 554 206 500 _c
186 464 171 427 161 388 _c
151 349 146 310 146 270 _c
146 203 163 152 197 118 _c
231 83 281 66 347 66 _c
392 66 435 73 477 87 _c
519 101 559 123 599 153 _c
576 36 _l
537 19 498 7 458 -1 _c
}_e{418 -9 379 -13 340 -13 _c
246 -13 173 12 121 62 _c
68 112 42 183 42 274 _c
42 332 52 389 72 445 _c
92 501 120 552 158 598 _c
198 647 243 683 294 707 _c
345 730 404 742 472 742 _c
514 742 553 736 590 725 _c
627 713 662 696 695 673 _c
_cl}_e}_d
/X{685 0 -42 0 703 729 _sc
137 729 _m
237 729 _l
362 466 _l
588 729 _l
703 729 _l
403 381 _l
584 0 _l
485 0 _l
338 307 _l
72 0 _l
-42 0 _l
298 392 _l
137 729 _l
_cl}_d
/b{{635 0 36 -13 587 760 _sc
495 334 _m
495 381 484 418 462 445 _c
440 471 411 485 373 485 _c
345 485 319 478 295 464 _c
271 450 250 431 232 406 _c
213 378 198 347 187 311 _c
176 275 171 240 171 205 _c
171 160 181 125 203 99 _c
224 73 253 61 291 61 _c
319 61 345 67 369 81 _c
393 94 415 113 433 139 _c
451 165 466 196 478 232 _c
489 268 495 302 495 334 _c
216 464 _m
}_e{238 494 265 517 299 534 _c
332 551 367 560 404 560 _c
460 560 504 541 537 503 _c
570 465 587 414 587 350 _c
587 297 577 246 558 197 _c
538 147 511 103 475 65 _c
451 39 424 20 394 7 _c
363 -6 331 -13 298 -13 _c
262 -13 232 -5 206 11 _c
180 27 158 51 142 83 _c
126 0 _l
36 0 _l
184 760 _l
274 760 _l
216 464 _l
_cl}_e}_d
/d{{635 0 46 -13 639 760 _sc
418 82 _m
394 50 365 27 332 11 _c
299 -5 263 -13 223 -13 _c
168 -13 125 5 93 42 _c
61 79 46 130 46 195 _c
46 249 55 300 75 349 _c
94 398 122 442 158 481 _c
182 507 209 526 239 540 _c
269 553 301 560 335 560 _c
370 560 401 551 428 534 _c
454 517 475 493 490 462 _c
549 760 _l
639 760 _l
491 0 _l
401 0 _l
418 82 _l
139 211 _m
}_e{139 163 149 126 171 100 _c
192 74 222 61 260 61 _c
288 61 314 67 338 81 _c
362 95 383 115 401 141 _c
420 168 435 200 446 236 _c
457 272 463 307 463 342 _c
463 387 452 422 431 448 _c
409 473 380 486 343 486 _c
314 486 287 479 263 466 _c
239 452 218 433 201 408 _c
182 381 167 350 156 314 _c
144 278 139 243 139 211 _c
_cl}_e}_d
/e{{615 0 46 -13 571 560 _sc
481 322 _m
481 327 482 332 483 338 _c
483 344 484 349 484 355 _c
484 395 472 426 449 449 _c
425 472 394 484 354 484 _c
309 484 270 469 236 441 _c
202 413 176 373 158 322 _c
481 322 _l
559 252 _m
141 252 _l
139 239 137 229 137 222 _c
136 215 136 209 136 204 _c
136 158 150 123 178 99 _c
206 74 245 62 296 62 _c
334 62 371 66 406 75 _c
}_e{441 83 474 96 504 114 _c
487 25 _l
454 11 420 2 386 -4 _c
352 -10 317 -13 282 -13 _c
206 -13 147 5 107 41 _c
66 77 46 128 46 195 _c
46 251 56 304 76 353 _c
96 402 126 446 166 485 _c
191 509 221 527 256 540 _c
291 553 328 560 368 560 _c
430 560 479 541 516 504 _c
552 467 571 417 571 355 _c
571 340 570 324 568 307 _c
566 289 563 271 559 252 _c
_cl}_e}_d
/f{352 0 68 0 478 760 _sc
478 760 _m
464 685 _l
378 685 _l
345 685 321 678 307 665 _c
292 652 281 629 274 595 _c
264 547 _l
412 547 _l
399 477 _l
251 477 _l
158 0 _l
68 0 _l
161 477 _l
75 477 _l
88 547 _l
174 547 _l
181 585 _l
193 649 215 695 246 721 _c
277 747 326 760 393 760 _c
478 760 _l
_cl}_d
/g{{635 0 32 -207 596 560 _sc
596 547 _m
503 68 _l
485 -24 450 -92 400 -138 _c
349 -184 281 -207 196 -207 _c
164 -207 134 -204 107 -200 _c
80 -195 55 -188 32 -178 _c
49 -91 _l
71 -105 94 -115 119 -122 _c
143 -129 170 -133 198 -133 _c
255 -133 302 -117 339 -86 _c
375 -55 399 -11 411 47 _c
419 88 _l
393 59 364 37 331 22 _c
298 7 262 0 224 0 _c
168 0 125 18 93 55 _c
}_e{61 91 46 142 46 206 _c
46 256 55 306 75 354 _c
94 402 121 445 156 483 _c
178 507 205 526 236 540 _c
267 553 299 560 333 560 _c
369 560 401 551 429 534 _c
456 517 476 493 490 462 _c
506 547 _l
596 547 _l
461 346 _m
461 390 450 425 429 449 _c
408 473 379 485 341 485 _c
317 485 294 480 273 471 _c
251 461 233 448 218 431 _c
193 403 174 370 160 332 _c
}_e{146 294 139 255 139 215 _c
139 169 149 135 170 111 _c
191 87 221 75 261 75 _c
318 75 366 100 404 152 _c
442 204 461 268 461 346 _c
_cl}_e}_d
/l{278 0 35 0 273 760 _sc
183 760 _m
273 760 _l
125 0 _l
35 0 _l
183 760 _l
_cl}_d
/o{{612 0 46 -13 566 560 _sc
254 -13 _m
190 -13 139 6 102 45 _c
64 84 46 138 46 207 _c
46 247 52 287 65 328 _c
77 369 94 404 115 432 _c
147 476 183 508 223 529 _c
263 549 308 560 358 560 _c
420 560 470 540 508 502 _c
546 463 566 412 566 350 _c
566 306 559 263 547 220 _c
534 177 517 142 497 114 _c
465 70 429 37 389 17 _c
349 -3 304 -13 254 -13 _c
139 210 _m
}_e{139 160 149 123 170 99 _c
190 74 222 62 264 62 _c
324 62 373 88 413 141 _c
453 193 473 260 473 341 _c
473 388 462 424 441 448 _c
420 472 389 484 348 484 _c
314 484 283 476 257 460 _c
231 444 207 420 187 388 _c
171 364 159 336 151 305 _c
143 274 139 242 139 210 _c
_cl}_e}_d
/s{{521 0 11 -13 500 560 _sc
500 531 _m
483 446 _l
459 458 433 468 407 475 _c
381 481 354 485 326 485 _c
278 485 241 477 214 461 _c
187 445 174 423 174 395 _c
174 363 205 338 269 321 _c
273 319 277 318 279 318 _c
308 309 _l
368 292 408 274 428 256 _c
448 238 458 213 458 182 _c
458 124 435 77 389 41 _c
343 5 282 -13 208 -13 _c
179 -13 149 -10 117 -5 _c
}_e{85 0 49 8 11 20 _c
29 113 _l
61 95 94 82 126 74 _c
158 65 188 61 218 61 _c
262 61 297 70 325 89 _c
352 108 366 132 366 161 _c
366 192 330 217 258 237 _c
249 239 _l
218 247 _l
172 259 138 274 117 294 _c
96 314 86 339 86 370 _c
86 428 107 475 151 509 _c
195 543 254 560 330 560 _c
360 560 389 557 417 552 _c
445 547 472 540 500 531 _c
_cl}_e}_d
/t{{392 0 64 0 423 702 _sc
423 547 _m
409 477 _l
230 477 _l
172 180 _l
170 169 168 160 167 152 _c
166 144 166 139 166 135 _c
166 114 172 99 185 89 _c
197 79 217 75 245 75 _c
336 75 _l
321 0 _l
235 0 _l
181 0 141 10 115 31 _c
89 52 76 84 76 126 _c
76 133 76 141 77 150 _c
78 159 80 169 82 180 _c
140 477 _l
64 477 _l
78 547 _l
153 547 _l
183 702 _l
}_e{273 702 _l
243 547 _l
423 547 _l
_cl}_e}_d
end readonly def

/BuildGlyph
 {exch begin
 CharStrings exch
 2 copy known not{pop /.notdef}if
 true 3 1 roll get exec
 end}_d

/BuildChar {
 1 index /Encoding get exch get
 1 index /BuildGlyph get exec
}_d

FontName currentdict end definefont pop
end
%%EndProlog
mpldict begin
75.6 223.2 translate
460.8 345.6 0 0 clipbox
gsave
0 0 m
460.8 0 l
460.8 345.6 l
0 345.6 l
cl
1.000 setgray
fill
grestore
gsave
57.6 38.016 m
414.72 38.016 l
414.72 304.128 l
57.6 304.128 l
cl
1.000 setgray
fill
grestore
0.800 setlinewidth
1 setlinejoin
0 setlinecap
[] 0 setdash
0.000 setgray
gsave
/o {
gsave
newpath
translate
0.8 setlinewidth
1 setlinejoin
0 setlinecap
0 0 m
0 -3.5 l

gsave
0.000 setgray
fill
grestore
stroke
grestore
} bind def
73.8327 38.016 o
grestore
/DejaVuSans findfont
10.000 scalefont
setfont
gsave
70.653040 23.422250 translate
0.000000 rotate
0.000000 0.000000 m /zero glyphshow
grestore
gsave
/o {
gsave
newpath
translate
0.8 setlinewidth
1 setlinejoin
0 setlinecap
0 0 m
0 -3.5 l

gsave
0.000 setgray
fill
grestore
stroke
grestore
} bind def
138.777 38.016 o
grestore
gsave
126.057875 23.422250 translate
0.000000 rotate
0.000000 0.000000 m /one glyphshow
6.362305 0.000000 m /zero glyphshow
12.724609 0.000000 m /zero glyphshow
19.086914 0.000000 m /zero glyphshow
grestore
gsave
/o {
gsave
newpath
translate
0.8 setlinewidth
1 setlinejoin
0 setlinecap
0 0 m
0 -3.5 l

gsave
0.000 setgray
fill
grestore
stroke
grestore
} bind def
203.721 38.016 o
grestore
gsave
191.001773 23.422250 translate
0.000000 rotate
0.000000 0.000000 m /two glyphshow
6.362305 0.000000 m /zero glyphshow
12.724609 0.000000 m /zero glyphshow
19.086914 0.000000 m /zero glyphshow
grestore
gsave
/o {
gsave
newpath
translate
0.8 setlinewidth
1 setlinejoin
0 setlinecap
0 0 m
0 -3.5 l

gsave
0.000 setgray
fill
grestore
stroke
grestore
} bind def
268.664 38.016 o
grestore
gsave
255.945671 23.422250 translate
0.000000 rotate
0.000000 0.000000 m /three glyphshow
6.362305 0.000000 m /zero glyphshow
12.724609 0.000000 m /zero glyphshow
19.086914 0.000000 m /zero glyphshow
grestore
gsave
/o {
gsave
newpath
translate
0.8 setlinewidth
1 setlinejoin
0 setlinecap
0 0 m
0 -3.5 l

gsave
0.000 setgray
fill
grestore
stroke
grestore
} bind def
333.608 38.016 o
grestore
gsave
320.889569 23.422250 translate
0.000000 rotate
0.000000 0.000000 m /four glyphshow
6.362305 0.000000 m /zero glyphshow
12.724609 0.000000 m /zero glyphshow
19.086914 0.000000 m /zero glyphshow
grestore
gsave
/o {
gsave
newpath
translate
0.8 setlinewidth
1 setlinejoin
0 setlinecap
0 0 m
0 -3.5 l

gsave
0.000 setgray
fill
grestore
stroke
grestore
} bind def
398.552 38.016 o
grestore
gsave
385.833467 23.422250 translate
0.000000 rotate
0.000000 0.000000 m /five glyphshow
6.362305 0.000000 m /zero glyphshow
12.724609 0.000000 m /zero glyphshow
19.086914 0.000000 m /zero glyphshow
grestore
/DejaVuSans findfont
14.000 scalefont
setfont
gsave
206.480312 6.703500 translate
0.000000 rotate
0.000000 0.000000 m /I glyphshow
4.128906 0.000000 m /t glyphshow
9.618164 0.000000 m /e glyphshow
18.231445 0.000000 m /r glyphshow
23.987305 0.000000 m /a glyphshow
32.566406 0.000000 m /t glyphshow
38.055664 0.000000 m /i glyphshow
41.945312 0.000000 m /o glyphshow
50.510742 0.000000 m /n glyphshow
grestore
gsave
/o {
gsave
newpath
translate
0.8 setlinewidth
1 setlinejoin
0 setlinecap
0 0 m
-3.5 0 l

gsave
0.000 setgray
fill
grestore
stroke
grestore
} bind def
57.6 66.7751 o
grestore
/DejaVuSans findfont
10.000 scalefont
setfont
gsave
29.506250 62.978184 translate
0.000000 rotate
0.000000 0.000000 m /minus glyphshow
8.378906 0.000000 m /one glyphshow
14.741211 0.000000 m /two glyphshow
grestore
gsave
/o {
gsave
newpath
translate
0.8 setlinewidth
1 setlinejoin
0 setlinecap
0 0 m
-3.5 0 l

gsave
0.000 setgray
fill
grestore
stroke
grestore
} bind def
57.6 100.603 o
grestore
gsave
29.506250 96.805835 translate
0.000000 rotate
0.000000 0.000000 m /minus glyphshow
8.378906 0.000000 m /one glyphshow
14.741211 0.000000 m /zero glyphshow
grestore
gsave
/o {
gsave
newpath
translate
0.8 setlinewidth
1 setlinejoin
0 setlinecap
0 0 m
-3.5 0 l

gsave
0.000 setgray
fill
grestore
stroke
grestore
} bind def
57.6 134.43 o
grestore
gsave
35.865625 130.633487 translate
0.000000 rotate
0.000000 0.000000 m /minus glyphshow
8.378906 0.000000 m /eight glyphshow
grestore
gsave
/o {
gsave
newpath
translate
0.8 setlinewidth
1 setlinejoin
0 setlinecap
0 0 m
-3.5 0 l

gsave
0.000 setgray
fill
grestore
stroke
grestore
} bind def
57.6 168.258 o
grestore
gsave
35.865625 164.461138 translate
0.000000 rotate
0.000000 0.000000 m /minus glyphshow
8.378906 0.000000 m /six glyphshow
grestore
gsave
/o {
gsave
newpath
translate
0.8 setlinewidth
1 setlinejoin
0 setlinecap
0 0 m
-3.5 0 l

gsave
0.000 setgray
fill
grestore
stroke
grestore
} bind def
57.6 202.086 o
grestore
gsave
35.865625 198.288789 translate
0.000000 rotate
0.000000 0.000000 m /minus glyphshow
8.378906 0.000000 m /four glyphshow
grestore
gsave
/o {
gsave
newpath
translate
0.8 setlinewidth
1 setlinejoin
0 setlinecap
0 0 m
-3.5 0 l

gsave
0.000 setgray
fill
grestore
stroke
grestore
} bind def
57.6 235.913 o
grestore
gsave
35.865625 232.116440 translate
0.000000 rotate
0.000000 0.000000 m /minus glyphshow
8.378906 0.000000 m /two glyphshow
grestore
gsave
/o {
gsave
newpath
translate
0.8 setlinewidth
1 setlinejoin
0 setlinecap
0 0 m
-3.5 0 l

gsave
0.000 setgray
fill
grestore
stroke
grestore
} bind def
57.6 269.741 o
grestore
gsave
44.240625 265.944092 translate
0.000000 rotate
0.000000 0.000000 m /zero glyphshow
grestore
gsave
/o {
gsave
newpath
translate
0.8 setlinewidth
1 setlinejoin
0 setlinecap
0 0 m
-3.5 0 l

gsave
0.000 setgray
fill
grestore
stroke
grestore
} bind def
57.6 303.569 o
grestore
gsave
44.240625 299.771743 translate
0.000000 rotate
0.000000 0.000000 m /two glyphshow
grestore
gsave
22.506250 133.572000 translate
90.000000 rotate
/DejaVuSans-Oblique findfont
14.0 scalefont
setfont
0.000000 0.359375 moveto
/l glyphshow

3.889648 0.359375 moveto
/o glyphshow

12.455078 0.359375 moveto
/g glyphshow

21.341797 0.359375 moveto
/f glyphshow

/DejaVuSans findfont
9.8 scalefont
setfont
26.270508 -1.937500 moveto
/two glyphshow

/DejaVuSans findfont
14.0 scalefont
setfont
32.888379 0.359375 moveto
/parenleft glyphshow

/DejaVuSans-Oblique findfont
14.0 scalefont
setfont
38.350293 0.359375 moveto
/X glyphshow

/DejaVuSans-Oblique findfont
9.8 scalefont
setfont
47.941113 -1.937500 moveto
/b glyphshow

54.161816 -1.937500 moveto
/e glyphshow

60.191113 -1.937500 moveto
/s glyphshow

65.296875 -1.937500 moveto
/t glyphshow

/DejaVuSans findfont
14.0 scalefont
setfont
69.522168 0.359375 moveto
/parenright glyphshow


grestore
1.500 setlinewidth
2 setlinecap
0.122 0.467 0.706 setrgbcolor
gsave
357.1 266.1 57.6 38.02 clipbox
73.832727 292.032 m
75.975876 291.494565 l
79.093183 290.118021 l
80.197229 289.43517 l
80.521949 289.158478 l
80.911612 288.843544 l
81.171388 288.677919 l
81.561051 288.314233 l
82.53521 287.638615 l
82.859929 287.360532 l
85.132966 285.256192 l
85.457685 284.845825 l
86.237012 284.041775 l
86.561731 283.634072 l
87.146226 283.020903 l
90.783085 279.394972 l
91.432524 278.860292 l
92.081963 278.045444 l
92.406682 277.822418 l
93.315897 276.998865 l
93.835448 276.551571 l
94.809606 275.727572 l
95.783765 274.687793 l
96.108484 274.39378 l
97.342418 273.12931 l
99.225791 270.938848 l
99.485567 270.658537 l
99.680399 270.485771 l
99.87523 270.187621 l
102.083323 267.028687 l
102.992537 265.379595 l
103.187369 265.298329 l
103.382201 264.800316 l
104.03164 263.478171 l
104.421303 262.73275 l
104.681079 262.383931 l
105.850069 259.041994 l
106.36962 258.335348 l
106.629396 257.24172 l
106.954115 256.834875 l
107.084003 256.752292 l
108.252993 254.88108 l
108.447825 253.673846 l
109.03232 252.085014 l
109.162208 251.501097 l
109.292096 251.277256 l
109.811647 250.251609 l
110.006478 249.602489 l
110.071422 249.512018 l
110.331198 248.682657 l
110.396142 248.600957 l
110.52603 248.172784 l
110.850749 247.708156 l
111.045581 247.201961 l
111.175469 247.014749 l
111.824908 246.10796 l
112.019739 245.399257 l
112.214571 244.718489 l
112.409403 244.315185 l
112.53929 243.537178 l
112.669178 243.28539 l
112.799066 242.961767 l
113.123785 242.581982 l
113.253673 242.030829 l
113.448505 241.891225 l
113.968056 240.766316 l
114.097944 240.480927 l
114.292776 240.219275 l
114.422663 240.088288 l
114.682439 239.40246 l
115.266934 238.706394 l
115.52671 237.853962 l
115.721541 237.476278 l
117.020419 234.202731 l
117.280195 233.737412 l
117.669858 233.136091 l
117.86469 232.166375 l
117.929634 232.108443 l
118.124466 231.727551 l
118.254353 231.607589 l
118.773905 229.676988 l
118.968736 229.408603 l
119.488287 228.968806 l
119.618175 228.755842 l
119.813007 227.845978 l
119.942895 227.730384 l
120.007839 227.614018 l
120.20267 227.054614 l
120.332558 226.936114 l
120.722222 226.216311 l
120.981997 225.756729 l
121.176829 224.870899 l
121.371661 224.52221 l
121.436604 224.511596 l
121.826268 223.575075 l
122.150987 223.3261 l
122.930314 221.969944 l
123.255034 221.326304 l
123.579753 221.011841 l
123.839529 220.672348 l
123.904473 220.621691 l
124.099304 219.698864 l
124.35908 219.318828 l
124.488968 219.093776 l
124.683799 218.354904 l
124.748743 218.323711 l
125.073463 217.785038 l
125.138407 217.770877 l
125.398182 217.240542 l
125.852789 216.914396 l
126.372341 216.150213 l
126.632116 215.442285 l
127.02178 215.260377 l
127.995938 213.618734 l
129.229872 211.919877 l
129.619536 211.272093 l
129.814367 211.055455 l
130.074143 210.385377 l
130.139087 210.379628 l
130.268975 209.709538 l
130.333918 209.685317 l
130.52875 208.758354 l
131.178189 208.193655 l
131.567852 207.405365 l
131.827628 206.642272 l
132.152348 206.52453 l
132.347179 206.13971 l
132.477067 205.979206 l
133.321338 202.856996 l
133.516169 202.682234 l
133.711001 202.039674 l
133.970777 201.836189 l
134.165608 201.477434 l
134.815047 200.895672 l
137.412803 196.857778 l
137.672579 196.730319 l
137.932354 196.522119 l
138.906513 193.138834 l
139.036401 192.970725 l
139.101345 192.875881 l
139.231232 191.86474 l
139.750784 191.347447 l
140.075503 190.735535 l
140.400223 190.531739 l
140.53011 190.212893 l
140.595054 190.197631 l
140.789886 189.930523 l
141.179549 189.705792 l
141.374381 189.414045 l
141.764044 189.153725 l
142.02382 188.793597 l
142.088764 188.789101 l
142.543371 188.126098 l
142.608315 188.105277 l
142.803147 187.835709 l
143.062922 187.408533 l
143.322698 186.986654 l
143.387642 186.974832 l
143.582474 186.713116 l
144.166969 185.428318 l
144.3618 185.123833 l
144.881352 184.545643 l
145.011239 183.900161 l
145.400903 183.483644 l
146.375061 180.889492 l
146.569893 180.48587 l
146.959556 179.79582 l
147.089444 179.717448 l
147.673939 178.062725 l
147.803827 177.851728 l
147.998659 177.486695 l
148.063603 177.471268 l
148.777985 175.79897 l
148.842929 175.738773 l
149.037761 175.144444 l
149.36248 174.68309 l
149.492368 174.619206 l
149.752144 174.167341 l
149.946976 173.974108 l
150.336639 172.780252 l
150.921134 172.03243 l
151.115966 171.644501 l
151.505629 171.186212 l
151.700461 170.837124 l
151.895293 170.130408 l
152.3499 169.667895 l
152.479788 169.416473 l
152.739563 168.769216 l
152.999339 168.607374 l
153.51889 167.446444 l
153.713722 166.633961 l
153.908553 166.327375 l
153.973497 166.251259 l
154.233273 165.540207 l
154.622936 165.058816 l
154.817768 164.190506 l
154.882712 164.149243 l
155.142487 163.471718 l
155.272375 163.364055 l
155.662039 162.274187 l
155.85687 161.936359 l
156.051702 161.456074 l
156.311478 161.125767 l
156.766085 160.494006 l
157.090804 159.615773 l
157.740243 158.811701 l
158.129907 157.695928 l
158.324738 157.594896 l
158.779346 156.82114 l
159.104065 156.520276 l
159.298897 156.23793 l
159.428785 155.67058 l
159.493729 155.632715 l
159.753504 155.049384 l
160.467887 153.976248 l
161.052382 152.50385 l
161.506989 151.83928 l
161.636877 151.795028 l
161.961597 151.298211 l
162.026541 151.27901 l
162.221372 150.894539 l
162.416204 150.764685 l
162.546092 150.69371 l
162.935755 149.966794 l
163.065643 149.917372 l
163.390362 149.278663 l
163.585194 149.137869 l
163.650138 149.098482 l
163.780026 148.905573 l
163.84497 148.889455 l
164.169689 148.261478 l
164.299577 148.008122 l
164.429465 147.651752 l
164.68924 147.433389 l
165.208792 146.353659 l
165.403623 146.186004 l
165.598455 145.903434 l
165.728343 145.845651 l
165.793287 145.580749 l
165.923174 144.637034 l
166.053062 144.50132 l
166.18295 142.81074 l
166.377782 142.323569 l
167.222052 140.254167 l
167.35194 140.076635 l
167.546772 139.625025 l
167.611716 139.610526 l
167.871491 139.113233 l
168.261155 138.799482 l
168.52093 137.53398 l
168.84565 137.116296 l
169.235313 136.761643 l
169.430145 136.170656 l
169.819808 135.707505 l
169.884752 135.667333 l
170.209472 134.789117 l
170.534191 134.180789 l
171.18363 133.421607 l
171.313518 133.048244 l
171.378462 132.984203 l
171.573294 131.859479 l
171.833069 131.128651 l
171.962957 131.061573 l
172.287676 129.172425 l
172.417564 128.578143 l
172.807228 127.799528 l
173.067003 127.464623 l
173.261835 127.066511 l
173.326779 127.032307 l
173.521611 126.512022 l
173.586554 126.503923 l
174.235993 125.067583 l
174.495769 123.824319 l
174.625657 123.656955 l
175.275096 122.484611 l
176.18431 121.157231 l
176.444086 119.834606 l
176.573974 119.613474 l
176.768805 119.093235 l
177.223413 118.5035 l
177.418244 117.820007 l
177.548132 117.696276 l
177.742964 117.384782 l
177.937796 117.057634 l
178.002739 117.029063 l
178.327459 116.424457 l
178.522291 116.043299 l
179.301617 114.605941 l
179.561393 113.671448 l
179.821169 112.925439 l
180.34072 111.431733 l
180.470608 111.29395 l
181.18499 110.40771 l
181.574654 109.331522 l
182.224093 107.616884 l
182.418925 107.423417 l
182.613756 106.774879 l
183.133307 105.724696 l
183.328139 104.98501 l
183.782746 104.312069 l
183.912634 103.916953 l
184.17241 103.666086 l
184.756905 102.221959 l
184.886793 102.057941 l
185.211512 100.720626 l
185.406344 100.564433 l
186.380502 98.393103 l
187.67938 96.594258 l
187.744324 96.549317 l
188.0041 95.879989 l
188.069044 95.759439 l
188.263875 94.961177 l
188.393763 94.586793 l
188.523651 94.031074 l
188.718483 93.58018 l
189.238034 92.747755 l
189.302978 92.737301 l
189.692641 91.518519 l
189.952417 91.402432 l
190.147248 90.548737 l
190.212192 90.506254 l
190.471968 89.98516 l
190.601856 89.757655 l
191.186351 88.446814 l
191.381182 88.302746 l
192.355341 87.421338 l
192.485229 87.378509 l
192.68006 87.034652 l
192.809948 86.92081 l
193.069724 86.434483 l
193.199612 86.289872 l
193.329499 86.052828 l
194.043882 84.486515 l
194.238714 84.221454 l
194.49849 83.352739 l
195.147928 82.388357 l
195.34276 82.216844 l
195.602536 81.243521 l
195.66748 81.169685 l
195.927255 80.414255 l
197.096245 77.454897 l
197.226133 77.370264 l
197.485909 76.806354 l
197.745684 76.674364 l
198.719843 75.240079 l
198.914675 75.008112 l
199.434226 74.527335 l
199.823889 73.298433 l
200.083665 72.920131 l
200.34344 72.382966 l
200.538272 72.187988 l
201.51243 70.452458 l
201.707262 70.061649 l
202.031982 69.539713 l
202.356701 69.298282 l
202.811308 68.763599 l
203.071084 68.557683 l
204.17513 66.588199 l
204.434906 66.37968 l
204.694681 65.855803 l
205.084345 65.559471 l
205.409064 65.015069 l
205.66884 64.677118 l
205.863672 64.533354 l
205.993559 63.926085 l
206.253335 63.663764 l
206.448167 63.221841 l
207.227493 62.243424 l
207.422325 62.072173 l
207.617157 61.856163 l
209.695362 60.406832 l
213.656939 58.847773 l
214.50121 58.667438 l
214.955817 58.599448 l
217.878293 58.432359 l
218.267956 58.401419 l
221.515151 58.347368 l
333.218655 58.314415 l
333.413487 58.191188 l
334.387646 58.08292 l
334.582477 58.029898 l
335.231916 57.920951 l
335.361804 57.703472 l
336.920458 57.510742 l
338.544055 57.161763 l
339.258438 57.076263 l
339.45327 56.930186 l
341.401586 56.674573 l
341.596418 56.593618 l
341.986082 56.566433 l
342.180913 56.409744 l
342.830352 56.330128 l
343.479791 56.005005 l
343.609679 55.842665 l
350.363844 55.25822 l
350.948339 55.177672 l
351.857554 55.075728 l
352.896656 55.016463 l
354.195534 54.906991 l
355.94902 54.801193 l
365.041165 54.53812 l
398.487273 54.53812 l
398.487273 54.53812 l
stroke
grestore
1.000 setlinewidth
0 setlinecap
gsave
357.1 266.1 57.6 38.02 clipbox
/o {
gsave
newpath
translate
1.0 setlinewidth
1 setlinejoin
0 setlinecap
0 -3 m
0.795609 -3 1.55874 -2.683901 2.12132 -2.12132 c
2.683901 -1.55874 3 -0.795609 3 0 c
3 0.795609 2.683901 1.55874 2.12132 2.12132 c
1.55874 2.683901 0.795609 3 0 3 c
-0.795609 3 -1.55874 2.683901 -2.12132 2.12132 c
-2.683901 1.55874 -3 0.795609 -3 0 c
-3 -0.795609 -2.683901 -1.55874 -2.12132 -2.12132 c
-1.55874 -2.683901 -0.795609 -3 0 -3 c
cl

gsave
0.122 0.467 0.706 setrgbcolor
fill
grestore
stroke
grestore
} bind def
73.8327 292.032 o
120.203 227.055 o
166.573 141.693 o
212.943 59.0776 o
259.312 58.3474 o
305.682 58.3474 o
352.052 55.0577 o
398.422 54.5381 o
grestore
1.500 setlinewidth
2 setlinecap
1.000 0.498 0.055 setrgbcolor
gsave
357.1 266.1 57.6 38.02 clipbox
73.832727 292.028211 m
76.04082 291.208829 l
77.924193 289.791215 l
79.158127 288.564077 l
79.482846 288.194731 l
80.457005 286.995021 l
82.470266 283.95922 l
83.184649 283.029466 l
83.834088 281.907983 l
84.288695 281.450401 l
85.392741 279.908876 l
85.847348 279.158822 l
89.159487 275.096577 l
89.354319 274.885497 l
89.614094 274.509351 l
90.068702 273.941441 l
92.081963 270.689126 l
92.861289 269.049975 l
92.926233 268.9834 l
93.121065 268.496651 l
93.380841 267.945187 l
94.354999 264.828065 l
95.264214 261.900989 l
95.329157 261.838008 l
95.588933 260.987892 l
95.718821 260.663499 l
96.108484 259.266804 l
96.36826 258.443357 l
96.563092 257.388068 l
96.628035 257.306466 l
97.342418 254.392891 l
97.797026 253.471831 l
98.836128 249.590924 l
100.394782 245.237554 l
100.589613 244.730605 l
100.979277 244.054033 l
101.303996 242.026124 l
101.563772 241.558191 l
101.693659 241.271283 l
102.018379 240.67295 l
102.148267 240.455982 l
102.343098 239.81773 l
102.797706 239.288859 l
102.927594 239.194697 l
103.122425 238.917335 l
103.252313 238.832325 l
103.382201 237.712269 l
103.512089 237.520047 l
103.641976 236.790523 l
103.836808 236.517767 l
104.096584 236.134046 l
104.551191 235.573442 l
104.810967 235.330406 l
105.460406 234.841159 l
106.109845 231.367999 l
106.36962 231.042927 l
106.889171 230.555445 l
106.954115 230.470518 l
107.084003 228.072221 l
107.798386 227.091217 l
107.993218 226.239368 l
108.252993 225.911295 l
108.382881 225.79904 l
108.512769 219.87783 l
108.642657 219.474042 l
109.097264 218.693674 l
109.292096 218.498327 l
109.551871 218.043701 l
109.681759 216.118915 l
109.811647 215.930169 l
110.590973 213.971341 l
110.915693 213.440578 l
111.3703 212.210961 l
111.630076 211.824426 l
111.889851 210.787057 l
112.149627 209.603807 l
112.53929 208.444602 l
113.643337 205.721099 l
113.903112 205.284565 l
114.097944 204.294097 l
114.292776 203.629748 l
114.552551 203.431883 l
115.20199 201.840876 l
115.266934 201.764651 l
115.396822 201.457708 l
115.591654 199.767099 l
115.656598 199.655371 l
115.851429 198.595449 l
116.176149 197.898554 l
117.799746 194.182051 l
118.059522 193.16397 l
118.773905 191.132506 l
118.838848 191.099886 l
119.098624 190.46357 l
119.228512 190.09817 l
119.423344 188.625331 l
120.52739 185.8376 l
121.176829 184.698694 l
121.306717 184.553319 l
121.501548 184.079573 l
121.761324 183.547148 l
122.150987 182.673416 l
122.345819 180.677001 l
122.670538 179.762945 l
122.800426 179.636566 l
123.774585 177.481863 l
123.969416 176.768688 l
124.099304 176.613882 l
124.229192 176.351608 l
124.748743 174.987652 l
125.20335 174.331144 l
126.112565 172.775883 l
126.372341 172.609742 l
126.567172 171.679284 l
127.216611 170.89415 l
127.346499 168.825397 l
127.995938 167.806815 l
128.19077 167.511865 l
128.255714 167.491215 l
128.515489 163.04265 l
128.645377 162.908316 l
128.840209 162.227285 l
129.03504 161.942909 l
129.164928 159.569481 l
129.684479 158.606176 l
129.879311 157.620538 l
130.204031 157.106439 l
130.593694 156.28332 l
130.723582 153.528304 l
130.788526 153.416822 l
130.983357 152.80594 l
131.113245 152.701572 l
131.502909 151.345545 l
131.827628 150.303093 l
132.02246 148.779217 l
133.19145 145.547498 l
133.905833 142.589334 l
134.035721 142.378007 l
134.230552 141.410538 l
134.620216 140.649017 l
135.139767 139.124884 l
135.984038 136.406902 l
136.113925 136.26299 l
136.438645 135.6569 l
137.672579 130.8078 l
137.867411 130.327818 l
138.19213 128.721601 l
138.776625 127.366976 l
139.166289 126.58588 l
139.231232 126.535993 l
139.426064 125.973756 l
139.620896 125.631544 l
139.945615 123.932402 l
140.075503 123.675087 l
140.270335 123.183458 l
140.659998 122.560275 l
140.789886 121.383119 l
141.374381 119.648559 l
141.634157 118.79584 l
141.764044 118.647885 l
142.02382 117.567254 l
142.153708 117.24742 l
142.413483 116.538243 l
142.543371 116.361192 l
142.738203 115.664101 l
142.933035 115.339106 l
143.127866 114.576836 l
143.452586 113.974711 l
143.647417 113.509114 l
143.907193 113.207738 l
144.037081 112.679119 l
144.556632 111.114989 l
144.751464 110.837036 l
144.946295 110.501926 l
145.141127 108.790682 l
145.660678 106.871875 l
146.050342 105.454764 l
146.18023 105.315274 l
146.375061 104.614792 l
146.634837 103.977068 l
146.829668 103.541421 l
147.089444 102.694397 l
147.154388 102.63808 l
147.803827 100.870145 l
148.258434 100.282751 l
148.777985 97.910876 l
149.817088 95.992201 l
150.141807 94.077279 l
150.336639 93.609137 l
150.466527 92.935522 l
150.726302 92.569988 l
150.791246 92.507516 l
150.986078 91.695856 l
151.310797 91.260799 l
151.375741 91.176158 l
151.570573 90.308176 l
151.635517 90.303045 l
151.765405 89.039192 l
152.414844 87.792296 l
152.544731 87.668133 l
152.674619 87.375666 l
152.869451 86.15341 l
153.064283 85.761932 l
153.259114 85.510336 l
153.324058 85.407878 l
153.583834 84.450137 l
153.778666 84.27437 l
154.103385 82.942128 l
154.233273 82.81055 l
154.493048 81.877964 l
154.752824 81.338863 l
154.947656 80.906512 l
155.142487 80.091573 l
155.402263 79.734685 l
156.051702 78.753427 l
156.18159 77.18487 l
156.766085 76.365095 l
156.960917 75.995818 l
157.675299 75.069284 l
157.935075 72.821113 l
158.324738 72.366163 l
158.389682 72.18174 l
158.584514 71.100953 l
158.84429 70.600287 l
158.974177 70.434719 l
159.233953 69.748085 l
159.883392 68.980541 l
160.078224 68.420465 l
160.273055 68.16233 l
160.402943 67.638055 l
160.597775 67.44718 l
160.792607 66.997397 l
161.247214 66.135519 l
161.442046 65.992929 l
162.091484 65.133493 l
162.546092 64.693767 l
162.740923 64.458615 l
162.805867 64.417721 l
162.935755 63.876689 l
163.455306 63.361884 l
163.585194 63.232839 l
163.84497 62.771449 l
164.169689 62.491636 l
164.429465 62.17833 l
166.962277 60.177235 l
167.806547 59.883098 l
168.975538 59.464589 l
169.365201 59.322014 l
170.404303 59.135385 l
172.092845 58.8937 l
174.365881 58.78299 l
179.17173 58.77834 l
234.568875 58.77834 l
234.763706 58.355583 l
234.958538 58.316066 l
235.348201 57.097731 l
236.192472 56.819701 l
236.32236 56.471548 l
236.712023 56.450295 l
236.906855 56.314968 l
237.686182 56.240885 l
237.816069 56.083731 l
239.309779 55.989158 l
239.439667 55.879564 l
239.504611 55.879564 l
239.634499 55.679021 l
239.699442 55.679021 l
239.82933 55.47528 l
240.413825 55.365085 l
241.32304 54.92273 l
241.972479 54.862213 l
242.232254 54.40437 l
249.570915 53.876911 l
250.934737 53.843601 l
251.064625 53.577836 l
252.49339 53.466862 l
253.532493 53.324929 l
255.285978 53.236457 l
255.545754 53.046107 l
257.429127 52.840263 l
258.792948 52.574571 l
259.572275 52.469204 l
260.221714 52.242511 l
260.806209 52.089969 l
261.065985 52.028054 l
261.455648 51.926316 l
262.299919 51.78308 l
263.079246 51.718512 l
263.274077 51.550418 l
264.248236 51.441794 l
266.521272 51.184817 l
266.781048 51.145483 l
267.105767 51.110342 l
271.132289 50.99943 l
271.97656 50.990484 l
352.9616 50.882276 l
355.689244 50.618709 l
355.94902 50.5525 l
361.144531 50.281531 l
366.015324 50.177283 l
367.054426 50.127117 l
398.487273 50.112 l
398.487273 50.112 l
stroke
grestore
1.000 setlinewidth
0 setlinejoin
0 setlinecap
gsave
357.1 266.1 57.6 38.02 clipbox
/o {
gsave
newpath
translate
1.0 setlinewidth
0 setlinejoin
0 setlinecap
-3 -3 m
3 -3 l
3 3 l
-3 3 l
cl

gsave
1.000 0.498 0.055 setrgbcolor
fill
grestore
stroke
grestore
} bind def
73.8327 292.028 o
120.203 186.379 o
166.573 60.3557 o
212.943 58.7783 o
259.312 52.5166 o
305.682 50.9185 o
352.052 50.905 o
398.422 50.112 o
grestore
0.800 setlinewidth
2 setlinecap
[] 0 setdash
0.000 setgray
gsave
57.6 38.016 m
57.6 304.128 l
stroke
grestore
gsave
414.72 38.016 m
414.72 304.128 l
stroke
grestore
gsave
57.6 38.016 m
414.72 38.016 l
stroke
grestore
gsave
57.6 304.128 m
414.72 304.128 l
stroke
grestore
1.000 setlinewidth
0 setlinecap
0.800 setgray
gsave
348.72 265.456125 m
407.72 265.456125 l
409.053333 265.456125 409.72 266.122792 409.72 267.456125 c
409.72 297.128 l
409.72 298.461333 409.053333 299.128 407.72 299.128 c
348.72 299.128 l
347.386667 299.128 346.72 298.461333 346.72 297.128 c
346.72 267.456125 l
346.72 266.122792 347.386667 265.456125 348.72 265.456125 c
cl
gsave
1.000 setgray
fill
grestore
stroke
grestore
1.500 setlinewidth
1 setlinejoin
2 setlinecap
[] 0 setdash
0.122 0.467 0.706 setrgbcolor
gsave
350.72 291.03425 m
370.72 291.03425 l
stroke
grestore
1.000 setlinewidth
0 setlinecap
gsave
/o {
gsave
newpath
translate
1.0 setlinewidth
1 setlinejoin
0 setlinecap
0 -3 m
0.795609 -3 1.55874 -2.683901 2.12132 -2.12132 c
2.683901 -1.55874 3 -0.795609 3 0 c
3 0.795609 2.683901 1.55874 2.12132 2.12132 c
1.55874 2.683901 0.795609 3 0 3 c
-0.795609 3 -1.55874 2.683901 -2.12132 2.12132 c
-2.683901 1.55874 -3 0.795609 -3 0 c
-3 -0.795609 -2.683901 -1.55874 -2.12132 -2.12132 c
-1.55874 -2.683901 -0.795609 -3 0 -3 c
cl

gsave
0.122 0.467 0.706 setrgbcolor
fill
grestore
stroke
grestore
} bind def
360.72 291.034 o
grestore
0.000 setgray
gsave
378.720000 287.534250 translate
0.000000 rotate
/DejaVuSans-Oblique findfont
10.0 scalefont
setfont
0.000000 0.578125 moveto
/A glyphshow

6.840820 0.578125 moveto
/B glyphshow

13.701172 0.578125 moveto
/C glyphshow


grestore
1.500 setlinewidth
2 setlinecap
1.000 0.498 0.055 setrgbcolor
gsave
350.72 275.03425 m
370.72 275.03425 l
stroke
grestore
1.000 setlinewidth
0 setlinejoin
0 setlinecap
gsave
/o {
gsave
newpath
translate
1.0 setlinewidth
0 setlinejoin
0 setlinecap
-3 -3 m
3 -3 l
3 3 l
-3 3 l
cl

gsave
1.000 0.498 0.055 setrgbcolor
fill
grestore
stroke
grestore
} bind def
360.72 275.034 o
grestore
0.000 setgray
gsave
378.720000 271.534250 translate
0.000000 rotate
/DejaVuSans-Oblique findfont
10.0 scalefont
setfont
0.000000 0.856250 moveto
/A glyphshow

6.840820 0.856250 moveto
/B glyphshow

13.701172 0.856250 moveto
/C glyphshow

/DejaVuSans-Oblique findfont
7.0 scalefont
setfont
21.403646 4.684375 moveto
/d glyphshow


grestore

end
showpage
