%!PS-Adobe-3.0 EPSF-3.0
%%Title: plots/Griewank1.eps
%%Creator: matplotlib version 2.2.2, http://matplotlib.org/
%%CreationDate: Sun Jul 29 16:32:20 2018
%%Orientation: portrait
%%BoundingBox: 75 223 536 568
%%EndComments
%%BeginProlog
/mpldict 9 dict def
mpldict begin
/m { moveto } bind def
/l { lineto } bind def
/r { rlineto } bind def
/c { curveto } bind def
/cl { closepath } bind def
/box {
m
1 index 0 r
0 exch r
neg 0 r
cl
} bind def
/clipbox {
box
clip
newpath
} bind def
%!PS-Adobe-3.0 Resource-Font
%%Title: DejaVu Sans
%%Copyright: Copyright (c) 2003 by Bitstream, Inc. All Rights Reserved. Copyright (c) 2006 by Tavmjong Bah. All Rights Reserved. DejaVu changes are in public domain 
%%Creator: Converted from TrueType to type 3 by PPR
25 dict begin
/_d{bind def}bind def
/_m{moveto}_d
/_l{lineto}_d
/_cl{closepath eofill}_d
/_c{curveto}_d
/_sc{7 -1 roll{setcachedevice}{pop pop pop pop pop pop}ifelse}_d
/_e{exec}_d
/FontName /DejaVuSans def
/PaintType 0 def
/FontMatrix[.001 0 0 .001 0 0]def
/FontBBox[-1021 -463 1793 1232]def
/FontType 3 def
/Encoding [ /parenleft /parenright /zero /one /two /three /four /five /six /eight /I /a /e /i /n /o /r /t /minus ] def
/FontInfo 10 dict dup begin
/FamilyName (DejaVu Sans) def
/FullName (DejaVu Sans) def
/Notice (Copyright (c) 2003 by Bitstream, Inc. All Rights Reserved. Copyright (c) 2006 by Tavmjong Bah. All Rights Reserved. DejaVu changes are in public domain ) def
/Weight (Book) def
/Version (Version 2.35) def
/ItalicAngle 0.0 def
/isFixedPitch false def
/UnderlinePosition -130 def
/UnderlineThickness 90 def
end readonly def
/CharStrings 20 dict dup begin
/.notdef 0 def
/parenleft{390 0 86 -131 310 759 _sc
310 759 _m
266 683 234 609 213 536 _c
191 463 181 389 181 314 _c
181 238 191 164 213 91 _c
234 17 266 -56 310 -131 _c
232 -131 _l
183 -54 146 20 122 94 _c
98 168 86 241 86 314 _c
86 386 98 459 122 533 _c
146 607 182 682 232 759 _c
310 759 _l
_cl}_d
/parenright{390 0 80 -131 304 759 _sc
80 759 _m
158 759 _l
206 682 243 607 267 533 _c
291 459 304 386 304 314 _c
304 241 291 168 267 94 _c
243 20 206 -54 158 -131 _c
80 -131 _l
123 -56 155 17 177 91 _c
198 164 209 238 209 314 _c
209 389 198 463 177 536 _c
155 609 123 683 80 759 _c
_cl}_d
/zero{636 0 66 -13 570 742 _sc
318 664 _m
267 664 229 639 203 589 _c
177 539 165 464 165 364 _c
165 264 177 189 203 139 _c
229 89 267 64 318 64 _c
369 64 407 89 433 139 _c
458 189 471 264 471 364 _c
471 464 458 539 433 589 _c
407 639 369 664 318 664 _c
318 742 _m
399 742 461 709 505 645 _c
548 580 570 486 570 364 _c
570 241 548 147 505 83 _c
461 19 399 -13 318 -13 _c
236 -13 173 19 130 83 _c
87 147 66 241 66 364 _c
66 486 87 580 130 645 _c
173 709 236 742 318 742 _c
_cl}_d
/one{636 0 110 0 544 729 _sc
124 83 _m
285 83 _l
285 639 _l
110 604 _l
110 694 _l
284 729 _l
383 729 _l
383 83 _l
544 83 _l
544 0 _l
124 0 _l
124 83 _l
_cl}_d
/two{{636 0 73 0 536 742 _sc
192 83 _m
536 83 _l
536 0 _l
73 0 _l
73 83 _l
110 121 161 173 226 239 _c
290 304 331 346 348 365 _c
380 400 402 430 414 455 _c
426 479 433 504 433 528 _c
433 566 419 598 392 622 _c
365 646 330 659 286 659 _c
255 659 222 653 188 643 _c
154 632 117 616 78 594 _c
78 694 _l
118 710 155 722 189 730 _c
223 738 255 742 284 742 _c
}_e{359 742 419 723 464 685 _c
509 647 532 597 532 534 _c
532 504 526 475 515 449 _c
504 422 484 390 454 354 _c
446 344 420 317 376 272 _c
332 227 271 164 192 83 _c
_cl}_e}_d
/three{{636 0 76 -13 556 742 _sc
406 393 _m
453 383 490 362 516 330 _c
542 298 556 258 556 212 _c
556 140 531 84 482 45 _c
432 6 362 -13 271 -13 _c
240 -13 208 -10 176 -4 _c
144 1 110 10 76 22 _c
76 117 _l
103 101 133 89 166 81 _c
198 73 232 69 268 69 _c
330 69 377 81 409 105 _c
441 129 458 165 458 212 _c
458 254 443 288 413 312 _c
383 336 341 349 287 349 _c
}_e{202 349 _l
202 430 _l
291 430 _l
339 430 376 439 402 459 _c
428 478 441 506 441 543 _c
441 580 427 609 401 629 _c
374 649 336 659 287 659 _c
260 659 231 656 200 650 _c
169 644 135 635 98 623 _c
98 711 _l
135 721 170 729 203 734 _c
235 739 266 742 296 742 _c
370 742 429 725 473 691 _c
517 657 539 611 539 553 _c
539 513 527 479 504 451 _c
481 423 448 403 406 393 _c
_cl}_e}_d
/four{636 0 49 0 580 729 _sc
378 643 _m
129 254 _l
378 254 _l
378 643 _l
352 729 _m
476 729 _l
476 254 _l
580 254 _l
580 172 _l
476 172 _l
476 0 _l
378 0 _l
378 172 _l
49 172 _l
49 267 _l
352 729 _l
_cl}_d
/five{{636 0 77 -13 549 729 _sc
108 729 _m
495 729 _l
495 646 _l
198 646 _l
198 467 _l
212 472 227 476 241 478 _c
255 480 270 482 284 482 _c
365 482 429 459 477 415 _c
525 370 549 310 549 234 _c
549 155 524 94 475 51 _c
426 8 357 -13 269 -13 _c
238 -13 207 -10 175 -6 _c
143 -1 111 6 77 17 _c
77 116 _l
106 100 136 88 168 80 _c
199 72 232 69 267 69 _c
}_e{323 69 368 83 401 113 _c
433 143 450 183 450 234 _c
450 284 433 324 401 354 _c
368 384 323 399 267 399 _c
241 399 214 396 188 390 _c
162 384 135 375 108 363 _c
108 729 _l
_cl}_e}_d
/six{{636 0 70 -13 573 742 _sc
330 404 _m
286 404 251 388 225 358 _c
199 328 186 286 186 234 _c
186 181 199 139 225 109 _c
251 79 286 64 330 64 _c
374 64 409 79 435 109 _c
461 139 474 181 474 234 _c
474 286 461 328 435 358 _c
409 388 374 404 330 404 _c
526 713 _m
526 623 _l
501 635 476 644 451 650 _c
425 656 400 659 376 659 _c
310 659 260 637 226 593 _c
}_e{192 549 172 482 168 394 _c
187 422 211 444 240 459 _c
269 474 301 482 336 482 _c
409 482 467 459 509 415 _c
551 371 573 310 573 234 _c
573 159 550 99 506 54 _c
462 9 403 -13 330 -13 _c
246 -13 181 19 137 83 _c
92 147 70 241 70 364 _c
70 479 97 571 152 639 _c
206 707 280 742 372 742 _c
396 742 421 739 447 735 _c
472 730 498 723 526 713 _c
_cl}_e}_d
/eight{{636 0 68 -13 568 742 _sc
318 346 _m
271 346 234 333 207 308 _c
180 283 167 249 167 205 _c
167 161 180 126 207 101 _c
234 76 271 64 318 64 _c
364 64 401 76 428 102 _c
455 127 469 161 469 205 _c
469 249 455 283 429 308 _c
402 333 365 346 318 346 _c
219 388 _m
177 398 144 418 120 447 _c
96 476 85 511 85 553 _c
85 611 105 657 147 691 _c
188 725 245 742 318 742 _c
}_e{390 742 447 725 489 691 _c
530 657 551 611 551 553 _c
551 511 539 476 515 447 _c
491 418 459 398 417 388 _c
464 377 501 355 528 323 _c
554 291 568 251 568 205 _c
568 134 546 80 503 43 _c
459 5 398 -13 318 -13 _c
237 -13 175 5 132 43 _c
89 80 68 134 68 205 _c
68 251 81 291 108 323 _c
134 355 171 377 219 388 _c
183 544 _m
183 506 194 476 218 455 _c
}_e{242 434 275 424 318 424 _c
360 424 393 434 417 455 _c
441 476 453 506 453 544 _c
453 582 441 611 417 632 _c
393 653 360 664 318 664 _c
275 664 242 653 218 632 _c
194 611 183 582 183 544 _c
_cl}_e}_d
/I{295 0 98 0 197 729 _sc
98 729 _m
197 729 _l
197 0 _l
98 0 _l
98 729 _l
_cl}_d
/a{{613 0 60 -13 522 560 _sc
343 275 _m
270 275 220 266 192 250 _c
164 233 150 205 150 165 _c
150 133 160 107 181 89 _c
202 70 231 61 267 61 _c
317 61 357 78 387 114 _c
417 149 432 196 432 255 _c
432 275 _l
343 275 _l
522 312 _m
522 0 _l
432 0 _l
432 83 _l
411 49 385 25 355 10 _c
325 -5 287 -13 243 -13 _c
187 -13 142 2 109 33 _c
76 64 60 106 60 159 _c
}_e{60 220 80 266 122 298 _c
163 329 224 345 306 345 _c
432 345 _l
432 354 _l
432 395 418 427 391 450 _c
364 472 326 484 277 484 _c
245 484 215 480 185 472 _c
155 464 127 453 100 439 _c
100 522 _l
132 534 164 544 195 550 _c
226 556 256 560 286 560 _c
365 560 424 539 463 498 _c
502 457 522 395 522 312 _c
_cl}_e}_d
/e{{615 0 55 -13 562 560 _sc
562 296 _m
562 252 _l
149 252 _l
153 190 171 142 205 110 _c
238 78 284 62 344 62 _c
378 62 412 66 444 74 _c
476 82 509 95 541 113 _c
541 28 _l
509 14 476 3 442 -3 _c
408 -9 373 -13 339 -13 _c
251 -13 182 12 131 62 _c
80 112 55 181 55 268 _c
55 357 79 428 127 481 _c
175 533 241 560 323 560 _c
397 560 455 536 498 489 _c
}_e{540 441 562 377 562 296 _c
472 322 _m
471 371 457 410 431 440 _c
404 469 368 484 324 484 _c
274 484 234 469 204 441 _c
174 413 156 373 152 322 _c
472 322 _l
_cl}_e}_d
/i{278 0 94 0 184 760 _sc
94 547 _m
184 547 _l
184 0 _l
94 0 _l
94 547 _l
94 760 _m
184 760 _l
184 646 _l
94 646 _l
94 760 _l
_cl}_d
/n{634 0 91 0 549 560 _sc
549 330 _m
549 0 _l
459 0 _l
459 327 _l
459 379 448 417 428 443 _c
408 469 378 482 338 482 _c
289 482 251 466 223 435 _c
195 404 181 362 181 309 _c
181 0 _l
91 0 _l
91 547 _l
181 547 _l
181 462 _l
202 494 227 519 257 535 _c
286 551 320 560 358 560 _c
420 560 468 540 500 501 _c
532 462 549 405 549 330 _c
_cl}_d
/o{612 0 55 -13 557 560 _sc
306 484 _m
258 484 220 465 192 427 _c
164 389 150 338 150 273 _c
150 207 163 156 191 118 _c
219 80 257 62 306 62 _c
354 62 392 80 420 118 _c
448 156 462 207 462 273 _c
462 337 448 389 420 427 _c
392 465 354 484 306 484 _c
306 560 _m
384 560 445 534 490 484 _c
534 433 557 363 557 273 _c
557 183 534 113 490 63 _c
445 12 384 -13 306 -13 _c
227 -13 165 12 121 63 _c
77 113 55 183 55 273 _c
55 363 77 433 121 484 _c
165 534 227 560 306 560 _c
_cl}_d
/r{411 0 91 0 411 560 _sc
411 463 _m
401 469 390 473 378 476 _c
366 478 353 480 339 480 _c
288 480 249 463 222 430 _c
194 397 181 350 181 288 _c
181 0 _l
91 0 _l
91 547 _l
181 547 _l
181 462 _l
199 495 224 520 254 536 _c
284 552 321 560 365 560 _c
371 560 378 559 386 559 _c
393 558 401 557 411 555 _c
411 463 _l
_cl}_d
/t{392 0 27 0 368 702 _sc
183 702 _m
183 547 _l
368 547 _l
368 477 _l
183 477 _l
183 180 _l
183 135 189 106 201 94 _c
213 81 238 75 276 75 _c
368 75 _l
368 0 _l
276 0 _l
206 0 158 13 132 39 _c
106 65 93 112 93 180 _c
93 477 _l
27 477 _l
27 547 _l
93 547 _l
93 702 _l
183 702 _l
_cl}_d
/minus{838 0 106 272 732 355 _sc
106 355 _m
732 355 _l
732 272 _l
106 272 _l
106 355 _l
_cl}_d
end readonly def

/BuildGlyph
 {exch begin
 CharStrings exch
 2 copy known not{pop /.notdef}if
 true 3 1 roll get exec
 end}_d

/BuildChar {
 1 index /Encoding get exch get
 1 index /BuildGlyph get exec
}_d

FontName currentdict end definefont pop
%!PS-Adobe-3.0 Resource-Font
%%Title: DejaVu Sans Oblique
%%Copyright: Copyright (c) 2003 by Bitstream, Inc. All Rights Reserved. Copyright (c) 2006 by Tavmjong Bah. All Rights Reserved. DejaVu changes are in public domain 
%%Creator: Converted from TrueType to type 3 by PPR
25 dict begin
/_d{bind def}bind def
/_m{moveto}_d
/_l{lineto}_d
/_cl{closepath eofill}_d
/_c{curveto}_d
/_sc{7 -1 roll{setcachedevice}{pop pop pop pop pop pop}ifelse}_d
/_e{exec}_d
/FontName /DejaVuSans-Oblique def
/PaintType 0 def
/FontMatrix[.001 0 0 .001 0 0]def
/FontBBox[-1016 -350 1659 1068]def
/FontType 3 def
/Encoding [ /A /B /C /X /b /d /e /f /g /l /o /s /t ] def
/FontInfo 10 dict dup begin
/FamilyName (DejaVu Sans) def
/FullName (DejaVu Sans Oblique) def
/Notice (Copyright (c) 2003 by Bitstream, Inc. All Rights Reserved. Copyright (c) 2006 by Tavmjong Bah. All Rights Reserved. DejaVu changes are in public domain ) def
/Weight (Oblique) def
/Version (Version 2.35) def
/ItalicAngle -11.0 def
/isFixedPitch false def
/UnderlinePosition -130 def
/UnderlineThickness 90 def
end readonly def
/CharStrings 14 dict dup begin
/.notdef 0 def
/A{684 0 -52 0 615 729 _sc
368 729 _m
480 729 _l
615 0 _l
512 0 _l
482 187 _l
154 187 _l
51 0 _l
-52 0 _l
368 729 _l
404 632 _m
199 269 _l
467 269 _l
404 632 _l
_cl}_d
/B{{686 0 27 0 625 729 _sc
169 729 _m
421 729 _l
489 729 540 716 574 691 _c
608 665 625 627 625 576 _c
625 529 610 489 581 455 _c
552 421 514 400 467 393 _c
507 383 537 366 557 340 _c
577 314 588 280 588 238 _c
588 164 560 106 506 64 _c
452 21 378 0 284 0 _c
27 0 _l
169 729 _l
193 348 _m
141 81 _l
300 81 _l
359 81 405 94 437 122 _c
469 149 486 188 486 238 _c
}_e{486 276 475 303 454 321 _c
432 339 398 348 351 348 _c
193 348 _l
251 648 _m
208 428 _l
355 428 _l
407 428 448 439 478 462 _c
507 485 522 517 522 557 _c
522 588 512 611 492 626 _c
472 640 440 648 397 648 _c
251 648 _l
_cl}_e}_d
/C{{698 0 42 -13 695 742 _sc
695 673 _m
675 569 _l
643 600 610 623 575 639 _c
540 654 502 662 462 662 _c
406 662 357 648 315 622 _c
273 595 236 554 206 500 _c
186 464 171 427 161 388 _c
151 349 146 310 146 270 _c
146 203 163 152 197 118 _c
231 83 281 66 347 66 _c
392 66 435 73 477 87 _c
519 101 559 123 599 153 _c
576 36 _l
537 19 498 7 458 -1 _c
}_e{418 -9 379 -13 340 -13 _c
246 -13 173 12 121 62 _c
68 112 42 183 42 274 _c
42 332 52 389 72 445 _c
92 501 120 552 158 598 _c
198 647 243 683 294 707 _c
345 730 404 742 472 742 _c
514 742 553 736 590 725 _c
627 713 662 696 695 673 _c
_cl}_e}_d
/X{685 0 -42 0 703 729 _sc
137 729 _m
237 729 _l
362 466 _l
588 729 _l
703 729 _l
403 381 _l
584 0 _l
485 0 _l
338 307 _l
72 0 _l
-42 0 _l
298 392 _l
137 729 _l
_cl}_d
/b{{635 0 36 -13 587 760 _sc
495 334 _m
495 381 484 418 462 445 _c
440 471 411 485 373 485 _c
345 485 319 478 295 464 _c
271 450 250 431 232 406 _c
213 378 198 347 187 311 _c
176 275 171 240 171 205 _c
171 160 181 125 203 99 _c
224 73 253 61 291 61 _c
319 61 345 67 369 81 _c
393 94 415 113 433 139 _c
451 165 466 196 478 232 _c
489 268 495 302 495 334 _c
216 464 _m
}_e{238 494 265 517 299 534 _c
332 551 367 560 404 560 _c
460 560 504 541 537 503 _c
570 465 587 414 587 350 _c
587 297 577 246 558 197 _c
538 147 511 103 475 65 _c
451 39 424 20 394 7 _c
363 -6 331 -13 298 -13 _c
262 -13 232 -5 206 11 _c
180 27 158 51 142 83 _c
126 0 _l
36 0 _l
184 760 _l
274 760 _l
216 464 _l
_cl}_e}_d
/d{{635 0 46 -13 639 760 _sc
418 82 _m
394 50 365 27 332 11 _c
299 -5 263 -13 223 -13 _c
168 -13 125 5 93 42 _c
61 79 46 130 46 195 _c
46 249 55 300 75 349 _c
94 398 122 442 158 481 _c
182 507 209 526 239 540 _c
269 553 301 560 335 560 _c
370 560 401 551 428 534 _c
454 517 475 493 490 462 _c
549 760 _l
639 760 _l
491 0 _l
401 0 _l
418 82 _l
139 211 _m
}_e{139 163 149 126 171 100 _c
192 74 222 61 260 61 _c
288 61 314 67 338 81 _c
362 95 383 115 401 141 _c
420 168 435 200 446 236 _c
457 272 463 307 463 342 _c
463 387 452 422 431 448 _c
409 473 380 486 343 486 _c
314 486 287 479 263 466 _c
239 452 218 433 201 408 _c
182 381 167 350 156 314 _c
144 278 139 243 139 211 _c
_cl}_e}_d
/e{{615 0 46 -13 571 560 _sc
481 322 _m
481 327 482 332 483 338 _c
483 344 484 349 484 355 _c
484 395 472 426 449 449 _c
425 472 394 484 354 484 _c
309 484 270 469 236 441 _c
202 413 176 373 158 322 _c
481 322 _l
559 252 _m
141 252 _l
139 239 137 229 137 222 _c
136 215 136 209 136 204 _c
136 158 150 123 178 99 _c
206 74 245 62 296 62 _c
334 62 371 66 406 75 _c
}_e{441 83 474 96 504 114 _c
487 25 _l
454 11 420 2 386 -4 _c
352 -10 317 -13 282 -13 _c
206 -13 147 5 107 41 _c
66 77 46 128 46 195 _c
46 251 56 304 76 353 _c
96 402 126 446 166 485 _c
191 509 221 527 256 540 _c
291 553 328 560 368 560 _c
430 560 479 541 516 504 _c
552 467 571 417 571 355 _c
571 340 570 324 568 307 _c
566 289 563 271 559 252 _c
_cl}_e}_d
/f{352 0 68 0 478 760 _sc
478 760 _m
464 685 _l
378 685 _l
345 685 321 678 307 665 _c
292 652 281 629 274 595 _c
264 547 _l
412 547 _l
399 477 _l
251 477 _l
158 0 _l
68 0 _l
161 477 _l
75 477 _l
88 547 _l
174 547 _l
181 585 _l
193 649 215 695 246 721 _c
277 747 326 760 393 760 _c
478 760 _l
_cl}_d
/g{{635 0 32 -207 596 560 _sc
596 547 _m
503 68 _l
485 -24 450 -92 400 -138 _c
349 -184 281 -207 196 -207 _c
164 -207 134 -204 107 -200 _c
80 -195 55 -188 32 -178 _c
49 -91 _l
71 -105 94 -115 119 -122 _c
143 -129 170 -133 198 -133 _c
255 -133 302 -117 339 -86 _c
375 -55 399 -11 411 47 _c
419 88 _l
393 59 364 37 331 22 _c
298 7 262 0 224 0 _c
168 0 125 18 93 55 _c
}_e{61 91 46 142 46 206 _c
46 256 55 306 75 354 _c
94 402 121 445 156 483 _c
178 507 205 526 236 540 _c
267 553 299 560 333 560 _c
369 560 401 551 429 534 _c
456 517 476 493 490 462 _c
506 547 _l
596 547 _l
461 346 _m
461 390 450 425 429 449 _c
408 473 379 485 341 485 _c
317 485 294 480 273 471 _c
251 461 233 448 218 431 _c
193 403 174 370 160 332 _c
}_e{146 294 139 255 139 215 _c
139 169 149 135 170 111 _c
191 87 221 75 261 75 _c
318 75 366 100 404 152 _c
442 204 461 268 461 346 _c
_cl}_e}_d
/l{278 0 35 0 273 760 _sc
183 760 _m
273 760 _l
125 0 _l
35 0 _l
183 760 _l
_cl}_d
/o{{612 0 46 -13 566 560 _sc
254 -13 _m
190 -13 139 6 102 45 _c
64 84 46 138 46 207 _c
46 247 52 287 65 328 _c
77 369 94 404 115 432 _c
147 476 183 508 223 529 _c
263 549 308 560 358 560 _c
420 560 470 540 508 502 _c
546 463 566 412 566 350 _c
566 306 559 263 547 220 _c
534 177 517 142 497 114 _c
465 70 429 37 389 17 _c
349 -3 304 -13 254 -13 _c
139 210 _m
}_e{139 160 149 123 170 99 _c
190 74 222 62 264 62 _c
324 62 373 88 413 141 _c
453 193 473 260 473 341 _c
473 388 462 424 441 448 _c
420 472 389 484 348 484 _c
314 484 283 476 257 460 _c
231 444 207 420 187 388 _c
171 364 159 336 151 305 _c
143 274 139 242 139 210 _c
_cl}_e}_d
/s{{521 0 11 -13 500 560 _sc
500 531 _m
483 446 _l
459 458 433 468 407 475 _c
381 481 354 485 326 485 _c
278 485 241 477 214 461 _c
187 445 174 423 174 395 _c
174 363 205 338 269 321 _c
273 319 277 318 279 318 _c
308 309 _l
368 292 408 274 428 256 _c
448 238 458 213 458 182 _c
458 124 435 77 389 41 _c
343 5 282 -13 208 -13 _c
179 -13 149 -10 117 -5 _c
}_e{85 0 49 8 11 20 _c
29 113 _l
61 95 94 82 126 74 _c
158 65 188 61 218 61 _c
262 61 297 70 325 89 _c
352 108 366 132 366 161 _c
366 192 330 217 258 237 _c
249 239 _l
218 247 _l
172 259 138 274 117 294 _c
96 314 86 339 86 370 _c
86 428 107 475 151 509 _c
195 543 254 560 330 560 _c
360 560 389 557 417 552 _c
445 547 472 540 500 531 _c
_cl}_e}_d
/t{{392 0 64 0 423 702 _sc
423 547 _m
409 477 _l
230 477 _l
172 180 _l
170 169 168 160 167 152 _c
166 144 166 139 166 135 _c
166 114 172 99 185 89 _c
197 79 217 75 245 75 _c
336 75 _l
321 0 _l
235 0 _l
181 0 141 10 115 31 _c
89 52 76 84 76 126 _c
76 133 76 141 77 150 _c
78 159 80 169 82 180 _c
140 477 _l
64 477 _l
78 547 _l
153 547 _l
183 702 _l
}_e{273 702 _l
243 547 _l
423 547 _l
_cl}_e}_d
end readonly def

/BuildGlyph
 {exch begin
 CharStrings exch
 2 copy known not{pop /.notdef}if
 true 3 1 roll get exec
 end}_d

/BuildChar {
 1 index /Encoding get exch get
 1 index /BuildGlyph get exec
}_d

FontName currentdict end definefont pop
end
%%EndProlog
mpldict begin
75.6 223.2 translate
460.8 345.6 0 0 clipbox
gsave
0 0 m
460.8 0 l
460.8 345.6 l
0 345.6 l
cl
1.000 setgray
fill
grestore
gsave
57.6 38.016 m
414.72 38.016 l
414.72 304.128 l
57.6 304.128 l
cl
1.000 setgray
fill
grestore
0.800 setlinewidth
1 setlinejoin
0 setlinecap
[] 0 setdash
0.000 setgray
gsave
/o {
gsave
newpath
translate
0.8 setlinewidth
1 setlinejoin
0 setlinecap
0 0 m
0 -3.5 l

gsave
0.000 setgray
fill
grestore
stroke
grestore
} bind def
73.8327 38.016 o
grestore
/DejaVuSans findfont
10.000 scalefont
setfont
gsave
70.653040 23.422250 translate
0.000000 rotate
0.000000 0.000000 m /zero glyphshow
grestore
gsave
/o {
gsave
newpath
translate
0.8 setlinewidth
1 setlinejoin
0 setlinecap
0 0 m
0 -3.5 l

gsave
0.000 setgray
fill
grestore
stroke
grestore
} bind def
138.777 38.016 o
grestore
gsave
126.057875 23.422250 translate
0.000000 rotate
0.000000 0.000000 m /one glyphshow
6.362305 0.000000 m /zero glyphshow
12.724609 0.000000 m /zero glyphshow
19.086914 0.000000 m /zero glyphshow
grestore
gsave
/o {
gsave
newpath
translate
0.8 setlinewidth
1 setlinejoin
0 setlinecap
0 0 m
0 -3.5 l

gsave
0.000 setgray
fill
grestore
stroke
grestore
} bind def
203.721 38.016 o
grestore
gsave
191.001773 23.422250 translate
0.000000 rotate
0.000000 0.000000 m /two glyphshow
6.362305 0.000000 m /zero glyphshow
12.724609 0.000000 m /zero glyphshow
19.086914 0.000000 m /zero glyphshow
grestore
gsave
/o {
gsave
newpath
translate
0.8 setlinewidth
1 setlinejoin
0 setlinecap
0 0 m
0 -3.5 l

gsave
0.000 setgray
fill
grestore
stroke
grestore
} bind def
268.664 38.016 o
grestore
gsave
255.945671 23.422250 translate
0.000000 rotate
0.000000 0.000000 m /three glyphshow
6.362305 0.000000 m /zero glyphshow
12.724609 0.000000 m /zero glyphshow
19.086914 0.000000 m /zero glyphshow
grestore
gsave
/o {
gsave
newpath
translate
0.8 setlinewidth
1 setlinejoin
0 setlinecap
0 0 m
0 -3.5 l

gsave
0.000 setgray
fill
grestore
stroke
grestore
} bind def
333.608 38.016 o
grestore
gsave
320.889569 23.422250 translate
0.000000 rotate
0.000000 0.000000 m /four glyphshow
6.362305 0.000000 m /zero glyphshow
12.724609 0.000000 m /zero glyphshow
19.086914 0.000000 m /zero glyphshow
grestore
gsave
/o {
gsave
newpath
translate
0.8 setlinewidth
1 setlinejoin
0 setlinecap
0 0 m
0 -3.5 l

gsave
0.000 setgray
fill
grestore
stroke
grestore
} bind def
398.552 38.016 o
grestore
gsave
385.833467 23.422250 translate
0.000000 rotate
0.000000 0.000000 m /five glyphshow
6.362305 0.000000 m /zero glyphshow
12.724609 0.000000 m /zero glyphshow
19.086914 0.000000 m /zero glyphshow
grestore
/DejaVuSans findfont
14.000 scalefont
setfont
gsave
206.480312 6.703500 translate
0.000000 rotate
0.000000 0.000000 m /I glyphshow
4.128906 0.000000 m /t glyphshow
9.618164 0.000000 m /e glyphshow
18.231445 0.000000 m /r glyphshow
23.987305 0.000000 m /a glyphshow
32.566406 0.000000 m /t glyphshow
38.055664 0.000000 m /i glyphshow
41.945312 0.000000 m /o glyphshow
50.510742 0.000000 m /n glyphshow
grestore
gsave
/o {
gsave
newpath
translate
0.8 setlinewidth
1 setlinejoin
0 setlinecap
0 0 m
-3.5 0 l

gsave
0.000 setgray
fill
grestore
stroke
grestore
} bind def
57.6 68.8634 o
grestore
/DejaVuSans findfont
10.000 scalefont
setfont
gsave
29.506250 65.066561 translate
0.000000 rotate
0.000000 0.000000 m /minus glyphshow
8.378906 0.000000 m /one glyphshow
14.741211 0.000000 m /zero glyphshow
grestore
gsave
/o {
gsave
newpath
translate
0.8 setlinewidth
1 setlinejoin
0 setlinecap
0 0 m
-3.5 0 l

gsave
0.000 setgray
fill
grestore
stroke
grestore
} bind def
57.6 103.691 o
grestore
gsave
35.865625 99.893879 translate
0.000000 rotate
0.000000 0.000000 m /minus glyphshow
8.378906 0.000000 m /eight glyphshow
grestore
gsave
/o {
gsave
newpath
translate
0.8 setlinewidth
1 setlinejoin
0 setlinecap
0 0 m
-3.5 0 l

gsave
0.000 setgray
fill
grestore
stroke
grestore
} bind def
57.6 138.518 o
grestore
gsave
35.865625 134.721196 translate
0.000000 rotate
0.000000 0.000000 m /minus glyphshow
8.378906 0.000000 m /six glyphshow
grestore
gsave
/o {
gsave
newpath
translate
0.8 setlinewidth
1 setlinejoin
0 setlinecap
0 0 m
-3.5 0 l

gsave
0.000 setgray
fill
grestore
stroke
grestore
} bind def
57.6 173.345 o
grestore
gsave
35.865625 169.548514 translate
0.000000 rotate
0.000000 0.000000 m /minus glyphshow
8.378906 0.000000 m /four glyphshow
grestore
gsave
/o {
gsave
newpath
translate
0.8 setlinewidth
1 setlinejoin
0 setlinecap
0 0 m
-3.5 0 l

gsave
0.000 setgray
fill
grestore
stroke
grestore
} bind def
57.6 208.173 o
grestore
gsave
35.865625 204.375831 translate
0.000000 rotate
0.000000 0.000000 m /minus glyphshow
8.378906 0.000000 m /two glyphshow
grestore
gsave
/o {
gsave
newpath
translate
0.8 setlinewidth
1 setlinejoin
0 setlinecap
0 0 m
-3.5 0 l

gsave
0.000 setgray
fill
grestore
stroke
grestore
} bind def
57.6 243 o
grestore
gsave
44.240625 239.203148 translate
0.000000 rotate
0.000000 0.000000 m /zero glyphshow
grestore
gsave
/o {
gsave
newpath
translate
0.8 setlinewidth
1 setlinejoin
0 setlinecap
0 0 m
-3.5 0 l

gsave
0.000 setgray
fill
grestore
stroke
grestore
} bind def
57.6 277.827 o
grestore
gsave
44.240625 274.030466 translate
0.000000 rotate
0.000000 0.000000 m /two glyphshow
grestore
gsave
22.506250 133.572000 translate
90.000000 rotate
/DejaVuSans-Oblique findfont
14.0 scalefont
setfont
0.000000 0.359375 moveto
/l glyphshow

3.889648 0.359375 moveto
/o glyphshow

12.455078 0.359375 moveto
/g glyphshow

21.341797 0.359375 moveto
/f glyphshow

/DejaVuSans findfont
9.8 scalefont
setfont
26.270508 -1.937500 moveto
/three glyphshow

/DejaVuSans findfont
14.0 scalefont
setfont
32.888379 0.359375 moveto
/parenleft glyphshow

/DejaVuSans-Oblique findfont
14.0 scalefont
setfont
38.350293 0.359375 moveto
/X glyphshow

/DejaVuSans-Oblique findfont
9.8 scalefont
setfont
47.941113 -1.937500 moveto
/b glyphshow

54.161816 -1.937500 moveto
/e glyphshow

60.191113 -1.937500 moveto
/s glyphshow

65.296875 -1.937500 moveto
/t glyphshow

/DejaVuSans findfont
14.0 scalefont
setfont
69.522168 0.359375 moveto
/parenright glyphshow


grestore
1.500 setlinewidth
2 setlinecap
0.122 0.467 0.706 setrgbcolor
gsave
357.1 266.1 57.6 38.02 clipbox
73.832727 291.852762 m
75.066661 287.986066 l
75.845988 285.102025 l
76.300595 283.514869 l
76.950034 280.915065 l
77.20981 279.91151 l
79.612734 268.754968 l
80.002398 266.06334 l
80.262173 264.883555 l
80.846668 262.235776 l
81.496107 258.942545 l
82.015658 255.427542 l
82.340378 254.136074 l
82.53521 253.237382 l
82.794985 251.770502 l
83.054761 250.644542 l
83.639256 249.156273 l
83.7042 249.108277 l
84.028919 248.438201 l
84.223751 248.082666 l
84.418583 247.317358 l
85.262853 245.117606 l
86.821507 243.123831 l
86.951395 243.0475 l
87.146226 242.749749 l
88.120385 241.896969 l
88.315216 241.628625 l
88.70488 241.213706 l
88.834768 241.076137 l
89.094543 240.831025 l
89.549151 240.308778 l
89.679038 240.185489 l
90.003758 239.789484 l
90.588253 239.03722 l
90.848029 238.484496 l
91.04286 238.248034 l
91.822187 236.741422 l
92.21185 235.827316 l
92.406682 235.25599 l
92.796345 234.819871 l
94.03028 232.928597 l
94.160167 232.83561 l
94.354999 232.305936 l
94.419943 232.255972 l
94.614775 231.962091 l
95.004438 231.495153 l
95.19927 231.199697 l
95.394101 231.085856 l
95.653877 230.948787 l
95.913653 230.697283 l
95.978596 230.681947 l
96.303316 230.17118 l
96.822867 229.817007 l
97.277474 228.884319 l
97.342418 228.862942 l
97.53725 227.914097 l
97.732082 227.80298 l
97.926913 227.567979 l
99.550511 226.156119 l
99.940174 225.466653 l
100.264894 225.337565 l
100.459725 225.190176 l
100.524669 225.169106 l
100.719501 224.671426 l
101.303996 223.956841 l
101.433884 223.785346 l
101.628716 223.723981 l
101.823547 223.324357 l
102.083323 223.078159 l
102.343098 222.896016 l
102.602874 222.416468 l
102.732762 222.351343 l
102.927594 222.191038 l
103.317257 221.94746 l
103.577032 221.68732 l
103.836808 221.455821 l
104.096584 220.933665 l
104.356359 220.844615 l
104.486247 220.613481 l
104.940854 220.283177 l
105.135686 220.082244 l
105.720181 219.85785 l
106.239732 219.586015 l
106.434564 219.497536 l
106.629396 219.291463 l
107.148947 218.663751 l
107.343779 218.555639 l
107.668498 218.398887 l
107.86333 218.18695 l
108.058161 218.037882 l
108.188049 217.952707 l
108.447825 217.656765 l
108.902432 217.39127 l
109.097264 217.291805 l
109.681759 217.125531 l
109.876591 216.85427 l
110.006478 216.763307 l
110.396142 216.505558 l
110.52603 216.269953 l
110.785805 216.175381 l
110.980637 215.878502 l
111.889851 214.962052 l
112.084683 214.895543 l
112.279515 214.392809 l
112.344459 214.390891 l
112.734122 213.832721 l
112.799066 213.805559 l
112.928954 213.58014 l
113.123785 213.543636 l
113.773224 212.611896 l
114.422663 212.350545 l
114.942215 211.997436 l
115.20199 211.964369 l
115.396822 211.681712 l
115.461766 211.664942 l
115.591654 211.050043 l
116.241093 210.847709 l
116.435924 210.73989 l
116.6957 210.415972 l
118.319297 210.172963 l
118.579073 210.124573 l
118.708961 210.072389 l
118.903792 210.00265 l
119.813007 209.966681 l
120.007839 209.738389 l
120.20267 209.688834 l
120.657278 209.587278 l
120.787165 208.834577 l
121.111885 208.804819 l
121.69638 208.715666 l
121.891212 208.414613 l
122.150987 208.400425 l
122.345819 207.590603 l
123.125146 207.474769 l
123.255034 207.231143 l
123.709641 207.205648 l
123.904473 207.199849 l
124.099304 206.92157 l
124.424024 206.816444 l
124.553912 206.622253 l
124.878631 206.612649 l
125.008519 206.3981 l
125.138407 206.386675 l
125.268294 206.011683 l
125.982677 205.906747 l
126.112565 205.72434 l
127.930994 205.657919 l
128.19077 205.610441 l
130.398862 205.407594 l
132.087404 205.387454 l
132.282235 205.285163 l
132.86673 205.237057 l
132.996618 204.932043 l
133.061562 204.923055 l
133.19145 204.788605 l
133.905833 204.776567 l
134.035721 204.658913 l
135.85415 204.65206 l
135.984038 204.480201 l
136.113925 204.471142 l
136.243813 204.178183 l
138.062242 204.154565 l
138.19213 203.88532 l
145.076183 203.769388 l
145.465847 203.681266 l
149.167649 203.640851 l
149.36248 203.214645 l
153.259114 203.1739 l
153.389002 202.846131 l
183.782746 202.775702 l
183.912634 202.606386 l
185.601176 202.419159 l
185.731063 202.299134 l
186.51039 202.193101 l
186.770166 202.092327 l
187.614436 202.006384 l
187.809268 201.943859 l
188.783427 201.765655 l
188.913314 201.546756 l
188.978258 201.537498 l
189.17309 201.239005 l
190.082304 201.138151 l
190.34208 201.037662 l
190.731743 201.013847 l
190.926575 200.916218 l
192.420285 200.790993 l
192.550173 200.517942 l
193.654219 200.405188 l
193.784107 199.704506 l
194.693321 199.554159 l
194.888153 199.3668 l
195.472648 199.262862 l
195.66748 199.162003 l
195.797367 197.79366 l
196.057143 197.579883 l
196.641638 197.469259 l
197.356021 196.903841 l
202.421645 196.620349 l
202.551533 196.290741 l
203.590635 196.191061 l
203.785467 196.107036 l
203.915355 195.428922 l
204.759625 195.360271 l
204.954457 195.298323 l
206.83783 195.180646 l
207.097606 195.147426 l
208.071764 195.094707 l
208.201652 193.89755 l
208.526371 193.894749 l
208.656259 193.650621 l
209.045923 193.602619 l
209.17581 193.189608 l
209.370642 193.181959 l
209.50053 192.426712 l
209.890193 192.422059 l
210.020081 191.859305 l
210.214913 191.831612 l
210.344801 190.390154 l
210.66952 190.389944 l
210.799408 189.429954 l
210.99424 189.429941 l
211.124127 189.292312 l
211.708622 189.269014 l
211.83851 189.022966 l
213.267276 188.998434 l
213.397164 188.819925 l
213.462108 188.818697 l
213.591995 188.207089 l
214.176491 188.111059 l
214.436266 188.06583 l
215.280537 188.048028 l
215.475369 187.448106 l
217.16391 187.355395 l
217.293798 187.063924 l
218.203012 187.052527 l
218.3329 181.154024 l
218.722563 181.153778 l
218.917395 180.961876 l
219.112227 180.935755 l
219.242115 180.761664 l
219.891554 180.655939 l
223.788187 180.237645 l
227.425046 180.122704 l
227.554934 178.738943 l
232.555614 178.722371 l
232.685501 178.549106 l
246.713383 178.486923 l
246.843271 177.751012 l
250.025522 177.748687 l
250.15541 171.35018 l
251.129568 171.350179 l
251.259456 165.653826 l
251.584176 165.653826 l
251.714064 155.591009 l
254.636539 155.567887 l
254.766427 121.355897 l
255.805529 121.355851 l
255.935417 115.748276 l
256.6498 115.748056 l
256.779688 111.814071 l
323.412127 111.801788 l
323.542015 111.315109 l
324.516173 111.211839 l
324.97078 111.194803 l
325.490332 111.181176 l
325.685163 101.551333 l
326.074827 101.496167 l
326.204714 93.988403 l
327.048985 93.982105 l
327.178873 93.271077 l
327.308761 93.088637 l
327.438648 93.087025 l
327.568536 92.829582 l
328.997302 92.707071 l
329.12719 92.467978 l
329.451909 92.320863 l
329.581797 91.544075 l
330.880675 91.493919 l
331.010563 90.930129 l
332.63416 90.841784 l
332.764048 89.686222 l
339.193494 89.588597 l
339.388326 89.537332 l
347.766088 89.438757 l
347.96092 89.381658 l
398.487273 89.381509 l
398.487273 89.381509 l
stroke
grestore
1.000 setlinewidth
0 setlinecap
gsave
357.1 266.1 57.6 38.02 clipbox
/o {
gsave
newpath
translate
1.0 setlinewidth
1 setlinejoin
0 setlinecap
0 -3 m
0.795609 -3 1.55874 -2.683901 2.12132 -2.12132 c
2.683901 -1.55874 3 -0.795609 3 0 c
3 0.795609 2.683901 1.55874 2.12132 2.12132 c
1.55874 2.683901 0.795609 3 0 3 c
-0.795609 3 -1.55874 2.683901 -2.12132 2.12132 c
-2.683901 1.55874 -3 0.795609 -3 0 c
-3 -0.795609 -2.683901 -1.55874 -2.12132 -2.12132 c
-1.55874 -2.683901 -0.795609 -3 0 -3 c
cl

gsave
0.122 0.467 0.706 setrgbcolor
fill
grestore
stroke
grestore
} bind def
73.8327 291.853 o
120.203 209.689 o
166.573 202.791 o
212.943 188.999 o
259.312 111.814 o
305.682 111.814 o
352.052 89.3815 o
398.422 89.3815 o
grestore
1.500 setlinewidth
2 setlinecap
1.000 0.498 0.055 setrgbcolor
gsave
357.1 266.1 57.6 38.02 clipbox
73.832727 292.032 m
74.417222 289.878522 l
76.300595 280.746282 l
77.144866 275.453096 l
77.339698 274.443064 l
77.599473 272.690348 l
77.794305 271.810587 l
79.807566 257.336736 l
79.937454 256.618586 l
80.392061 254.253388 l
80.651837 252.918051 l
81.366219 249.295277 l
82.989817 244.644913 l
83.184649 244.495369 l
83.769144 243.856018 l
85.457685 242.756109 l
85.847348 242.393524 l
86.107124 242.179572 l
86.3669 241.793013 l
86.626675 241.544725 l
87.53589 240.01804 l
87.730721 239.670787 l
88.315216 238.32966 l
88.769824 237.406095 l
89.029599 236.271478 l
89.419263 235.407752 l
89.549151 235.121795 l
90.393421 232.914181 l
90.523309 232.776247 l
91.107804 231.098581 l
91.172748 231.053905 l
91.432524 230.333499 l
91.562411 229.983332 l
91.757243 229.228946 l
91.952075 228.860429 l
92.017019 228.82808 l
93.186009 225.066414 l
93.315897 224.965279 l
93.640616 224.23536 l
93.835448 223.047641 l
94.03028 222.817831 l
94.744662 220.442533 l
94.809606 220.396878 l
95.004438 219.339688 l
95.19927 218.956152 l
95.394101 218.343583 l
95.588933 217.844539 l
95.718821 217.744452 l
95.978596 217.210532 l
96.822867 215.738416 l
96.952755 215.588423 l
97.147587 215.345631 l
97.472306 215.203182 l
97.53725 215.072427 l
97.667138 214.588472 l
97.797026 214.509006 l
97.991857 214.058982 l
98.186689 213.475254 l
98.446465 212.531463 l
98.576352 212.478676 l
98.836128 211.931501 l
98.966016 211.767672 l
99.095904 211.242555 l
99.550511 210.727677 l
99.745343 210.425814 l
100.264894 210.031307 l
100.459725 209.661454 l
100.589613 209.504466 l
100.784445 207.877931 l
100.979277 207.747397 l
101.303996 206.917232 l
101.498828 206.892982 l
101.693659 206.186713 l
101.823547 206.180698 l
101.953435 204.605316 l
102.732762 204.19914 l
103.317257 203.84426 l
103.512089 203.484094 l
103.577032 203.438012 l
103.70692 202.99422 l
103.836808 202.965472 l
104.226471 202.21729 l
104.421303 201.984498 l
104.486247 201.969916 l
104.681079 201.711763 l
105.005798 201.580271 l
106.36962 201.232805 l
106.499508 200.828585 l
107.019059 200.742251 l
107.084003 200.598128 l
107.213891 200.032144 l
107.733442 199.954464 l
107.86333 199.453548 l
108.188049 199.450623 l
108.317937 198.741299 l
108.642657 198.654079 l
108.837488 196.736318 l
109.616815 196.692298 l
109.811647 196.452739 l
111.110525 196.318176 l
111.240412 194.331945 l
111.889851 194.327799 l
112.019739 194.154505 l
112.604234 194.032314 l
112.928954 193.974413 l
113.058842 193.974052 l
113.188729 193.513173 l
113.838168 193.402735 l
113.968056 192.318382 l
115.721541 192.250937 l
115.851429 191.076872 l
116.500868 191.071167 l
116.630756 190.634246 l
116.6957 190.634234 l
116.825588 190.39386 l
117.410083 190.387962 l
117.539971 190.266221 l
119.163568 190.233741 l
119.293456 189.905169 l
119.423344 189.900912 l
119.553231 188.771967 l
157.415524 188.717148 l
157.545412 186.951237 l
157.740243 186.912708 l
157.870131 186.644279 l
158.194851 186.638037 l
158.324738 186.435426 l
159.233953 186.354784 l
159.428785 186.265702 l
160.597775 186.117034 l
160.727663 186.10758 l
160.85755 185.50683 l
161.312158 185.486682 l
161.442046 185.316783 l
161.701821 185.267222 l
161.896653 184.843525 l
162.091484 184.666811 l
162.156428 184.665432 l
162.286316 184.418027 l
162.416204 184.3424 l
162.611036 183.547101 l
162.67598 183.546959 l
162.805867 183.338322 l
163.260475 183.220868 l
163.390362 183.187955 l
163.52025 182.933747 l
163.909914 182.84867 l
164.039801 181.236309 l
164.104745 181.235679 l
164.299577 178.729272 l
164.364521 178.729215 l
164.429465 178.138265 l
164.559353 175.102085 l
164.819128 175.05366 l
164.949016 173.476194 l
165.078904 173.468372 l
165.208792 172.49902 l
165.338679 172.497961 l
165.468567 172.171937 l
165.663399 172.164389 l
165.793287 171.901816 l
165.988118 171.89476 l
166.118006 171.711403 l
166.50767 171.677106 l
166.637557 169.73667 l
166.897333 169.621638 l
167.286996 169.588819 l
167.416884 169.242694 l
167.936435 169.183534 l
168.066323 168.949124 l
168.391043 168.937056 l
168.650818 168.560758 l
168.780706 168.560232 l
168.910594 168.175693 l
169.754864 168.047958 l
169.884752 161.719609 l
170.01464 161.451943 l
170.729023 161.410001 l
170.858911 161.160235 l
170.988798 161.159604 l
171.18363 160.765985 l
171.638237 160.744918 l
171.768125 147.622602 l
172.35262 147.611848 l
172.482508 146.994384 l
172.67734 146.992694 l
172.742284 146.803278 l
172.872172 142.013697 l
172.937115 142.013642 l
173.067003 141.839842 l
173.261835 141.836459 l
173.391723 141.604768 l
173.84633 141.534618 l
173.976218 140.799322 l
174.430825 140.25598 l
174.755545 140.234014 l
174.885432 139.996301 l
175.664759 139.953931 l
175.794647 139.626494 l
176.18431 139.517678 l
177.028581 139.355481 l
178.132627 139.299262 l
178.262515 135.88945 l
180.730383 135.688602 l
180.860271 111.573598 l
181.055103 111.322713 l
181.18499 111.316378 l
181.314878 111.024857 l
181.899373 111.00384 l
182.029261 110.571562 l
182.353981 110.470676 l
182.613756 110.299193 l
186.055783 110.128674 l
187.289717 110.112082 l
188.133988 110.102176 l
188.263875 109.305282 l
188.393763 109.194361 l
190.926575 109.08602 l
193.069724 109.060974 l
231.191792 109.05022 l
231.32168 106.643422 l
231.451567 106.639065 l
231.516511 106.499663 l
231.646399 104.216338 l
231.776287 103.814045 l
231.906175 103.814045 l
231.971119 103.63119 l
232.101006 102.58443 l
232.230894 102.575459 l
232.425726 102.322463 l
232.815389 102.308165 l
233.075165 99.917318 l
233.205053 99.904065 l
233.33494 99.706899 l
234.179211 99.582189 l
234.503931 99.460966 l
234.633818 97.400078 l
234.82865 97.329094 l
236.127528 97.203118 l
236.32236 97.135964 l
236.971799 97.135416 l
237.101687 96.925693 l
238.075845 96.83219 l
238.205733 94.996498 l
238.270677 94.996498 l
238.400564 94.768202 l
238.530452 94.768202 l
238.66034 93.913198 l
239.504611 93.839222 l
239.569555 93.690478 l
239.699442 90.788424 l
240.673601 90.67917 l
240.803489 90.075249 l
240.933376 90.075169 l
240.99832 89.934427 l
241.128208 88.856147 l
241.777647 88.793365 l
241.907535 83.54732 l
242.946637 83.400814 l
243.271357 83.386911 l
243.401245 83.23495 l
244.050684 83.217257 l
244.180571 79.201924 l
244.765066 79.117521 l
244.894954 78.362269 l
245.804169 78.256024 l
245.999001 78.151138 l
246.128888 78.002175 l
246.518552 77.990461 l
246.64844 71.792754 l
247.362822 71.789541 l
247.427766 71.017466 l
247.557654 67.781013 l
248.726644 67.709635 l
248.921476 67.615875 l
249.246195 67.611406 l
249.376083 67.115652 l
249.765747 67.081707 l
249.895634 62.956649 l
250.804849 62.900319 l
251.064625 62.900304 l
251.194512 62.690705 l
252.558334 62.58359 l
252.753166 62.523217 l
253.467549 62.481505 l
253.597437 62.173152 l
306.072106 62.080211 l
306.396826 61.803575 l
307.111208 61.673428 l
307.241096 61.667448 l
307.370984 61.484663 l
307.695704 61.4791 l
307.825591 58.76309 l
307.955479 58.733757 l
308.085367 58.253642 l
308.410086 58.248117 l
308.539974 57.158159 l
309.124469 57.1048 l
309.254357 56.911016 l
309.514133 56.911002 l
309.64402 56.717655 l
310.553235 56.707763 l
310.683123 56.134786 l
311.007842 56.104834 l
311.13773 54.947629 l
311.332562 54.946979 l
311.46245 52.095961 l
311.592337 52.094158 l
311.722225 51.776559 l
313.670542 51.690307 l
313.930318 51.651113 l
317.177513 51.60497 l
317.3074 51.423614 l
322.892576 51.318839 l
323.022463 50.785281 l
325.425388 50.683154 l
325.750107 50.63411 l
326.334602 50.626782 l
326.46449 50.466269 l
378.549496 50.361338 l
379.133991 50.318407 l
379.263879 50.145266 l
398.487273 50.112 l
398.487273 50.112 l
stroke
grestore
1.000 setlinewidth
0 setlinejoin
0 setlinecap
gsave
357.1 266.1 57.6 38.02 clipbox
/o {
gsave
newpath
translate
1.0 setlinewidth
0 setlinejoin
0 setlinecap
-3 -3 m
3 -3 l
3 3 l
-3 3 l
cl

gsave
1.000 0.498 0.055 setrgbcolor
fill
grestore
stroke
grestore
} bind def
73.8327 292.032 o
120.203 188.769 o
166.573 170.082 o
212.943 109.05 o
259.312 62.0951 o
305.682 62.0802 o
352.052 50.3613 o
398.422 50.112 o
grestore
0.800 setlinewidth
2 setlinecap
[] 0 setdash
0.000 setgray
gsave
57.6 38.016 m
57.6 304.128 l
stroke
grestore
gsave
414.72 38.016 m
414.72 304.128 l
stroke
grestore
gsave
57.6 38.016 m
414.72 38.016 l
stroke
grestore
gsave
57.6 304.128 m
414.72 304.128 l
stroke
grestore
1.000 setlinewidth
0 setlinecap
0.800 setgray
gsave
348.72 265.456125 m
407.72 265.456125 l
409.053333 265.456125 409.72 266.122792 409.72 267.456125 c
409.72 297.128 l
409.72 298.461333 409.053333 299.128 407.72 299.128 c
348.72 299.128 l
347.386667 299.128 346.72 298.461333 346.72 297.128 c
346.72 267.456125 l
346.72 266.122792 347.386667 265.456125 348.72 265.456125 c
cl
gsave
1.000 setgray
fill
grestore
stroke
grestore
1.500 setlinewidth
1 setlinejoin
2 setlinecap
[] 0 setdash
0.122 0.467 0.706 setrgbcolor
gsave
350.72 291.03425 m
370.72 291.03425 l
stroke
grestore
1.000 setlinewidth
0 setlinecap
gsave
/o {
gsave
newpath
translate
1.0 setlinewidth
1 setlinejoin
0 setlinecap
0 -3 m
0.795609 -3 1.55874 -2.683901 2.12132 -2.12132 c
2.683901 -1.55874 3 -0.795609 3 0 c
3 0.795609 2.683901 1.55874 2.12132 2.12132 c
1.55874 2.683901 0.795609 3 0 3 c
-0.795609 3 -1.55874 2.683901 -2.12132 2.12132 c
-2.683901 1.55874 -3 0.795609 -3 0 c
-3 -0.795609 -2.683901 -1.55874 -2.12132 -2.12132 c
-1.55874 -2.683901 -0.795609 -3 0 -3 c
cl

gsave
0.122 0.467 0.706 setrgbcolor
fill
grestore
stroke
grestore
} bind def
360.72 291.034 o
grestore
0.000 setgray
gsave
378.720000 287.534250 translate
0.000000 rotate
/DejaVuSans-Oblique findfont
10.0 scalefont
setfont
0.000000 0.578125 moveto
/A glyphshow

6.840820 0.578125 moveto
/B glyphshow

13.701172 0.578125 moveto
/C glyphshow


grestore
1.500 setlinewidth
2 setlinecap
1.000 0.498 0.055 setrgbcolor
gsave
350.72 275.03425 m
370.72 275.03425 l
stroke
grestore
1.000 setlinewidth
0 setlinejoin
0 setlinecap
gsave
/o {
gsave
newpath
translate
1.0 setlinewidth
0 setlinejoin
0 setlinecap
-3 -3 m
3 -3 l
3 3 l
-3 3 l
cl

gsave
1.000 0.498 0.055 setrgbcolor
fill
grestore
stroke
grestore
} bind def
360.72 275.034 o
grestore
0.000 setgray
gsave
378.720000 271.534250 translate
0.000000 rotate
/DejaVuSans-Oblique findfont
10.0 scalefont
setfont
0.000000 0.856250 moveto
/A glyphshow

6.840820 0.856250 moveto
/B glyphshow

13.701172 0.856250 moveto
/C glyphshow

/DejaVuSans-Oblique findfont
7.0 scalefont
setfont
21.403646 4.684375 moveto
/d glyphshow


grestore

end
showpage
