%!PS-Adobe-3.0 EPSF-3.0
%%Title: plots/Griewank2.eps
%%Creator: matplotlib version 2.2.2, http://matplotlib.org/
%%CreationDate: Mon Jul 30 07:50:03 2018
%%Orientation: portrait
%%BoundingBox: 75 223 536 568
%%EndComments
%%BeginProlog
/mpldict 9 dict def
mpldict begin
/m { moveto } bind def
/l { lineto } bind def
/r { rlineto } bind def
/c { curveto } bind def
/cl { closepath } bind def
/box {
m
1 index 0 r
0 exch r
neg 0 r
cl
} bind def
/clipbox {
box
clip
newpath
} bind def
%!PS-Adobe-3.0 Resource-Font
%%Title: DejaVu Sans
%%Copyright: Copyright (c) 2003 by Bitstream, Inc. All Rights Reserved. Copyright (c) 2006 by Tavmjong Bah. All Rights Reserved. DejaVu changes are in public domain 
%%Creator: Converted from TrueType to type 3 by PPR
25 dict begin
/_d{bind def}bind def
/_m{moveto}_d
/_l{lineto}_d
/_cl{closepath eofill}_d
/_c{curveto}_d
/_sc{7 -1 roll{setcachedevice}{pop pop pop pop pop pop}ifelse}_d
/_e{exec}_d
/FontName /DejaVuSans def
/PaintType 0 def
/FontMatrix[.001 0 0 .001 0 0]def
/FontBBox[-1021 -463 1793 1232]def
/FontType 3 def
/Encoding [ /parenleft /parenright /zero /one /two /three /four /five /six /eight /I /a /e /i /n /o /r /t /minus ] def
/FontInfo 10 dict dup begin
/FamilyName (DejaVu Sans) def
/FullName (DejaVu Sans) def
/Notice (Copyright (c) 2003 by Bitstream, Inc. All Rights Reserved. Copyright (c) 2006 by Tavmjong Bah. All Rights Reserved. DejaVu changes are in public domain ) def
/Weight (Book) def
/Version (Version 2.35) def
/ItalicAngle 0.0 def
/isFixedPitch false def
/UnderlinePosition -130 def
/UnderlineThickness 90 def
end readonly def
/CharStrings 20 dict dup begin
/.notdef 0 def
/parenleft{390 0 86 -131 310 759 _sc
310 759 _m
266 683 234 609 213 536 _c
191 463 181 389 181 314 _c
181 238 191 164 213 91 _c
234 17 266 -56 310 -131 _c
232 -131 _l
183 -54 146 20 122 94 _c
98 168 86 241 86 314 _c
86 386 98 459 122 533 _c
146 607 182 682 232 759 _c
310 759 _l
_cl}_d
/parenright{390 0 80 -131 304 759 _sc
80 759 _m
158 759 _l
206 682 243 607 267 533 _c
291 459 304 386 304 314 _c
304 241 291 168 267 94 _c
243 20 206 -54 158 -131 _c
80 -131 _l
123 -56 155 17 177 91 _c
198 164 209 238 209 314 _c
209 389 198 463 177 536 _c
155 609 123 683 80 759 _c
_cl}_d
/zero{636 0 66 -13 570 742 _sc
318 664 _m
267 664 229 639 203 589 _c
177 539 165 464 165 364 _c
165 264 177 189 203 139 _c
229 89 267 64 318 64 _c
369 64 407 89 433 139 _c
458 189 471 264 471 364 _c
471 464 458 539 433 589 _c
407 639 369 664 318 664 _c
318 742 _m
399 742 461 709 505 645 _c
548 580 570 486 570 364 _c
570 241 548 147 505 83 _c
461 19 399 -13 318 -13 _c
236 -13 173 19 130 83 _c
87 147 66 241 66 364 _c
66 486 87 580 130 645 _c
173 709 236 742 318 742 _c
_cl}_d
/one{636 0 110 0 544 729 _sc
124 83 _m
285 83 _l
285 639 _l
110 604 _l
110 694 _l
284 729 _l
383 729 _l
383 83 _l
544 83 _l
544 0 _l
124 0 _l
124 83 _l
_cl}_d
/two{{636 0 73 0 536 742 _sc
192 83 _m
536 83 _l
536 0 _l
73 0 _l
73 83 _l
110 121 161 173 226 239 _c
290 304 331 346 348 365 _c
380 400 402 430 414 455 _c
426 479 433 504 433 528 _c
433 566 419 598 392 622 _c
365 646 330 659 286 659 _c
255 659 222 653 188 643 _c
154 632 117 616 78 594 _c
78 694 _l
118 710 155 722 189 730 _c
223 738 255 742 284 742 _c
}_e{359 742 419 723 464 685 _c
509 647 532 597 532 534 _c
532 504 526 475 515 449 _c
504 422 484 390 454 354 _c
446 344 420 317 376 272 _c
332 227 271 164 192 83 _c
_cl}_e}_d
/three{{636 0 76 -13 556 742 _sc
406 393 _m
453 383 490 362 516 330 _c
542 298 556 258 556 212 _c
556 140 531 84 482 45 _c
432 6 362 -13 271 -13 _c
240 -13 208 -10 176 -4 _c
144 1 110 10 76 22 _c
76 117 _l
103 101 133 89 166 81 _c
198 73 232 69 268 69 _c
330 69 377 81 409 105 _c
441 129 458 165 458 212 _c
458 254 443 288 413 312 _c
383 336 341 349 287 349 _c
}_e{202 349 _l
202 430 _l
291 430 _l
339 430 376 439 402 459 _c
428 478 441 506 441 543 _c
441 580 427 609 401 629 _c
374 649 336 659 287 659 _c
260 659 231 656 200 650 _c
169 644 135 635 98 623 _c
98 711 _l
135 721 170 729 203 734 _c
235 739 266 742 296 742 _c
370 742 429 725 473 691 _c
517 657 539 611 539 553 _c
539 513 527 479 504 451 _c
481 423 448 403 406 393 _c
_cl}_e}_d
/four{636 0 49 0 580 729 _sc
378 643 _m
129 254 _l
378 254 _l
378 643 _l
352 729 _m
476 729 _l
476 254 _l
580 254 _l
580 172 _l
476 172 _l
476 0 _l
378 0 _l
378 172 _l
49 172 _l
49 267 _l
352 729 _l
_cl}_d
/five{{636 0 77 -13 549 729 _sc
108 729 _m
495 729 _l
495 646 _l
198 646 _l
198 467 _l
212 472 227 476 241 478 _c
255 480 270 482 284 482 _c
365 482 429 459 477 415 _c
525 370 549 310 549 234 _c
549 155 524 94 475 51 _c
426 8 357 -13 269 -13 _c
238 -13 207 -10 175 -6 _c
143 -1 111 6 77 17 _c
77 116 _l
106 100 136 88 168 80 _c
199 72 232 69 267 69 _c
}_e{323 69 368 83 401 113 _c
433 143 450 183 450 234 _c
450 284 433 324 401 354 _c
368 384 323 399 267 399 _c
241 399 214 396 188 390 _c
162 384 135 375 108 363 _c
108 729 _l
_cl}_e}_d
/six{{636 0 70 -13 573 742 _sc
330 404 _m
286 404 251 388 225 358 _c
199 328 186 286 186 234 _c
186 181 199 139 225 109 _c
251 79 286 64 330 64 _c
374 64 409 79 435 109 _c
461 139 474 181 474 234 _c
474 286 461 328 435 358 _c
409 388 374 404 330 404 _c
526 713 _m
526 623 _l
501 635 476 644 451 650 _c
425 656 400 659 376 659 _c
310 659 260 637 226 593 _c
}_e{192 549 172 482 168 394 _c
187 422 211 444 240 459 _c
269 474 301 482 336 482 _c
409 482 467 459 509 415 _c
551 371 573 310 573 234 _c
573 159 550 99 506 54 _c
462 9 403 -13 330 -13 _c
246 -13 181 19 137 83 _c
92 147 70 241 70 364 _c
70 479 97 571 152 639 _c
206 707 280 742 372 742 _c
396 742 421 739 447 735 _c
472 730 498 723 526 713 _c
_cl}_e}_d
/eight{{636 0 68 -13 568 742 _sc
318 346 _m
271 346 234 333 207 308 _c
180 283 167 249 167 205 _c
167 161 180 126 207 101 _c
234 76 271 64 318 64 _c
364 64 401 76 428 102 _c
455 127 469 161 469 205 _c
469 249 455 283 429 308 _c
402 333 365 346 318 346 _c
219 388 _m
177 398 144 418 120 447 _c
96 476 85 511 85 553 _c
85 611 105 657 147 691 _c
188 725 245 742 318 742 _c
}_e{390 742 447 725 489 691 _c
530 657 551 611 551 553 _c
551 511 539 476 515 447 _c
491 418 459 398 417 388 _c
464 377 501 355 528 323 _c
554 291 568 251 568 205 _c
568 134 546 80 503 43 _c
459 5 398 -13 318 -13 _c
237 -13 175 5 132 43 _c
89 80 68 134 68 205 _c
68 251 81 291 108 323 _c
134 355 171 377 219 388 _c
183 544 _m
183 506 194 476 218 455 _c
}_e{242 434 275 424 318 424 _c
360 424 393 434 417 455 _c
441 476 453 506 453 544 _c
453 582 441 611 417 632 _c
393 653 360 664 318 664 _c
275 664 242 653 218 632 _c
194 611 183 582 183 544 _c
_cl}_e}_d
/I{295 0 98 0 197 729 _sc
98 729 _m
197 729 _l
197 0 _l
98 0 _l
98 729 _l
_cl}_d
/a{{613 0 60 -13 522 560 _sc
343 275 _m
270 275 220 266 192 250 _c
164 233 150 205 150 165 _c
150 133 160 107 181 89 _c
202 70 231 61 267 61 _c
317 61 357 78 387 114 _c
417 149 432 196 432 255 _c
432 275 _l
343 275 _l
522 312 _m
522 0 _l
432 0 _l
432 83 _l
411 49 385 25 355 10 _c
325 -5 287 -13 243 -13 _c
187 -13 142 2 109 33 _c
76 64 60 106 60 159 _c
}_e{60 220 80 266 122 298 _c
163 329 224 345 306 345 _c
432 345 _l
432 354 _l
432 395 418 427 391 450 _c
364 472 326 484 277 484 _c
245 484 215 480 185 472 _c
155 464 127 453 100 439 _c
100 522 _l
132 534 164 544 195 550 _c
226 556 256 560 286 560 _c
365 560 424 539 463 498 _c
502 457 522 395 522 312 _c
_cl}_e}_d
/e{{615 0 55 -13 562 560 _sc
562 296 _m
562 252 _l
149 252 _l
153 190 171 142 205 110 _c
238 78 284 62 344 62 _c
378 62 412 66 444 74 _c
476 82 509 95 541 113 _c
541 28 _l
509 14 476 3 442 -3 _c
408 -9 373 -13 339 -13 _c
251 -13 182 12 131 62 _c
80 112 55 181 55 268 _c
55 357 79 428 127 481 _c
175 533 241 560 323 560 _c
397 560 455 536 498 489 _c
}_e{540 441 562 377 562 296 _c
472 322 _m
471 371 457 410 431 440 _c
404 469 368 484 324 484 _c
274 484 234 469 204 441 _c
174 413 156 373 152 322 _c
472 322 _l
_cl}_e}_d
/i{278 0 94 0 184 760 _sc
94 547 _m
184 547 _l
184 0 _l
94 0 _l
94 547 _l
94 760 _m
184 760 _l
184 646 _l
94 646 _l
94 760 _l
_cl}_d
/n{634 0 91 0 549 560 _sc
549 330 _m
549 0 _l
459 0 _l
459 327 _l
459 379 448 417 428 443 _c
408 469 378 482 338 482 _c
289 482 251 466 223 435 _c
195 404 181 362 181 309 _c
181 0 _l
91 0 _l
91 547 _l
181 547 _l
181 462 _l
202 494 227 519 257 535 _c
286 551 320 560 358 560 _c
420 560 468 540 500 501 _c
532 462 549 405 549 330 _c
_cl}_d
/o{612 0 55 -13 557 560 _sc
306 484 _m
258 484 220 465 192 427 _c
164 389 150 338 150 273 _c
150 207 163 156 191 118 _c
219 80 257 62 306 62 _c
354 62 392 80 420 118 _c
448 156 462 207 462 273 _c
462 337 448 389 420 427 _c
392 465 354 484 306 484 _c
306 560 _m
384 560 445 534 490 484 _c
534 433 557 363 557 273 _c
557 183 534 113 490 63 _c
445 12 384 -13 306 -13 _c
227 -13 165 12 121 63 _c
77 113 55 183 55 273 _c
55 363 77 433 121 484 _c
165 534 227 560 306 560 _c
_cl}_d
/r{411 0 91 0 411 560 _sc
411 463 _m
401 469 390 473 378 476 _c
366 478 353 480 339 480 _c
288 480 249 463 222 430 _c
194 397 181 350 181 288 _c
181 0 _l
91 0 _l
91 547 _l
181 547 _l
181 462 _l
199 495 224 520 254 536 _c
284 552 321 560 365 560 _c
371 560 378 559 386 559 _c
393 558 401 557 411 555 _c
411 463 _l
_cl}_d
/t{392 0 27 0 368 702 _sc
183 702 _m
183 547 _l
368 547 _l
368 477 _l
183 477 _l
183 180 _l
183 135 189 106 201 94 _c
213 81 238 75 276 75 _c
368 75 _l
368 0 _l
276 0 _l
206 0 158 13 132 39 _c
106 65 93 112 93 180 _c
93 477 _l
27 477 _l
27 547 _l
93 547 _l
93 702 _l
183 702 _l
_cl}_d
/minus{838 0 106 272 732 355 _sc
106 355 _m
732 355 _l
732 272 _l
106 272 _l
106 355 _l
_cl}_d
end readonly def

/BuildGlyph
 {exch begin
 CharStrings exch
 2 copy known not{pop /.notdef}if
 true 3 1 roll get exec
 end}_d

/BuildChar {
 1 index /Encoding get exch get
 1 index /BuildGlyph get exec
}_d

FontName currentdict end definefont pop
%!PS-Adobe-3.0 Resource-Font
%%Title: DejaVu Sans Oblique
%%Copyright: Copyright (c) 2003 by Bitstream, Inc. All Rights Reserved. Copyright (c) 2006 by Tavmjong Bah. All Rights Reserved. DejaVu changes are in public domain 
%%Creator: Converted from TrueType to type 3 by PPR
25 dict begin
/_d{bind def}bind def
/_m{moveto}_d
/_l{lineto}_d
/_cl{closepath eofill}_d
/_c{curveto}_d
/_sc{7 -1 roll{setcachedevice}{pop pop pop pop pop pop}ifelse}_d
/_e{exec}_d
/FontName /DejaVuSans-Oblique def
/PaintType 0 def
/FontMatrix[.001 0 0 .001 0 0]def
/FontBBox[-1016 -350 1659 1068]def
/FontType 3 def
/Encoding [ /A /B /C /X /b /d /e /f /g /l /o /s /t ] def
/FontInfo 10 dict dup begin
/FamilyName (DejaVu Sans) def
/FullName (DejaVu Sans Oblique) def
/Notice (Copyright (c) 2003 by Bitstream, Inc. All Rights Reserved. Copyright (c) 2006 by Tavmjong Bah. All Rights Reserved. DejaVu changes are in public domain ) def
/Weight (Oblique) def
/Version (Version 2.35) def
/ItalicAngle -11.0 def
/isFixedPitch false def
/UnderlinePosition -130 def
/UnderlineThickness 90 def
end readonly def
/CharStrings 14 dict dup begin
/.notdef 0 def
/A{684 0 -52 0 615 729 _sc
368 729 _m
480 729 _l
615 0 _l
512 0 _l
482 187 _l
154 187 _l
51 0 _l
-52 0 _l
368 729 _l
404 632 _m
199 269 _l
467 269 _l
404 632 _l
_cl}_d
/B{{686 0 27 0 625 729 _sc
169 729 _m
421 729 _l
489 729 540 716 574 691 _c
608 665 625 627 625 576 _c
625 529 610 489 581 455 _c
552 421 514 400 467 393 _c
507 383 537 366 557 340 _c
577 314 588 280 588 238 _c
588 164 560 106 506 64 _c
452 21 378 0 284 0 _c
27 0 _l
169 729 _l
193 348 _m
141 81 _l
300 81 _l
359 81 405 94 437 122 _c
469 149 486 188 486 238 _c
}_e{486 276 475 303 454 321 _c
432 339 398 348 351 348 _c
193 348 _l
251 648 _m
208 428 _l
355 428 _l
407 428 448 439 478 462 _c
507 485 522 517 522 557 _c
522 588 512 611 492 626 _c
472 640 440 648 397 648 _c
251 648 _l
_cl}_e}_d
/C{{698 0 42 -13 695 742 _sc
695 673 _m
675 569 _l
643 600 610 623 575 639 _c
540 654 502 662 462 662 _c
406 662 357 648 315 622 _c
273 595 236 554 206 500 _c
186 464 171 427 161 388 _c
151 349 146 310 146 270 _c
146 203 163 152 197 118 _c
231 83 281 66 347 66 _c
392 66 435 73 477 87 _c
519 101 559 123 599 153 _c
576 36 _l
537 19 498 7 458 -1 _c
}_e{418 -9 379 -13 340 -13 _c
246 -13 173 12 121 62 _c
68 112 42 183 42 274 _c
42 332 52 389 72 445 _c
92 501 120 552 158 598 _c
198 647 243 683 294 707 _c
345 730 404 742 472 742 _c
514 742 553 736 590 725 _c
627 713 662 696 695 673 _c
_cl}_e}_d
/X{685 0 -42 0 703 729 _sc
137 729 _m
237 729 _l
362 466 _l
588 729 _l
703 729 _l
403 381 _l
584 0 _l
485 0 _l
338 307 _l
72 0 _l
-42 0 _l
298 392 _l
137 729 _l
_cl}_d
/b{{635 0 36 -13 587 760 _sc
495 334 _m
495 381 484 418 462 445 _c
440 471 411 485 373 485 _c
345 485 319 478 295 464 _c
271 450 250 431 232 406 _c
213 378 198 347 187 311 _c
176 275 171 240 171 205 _c
171 160 181 125 203 99 _c
224 73 253 61 291 61 _c
319 61 345 67 369 81 _c
393 94 415 113 433 139 _c
451 165 466 196 478 232 _c
489 268 495 302 495 334 _c
216 464 _m
}_e{238 494 265 517 299 534 _c
332 551 367 560 404 560 _c
460 560 504 541 537 503 _c
570 465 587 414 587 350 _c
587 297 577 246 558 197 _c
538 147 511 103 475 65 _c
451 39 424 20 394 7 _c
363 -6 331 -13 298 -13 _c
262 -13 232 -5 206 11 _c
180 27 158 51 142 83 _c
126 0 _l
36 0 _l
184 760 _l
274 760 _l
216 464 _l
_cl}_e}_d
/d{{635 0 46 -13 639 760 _sc
418 82 _m
394 50 365 27 332 11 _c
299 -5 263 -13 223 -13 _c
168 -13 125 5 93 42 _c
61 79 46 130 46 195 _c
46 249 55 300 75 349 _c
94 398 122 442 158 481 _c
182 507 209 526 239 540 _c
269 553 301 560 335 560 _c
370 560 401 551 428 534 _c
454 517 475 493 490 462 _c
549 760 _l
639 760 _l
491 0 _l
401 0 _l
418 82 _l
139 211 _m
}_e{139 163 149 126 171 100 _c
192 74 222 61 260 61 _c
288 61 314 67 338 81 _c
362 95 383 115 401 141 _c
420 168 435 200 446 236 _c
457 272 463 307 463 342 _c
463 387 452 422 431 448 _c
409 473 380 486 343 486 _c
314 486 287 479 263 466 _c
239 452 218 433 201 408 _c
182 381 167 350 156 314 _c
144 278 139 243 139 211 _c
_cl}_e}_d
/e{{615 0 46 -13 571 560 _sc
481 322 _m
481 327 482 332 483 338 _c
483 344 484 349 484 355 _c
484 395 472 426 449 449 _c
425 472 394 484 354 484 _c
309 484 270 469 236 441 _c
202 413 176 373 158 322 _c
481 322 _l
559 252 _m
141 252 _l
139 239 137 229 137 222 _c
136 215 136 209 136 204 _c
136 158 150 123 178 99 _c
206 74 245 62 296 62 _c
334 62 371 66 406 75 _c
}_e{441 83 474 96 504 114 _c
487 25 _l
454 11 420 2 386 -4 _c
352 -10 317 -13 282 -13 _c
206 -13 147 5 107 41 _c
66 77 46 128 46 195 _c
46 251 56 304 76 353 _c
96 402 126 446 166 485 _c
191 509 221 527 256 540 _c
291 553 328 560 368 560 _c
430 560 479 541 516 504 _c
552 467 571 417 571 355 _c
571 340 570 324 568 307 _c
566 289 563 271 559 252 _c
_cl}_e}_d
/f{352 0 68 0 478 760 _sc
478 760 _m
464 685 _l
378 685 _l
345 685 321 678 307 665 _c
292 652 281 629 274 595 _c
264 547 _l
412 547 _l
399 477 _l
251 477 _l
158 0 _l
68 0 _l
161 477 _l
75 477 _l
88 547 _l
174 547 _l
181 585 _l
193 649 215 695 246 721 _c
277 747 326 760 393 760 _c
478 760 _l
_cl}_d
/g{{635 0 32 -207 596 560 _sc
596 547 _m
503 68 _l
485 -24 450 -92 400 -138 _c
349 -184 281 -207 196 -207 _c
164 -207 134 -204 107 -200 _c
80 -195 55 -188 32 -178 _c
49 -91 _l
71 -105 94 -115 119 -122 _c
143 -129 170 -133 198 -133 _c
255 -133 302 -117 339 -86 _c
375 -55 399 -11 411 47 _c
419 88 _l
393 59 364 37 331 22 _c
298 7 262 0 224 0 _c
168 0 125 18 93 55 _c
}_e{61 91 46 142 46 206 _c
46 256 55 306 75 354 _c
94 402 121 445 156 483 _c
178 507 205 526 236 540 _c
267 553 299 560 333 560 _c
369 560 401 551 429 534 _c
456 517 476 493 490 462 _c
506 547 _l
596 547 _l
461 346 _m
461 390 450 425 429 449 _c
408 473 379 485 341 485 _c
317 485 294 480 273 471 _c
251 461 233 448 218 431 _c
193 403 174 370 160 332 _c
}_e{146 294 139 255 139 215 _c
139 169 149 135 170 111 _c
191 87 221 75 261 75 _c
318 75 366 100 404 152 _c
442 204 461 268 461 346 _c
_cl}_e}_d
/l{278 0 35 0 273 760 _sc
183 760 _m
273 760 _l
125 0 _l
35 0 _l
183 760 _l
_cl}_d
/o{{612 0 46 -13 566 560 _sc
254 -13 _m
190 -13 139 6 102 45 _c
64 84 46 138 46 207 _c
46 247 52 287 65 328 _c
77 369 94 404 115 432 _c
147 476 183 508 223 529 _c
263 549 308 560 358 560 _c
420 560 470 540 508 502 _c
546 463 566 412 566 350 _c
566 306 559 263 547 220 _c
534 177 517 142 497 114 _c
465 70 429 37 389 17 _c
349 -3 304 -13 254 -13 _c
139 210 _m
}_e{139 160 149 123 170 99 _c
190 74 222 62 264 62 _c
324 62 373 88 413 141 _c
453 193 473 260 473 341 _c
473 388 462 424 441 448 _c
420 472 389 484 348 484 _c
314 484 283 476 257 460 _c
231 444 207 420 187 388 _c
171 364 159 336 151 305 _c
143 274 139 242 139 210 _c
_cl}_e}_d
/s{{521 0 11 -13 500 560 _sc
500 531 _m
483 446 _l
459 458 433 468 407 475 _c
381 481 354 485 326 485 _c
278 485 241 477 214 461 _c
187 445 174 423 174 395 _c
174 363 205 338 269 321 _c
273 319 277 318 279 318 _c
308 309 _l
368 292 408 274 428 256 _c
448 238 458 213 458 182 _c
458 124 435 77 389 41 _c
343 5 282 -13 208 -13 _c
179 -13 149 -10 117 -5 _c
}_e{85 0 49 8 11 20 _c
29 113 _l
61 95 94 82 126 74 _c
158 65 188 61 218 61 _c
262 61 297 70 325 89 _c
352 108 366 132 366 161 _c
366 192 330 217 258 237 _c
249 239 _l
218 247 _l
172 259 138 274 117 294 _c
96 314 86 339 86 370 _c
86 428 107 475 151 509 _c
195 543 254 560 330 560 _c
360 560 389 557 417 552 _c
445 547 472 540 500 531 _c
_cl}_e}_d
/t{{392 0 64 0 423 702 _sc
423 547 _m
409 477 _l
230 477 _l
172 180 _l
170 169 168 160 167 152 _c
166 144 166 139 166 135 _c
166 114 172 99 185 89 _c
197 79 217 75 245 75 _c
336 75 _l
321 0 _l
235 0 _l
181 0 141 10 115 31 _c
89 52 76 84 76 126 _c
76 133 76 141 77 150 _c
78 159 80 169 82 180 _c
140 477 _l
64 477 _l
78 547 _l
153 547 _l
183 702 _l
}_e{273 702 _l
243 547 _l
423 547 _l
_cl}_e}_d
end readonly def

/BuildGlyph
 {exch begin
 CharStrings exch
 2 copy known not{pop /.notdef}if
 true 3 1 roll get exec
 end}_d

/BuildChar {
 1 index /Encoding get exch get
 1 index /BuildGlyph get exec
}_d

FontName currentdict end definefont pop
end
%%EndProlog
mpldict begin
75.6 223.2 translate
460.8 345.6 0 0 clipbox
gsave
0 0 m
460.8 0 l
460.8 345.6 l
0 345.6 l
cl
1.000 setgray
fill
grestore
gsave
57.6 38.016 m
414.72 38.016 l
414.72 304.128 l
57.6 304.128 l
cl
1.000 setgray
fill
grestore
0.800 setlinewidth
1 setlinejoin
0 setlinecap
[] 0 setdash
0.000 setgray
gsave
/o {
gsave
newpath
translate
0.8 setlinewidth
1 setlinejoin
0 setlinecap
0 0 m
0 -3.5 l

gsave
0.000 setgray
fill
grestore
stroke
grestore
} bind def
73.8327 38.016 o
grestore
/DejaVuSans findfont
10.000 scalefont
setfont
gsave
70.653040 23.422250 translate
0.000000 rotate
0.000000 0.000000 m /zero glyphshow
grestore
gsave
/o {
gsave
newpath
translate
0.8 setlinewidth
1 setlinejoin
0 setlinecap
0 0 m
0 -3.5 l

gsave
0.000 setgray
fill
grestore
stroke
grestore
} bind def
138.777 38.016 o
grestore
gsave
126.057875 23.422250 translate
0.000000 rotate
0.000000 0.000000 m /one glyphshow
6.362305 0.000000 m /zero glyphshow
12.724609 0.000000 m /zero glyphshow
19.086914 0.000000 m /zero glyphshow
grestore
gsave
/o {
gsave
newpath
translate
0.8 setlinewidth
1 setlinejoin
0 setlinecap
0 0 m
0 -3.5 l

gsave
0.000 setgray
fill
grestore
stroke
grestore
} bind def
203.721 38.016 o
grestore
gsave
191.001773 23.422250 translate
0.000000 rotate
0.000000 0.000000 m /two glyphshow
6.362305 0.000000 m /zero glyphshow
12.724609 0.000000 m /zero glyphshow
19.086914 0.000000 m /zero glyphshow
grestore
gsave
/o {
gsave
newpath
translate
0.8 setlinewidth
1 setlinejoin
0 setlinecap
0 0 m
0 -3.5 l

gsave
0.000 setgray
fill
grestore
stroke
grestore
} bind def
268.664 38.016 o
grestore
gsave
255.945671 23.422250 translate
0.000000 rotate
0.000000 0.000000 m /three glyphshow
6.362305 0.000000 m /zero glyphshow
12.724609 0.000000 m /zero glyphshow
19.086914 0.000000 m /zero glyphshow
grestore
gsave
/o {
gsave
newpath
translate
0.8 setlinewidth
1 setlinejoin
0 setlinecap
0 0 m
0 -3.5 l

gsave
0.000 setgray
fill
grestore
stroke
grestore
} bind def
333.608 38.016 o
grestore
gsave
320.889569 23.422250 translate
0.000000 rotate
0.000000 0.000000 m /four glyphshow
6.362305 0.000000 m /zero glyphshow
12.724609 0.000000 m /zero glyphshow
19.086914 0.000000 m /zero glyphshow
grestore
gsave
/o {
gsave
newpath
translate
0.8 setlinewidth
1 setlinejoin
0 setlinecap
0 0 m
0 -3.5 l

gsave
0.000 setgray
fill
grestore
stroke
grestore
} bind def
398.552 38.016 o
grestore
gsave
385.833467 23.422250 translate
0.000000 rotate
0.000000 0.000000 m /five glyphshow
6.362305 0.000000 m /zero glyphshow
12.724609 0.000000 m /zero glyphshow
19.086914 0.000000 m /zero glyphshow
grestore
/DejaVuSans findfont
14.000 scalefont
setfont
gsave
206.480312 6.703500 translate
0.000000 rotate
0.000000 0.000000 m /I glyphshow
4.128906 0.000000 m /t glyphshow
9.618164 0.000000 m /e glyphshow
18.231445 0.000000 m /r glyphshow
23.987305 0.000000 m /a glyphshow
32.566406 0.000000 m /t glyphshow
38.055664 0.000000 m /i glyphshow
41.945312 0.000000 m /o glyphshow
50.510742 0.000000 m /n glyphshow
grestore
gsave
/o {
gsave
newpath
translate
0.8 setlinewidth
1 setlinejoin
0 setlinecap
0 0 m
-3.5 0 l

gsave
0.000 setgray
fill
grestore
stroke
grestore
} bind def
57.6 55.4379 o
grestore
/DejaVuSans findfont
10.000 scalefont
setfont
gsave
29.506250 51.641048 translate
0.000000 rotate
0.000000 0.000000 m /minus glyphshow
8.378906 0.000000 m /one glyphshow
14.741211 0.000000 m /zero glyphshow
grestore
gsave
/o {
gsave
newpath
translate
0.8 setlinewidth
1 setlinejoin
0 setlinecap
0 0 m
-3.5 0 l

gsave
0.000 setgray
fill
grestore
stroke
grestore
} bind def
57.6 91.4009 o
grestore
gsave
35.865625 87.603980 translate
0.000000 rotate
0.000000 0.000000 m /minus glyphshow
8.378906 0.000000 m /eight glyphshow
grestore
gsave
/o {
gsave
newpath
translate
0.8 setlinewidth
1 setlinejoin
0 setlinecap
0 0 m
-3.5 0 l

gsave
0.000 setgray
fill
grestore
stroke
grestore
} bind def
57.6 127.364 o
grestore
gsave
35.865625 123.566911 translate
0.000000 rotate
0.000000 0.000000 m /minus glyphshow
8.378906 0.000000 m /six glyphshow
grestore
gsave
/o {
gsave
newpath
translate
0.8 setlinewidth
1 setlinejoin
0 setlinecap
0 0 m
-3.5 0 l

gsave
0.000 setgray
fill
grestore
stroke
grestore
} bind def
57.6 163.327 o
grestore
gsave
35.865625 159.529843 translate
0.000000 rotate
0.000000 0.000000 m /minus glyphshow
8.378906 0.000000 m /four glyphshow
grestore
gsave
/o {
gsave
newpath
translate
0.8 setlinewidth
1 setlinejoin
0 setlinecap
0 0 m
-3.5 0 l

gsave
0.000 setgray
fill
grestore
stroke
grestore
} bind def
57.6 199.29 o
grestore
gsave
35.865625 195.492774 translate
0.000000 rotate
0.000000 0.000000 m /minus glyphshow
8.378906 0.000000 m /two glyphshow
grestore
gsave
/o {
gsave
newpath
translate
0.8 setlinewidth
1 setlinejoin
0 setlinecap
0 0 m
-3.5 0 l

gsave
0.000 setgray
fill
grestore
stroke
grestore
} bind def
57.6 235.253 o
grestore
gsave
44.240625 231.455706 translate
0.000000 rotate
0.000000 0.000000 m /zero glyphshow
grestore
gsave
/o {
gsave
newpath
translate
0.8 setlinewidth
1 setlinejoin
0 setlinecap
0 0 m
-3.5 0 l

gsave
0.000 setgray
fill
grestore
stroke
grestore
} bind def
57.6 271.216 o
grestore
gsave
44.240625 267.418637 translate
0.000000 rotate
0.000000 0.000000 m /two glyphshow
grestore
gsave
22.506250 133.572000 translate
90.000000 rotate
/DejaVuSans-Oblique findfont
14.0 scalefont
setfont
0.000000 0.359375 moveto
/l glyphshow

3.889648 0.359375 moveto
/o glyphshow

12.455078 0.359375 moveto
/g glyphshow

21.341797 0.359375 moveto
/f glyphshow

/DejaVuSans findfont
9.8 scalefont
setfont
26.270508 -1.937500 moveto
/three glyphshow

/DejaVuSans findfont
14.0 scalefont
setfont
32.888379 0.359375 moveto
/parenleft glyphshow

/DejaVuSans-Oblique findfont
14.0 scalefont
setfont
38.350293 0.359375 moveto
/X glyphshow

/DejaVuSans-Oblique findfont
9.8 scalefont
setfont
47.941113 -1.937500 moveto
/b glyphshow

54.161816 -1.937500 moveto
/e glyphshow

60.191113 -1.937500 moveto
/s glyphshow

65.296875 -1.937500 moveto
/t glyphshow

/DejaVuSans findfont
14.0 scalefont
setfont
69.522168 0.359375 moveto
/parenright glyphshow


grestore
1.500 setlinewidth
2 setlinecap
0.122 0.467 0.706 setrgbcolor
gsave
357.1 266.1 57.6 38.02 clipbox
73.832727 291.900986 m
75.651156 289.553069 l
76.300595 288.541757 l
77.859249 285.885119 l
79.288015 283.396953 l
79.677678 282.604776 l
82.340378 277.645134 l
82.53521 277.420209 l
83.184649 275.833412 l
83.444424 275.436432 l
83.769144 274.66433 l
83.899031 274.44061 l
84.678358 272.427551 l
84.87319 271.964262 l
85.262853 270.798424 l
85.587573 270.356859 l
85.847348 269.651786 l
86.172068 269.012641 l
86.886451 266.895347 l
87.53589 265.168247 l
87.730721 264.866515 l
88.120385 263.785448 l
88.250273 263.590127 l
88.639936 262.413312 l
89.094543 261.52121 l
89.159487 261.496806 l
89.484207 260.4118 l
89.87387 259.828131 l
90.068702 259.145716 l
91.692299 255.105753 l
91.887131 254.490534 l
92.21185 253.566055 l
92.471626 252.857784 l
92.53657 252.728131 l
92.731402 251.943048 l
92.926233 251.684038 l
93.380841 250.007924 l
93.510728 249.773568 l
93.640616 249.316709 l
93.900392 248.365157 l
94.160167 248.020382 l
94.809606 246.008512 l
94.939494 245.790422 l
95.783765 243.908818 l
95.913653 243.858063 l
96.108484 243.413909 l
96.303316 242.962673 l
96.433204 242.334308 l
96.563092 241.848529 l
96.628035 241.806351 l
96.822867 241.453517 l
97.017699 241.204521 l
97.082643 241.109073 l
97.277474 240.580081 l
97.407362 240.453974 l
97.602194 240.04732 l
97.991857 239.618688 l
98.186689 239.447256 l
98.381521 239.120224 l
98.576352 238.968832 l
98.836128 238.457497 l
99.355679 238.004723 l
99.485567 237.93404 l
99.745343 237.62554 l
100.19995 237.172941 l
100.394782 236.863604 l
101.174108 236.471912 l
101.36894 236.178278 l
101.563772 235.915843 l
101.628716 235.910065 l
101.823547 235.745608 l
102.472986 235.420939 l
102.927594 235.085709 l
102.992537 235.03021 l
103.122425 234.753698 l
103.512089 234.522071 l
105.330518 233.337143 l
105.720181 233.193691 l
105.915013 232.969961 l
106.239732 232.806113 l
106.759283 232.441479 l
107.084003 232.310022 l
107.408722 232.0521 l
107.603554 231.837936 l
108.058161 231.554649 l
108.382881 231.176603 l
108.577713 231.047456 l
108.837488 230.929707 l
109.162208 230.690391 l
109.941534 229.968181 l
110.20131 229.848007 l
110.461086 229.688734 l
110.52603 229.680415 l
110.720861 229.455069 l
110.915693 229.225044 l
111.305356 228.64475 l
111.565132 228.486113 l
111.759964 228.329745 l
112.149627 228.120627 l
112.474347 227.727072 l
112.53929 227.72161 l
112.734122 227.553186 l
113.188729 227.167912 l
113.318617 226.916533 l
113.708281 226.709463 l
114.162888 226.308019 l
114.35772 225.974733 l
114.747383 225.702172 l
115.007159 225.372184 l
115.137046 225.289396 l
115.331878 224.897694 l
116.306036 224.253548 l
116.500868 223.698442 l
116.6957 223.495705 l
117.345139 223.312287 l
117.475027 223.120319 l
117.929634 222.950021 l
118.254353 222.880868 l
118.449185 222.601458 l
120.137726 222.040295 l
120.267614 221.775737 l
120.52739 221.677792 l
120.722222 221.478142 l
121.241773 221.26858 l
121.371661 221.055185 l
121.69638 220.941807 l
124.424024 219.589372 l
124.618855 219.273768 l
124.878631 219.122451 l
125.073463 219.016063 l
125.268294 218.936815 l
125.463126 218.791894 l
125.722902 218.550734 l
125.852789 218.005405 l
127.541331 217.151279 l
128.255714 217.045432 l
128.580433 216.899671 l
129.164928 216.814826 l
129.294816 216.665933 l
129.554592 216.582872 l
129.684479 216.126607 l
130.009199 216.013839 l
130.463806 215.386415 l
130.788526 215.184887 l
131.178189 215.051237 l
132.087404 214.7161 l
132.217291 214.70634 l
132.412123 214.52998 l
132.736843 214.454516 l
132.86673 214.222065 l
133.126506 214.120738 l
133.321338 214.028106 l
133.451226 213.788584 l
134.36044 213.567338 l
134.555272 213.391827 l
134.68516 213.337673 l
134.879991 213.253338 l
134.944935 213.237402 l
135.139767 212.837002 l
136.178869 212.391165 l
136.373701 212.007734 l
137.737523 211.208349 l
137.932354 211.033147 l
138.257074 210.946104 l
138.51685 210.700495 l
139.296176 210.576327 l
139.426064 210.361933 l
139.750784 210.262644 l
140.010559 209.666969 l
140.789886 209.546857 l
141.244493 209.373768 l
141.374381 209.314372 l
141.569213 209.197915 l
141.764044 209.142688 l
141.958876 209.069841 l
142.34854 208.952311 l
142.478427 208.761524 l
142.543371 208.761085 l
142.673259 208.420247 l
142.803147 208.394421 l
142.933035 208.250084 l
143.19281 208.228231 l
143.387642 208.085913 l
143.972137 207.890896 l
144.102025 207.863126 l
144.296856 207.446207 l
144.68652 207.314714 l
145.011239 207.219119 l
145.141127 206.855743 l
145.400903 206.757063 l
145.660678 206.697092 l
145.790566 206.246857 l
146.050342 206.144366 l
146.310117 206.025836 l
146.504949 205.812811 l
146.829668 205.682317 l
147.089444 205.451907 l
147.284276 205.186921 l
147.414164 205.146215 l
147.608995 204.935404 l
147.803827 204.862009 l
147.933715 204.710287 l
148.128546 204.692278 l
148.258434 204.470058 l
148.648098 204.302664 l
149.102705 204.000801 l
149.297537 203.956829 l
149.557312 203.549375 l
149.946976 203.31598 l
150.401583 203.06215 l
150.596415 202.468969 l
150.726302 202.336261 l
151.115966 202.24324 l
151.440685 201.898698 l
151.960236 201.821402 l
152.090124 201.599093 l
152.934395 201.449718 l
153.259114 201.391698 l
153.453946 201.104817 l
153.778666 200.97796 l
153.843609 200.965627 l
153.973497 200.715041 l
154.298217 200.561401 l
154.493048 200.1502 l
154.752824 199.735366 l
155.077544 199.717726 l
155.532151 199.208664 l
155.85687 199.12015 l
155.986758 198.5614 l
156.246534 198.455306 l
157.090804 198.136666 l
157.155748 198.130602 l
157.35058 197.78566 l
157.415524 197.781778 l
157.545412 197.619952 l
157.610356 197.619851 l
157.935075 197.190724 l
158.51957 197.070544 l
158.714402 196.957289 l
158.84429 196.954569 l
158.974177 196.568493 l
160.143168 196.298342 l
160.792607 196.217791 l
160.922494 196.06267 l
160.987438 196.057967 l
161.18227 195.82859 l
161.571933 195.760589 l
161.831709 195.558424 l
162.481148 195.472307 l
162.67598 195.304685 l
164.104745 195.09093 l
164.234633 194.590038 l
164.624296 194.491252 l
164.754184 194.245455 l
165.143848 194.15055 l
165.533511 194.120316 l
165.663399 194.028103 l
166.053062 193.789719 l
166.247894 193.752233 l
166.377782 193.453192 l
166.832389 193.425052 l
166.962277 193.199696 l
167.222052 193.187311 l
167.416884 192.789268 l
167.936435 192.69813 l
168.326099 192.647557 l
168.715762 192.588502 l
169.235313 192.506754 l
169.495089 192.468015 l
170.01464 192.406889 l
170.079584 192.325339 l
170.209472 191.933258 l
170.404303 191.932387 l
170.534191 191.749144 l
170.793967 191.741014 l
170.988798 191.460836 l
172.092845 191.389401 l
172.287676 191.278682 l
172.872172 191.270843 l
173.002059 191.030483 l
177.548132 190.920177 l
177.67802 190.493897 l
178.262515 190.466779 l
178.392403 190.071662 l
178.782066 190.070684 l
178.911954 189.880402 l
181.314878 189.76857 l
182.224093 189.748834 l
184.367241 189.638028 l
185.211512 189.618236 l
186.770166 189.597308 l
186.900053 189.086026 l
190.34208 189.003642 l
190.536912 188.927266 l
193.784107 188.908523 l
193.913994 188.693907 l
198.330179 188.679993 l
198.460067 187.577129 l
202.031982 187.554109 l
202.161869 186.877936 l
202.811308 186.877876 l
202.941196 186.677808 l
205.928616 186.570144 l
206.123447 186.499046 l
209.305698 186.479785 l
209.435586 186.080024 l
210.929296 186.07975 l
211.059183 185.831366 l
224.177851 185.741454 l
224.307739 185.474817 l
228.074485 185.432726 l
228.269316 185.337548 l
285.48489 185.264143 l
285.614778 184.921747 l
288.407366 184.843747 l
288.537254 184.482939 l
289.966019 184.373058 l
290.095907 184.209585 l
290.420627 184.198256 l
290.550514 183.969554 l
292.433888 183.864918 l
292.628719 183.778022 l
293.083326 183.740771 l
295.161531 183.586699 l
295.291419 182.365537 l
295.875914 182.337596 l
296.005802 182.203178 l
296.200634 182.20311 l
296.330521 181.440086 l
297.109848 181.36528 l
297.239736 181.202915 l
299.252997 181.121792 l
299.382885 180.948451 l
301.201314 180.923967 l
301.396145 180.823531 l
303.539294 180.672775 l
303.669182 180.443003 l
310.423347 180.339452 l
311.007842 180.315934 l
313.021103 180.301927 l
313.150991 180.161835 l
315.878635 180.076082 l
316.008522 179.637779 l
316.917737 179.585542 l
317.112569 179.49581 l
320.684483 179.399145 l
320.879315 179.335557 l
320.944259 179.335542 l
321.268978 178.877732 l
321.853473 178.823062 l
321.983361 178.61934 l
322.308081 178.59591 l
322.502912 178.48858 l
323.606958 178.448739 l
323.80179 178.3457 l
325.100668 178.262691 l
325.230556 176.962206 l
327.113929 176.857995 l
327.243817 176.724954 l
328.347863 176.7106 l
328.477751 176.52357 l
330.491012 176.491359 l
330.685843 176.393175 l
331.205395 176.392808 l
331.335282 174.964264 l
331.46517 174.963877 l
331.595058 173.919305 l
332.504272 173.914458 l
332.63416 173.348097 l
332.699104 173.34732 l
332.828992 172.957525 l
333.153711 172.956746 l
333.283599 171.475311 l
334.712365 171.407838 l
334.842253 170.658326 l
336.335962 170.631087 l
336.46585 165.998417 l
336.920458 165.893288 l
337.050345 165.457405 l
337.829672 165.45623 l
338.219336 164.748988 l
338.479111 164.748262 l
338.608999 163.35533 l
339.842933 163.247394 l
340.037765 163.226703 l
340.167652 162.916014 l
340.362484 162.914528 l
340.492372 148.684397 l
340.62226 146.88321 l
340.946979 146.827895 l
341.076867 146.707095 l
342.375745 146.639156 l
342.505633 146.442462 l
342.96024 146.420501 l
343.090128 145.788245 l
343.544735 145.765523 l
343.674623 145.062803 l
343.804511 140.828645 l
344.194174 140.822427 l
344.324062 138.358296 l
344.518894 138.358151 l
344.648781 136.0332 l
344.713725 136.031312 l
344.843613 135.414856 l
345.168333 135.400414 l
345.29822 134.689136 l
345.363164 134.687526 l
345.493052 134.485113 l
345.752828 134.485001 l
345.882715 134.336783 l
346.532154 134.321146 l
346.662042 130.8545 l
347.376425 130.735598 l
347.636201 130.147563 l
348.155752 130.057481 l
348.28564 130.031215 l
348.415527 128.483505 l
349.714405 128.37288 l
350.039125 128.212365 l
350.298901 128.210314 l
350.428788 126.909416 l
350.62362 126.901228 l
350.753508 126.650748 l
351.467891 126.594826 l
351.597778 125.840498 l
351.79261 125.789977 l
352.506993 125.69028 l
352.896656 125.612176 l
354.390366 125.516353 l
354.909917 125.47715 l
356.533515 125.39042 l
356.663402 125.044303 l
357.182954 125.015406 l
357.312841 124.896946 l
358.027224 124.888704 l
358.157112 123.177491 l
358.287 123.176861 l
358.416888 123.043285 l
359.78071 122.975698 l
359.910597 121.56546 l
360.754868 121.55729 l
360.884756 121.399117 l
361.274419 121.369377 l
361.404307 121.239569 l
361.664083 121.13451 l
362.833073 121.109201 l
364.45667 121.073839 l
364.586558 113.191863 l
365.235997 113.191503 l
365.365885 112.907388 l
366.015324 112.906081 l
366.145212 109.846082 l
367.054426 109.820287 l
367.184314 108.098332 l
368.158472 107.998885 l
368.28836 104.685654 l
368.418248 104.599793 l
368.548136 99.143647 l
369.262519 99.035471 l
370.301621 98.998753 l
370.431509 98.770679 l
370.496453 98.770338 l
370.626341 98.574314 l
371.535555 98.50144 l
371.730387 98.446655 l
371.925218 98.444808 l
372.055106 97.985196 l
372.509714 97.911961 l
372.704545 97.839499 l
374.912638 97.785095 l
375.042526 96.831337 l
375.497133 96.797807 l
375.627021 96.598906 l
376.536235 96.536894 l
376.731067 96.427045 l
377.640282 96.417229 l
377.770169 93.689375 l
377.965001 93.687157 l
378.094889 85.352727 l
379.069047 85.324225 l
379.133991 84.922759 l
379.263879 83.477285 l
379.328823 83.388961 l
379.458711 82.549275 l
379.978262 82.453042 l
380.10815 81.581386 l
382.12141 81.472475 l
382.576018 81.447904 l
382.835793 81.447223 l
382.965681 71.634856 l
384.394447 71.542866 l
384.524335 71.158136 l
384.978942 71.155062 l
385.10883 68.423067 l
386.147932 68.378847 l
386.342764 68.215702 l
387.187034 68.044927 l
387.576698 67.978178 l
388.6158 67.916604 l
388.810632 67.830093 l
390.758949 67.721299 l
391.473332 67.618073 l
392.382546 67.502536 l
393.61648 67.332049 l
395.629741 67.229301 l
395.759629 60.876395 l
396.538956 60.827941 l
396.668844 60.695986 l
398.487273 60.612601 l
398.487273 60.612601 l
stroke
grestore
1.000 setlinewidth
0 setlinecap
gsave
357.1 266.1 57.6 38.02 clipbox
/o {
gsave
newpath
translate
1.0 setlinewidth
1 setlinejoin
0 setlinecap
0 -3 m
0.795609 -3 1.55874 -2.683901 2.12132 -2.12132 c
2.683901 -1.55874 3 -0.795609 3 0 c
3 0.795609 2.683901 1.55874 2.12132 2.12132 c
1.55874 2.683901 0.795609 3 0 3 c
-0.795609 3 -1.55874 2.683901 -2.12132 2.12132 c
-2.683901 1.55874 -3 0.795609 -3 0 c
-3 -0.795609 -2.683901 -1.55874 -2.12132 -2.12132 c
-1.55874 -2.683901 -0.795609 -3 0 -3 c
cl

gsave
0.122 0.467 0.706 setrgbcolor
fill
grestore
stroke
grestore
} bind def
73.8327 291.901 o
120.203 221.816 o
166.573 193.445 o
212.943 185.83 o
259.312 185.264 o
305.682 180.399 o
352.052 125.782 o
398.422 60.6127 o
grestore
1.500 setlinewidth
2 setlinecap
1.000 0.498 0.055 setrgbcolor
gsave
357.1 266.1 57.6 38.02 clipbox
73.832727 292.032 m
77.794305 283.476831 l
78.248912 282.307303 l
78.638576 281.338859 l
78.963295 280.452587 l
79.482846 278.921658 l
80.067341 277.52141 l
80.781724 275.394398 l
81.171388 274.094833 l
81.301276 273.567551 l
82.470266 269.917875 l
82.730041 269.125424 l
82.924873 268.55482 l
83.444424 266.617836 l
83.7042 265.70258 l
84.028919 264.504116 l
84.223751 263.934835 l
85.912292 258.050729 l
86.301956 256.668251 l
86.561731 255.579357 l
86.756563 255.079882 l
87.341058 252.517561 l
87.53589 252.030909 l
87.730721 251.011633 l
87.795665 250.915048 l
88.250273 248.934766 l
88.445104 248.259004 l
88.834768 246.77023 l
89.094543 246.056659 l
89.938814 243.445845 l
90.133646 242.605195 l
90.393421 242.015441 l
91.692299 239.40888 l
92.341738 238.720241 l
92.666458 238.477905 l
92.926233 238.326378 l
93.380841 237.451046 l
94.160167 236.996909 l
94.614775 236.783955 l
94.809606 236.603945 l
95.069382 236.539561 l
95.264214 236.30386 l
97.53725 235.352753 l
98.446465 234.985904 l
99.420623 234.40106 l
100.979277 233.44621 l
101.433884 233.164497 l
101.693659 232.981178 l
102.148267 232.531845 l
104.421303 230.428862 l
105.070742 229.595581 l
105.265574 229.194905 l
105.395462 229.101789 l
105.590293 228.904437 l
105.720181 228.81874 l
105.979957 228.296421 l
106.174788 227.996764 l
106.629396 227.318699 l
106.954115 226.613347 l
107.019059 226.583836 l
107.278835 226.145128 l
108.382881 223.977695 l
108.577713 223.515854 l
108.7076 223.414258 l
108.967376 223.147166 l
109.162208 223.018923 l
109.551871 222.528857 l
109.616815 222.510156 l
109.811647 222.117888 l
109.941534 221.955383 l
110.396142 221.370018 l
110.52603 221.155474 l
110.720861 220.903744 l
110.850749 220.755054 l
111.110525 220.371626 l
111.175469 220.348742 l
111.3703 219.869067 l
111.565132 219.712479 l
112.149627 218.344801 l
112.474347 217.985194 l
112.669178 217.365425 l
113.253673 215.640288 l
114.422663 214.201433 l
114.617495 213.888788 l
114.942215 213.693894 l
115.20199 213.201793 l
115.396822 213.164595 l
115.786485 212.470942 l
116.241093 211.774823 l
116.435924 211.41605 l
116.760644 211.064651 l
116.825588 211.046127 l
117.020419 210.76071 l
117.150307 210.711144 l
117.345139 210.357542 l
117.410083 210.300986 l
117.539971 209.767856 l
117.734802 209.68262 l
118.124466 208.039166 l
118.319297 207.900371 l
118.644017 207.722213 l
118.838848 206.897056 l
118.903792 206.850777 l
119.03368 206.406991 l
119.228512 206.286372 l
119.488287 205.130763 l
119.748063 204.112986 l
119.813007 204.098285 l
120.20267 203.484773 l
120.592334 203.270413 l
120.722222 202.594882 l
120.852109 202.446847 l
121.046941 202.197922 l
121.241773 201.832798 l
121.436604 201.263239 l
121.761324 200.723803 l
122.086043 200.463936 l
122.540651 200.244364 l
122.800426 200.081085 l
122.86537 200.064743 l
123.319977 199.238114 l
123.644697 199.069127 l
123.774585 198.965409 l
123.969416 198.372588 l
124.099304 198.335077 l
124.229192 197.78331 l
124.294136 197.761883 l
124.488968 197.380215 l
124.618855 197.214421 l
124.748743 196.57858 l
124.813687 196.560506 l
125.138407 195.94634 l
125.268294 195.374496 l
125.463126 195.26454 l
125.52807 195.131654 l
125.722902 194.503787 l
125.852789 194.19758 l
126.047621 194.171316 l
126.242453 194.012637 l
126.437285 193.943074 l
126.567172 193.605081 l
126.762004 193.179777 l
126.826948 193.165531 l
127.281555 192.033418 l
127.346499 192.012847 l
127.541331 191.480821 l
127.671219 191.442725 l
127.86605 191.292952 l
128.060882 191.181207 l
128.255714 191.002882 l
128.515489 190.954528 l
128.710321 190.749725 l
128.840209 190.710191 l
129.03504 190.484108 l
129.944255 189.626841 l
130.139087 189.50675 l
130.333918 189.425507 l
130.398862 189.272185 l
130.52875 188.72665 l
130.723582 188.644528 l
131.69774 188.248192 l
132.347179 188.105222 l
132.606955 188.029093 l
132.996618 187.918245 l
133.126506 187.387447 l
133.386282 187.258679 l
133.646057 187.209221 l
134.035721 187.102336 l
134.490328 186.859488 l
134.620216 185.323759 l
135.009879 185.310142 l
135.139767 184.502515 l
135.269655 184.399856 l
135.594374 184.286134 l
136.438645 184.165618 l
136.633477 184.062455 l
137.088084 184.034258 l
137.217972 183.461183 l
137.542691 183.375011 l
137.672579 183.264476 l
138.581793 183.169941 l
138.776625 182.275333 l
140.075503 182.193048 l
140.205391 180.244831 l
140.659998 180.10719 l
140.984718 180.066921 l
141.114605 179.937715 l
141.569213 179.919057 l
141.699101 177.715826 l
142.608315 177.584707 l
142.803147 177.580044 l
142.933035 177.436739 l
143.582474 177.389228 l
143.712361 176.769374 l
144.037081 176.658929 l
145.400903 176.588234 l
145.530791 176.249301 l
145.920454 176.240736 l
146.050342 173.53719 l
146.310117 173.534447 l
146.440005 173.117544 l
146.764725 173.08327 l
147.738883 172.97189 l
147.933715 172.964643 l
148.063603 172.499555 l
149.102705 172.489386 l
149.232593 172.335746 l
149.557312 172.311611 l
149.6872 170.433732 l
150.531471 170.371768 l
150.661358 170.194888 l
151.310797 170.187207 l
151.440685 164.511963 l
155.532151 164.457528 l
155.921814 164.454755 l
156.051702 162.653458 l
156.960917 162.636414 l
157.090804 162.526238 l
161.442046 162.427951 l
161.831709 162.40323 l
162.416204 162.403021 l
162.546092 161.868142 l
164.364521 161.850176 l
164.494409 138.719422 l
166.50767 138.603545 l
166.767445 138.551839 l
167.286996 138.530146 l
167.416884 130.046017 l
168.326099 129.983502 l
168.52093 129.892606 l
169.884752 129.888319 l
170.01464 127.098729 l
171.18363 127.078227 l
171.313518 126.901278 l
174.820488 126.802902 l
174.950376 126.548359 l
175.924535 126.541393 l
176.054423 125.077122 l
177.288357 125.028586 l
177.418244 121.340512 l
186.575334 121.230311 l
186.83511 121.198771 l
250.934737 121.197102 l
251.064625 120.285204 l
251.519232 120.261934 l
251.64912 116.047693 l
252.168671 116.036981 l
252.298559 114.841628 l
252.363503 114.841628 l
252.49339 113.55637 l
252.623278 113.541457 l
252.753166 112.415109 l
252.947998 112.39156 l
253.077885 108.912321 l
253.272717 108.908223 l
253.402605 106.701061 l
253.532493 106.669607 l
253.66238 101.450505 l
253.792268 101.427318 l
253.9871 101.301285 l
254.571595 101.193044 l
254.831371 101.084952 l
254.961258 99.709367 l
255.15609 99.708845 l
255.285978 98.154689 l
257.039463 98.070472 l
257.169351 97.736123 l
257.429127 97.706237 l
257.559014 97.493973 l
258.728005 97.437419 l
258.857892 97.064103 l
261.195873 96.961738 l
261.780368 96.8888 l
261.910256 96.171409 l
265.287338 96.063363 l
265.547114 96.020108 l
267.105767 95.939561 l
267.235655 95.521845 l
267.560375 95.519726 l
267.690262 92.417116 l
268.209814 92.41642 l
268.339701 91.985764 l
268.404645 91.984939 l
268.534533 86.862324 l
269.054084 86.740842 l
269.573635 86.740729 l
269.703523 86.558245 l
269.898355 86.558088 l
270.028243 86.225103 l
270.352962 86.225061 l
270.417906 86.091383 l
270.547794 85.578229 l
271.262177 85.539618 l
271.392065 85.23593 l
272.366223 85.191294 l
272.496111 83.996585 l
272.625999 83.996139 l
272.755886 82.746453 l
272.885774 82.713354 l
273.015662 82.457577 l
273.14555 82.448543 l
273.405325 81.745841 l
273.924877 81.695951 l
274.054764 77.311777 l
274.119708 77.311732 l
274.31454 77.043829 l
274.444428 77.039693 l
274.574316 74.103611 l
274.963979 73.998 l
275.093867 73.521787 l
276.587576 73.423301 l
276.782408 73.38173 l
276.912296 72.588237 l
277.301959 72.485167 l
277.431847 71.078189 l
278.730725 70.990551 l
278.860613 70.99016 l
278.990501 69.392221 l
279.250276 69.345006 l
279.380164 69.345005 l
279.510052 69.218866 l
279.63994 69.218859 l
279.769827 68.84167 l
280.80893 68.774216 l
280.873874 68.630171 l
281.003761 67.404251 l
281.263537 67.403936 l
281.393425 66.798668 l
282.172752 66.751234 l
282.302639 66.061905 l
283.081966 65.963732 l
283.341742 65.920448 l
283.47163 65.797866 l
283.601517 64.199807 l
283.796349 64.199763 l
283.991181 63.925677 l
284.121069 63.925675 l
284.250956 61.653153 l
284.510732 61.572908 l
285.679722 61.484405 l
286.004442 61.423008 l
287.757927 61.348971 l
287.952759 61.232581 l
288.537254 61.19827 l
288.667141 59.709545 l
288.797029 59.555062 l
288.991861 59.554723 l
289.121749 58.630669 l
289.836132 58.520566 l
290.875234 58.470876 l
291.005122 58.324132 l
291.914336 58.300093 l
292.044224 53.693061 l
292.239056 53.608505 l
292.304 53.608465 l
292.433888 53.43915 l
292.953439 53.392138 l
293.083326 53.021034 l
293.732765 52.946044 l
293.927597 52.837744 l
294.187373 52.834331 l
294.317261 52.511073 l
296.005802 52.381672 l
296.200634 52.195206 l
298.47367 52.085843 l
298.993221 52.066334 l
300.681763 51.956885 l
300.876594 51.904646 l
302.045584 51.886412 l
302.175472 50.267399 l
332.244497 50.112 l
398.487273 50.112 l
398.487273 50.112 l
stroke
grestore
1.000 setlinewidth
0 setlinejoin
0 setlinecap
gsave
357.1 266.1 57.6 38.02 clipbox
/o {
gsave
newpath
translate
1.0 setlinewidth
0 setlinejoin
0 setlinecap
-3 -3 m
3 -3 l
3 3 l
-3 3 l
cl

gsave
1.000 0.498 0.055 setrgbcolor
fill
grestore
stroke
grestore
} bind def
73.8327 292.032 o
120.203 203.485 o
166.573 138.561 o
212.943 121.197 o
259.312 97.0228 o
305.682 50.1779 o
352.052 50.112 o
398.422 50.112 o
grestore
0.800 setlinewidth
2 setlinecap
[] 0 setdash
0.000 setgray
gsave
57.6 38.016 m
57.6 304.128 l
stroke
grestore
gsave
414.72 38.016 m
414.72 304.128 l
stroke
grestore
gsave
57.6 38.016 m
414.72 38.016 l
stroke
grestore
gsave
57.6 304.128 m
414.72 304.128 l
stroke
grestore
1.000 setlinewidth
0 setlinecap
0.800 setgray
gsave
348.72 265.456125 m
407.72 265.456125 l
409.053333 265.456125 409.72 266.122792 409.72 267.456125 c
409.72 297.128 l
409.72 298.461333 409.053333 299.128 407.72 299.128 c
348.72 299.128 l
347.386667 299.128 346.72 298.461333 346.72 297.128 c
346.72 267.456125 l
346.72 266.122792 347.386667 265.456125 348.72 265.456125 c
cl
gsave
1.000 setgray
fill
grestore
stroke
grestore
1.500 setlinewidth
1 setlinejoin
2 setlinecap
[] 0 setdash
0.122 0.467 0.706 setrgbcolor
gsave
350.72 291.03425 m
370.72 291.03425 l
stroke
grestore
1.000 setlinewidth
0 setlinecap
gsave
/o {
gsave
newpath
translate
1.0 setlinewidth
1 setlinejoin
0 setlinecap
0 -3 m
0.795609 -3 1.55874 -2.683901 2.12132 -2.12132 c
2.683901 -1.55874 3 -0.795609 3 0 c
3 0.795609 2.683901 1.55874 2.12132 2.12132 c
1.55874 2.683901 0.795609 3 0 3 c
-0.795609 3 -1.55874 2.683901 -2.12132 2.12132 c
-2.683901 1.55874 -3 0.795609 -3 0 c
-3 -0.795609 -2.683901 -1.55874 -2.12132 -2.12132 c
-1.55874 -2.683901 -0.795609 -3 0 -3 c
cl

gsave
0.122 0.467 0.706 setrgbcolor
fill
grestore
stroke
grestore
} bind def
360.72 291.034 o
grestore
0.000 setgray
gsave
378.720000 287.534250 translate
0.000000 rotate
/DejaVuSans-Oblique findfont
10.0 scalefont
setfont
0.000000 0.578125 moveto
/A glyphshow

6.840820 0.578125 moveto
/B glyphshow

13.701172 0.578125 moveto
/C glyphshow


grestore
1.500 setlinewidth
2 setlinecap
1.000 0.498 0.055 setrgbcolor
gsave
350.72 275.03425 m
370.72 275.03425 l
stroke
grestore
1.000 setlinewidth
0 setlinejoin
0 setlinecap
gsave
/o {
gsave
newpath
translate
1.0 setlinewidth
0 setlinejoin
0 setlinecap
-3 -3 m
3 -3 l
3 3 l
-3 3 l
cl

gsave
1.000 0.498 0.055 setrgbcolor
fill
grestore
stroke
grestore
} bind def
360.72 275.034 o
grestore
0.000 setgray
gsave
378.720000 271.534250 translate
0.000000 rotate
/DejaVuSans-Oblique findfont
10.0 scalefont
setfont
0.000000 0.856250 moveto
/A glyphshow

6.840820 0.856250 moveto
/B glyphshow

13.701172 0.856250 moveto
/C glyphshow

/DejaVuSans-Oblique findfont
7.0 scalefont
setfont
21.403646 4.684375 moveto
/d glyphshow


grestore

end
showpage
