%!PS-Adobe-3.0 EPSF-3.0
%%Title: plots/Rastrigin1.eps
%%Creator: matplotlib version 2.2.2, http://matplotlib.org/
%%CreationDate: Sun Jul 29 16:18:13 2018
%%Orientation: portrait
%%BoundingBox: 75 223 536 568
%%EndComments
%%BeginProlog
/mpldict 9 dict def
mpldict begin
/m { moveto } bind def
/l { lineto } bind def
/r { rlineto } bind def
/c { curveto } bind def
/cl { closepath } bind def
/box {
m
1 index 0 r
0 exch r
neg 0 r
cl
} bind def
/clipbox {
box
clip
newpath
} bind def
%!PS-Adobe-3.0 Resource-Font
%%Title: DejaVu Sans
%%Copyright: Copyright (c) 2003 by Bitstream, Inc. All Rights Reserved. Copyright (c) 2006 by Tavmjong Bah. All Rights Reserved. DejaVu changes are in public domain 
%%Creator: Converted from TrueType to type 3 by PPR
25 dict begin
/_d{bind def}bind def
/_m{moveto}_d
/_l{lineto}_d
/_cl{closepath eofill}_d
/_c{curveto}_d
/_sc{7 -1 roll{setcachedevice}{pop pop pop pop pop pop}ifelse}_d
/_e{exec}_d
/FontName /DejaVuSans def
/PaintType 0 def
/FontMatrix[.001 0 0 .001 0 0]def
/FontBBox[-1021 -463 1793 1232]def
/FontType 3 def
/Encoding [ /parenleft /parenright /zero /one /two /three /four /five /six /eight /I /a /e /i /n /o /r /t /minus ] def
/FontInfo 10 dict dup begin
/FamilyName (DejaVu Sans) def
/FullName (DejaVu Sans) def
/Notice (Copyright (c) 2003 by Bitstream, Inc. All Rights Reserved. Copyright (c) 2006 by Tavmjong Bah. All Rights Reserved. DejaVu changes are in public domain ) def
/Weight (Book) def
/Version (Version 2.35) def
/ItalicAngle 0.0 def
/isFixedPitch false def
/UnderlinePosition -130 def
/UnderlineThickness 90 def
end readonly def
/CharStrings 20 dict dup begin
/.notdef 0 def
/parenleft{390 0 86 -131 310 759 _sc
310 759 _m
266 683 234 609 213 536 _c
191 463 181 389 181 314 _c
181 238 191 164 213 91 _c
234 17 266 -56 310 -131 _c
232 -131 _l
183 -54 146 20 122 94 _c
98 168 86 241 86 314 _c
86 386 98 459 122 533 _c
146 607 182 682 232 759 _c
310 759 _l
_cl}_d
/parenright{390 0 80 -131 304 759 _sc
80 759 _m
158 759 _l
206 682 243 607 267 533 _c
291 459 304 386 304 314 _c
304 241 291 168 267 94 _c
243 20 206 -54 158 -131 _c
80 -131 _l
123 -56 155 17 177 91 _c
198 164 209 238 209 314 _c
209 389 198 463 177 536 _c
155 609 123 683 80 759 _c
_cl}_d
/zero{636 0 66 -13 570 742 _sc
318 664 _m
267 664 229 639 203 589 _c
177 539 165 464 165 364 _c
165 264 177 189 203 139 _c
229 89 267 64 318 64 _c
369 64 407 89 433 139 _c
458 189 471 264 471 364 _c
471 464 458 539 433 589 _c
407 639 369 664 318 664 _c
318 742 _m
399 742 461 709 505 645 _c
548 580 570 486 570 364 _c
570 241 548 147 505 83 _c
461 19 399 -13 318 -13 _c
236 -13 173 19 130 83 _c
87 147 66 241 66 364 _c
66 486 87 580 130 645 _c
173 709 236 742 318 742 _c
_cl}_d
/one{636 0 110 0 544 729 _sc
124 83 _m
285 83 _l
285 639 _l
110 604 _l
110 694 _l
284 729 _l
383 729 _l
383 83 _l
544 83 _l
544 0 _l
124 0 _l
124 83 _l
_cl}_d
/two{{636 0 73 0 536 742 _sc
192 83 _m
536 83 _l
536 0 _l
73 0 _l
73 83 _l
110 121 161 173 226 239 _c
290 304 331 346 348 365 _c
380 400 402 430 414 455 _c
426 479 433 504 433 528 _c
433 566 419 598 392 622 _c
365 646 330 659 286 659 _c
255 659 222 653 188 643 _c
154 632 117 616 78 594 _c
78 694 _l
118 710 155 722 189 730 _c
223 738 255 742 284 742 _c
}_e{359 742 419 723 464 685 _c
509 647 532 597 532 534 _c
532 504 526 475 515 449 _c
504 422 484 390 454 354 _c
446 344 420 317 376 272 _c
332 227 271 164 192 83 _c
_cl}_e}_d
/three{{636 0 76 -13 556 742 _sc
406 393 _m
453 383 490 362 516 330 _c
542 298 556 258 556 212 _c
556 140 531 84 482 45 _c
432 6 362 -13 271 -13 _c
240 -13 208 -10 176 -4 _c
144 1 110 10 76 22 _c
76 117 _l
103 101 133 89 166 81 _c
198 73 232 69 268 69 _c
330 69 377 81 409 105 _c
441 129 458 165 458 212 _c
458 254 443 288 413 312 _c
383 336 341 349 287 349 _c
}_e{202 349 _l
202 430 _l
291 430 _l
339 430 376 439 402 459 _c
428 478 441 506 441 543 _c
441 580 427 609 401 629 _c
374 649 336 659 287 659 _c
260 659 231 656 200 650 _c
169 644 135 635 98 623 _c
98 711 _l
135 721 170 729 203 734 _c
235 739 266 742 296 742 _c
370 742 429 725 473 691 _c
517 657 539 611 539 553 _c
539 513 527 479 504 451 _c
481 423 448 403 406 393 _c
_cl}_e}_d
/four{636 0 49 0 580 729 _sc
378 643 _m
129 254 _l
378 254 _l
378 643 _l
352 729 _m
476 729 _l
476 254 _l
580 254 _l
580 172 _l
476 172 _l
476 0 _l
378 0 _l
378 172 _l
49 172 _l
49 267 _l
352 729 _l
_cl}_d
/five{{636 0 77 -13 549 729 _sc
108 729 _m
495 729 _l
495 646 _l
198 646 _l
198 467 _l
212 472 227 476 241 478 _c
255 480 270 482 284 482 _c
365 482 429 459 477 415 _c
525 370 549 310 549 234 _c
549 155 524 94 475 51 _c
426 8 357 -13 269 -13 _c
238 -13 207 -10 175 -6 _c
143 -1 111 6 77 17 _c
77 116 _l
106 100 136 88 168 80 _c
199 72 232 69 267 69 _c
}_e{323 69 368 83 401 113 _c
433 143 450 183 450 234 _c
450 284 433 324 401 354 _c
368 384 323 399 267 399 _c
241 399 214 396 188 390 _c
162 384 135 375 108 363 _c
108 729 _l
_cl}_e}_d
/six{{636 0 70 -13 573 742 _sc
330 404 _m
286 404 251 388 225 358 _c
199 328 186 286 186 234 _c
186 181 199 139 225 109 _c
251 79 286 64 330 64 _c
374 64 409 79 435 109 _c
461 139 474 181 474 234 _c
474 286 461 328 435 358 _c
409 388 374 404 330 404 _c
526 713 _m
526 623 _l
501 635 476 644 451 650 _c
425 656 400 659 376 659 _c
310 659 260 637 226 593 _c
}_e{192 549 172 482 168 394 _c
187 422 211 444 240 459 _c
269 474 301 482 336 482 _c
409 482 467 459 509 415 _c
551 371 573 310 573 234 _c
573 159 550 99 506 54 _c
462 9 403 -13 330 -13 _c
246 -13 181 19 137 83 _c
92 147 70 241 70 364 _c
70 479 97 571 152 639 _c
206 707 280 742 372 742 _c
396 742 421 739 447 735 _c
472 730 498 723 526 713 _c
_cl}_e}_d
/eight{{636 0 68 -13 568 742 _sc
318 346 _m
271 346 234 333 207 308 _c
180 283 167 249 167 205 _c
167 161 180 126 207 101 _c
234 76 271 64 318 64 _c
364 64 401 76 428 102 _c
455 127 469 161 469 205 _c
469 249 455 283 429 308 _c
402 333 365 346 318 346 _c
219 388 _m
177 398 144 418 120 447 _c
96 476 85 511 85 553 _c
85 611 105 657 147 691 _c
188 725 245 742 318 742 _c
}_e{390 742 447 725 489 691 _c
530 657 551 611 551 553 _c
551 511 539 476 515 447 _c
491 418 459 398 417 388 _c
464 377 501 355 528 323 _c
554 291 568 251 568 205 _c
568 134 546 80 503 43 _c
459 5 398 -13 318 -13 _c
237 -13 175 5 132 43 _c
89 80 68 134 68 205 _c
68 251 81 291 108 323 _c
134 355 171 377 219 388 _c
183 544 _m
183 506 194 476 218 455 _c
}_e{242 434 275 424 318 424 _c
360 424 393 434 417 455 _c
441 476 453 506 453 544 _c
453 582 441 611 417 632 _c
393 653 360 664 318 664 _c
275 664 242 653 218 632 _c
194 611 183 582 183 544 _c
_cl}_e}_d
/I{295 0 98 0 197 729 _sc
98 729 _m
197 729 _l
197 0 _l
98 0 _l
98 729 _l
_cl}_d
/a{{613 0 60 -13 522 560 _sc
343 275 _m
270 275 220 266 192 250 _c
164 233 150 205 150 165 _c
150 133 160 107 181 89 _c
202 70 231 61 267 61 _c
317 61 357 78 387 114 _c
417 149 432 196 432 255 _c
432 275 _l
343 275 _l
522 312 _m
522 0 _l
432 0 _l
432 83 _l
411 49 385 25 355 10 _c
325 -5 287 -13 243 -13 _c
187 -13 142 2 109 33 _c
76 64 60 106 60 159 _c
}_e{60 220 80 266 122 298 _c
163 329 224 345 306 345 _c
432 345 _l
432 354 _l
432 395 418 427 391 450 _c
364 472 326 484 277 484 _c
245 484 215 480 185 472 _c
155 464 127 453 100 439 _c
100 522 _l
132 534 164 544 195 550 _c
226 556 256 560 286 560 _c
365 560 424 539 463 498 _c
502 457 522 395 522 312 _c
_cl}_e}_d
/e{{615 0 55 -13 562 560 _sc
562 296 _m
562 252 _l
149 252 _l
153 190 171 142 205 110 _c
238 78 284 62 344 62 _c
378 62 412 66 444 74 _c
476 82 509 95 541 113 _c
541 28 _l
509 14 476 3 442 -3 _c
408 -9 373 -13 339 -13 _c
251 -13 182 12 131 62 _c
80 112 55 181 55 268 _c
55 357 79 428 127 481 _c
175 533 241 560 323 560 _c
397 560 455 536 498 489 _c
}_e{540 441 562 377 562 296 _c
472 322 _m
471 371 457 410 431 440 _c
404 469 368 484 324 484 _c
274 484 234 469 204 441 _c
174 413 156 373 152 322 _c
472 322 _l
_cl}_e}_d
/i{278 0 94 0 184 760 _sc
94 547 _m
184 547 _l
184 0 _l
94 0 _l
94 547 _l
94 760 _m
184 760 _l
184 646 _l
94 646 _l
94 760 _l
_cl}_d
/n{634 0 91 0 549 560 _sc
549 330 _m
549 0 _l
459 0 _l
459 327 _l
459 379 448 417 428 443 _c
408 469 378 482 338 482 _c
289 482 251 466 223 435 _c
195 404 181 362 181 309 _c
181 0 _l
91 0 _l
91 547 _l
181 547 _l
181 462 _l
202 494 227 519 257 535 _c
286 551 320 560 358 560 _c
420 560 468 540 500 501 _c
532 462 549 405 549 330 _c
_cl}_d
/o{612 0 55 -13 557 560 _sc
306 484 _m
258 484 220 465 192 427 _c
164 389 150 338 150 273 _c
150 207 163 156 191 118 _c
219 80 257 62 306 62 _c
354 62 392 80 420 118 _c
448 156 462 207 462 273 _c
462 337 448 389 420 427 _c
392 465 354 484 306 484 _c
306 560 _m
384 560 445 534 490 484 _c
534 433 557 363 557 273 _c
557 183 534 113 490 63 _c
445 12 384 -13 306 -13 _c
227 -13 165 12 121 63 _c
77 113 55 183 55 273 _c
55 363 77 433 121 484 _c
165 534 227 560 306 560 _c
_cl}_d
/r{411 0 91 0 411 560 _sc
411 463 _m
401 469 390 473 378 476 _c
366 478 353 480 339 480 _c
288 480 249 463 222 430 _c
194 397 181 350 181 288 _c
181 0 _l
91 0 _l
91 547 _l
181 547 _l
181 462 _l
199 495 224 520 254 536 _c
284 552 321 560 365 560 _c
371 560 378 559 386 559 _c
393 558 401 557 411 555 _c
411 463 _l
_cl}_d
/t{392 0 27 0 368 702 _sc
183 702 _m
183 547 _l
368 547 _l
368 477 _l
183 477 _l
183 180 _l
183 135 189 106 201 94 _c
213 81 238 75 276 75 _c
368 75 _l
368 0 _l
276 0 _l
206 0 158 13 132 39 _c
106 65 93 112 93 180 _c
93 477 _l
27 477 _l
27 547 _l
93 547 _l
93 702 _l
183 702 _l
_cl}_d
/minus{838 0 106 272 732 355 _sc
106 355 _m
732 355 _l
732 272 _l
106 272 _l
106 355 _l
_cl}_d
end readonly def

/BuildGlyph
 {exch begin
 CharStrings exch
 2 copy known not{pop /.notdef}if
 true 3 1 roll get exec
 end}_d

/BuildChar {
 1 index /Encoding get exch get
 1 index /BuildGlyph get exec
}_d

FontName currentdict end definefont pop
%!PS-Adobe-3.0 Resource-Font
%%Title: DejaVu Sans Oblique
%%Copyright: Copyright (c) 2003 by Bitstream, Inc. All Rights Reserved. Copyright (c) 2006 by Tavmjong Bah. All Rights Reserved. DejaVu changes are in public domain 
%%Creator: Converted from TrueType to type 3 by PPR
25 dict begin
/_d{bind def}bind def
/_m{moveto}_d
/_l{lineto}_d
/_cl{closepath eofill}_d
/_c{curveto}_d
/_sc{7 -1 roll{setcachedevice}{pop pop pop pop pop pop}ifelse}_d
/_e{exec}_d
/FontName /DejaVuSans-Oblique def
/PaintType 0 def
/FontMatrix[.001 0 0 .001 0 0]def
/FontBBox[-1016 -350 1659 1068]def
/FontType 3 def
/Encoding [ /A /B /C /X /b /d /e /f /g /l /o /s /t ] def
/FontInfo 10 dict dup begin
/FamilyName (DejaVu Sans) def
/FullName (DejaVu Sans Oblique) def
/Notice (Copyright (c) 2003 by Bitstream, Inc. All Rights Reserved. Copyright (c) 2006 by Tavmjong Bah. All Rights Reserved. DejaVu changes are in public domain ) def
/Weight (Oblique) def
/Version (Version 2.35) def
/ItalicAngle -11.0 def
/isFixedPitch false def
/UnderlinePosition -130 def
/UnderlineThickness 90 def
end readonly def
/CharStrings 14 dict dup begin
/.notdef 0 def
/A{684 0 -52 0 615 729 _sc
368 729 _m
480 729 _l
615 0 _l
512 0 _l
482 187 _l
154 187 _l
51 0 _l
-52 0 _l
368 729 _l
404 632 _m
199 269 _l
467 269 _l
404 632 _l
_cl}_d
/B{{686 0 27 0 625 729 _sc
169 729 _m
421 729 _l
489 729 540 716 574 691 _c
608 665 625 627 625 576 _c
625 529 610 489 581 455 _c
552 421 514 400 467 393 _c
507 383 537 366 557 340 _c
577 314 588 280 588 238 _c
588 164 560 106 506 64 _c
452 21 378 0 284 0 _c
27 0 _l
169 729 _l
193 348 _m
141 81 _l
300 81 _l
359 81 405 94 437 122 _c
469 149 486 188 486 238 _c
}_e{486 276 475 303 454 321 _c
432 339 398 348 351 348 _c
193 348 _l
251 648 _m
208 428 _l
355 428 _l
407 428 448 439 478 462 _c
507 485 522 517 522 557 _c
522 588 512 611 492 626 _c
472 640 440 648 397 648 _c
251 648 _l
_cl}_e}_d
/C{{698 0 42 -13 695 742 _sc
695 673 _m
675 569 _l
643 600 610 623 575 639 _c
540 654 502 662 462 662 _c
406 662 357 648 315 622 _c
273 595 236 554 206 500 _c
186 464 171 427 161 388 _c
151 349 146 310 146 270 _c
146 203 163 152 197 118 _c
231 83 281 66 347 66 _c
392 66 435 73 477 87 _c
519 101 559 123 599 153 _c
576 36 _l
537 19 498 7 458 -1 _c
}_e{418 -9 379 -13 340 -13 _c
246 -13 173 12 121 62 _c
68 112 42 183 42 274 _c
42 332 52 389 72 445 _c
92 501 120 552 158 598 _c
198 647 243 683 294 707 _c
345 730 404 742 472 742 _c
514 742 553 736 590 725 _c
627 713 662 696 695 673 _c
_cl}_e}_d
/X{685 0 -42 0 703 729 _sc
137 729 _m
237 729 _l
362 466 _l
588 729 _l
703 729 _l
403 381 _l
584 0 _l
485 0 _l
338 307 _l
72 0 _l
-42 0 _l
298 392 _l
137 729 _l
_cl}_d
/b{{635 0 36 -13 587 760 _sc
495 334 _m
495 381 484 418 462 445 _c
440 471 411 485 373 485 _c
345 485 319 478 295 464 _c
271 450 250 431 232 406 _c
213 378 198 347 187 311 _c
176 275 171 240 171 205 _c
171 160 181 125 203 99 _c
224 73 253 61 291 61 _c
319 61 345 67 369 81 _c
393 94 415 113 433 139 _c
451 165 466 196 478 232 _c
489 268 495 302 495 334 _c
216 464 _m
}_e{238 494 265 517 299 534 _c
332 551 367 560 404 560 _c
460 560 504 541 537 503 _c
570 465 587 414 587 350 _c
587 297 577 246 558 197 _c
538 147 511 103 475 65 _c
451 39 424 20 394 7 _c
363 -6 331 -13 298 -13 _c
262 -13 232 -5 206 11 _c
180 27 158 51 142 83 _c
126 0 _l
36 0 _l
184 760 _l
274 760 _l
216 464 _l
_cl}_e}_d
/d{{635 0 46 -13 639 760 _sc
418 82 _m
394 50 365 27 332 11 _c
299 -5 263 -13 223 -13 _c
168 -13 125 5 93 42 _c
61 79 46 130 46 195 _c
46 249 55 300 75 349 _c
94 398 122 442 158 481 _c
182 507 209 526 239 540 _c
269 553 301 560 335 560 _c
370 560 401 551 428 534 _c
454 517 475 493 490 462 _c
549 760 _l
639 760 _l
491 0 _l
401 0 _l
418 82 _l
139 211 _m
}_e{139 163 149 126 171 100 _c
192 74 222 61 260 61 _c
288 61 314 67 338 81 _c
362 95 383 115 401 141 _c
420 168 435 200 446 236 _c
457 272 463 307 463 342 _c
463 387 452 422 431 448 _c
409 473 380 486 343 486 _c
314 486 287 479 263 466 _c
239 452 218 433 201 408 _c
182 381 167 350 156 314 _c
144 278 139 243 139 211 _c
_cl}_e}_d
/e{{615 0 46 -13 571 560 _sc
481 322 _m
481 327 482 332 483 338 _c
483 344 484 349 484 355 _c
484 395 472 426 449 449 _c
425 472 394 484 354 484 _c
309 484 270 469 236 441 _c
202 413 176 373 158 322 _c
481 322 _l
559 252 _m
141 252 _l
139 239 137 229 137 222 _c
136 215 136 209 136 204 _c
136 158 150 123 178 99 _c
206 74 245 62 296 62 _c
334 62 371 66 406 75 _c
}_e{441 83 474 96 504 114 _c
487 25 _l
454 11 420 2 386 -4 _c
352 -10 317 -13 282 -13 _c
206 -13 147 5 107 41 _c
66 77 46 128 46 195 _c
46 251 56 304 76 353 _c
96 402 126 446 166 485 _c
191 509 221 527 256 540 _c
291 553 328 560 368 560 _c
430 560 479 541 516 504 _c
552 467 571 417 571 355 _c
571 340 570 324 568 307 _c
566 289 563 271 559 252 _c
_cl}_e}_d
/f{352 0 68 0 478 760 _sc
478 760 _m
464 685 _l
378 685 _l
345 685 321 678 307 665 _c
292 652 281 629 274 595 _c
264 547 _l
412 547 _l
399 477 _l
251 477 _l
158 0 _l
68 0 _l
161 477 _l
75 477 _l
88 547 _l
174 547 _l
181 585 _l
193 649 215 695 246 721 _c
277 747 326 760 393 760 _c
478 760 _l
_cl}_d
/g{{635 0 32 -207 596 560 _sc
596 547 _m
503 68 _l
485 -24 450 -92 400 -138 _c
349 -184 281 -207 196 -207 _c
164 -207 134 -204 107 -200 _c
80 -195 55 -188 32 -178 _c
49 -91 _l
71 -105 94 -115 119 -122 _c
143 -129 170 -133 198 -133 _c
255 -133 302 -117 339 -86 _c
375 -55 399 -11 411 47 _c
419 88 _l
393 59 364 37 331 22 _c
298 7 262 0 224 0 _c
168 0 125 18 93 55 _c
}_e{61 91 46 142 46 206 _c
46 256 55 306 75 354 _c
94 402 121 445 156 483 _c
178 507 205 526 236 540 _c
267 553 299 560 333 560 _c
369 560 401 551 429 534 _c
456 517 476 493 490 462 _c
506 547 _l
596 547 _l
461 346 _m
461 390 450 425 429 449 _c
408 473 379 485 341 485 _c
317 485 294 480 273 471 _c
251 461 233 448 218 431 _c
193 403 174 370 160 332 _c
}_e{146 294 139 255 139 215 _c
139 169 149 135 170 111 _c
191 87 221 75 261 75 _c
318 75 366 100 404 152 _c
442 204 461 268 461 346 _c
_cl}_e}_d
/l{278 0 35 0 273 760 _sc
183 760 _m
273 760 _l
125 0 _l
35 0 _l
183 760 _l
_cl}_d
/o{{612 0 46 -13 566 560 _sc
254 -13 _m
190 -13 139 6 102 45 _c
64 84 46 138 46 207 _c
46 247 52 287 65 328 _c
77 369 94 404 115 432 _c
147 476 183 508 223 529 _c
263 549 308 560 358 560 _c
420 560 470 540 508 502 _c
546 463 566 412 566 350 _c
566 306 559 263 547 220 _c
534 177 517 142 497 114 _c
465 70 429 37 389 17 _c
349 -3 304 -13 254 -13 _c
139 210 _m
}_e{139 160 149 123 170 99 _c
190 74 222 62 264 62 _c
324 62 373 88 413 141 _c
453 193 473 260 473 341 _c
473 388 462 424 441 448 _c
420 472 389 484 348 484 _c
314 484 283 476 257 460 _c
231 444 207 420 187 388 _c
171 364 159 336 151 305 _c
143 274 139 242 139 210 _c
_cl}_e}_d
/s{{521 0 11 -13 500 560 _sc
500 531 _m
483 446 _l
459 458 433 468 407 475 _c
381 481 354 485 326 485 _c
278 485 241 477 214 461 _c
187 445 174 423 174 395 _c
174 363 205 338 269 321 _c
273 319 277 318 279 318 _c
308 309 _l
368 292 408 274 428 256 _c
448 238 458 213 458 182 _c
458 124 435 77 389 41 _c
343 5 282 -13 208 -13 _c
179 -13 149 -10 117 -5 _c
}_e{85 0 49 8 11 20 _c
29 113 _l
61 95 94 82 126 74 _c
158 65 188 61 218 61 _c
262 61 297 70 325 89 _c
352 108 366 132 366 161 _c
366 192 330 217 258 237 _c
249 239 _l
218 247 _l
172 259 138 274 117 294 _c
96 314 86 339 86 370 _c
86 428 107 475 151 509 _c
195 543 254 560 330 560 _c
360 560 389 557 417 552 _c
445 547 472 540 500 531 _c
_cl}_e}_d
/t{{392 0 64 0 423 702 _sc
423 547 _m
409 477 _l
230 477 _l
172 180 _l
170 169 168 160 167 152 _c
166 144 166 139 166 135 _c
166 114 172 99 185 89 _c
197 79 217 75 245 75 _c
336 75 _l
321 0 _l
235 0 _l
181 0 141 10 115 31 _c
89 52 76 84 76 126 _c
76 133 76 141 77 150 _c
78 159 80 169 82 180 _c
140 477 _l
64 477 _l
78 547 _l
153 547 _l
183 702 _l
}_e{273 702 _l
243 547 _l
423 547 _l
_cl}_e}_d
end readonly def

/BuildGlyph
 {exch begin
 CharStrings exch
 2 copy known not{pop /.notdef}if
 true 3 1 roll get exec
 end}_d

/BuildChar {
 1 index /Encoding get exch get
 1 index /BuildGlyph get exec
}_d

FontName currentdict end definefont pop
end
%%EndProlog
mpldict begin
75.6 223.2 translate
460.8 345.6 0 0 clipbox
gsave
0 0 m
460.8 0 l
460.8 345.6 l
0 345.6 l
cl
1.000 setgray
fill
grestore
gsave
57.6 38.016 m
414.72 38.016 l
414.72 304.128 l
57.6 304.128 l
cl
1.000 setgray
fill
grestore
0.800 setlinewidth
1 setlinejoin
0 setlinecap
[] 0 setdash
0.000 setgray
gsave
/o {
gsave
newpath
translate
0.8 setlinewidth
1 setlinejoin
0 setlinecap
0 0 m
0 -3.5 l

gsave
0.000 setgray
fill
grestore
stroke
grestore
} bind def
73.8327 38.016 o
grestore
/DejaVuSans findfont
10.000 scalefont
setfont
gsave
70.653040 23.422250 translate
0.000000 rotate
0.000000 0.000000 m /zero glyphshow
grestore
gsave
/o {
gsave
newpath
translate
0.8 setlinewidth
1 setlinejoin
0 setlinecap
0 0 m
0 -3.5 l

gsave
0.000 setgray
fill
grestore
stroke
grestore
} bind def
138.777 38.016 o
grestore
gsave
126.057875 23.422250 translate
0.000000 rotate
0.000000 0.000000 m /one glyphshow
6.362305 0.000000 m /zero glyphshow
12.724609 0.000000 m /zero glyphshow
19.086914 0.000000 m /zero glyphshow
grestore
gsave
/o {
gsave
newpath
translate
0.8 setlinewidth
1 setlinejoin
0 setlinecap
0 0 m
0 -3.5 l

gsave
0.000 setgray
fill
grestore
stroke
grestore
} bind def
203.721 38.016 o
grestore
gsave
191.001773 23.422250 translate
0.000000 rotate
0.000000 0.000000 m /two glyphshow
6.362305 0.000000 m /zero glyphshow
12.724609 0.000000 m /zero glyphshow
19.086914 0.000000 m /zero glyphshow
grestore
gsave
/o {
gsave
newpath
translate
0.8 setlinewidth
1 setlinejoin
0 setlinecap
0 0 m
0 -3.5 l

gsave
0.000 setgray
fill
grestore
stroke
grestore
} bind def
268.664 38.016 o
grestore
gsave
255.945671 23.422250 translate
0.000000 rotate
0.000000 0.000000 m /three glyphshow
6.362305 0.000000 m /zero glyphshow
12.724609 0.000000 m /zero glyphshow
19.086914 0.000000 m /zero glyphshow
grestore
gsave
/o {
gsave
newpath
translate
0.8 setlinewidth
1 setlinejoin
0 setlinecap
0 0 m
0 -3.5 l

gsave
0.000 setgray
fill
grestore
stroke
grestore
} bind def
333.608 38.016 o
grestore
gsave
320.889569 23.422250 translate
0.000000 rotate
0.000000 0.000000 m /four glyphshow
6.362305 0.000000 m /zero glyphshow
12.724609 0.000000 m /zero glyphshow
19.086914 0.000000 m /zero glyphshow
grestore
gsave
/o {
gsave
newpath
translate
0.8 setlinewidth
1 setlinejoin
0 setlinecap
0 0 m
0 -3.5 l

gsave
0.000 setgray
fill
grestore
stroke
grestore
} bind def
398.552 38.016 o
grestore
gsave
385.833467 23.422250 translate
0.000000 rotate
0.000000 0.000000 m /five glyphshow
6.362305 0.000000 m /zero glyphshow
12.724609 0.000000 m /zero glyphshow
19.086914 0.000000 m /zero glyphshow
grestore
/DejaVuSans findfont
14.000 scalefont
setfont
gsave
206.480312 6.703500 translate
0.000000 rotate
0.000000 0.000000 m /I glyphshow
4.128906 0.000000 m /t glyphshow
9.618164 0.000000 m /e glyphshow
18.231445 0.000000 m /r glyphshow
23.987305 0.000000 m /a glyphshow
32.566406 0.000000 m /t glyphshow
38.055664 0.000000 m /i glyphshow
41.945312 0.000000 m /o glyphshow
50.510742 0.000000 m /n glyphshow
grestore
gsave
/o {
gsave
newpath
translate
0.8 setlinewidth
1 setlinejoin
0 setlinecap
0 0 m
-3.5 0 l

gsave
0.000 setgray
fill
grestore
stroke
grestore
} bind def
57.6 63.1107 o
grestore
/DejaVuSans findfont
10.000 scalefont
setfont
gsave
29.506250 59.313786 translate
0.000000 rotate
0.000000 0.000000 m /minus glyphshow
8.378906 0.000000 m /one glyphshow
14.741211 0.000000 m /zero glyphshow
grestore
gsave
/o {
gsave
newpath
translate
0.8 setlinewidth
1 setlinejoin
0 setlinecap
0 0 m
-3.5 0 l

gsave
0.000 setgray
fill
grestore
stroke
grestore
} bind def
57.6 99.2992 o
grestore
gsave
35.865625 95.502281 translate
0.000000 rotate
0.000000 0.000000 m /minus glyphshow
8.378906 0.000000 m /eight glyphshow
grestore
gsave
/o {
gsave
newpath
translate
0.8 setlinewidth
1 setlinejoin
0 setlinecap
0 0 m
-3.5 0 l

gsave
0.000 setgray
fill
grestore
stroke
grestore
} bind def
57.6 135.488 o
grestore
gsave
35.865625 131.690777 translate
0.000000 rotate
0.000000 0.000000 m /minus glyphshow
8.378906 0.000000 m /six glyphshow
grestore
gsave
/o {
gsave
newpath
translate
0.8 setlinewidth
1 setlinejoin
0 setlinecap
0 0 m
-3.5 0 l

gsave
0.000 setgray
fill
grestore
stroke
grestore
} bind def
57.6 171.676 o
grestore
gsave
35.865625 167.879272 translate
0.000000 rotate
0.000000 0.000000 m /minus glyphshow
8.378906 0.000000 m /four glyphshow
grestore
gsave
/o {
gsave
newpath
translate
0.8 setlinewidth
1 setlinejoin
0 setlinecap
0 0 m
-3.5 0 l

gsave
0.000 setgray
fill
grestore
stroke
grestore
} bind def
57.6 207.865 o
grestore
gsave
35.865625 204.067767 translate
0.000000 rotate
0.000000 0.000000 m /minus glyphshow
8.378906 0.000000 m /two glyphshow
grestore
gsave
/o {
gsave
newpath
translate
0.8 setlinewidth
1 setlinejoin
0 setlinecap
0 0 m
-3.5 0 l

gsave
0.000 setgray
fill
grestore
stroke
grestore
} bind def
57.6 244.053 o
grestore
gsave
44.240625 240.256263 translate
0.000000 rotate
0.000000 0.000000 m /zero glyphshow
grestore
gsave
/o {
gsave
newpath
translate
0.8 setlinewidth
1 setlinejoin
0 setlinecap
0 0 m
-3.5 0 l

gsave
0.000 setgray
fill
grestore
stroke
grestore
} bind def
57.6 280.242 o
grestore
gsave
44.240625 276.444758 translate
0.000000 rotate
0.000000 0.000000 m /two glyphshow
grestore
gsave
22.506250 133.572000 translate
90.000000 rotate
/DejaVuSans-Oblique findfont
14.0 scalefont
setfont
0.000000 0.359375 moveto
/l glyphshow

3.889648 0.359375 moveto
/o glyphshow

12.455078 0.359375 moveto
/g glyphshow

21.341797 0.359375 moveto
/f glyphshow

/DejaVuSans findfont
9.8 scalefont
setfont
26.270508 -1.937500 moveto
/one glyphshow

/DejaVuSans findfont
14.0 scalefont
setfont
32.888379 0.359375 moveto
/parenleft glyphshow

/DejaVuSans-Oblique findfont
14.0 scalefont
setfont
38.350293 0.359375 moveto
/X glyphshow

/DejaVuSans-Oblique findfont
9.8 scalefont
setfont
47.941113 -1.937500 moveto
/b glyphshow

54.161816 -1.937500 moveto
/e glyphshow

60.191113 -1.937500 moveto
/s glyphshow

65.296875 -1.937500 moveto
/t glyphshow

/DejaVuSans findfont
14.0 scalefont
setfont
69.522168 0.359375 moveto
/parenright glyphshow


grestore
1.500 setlinewidth
2 setlinecap
0.122 0.467 0.706 setrgbcolor
gsave
357.1 266.1 57.6 38.02 clipbox
73.832727 291.928924 m
75.456325 288.372435 l
75.845988 287.622276 l
76.625315 286.130224 l
77.274754 285.066651 l
77.859249 284.051905 l
78.70352 282.786521 l
78.898351 282.54543 l
80.197229 280.297442 l
81.561051 278.435248 l
82.275434 277.471344 l
83.37948 276.141438 l
83.899031 275.550452 l
84.678358 274.800308 l
84.808246 274.742372 l
85.068022 274.445148 l
85.262853 274.227733 l
85.782404 273.696781 l
86.431843 273.075013 l
86.691619 272.808449 l
87.21117 272.21173 l
87.600834 271.743775 l
87.925553 271.474863 l
88.250273 271.224565 l
88.899712 270.701602 l
89.159487 270.383626 l
89.354319 270.215146 l
89.743982 269.891863 l
89.938814 269.731626 l
90.523309 269.194383 l
92.276794 267.772968 l
92.861289 267.267719 l
93.121065 267.148923 l
93.575672 266.810987 l
93.965336 266.567276 l
94.614775 265.914872 l
94.744662 265.810132 l
95.588933 265.105999 l
95.913653 264.699423 l
97.407362 263.897366 l
98.771184 263.14526 l
99.290735 262.962451 l
99.745343 262.738692 l
100.070062 262.529851 l
100.394782 262.254752 l
100.719501 262.018914 l
101.174108 261.623002 l
101.693659 261.338484 l
101.953435 261.207793 l
102.148267 261.077922 l
102.602874 260.850145 l
102.992537 260.616452 l
104.096584 259.876417 l
104.421303 259.70735 l
105.005798 259.377153 l
105.330518 259.166645 l
105.590293 259.059501 l
105.915013 258.830558 l
106.36962 258.647305 l
107.213891 258.157296 l
108.317937 257.665975 l
108.512769 257.552554 l
109.941534 256.862619 l
110.720861 256.471845 l
110.980637 256.350437 l
111.305356 256.038119 l
111.759964 255.873821 l
112.149627 255.717816 l
112.409403 255.612812 l
114.877271 254.532835 l
115.396822 254.291152 l
115.851429 254.123747 l
116.046261 253.980904 l
116.435924 253.790931 l
118.773905 252.306875 l
118.968736 252.118172 l
119.3584 252.000479 l
120.007839 251.715419 l
120.397502 251.387956 l
121.046941 251.080377 l
121.241773 250.854366 l
122.670538 249.993843 l
122.735482 249.991613 l
122.930314 249.751397 l
123.319977 249.631289 l
123.579753 249.487797 l
123.839529 249.391501 l
124.099304 249.234025 l
124.943575 249.133721 l
125.917733 248.595069 l
126.112565 248.416798 l
126.567172 248.345164 l
127.086724 247.782538 l
128.385601 247.092896 l
128.580433 246.876408 l
128.645377 246.87636 l
128.775265 246.654628 l
128.905153 246.652948 l
129.099984 246.519381 l
129.35976 246.413087 l
129.749423 245.990054 l
130.139087 245.833524 l
130.268975 245.68636 l
131.69774 245.32759 l
131.892572 245.127051 l
131.957516 245.122197 l
132.087404 244.96677 l
132.217291 244.854967 l
132.477067 244.618 l
132.736843 244.567527 l
132.931674 244.477647 l
133.061562 244.437957 l
133.386282 244.123411 l
133.516169 244.058328 l
134.035721 243.379574 l
134.879991 242.951403 l
135.659318 242.012952 l
136.113925 241.897381 l
136.373701 241.719077 l
136.568533 241.225166 l
136.958196 241.136403 l
137.088084 240.974988 l
137.477747 240.830391 l
137.672579 240.359656 l
138.776625 240.063081 l
138.906513 239.775265 l
139.101345 239.774761 l
139.231232 239.394526 l
139.620896 239.288596 l
140.075503 238.665877 l
140.270335 238.561166 l
140.919774 238.460925 l
140.984718 238.460854 l
141.114605 238.225072 l
141.179549 238.225005 l
141.309437 238.035788 l
141.958876 237.827379 l
142.153708 237.467545 l
142.478427 237.456361 l
142.673259 237.298243 l
142.868091 237.219765 l
143.062922 237.156861 l
143.19281 237.100089 l
143.322698 236.968208 l
143.452586 236.968136 l
143.647417 236.636118 l
144.037081 236.412905 l
144.231913 235.894643 l
145.076183 235.803046 l
145.530791 234.103855 l
145.595734 234.103855 l
145.790566 233.243297 l
146.375061 233.218472 l
146.504949 232.834855 l
146.569893 232.831062 l
146.699781 232.687044 l
147.154388 232.573423 l
147.34922 232.470566 l
147.673939 232.446343 l
147.868771 231.129289 l
148.19349 231.066826 l
148.323378 230.312055 l
148.907873 230.104778 l
149.102705 229.981162 l
149.752144 229.910281 l
149.882032 229.748489 l
150.141807 229.747683 l
150.271695 229.392854 l
150.401583 229.39046 l
150.596415 228.090688 l
151.115966 228.07106 l
151.245854 227.816776 l
151.960236 227.802401 l
152.090124 227.191109 l
152.999339 227.139546 l
153.129227 226.767054 l
154.363161 226.71565 l
154.493048 225.242175 l
154.947656 225.239305 l
155.077544 224.543014 l
155.402263 224.470148 l
155.597095 224.371921 l
157.220692 224.368173 l
157.35058 222.617365 l
157.740243 222.617352 l
157.870131 222.485148 l
158.259795 222.413043 l
158.389682 222.010126 l
160.662719 221.90667 l
161.571933 221.865644 l
161.896653 221.86564 l
162.026541 220.432421 l
163.455306 220.432149 l
163.585194 219.54661 l
165.143848 219.546529 l
165.273735 216.216939 l
165.338679 216.216939 l
165.468567 214.516784 l
165.533511 214.512895 l
165.663399 213.647981 l
166.377782 213.642294 l
166.572613 211.115611 l
168.975538 211.038564 l
169.105425 202.605545 l
170.404303 202.605506 l
170.534191 202.407726 l
171.768125 202.3862 l
171.898013 202.159024 l
181.379822 202.110672 l
181.574654 202.040883 l
214.566154 202.040882 l
214.696042 185.835368 l
214.890873 185.219075 l
214.955817 185.207044 l
215.085705 184.877459 l
215.475369 184.795836 l
216.384583 184.747826 l
216.514471 181.071597 l
219.436946 181.055804 l
219.566834 172.192808 l
221.255375 172.163036 l
221.385263 171.173425 l
222.16459 171.173253 l
222.294478 165.285866 l
223.008861 165.225584 l
223.203692 165.10966 l
227.48999 165.00226 l
227.619877 163.776087 l
228.594036 163.775099 l
228.723924 163.390704 l
229.82797 163.333394 l
229.957858 162.877336 l
230.087746 162.864884 l
230.217633 162.115761 l
230.607297 162.049324 l
230.737185 160.14745 l
237.881013 160.093955 l
238.010901 159.964259 l
238.530452 159.962737 l
238.66034 159.842351 l
241.517872 159.742455 l
241.647759 159.526571 l
255.221034 159.495908 l
256.260136 159.485904 l
256.390024 159.343187 l
258.533173 159.333245 l
258.663061 159.218669 l
266.391384 159.1838 l
266.521272 147.452481 l
267.040823 147.451133 l
267.170711 130.483979 l
267.495431 130.479734 l
267.560375 130.075375 l
267.690262 122.423164 l
267.755206 122.423164 l
267.885094 117.542764 l
268.14487 116.367301 l
268.859253 116.286092 l
269.054084 114.990504 l
269.183972 114.689995 l
270.223074 114.681921 l
270.352962 114.514432 l
271.262177 114.512252 l
271.392065 113.840714 l
271.716784 113.836934 l
271.846672 113.720615 l
273.015662 113.645727 l
273.210494 111.499569 l
279.510052 111.389016 l
279.704884 111.302857 l
280.354323 111.302469 l
280.48421 111.084816 l
281.068705 111.062745 l
281.198593 102.655065 l
281.393425 102.647988 l
281.523313 99.86537 l
283.211854 99.796721 l
283.341742 98.739806 l
283.731405 98.739776 l
283.861293 95.583414 l
283.991181 95.543053 l
284.121069 95.296846 l
284.835451 95.291345 l
284.965339 93.626315 l
285.679722 93.565645 l
285.80961 92.724514 l
285.874554 92.724514 l
286.004442 92.356498 l
286.718824 92.356093 l
286.848712 89.068979 l
339.323382 89.068939 l
339.45327 88.660665 l
339.518213 88.660665 l
339.648101 86.40394 l
339.713045 86.40394 l
339.842933 86.275264 l
339.907877 86.275264 l
340.037765 86.160462 l
341.46653 86.108866 l
341.596418 85.955618 l
343.090128 85.842172 l
343.220016 84.475369 l
343.479791 84.470683 l
343.609679 84.104806 l
348.480471 84.005087 l
348.740247 83.968197 l
356.728346 83.859278 l
358.092168 83.776067 l
360.105429 83.76482 l
360.235317 83.604139 l
364.067007 83.497194 l
364.521614 83.47977 l
365.690604 83.393907 l
365.885436 83.231107 l
366.404987 83.195877 l
366.534875 82.64189 l
368.872855 82.564821 l
369.002743 82.09928 l
369.652182 82.086825 l
376.990843 82.025941 l
377.12073 81.917717 l
378.679384 81.917056 l
378.809272 81.801807 l
379.133991 81.801807 l
379.263879 81.579708 l
379.588598 81.5797 l
379.718486 81.397698 l
379.848374 81.397637 l
379.978262 81.285122 l
380.043206 81.285122 l
380.173094 79.679325 l
380.432869 79.674486 l
380.562757 78.246207 l
381.017364 78.243343 l
381.147252 77.999078 l
382.511074 77.942803 l
382.640962 76.895206 l
382.770849 76.693115 l
382.900737 76.692338 l
383.030625 74.325854 l
383.095569 74.325854 l
383.225457 74.143469 l
383.420288 74.142218 l
383.550176 73.691485 l
383.874896 73.689068 l
384.004784 73.294311 l
384.329503 73.276934 l
384.459391 73.089815 l
384.654222 73.08979 l
384.78411 72.518347 l
384.978942 72.516269 l
385.10883 72.178469 l
385.303661 72.126395 l
385.368605 72.126395 l
385.498493 71.54172 l
385.758269 71.541445 l
386.018044 70.776677 l
386.082988 70.77533 l
386.27782 70.414593 l
386.992203 70.397541 l
387.122091 70.173876 l
387.77153 70.160336 l
387.901417 69.937064 l
388.356025 69.879326 l
388.485912 69.65002 l
388.6158 69.65002 l
388.745688 69.350678 l
391.538276 69.118485 l
391.733107 69.11836 l
391.862995 68.972185 l
395.240078 68.86858 l
395.43491 68.781889 l
395.694685 68.781672 l
395.824573 68.135961 l
398.487273 68.078107 l
398.487273 68.078107 l
stroke
grestore
1.000 setlinewidth
0 setlinecap
gsave
357.1 266.1 57.6 38.02 clipbox
/o {
gsave
newpath
translate
1.0 setlinewidth
1 setlinejoin
0 setlinecap
0 -3 m
0.795609 -3 1.55874 -2.683901 2.12132 -2.12132 c
2.683901 -1.55874 3 -0.795609 3 0 c
3 0.795609 2.683901 1.55874 2.12132 2.12132 c
1.55874 2.683901 0.795609 3 0 3 c
-0.795609 3 -1.55874 2.683901 -2.12132 2.12132 c
-2.683901 1.55874 -3 0.795609 -3 0 c
-3 -0.795609 -2.683901 -1.55874 -2.12132 -2.12132 c
-1.55874 -2.683901 -0.795609 -3 0 -3 c
cl

gsave
0.122 0.467 0.706 setrgbcolor
fill
grestore
stroke
grestore
} bind def
73.8327 291.929 o
120.203 251.596 o
166.573 211.116 o
212.943 202.041 o
259.312 159.19 o
305.682 89.0689 o
352.052 83.8972 o
398.422 68.0781 o
grestore
1.500 setlinewidth
2 setlinecap
1.000 0.498 0.055 setrgbcolor
gsave
357.1 266.1 57.6 38.02 clipbox
73.832727 292.032 m
74.676998 289.750494 l
76.235651 285.823124 l
76.625315 284.870207 l
77.079922 283.930974 l
77.729361 282.566895 l
77.924193 282.157648 l
78.963295 279.973394 l
79.223071 279.522437 l
79.612734 278.647321 l
80.067341 277.827937 l
80.71678 276.612713 l
83.314536 272.465165 l
85.392741 269.740115 l
85.652517 269.421705 l
86.431843 268.582899 l
86.756563 268.097595 l
87.53589 267.331447 l
88.055441 266.79333 l
88.445104 266.340324 l
88.834768 265.90118 l
89.549151 265.118159 l
89.743982 264.943767 l
90.133646 264.499031 l
90.588253 264.214873 l
91.04286 263.785681 l
91.172748 263.633936 l
91.562411 263.317043 l
91.627355 263.311217 l
91.887131 263.012377 l
93.575672 261.500576 l
93.770504 261.359196 l
94.549831 260.569644 l
95.264214 259.835651 l
95.718821 259.373722 l
96.36826 258.858649 l
98.186689 257.251402 l
98.381521 257.069777 l
98.576352 256.963199 l
98.836128 256.649066 l
99.355679 256.270517 l
99.810286 256.050483 l
100.524669 255.341662 l
100.914333 255.105505 l
101.36894 254.406716 l
101.628716 254.208208 l
101.823547 254.060307 l
102.927594 253.293094 l
103.122425 253.096243 l
103.966696 252.433682 l
104.226471 252.323337 l
104.486247 252.21188 l
105.20063 251.661706 l
105.785125 251.204741 l
106.109845 250.783653 l
107.798386 248.818091 l
107.86333 248.787252 l
108.058161 248.607483 l
108.447825 248.353636 l
108.642657 248.287591 l
108.837488 248.039985 l
108.967376 247.946415 l
109.616815 247.552653 l
110.590973 246.306806 l
110.655917 246.30618 l
110.850749 246.109734 l
111.565132 245.346644 l
111.954795 244.85133 l
112.149627 244.746113 l
112.474347 244.591201 l
112.734122 244.110552 l
112.86401 244.043247 l
113.188729 243.491775 l
113.448505 243.406497 l
113.643337 243.113944 l
113.838168 243.070125 l
114.033 242.549175 l
114.227832 242.141331 l
114.35772 241.844168 l
114.422663 241.834279 l
114.617495 241.04317 l
114.682439 241.032204 l
115.20199 240.187279 l
115.591654 240.129095 l
116.046261 239.343848 l
116.241093 239.30035 l
116.37098 238.982982 l
116.500868 238.968461 l
116.6957 238.668621 l
116.955475 238.51473 l
117.085363 238.12286 l
117.280195 237.693625 l
117.410083 237.692901 l
117.539971 237.435942 l
118.124466 237.168425 l
118.254353 237.002737 l
118.319297 237.002712 l
118.449185 236.696366 l
119.748063 236.38723 l
119.877951 236.091312 l
120.007839 236.090105 l
120.397502 235.318808 l
120.462446 235.318493 l
120.657278 234.803359 l
120.917053 234.329733 l
121.241773 234.279868 l
121.306717 234.175216 l
121.501548 232.988188 l
121.566492 232.988178 l
121.69638 232.558706 l
122.086043 232.382569 l
122.215931 231.764716 l
123.060202 231.666335 l
123.19009 231.052226 l
124.229192 230.827652 l
124.424024 229.952146 l
124.813687 229.928445 l
124.943575 229.719588 l
125.20335 229.719119 l
125.333238 229.264246 l
125.657958 229.260748 l
125.787846 228.808975 l
126.307397 228.754222 l
126.437285 227.762591 l
126.632116 227.762221 l
126.762004 227.600932 l
127.281555 227.57336 l
127.411443 227.450884 l
127.801106 227.439065 l
127.930994 226.727613 l
128.060882 226.695766 l
128.19077 225.782657 l
129.099984 225.717183 l
129.229872 224.396083 l
129.294816 224.396067 l
129.424704 223.570659 l
130.074143 223.562786 l
130.204031 223.100547 l
130.723582 222.969364 l
130.918414 222.867803 l
131.502909 222.85357 l
131.632796 222.220623 l
131.957516 222.207565 l
132.087404 222.052499 l
132.217291 215.511637 l
133.256394 215.489449 l
133.775945 215.479084 l
133.970777 213.807943 l
135.009879 213.747013 l
135.139767 213.499279 l
175.924535 213.385892 l
176.054423 213.173259 l
180.145888 213.157371 l
180.275776 211.284213 l
180.665439 211.283522 l
180.795327 210.817357 l
181.574654 210.817139 l
181.704542 197.342316 l
182.289037 197.341615 l
182.418925 197.034322 l
182.808588 197.034139 l
182.938476 182.638779 l
183.328139 182.63799 l
183.393083 182.067456 l
183.522971 179.486311 l
185.276456 179.431077 l
185.406344 179.264712 l
185.666119 179.206275 l
186.120727 178.64657 l
187.354661 178.629286 l
194.108826 178.532577 l
194.238714 175.344785 l
194.49849 175.344591 l
194.628377 171.699766 l
194.758265 171.039706 l
195.407704 170.972072 l
195.602536 170.910706 l
196.641638 170.909908 l
196.771526 165.225028 l
197.485909 165.20808 l
197.680741 165.207918 l
197.810628 163.431921 l
197.875572 163.431921 l
198.00546 162.357713 l
198.135348 162.357604 l
198.265236 150.373418 l
198.525011 150.350751 l
198.654899 150.229586 l
200.018721 150.142482 l
200.148609 149.77502 l
200.603216 149.771922 l
200.733104 147.284204 l
201.057823 147.28079 l
201.187711 146.462705 l
201.317599 146.462369 l
201.577374 142.095131 l
201.642318 142.09472 l
201.772206 141.767068 l
201.902094 130.49007 l
201.967038 130.489346 l
202.096926 129.800517 l
202.356701 129.791841 l
202.486589 123.171589 l
202.551533 123.171569 l
202.681421 121.601978 l
203.265916 121.573694 l
203.460747 120.48588 l
203.525691 120.485462 l
203.655579 112.361674 l
203.915355 108.298864 l
204.045243 107.552329 l
204.240074 107.507596 l
204.369962 107.156556 l
204.434906 107.156428 l
204.564794 106.995459 l
204.824569 106.990473 l
204.954457 105.830004 l
205.474008 105.794187 l
205.603896 104.551529 l
206.058503 104.520212 l
206.188391 104.369069 l
206.318279 104.36889 l
206.448167 102.493153 l
206.578055 102.491422 l
206.772886 101.670467 l
207.422325 101.560919 l
207.487269 101.481405 l
207.617157 100.992932 l
208.201652 100.889136 l
208.526371 100.469698 l
208.656259 99.440309 l
208.786147 99.396566 l
208.916035 97.316171 l
209.305698 97.228276 l
209.435586 97.148916 l
209.565474 95.38069 l
209.890193 95.122131 l
210.085025 95.101116 l
210.344801 94.724348 l
210.929296 94.661882 l
211.318959 94.130471 l
211.513791 94.121531 l
211.643679 93.227366 l
212.423005 93.213801 l
212.552893 93.081992 l
214.176491 92.979715 l
214.436266 92.930919 l
216.059864 92.826715 l
216.319639 92.791107 l
220.605936 92.770648 l
220.735824 92.610468 l
261.715424 92.571415 l
261.845312 90.239058 l
265.027563 90.204461 l
265.15745 83.356881 l
266.326441 83.326645 l
266.456328 82.14759 l
266.65116 82.147423 l
266.781048 80.960264 l
266.910936 80.678212 l
266.97588 80.678212 l
267.105767 79.622898 l
269.248916 79.595415 l
269.378804 79.09555 l
269.508692 79.095036 l
269.638579 78.64271 l
271.132289 78.589641 l
271.262177 78.006705 l
272.431167 78.00359 l
272.561055 77.790965 l
273.210494 77.788592 l
273.340382 77.492551 l
273.989821 77.482558 l
274.379484 76.897494 l
275.678362 76.830346 l
275.80825 76.088149 l
276.522633 76.0638 l
276.65252 72.556088 l
276.847352 72.217818 l
277.886454 72.177652 l
278.016342 71.781487 l
279.769827 71.712008 l
280.80893 71.667511 l
280.873874 71.484189 l
281.003761 70.483415 l
282.107808 70.452801 l
282.237696 70.293974 l
282.692303 70.27023 l
282.822191 68.918484 l
283.341742 68.889034 l
283.47163 66.776456 l
283.666461 66.680164 l
284.510732 66.637221 l
284.64062 66.488038 l
285.355003 66.451566 l
285.48489 66.274928 l
287.498151 66.172612 l
287.628039 66.026959 l
328.282919 65.990136 l
328.412807 65.386245 l
328.607639 65.282574 l
335.231916 65.275456 l
335.361804 57.658483 l
339.907877 57.624438 l
340.037765 54.344172 l
341.336643 54.240724 l
341.726306 54.210282 l
341.986082 54.210282 l
342.115969 52.502732 l
344.389006 52.407744 l
344.518894 51.930732 l
345.687884 51.824394 l
346.272379 51.80973 l
347.11665 51.702875 l
347.441369 51.645056 l
348.545415 51.546438 l
348.675303 51.371318 l
350.104069 51.261921 l
350.233957 50.712521 l
352.182274 50.603144 l
352.312161 50.450277 l
354.715086 50.400454 l
354.844973 50.284329 l
357.312841 50.186385 l
357.637561 50.159966 l
398.487273 50.112 l
398.487273 50.112 l
stroke
grestore
1.000 setlinewidth
0 setlinejoin
0 setlinecap
gsave
357.1 266.1 57.6 38.02 clipbox
/o {
gsave
newpath
translate
1.0 setlinewidth
0 setlinejoin
0 setlinecap
-3 -3 m
3 -3 l
3 3 l
-3 3 l
cl

gsave
1.000 0.498 0.055 setrgbcolor
fill
grestore
stroke
grestore
} bind def
73.8327 292.032 o
120.203 235.729 o
166.573 213.397 o
212.943 93.077 o
259.312 92.5714 o
305.682 65.9901 o
352.052 50.6093 o
398.422 50.112 o
grestore
0.800 setlinewidth
2 setlinecap
[] 0 setdash
0.000 setgray
gsave
57.6 38.016 m
57.6 304.128 l
stroke
grestore
gsave
414.72 38.016 m
414.72 304.128 l
stroke
grestore
gsave
57.6 38.016 m
414.72 38.016 l
stroke
grestore
gsave
57.6 304.128 m
414.72 304.128 l
stroke
grestore
1.000 setlinewidth
0 setlinecap
0.800 setgray
gsave
348.72 265.456125 m
407.72 265.456125 l
409.053333 265.456125 409.72 266.122792 409.72 267.456125 c
409.72 297.128 l
409.72 298.461333 409.053333 299.128 407.72 299.128 c
348.72 299.128 l
347.386667 299.128 346.72 298.461333 346.72 297.128 c
346.72 267.456125 l
346.72 266.122792 347.386667 265.456125 348.72 265.456125 c
cl
gsave
1.000 setgray
fill
grestore
stroke
grestore
1.500 setlinewidth
1 setlinejoin
2 setlinecap
[] 0 setdash
0.122 0.467 0.706 setrgbcolor
gsave
350.72 291.03425 m
370.72 291.03425 l
stroke
grestore
1.000 setlinewidth
0 setlinecap
gsave
/o {
gsave
newpath
translate
1.0 setlinewidth
1 setlinejoin
0 setlinecap
0 -3 m
0.795609 -3 1.55874 -2.683901 2.12132 -2.12132 c
2.683901 -1.55874 3 -0.795609 3 0 c
3 0.795609 2.683901 1.55874 2.12132 2.12132 c
1.55874 2.683901 0.795609 3 0 3 c
-0.795609 3 -1.55874 2.683901 -2.12132 2.12132 c
-2.683901 1.55874 -3 0.795609 -3 0 c
-3 -0.795609 -2.683901 -1.55874 -2.12132 -2.12132 c
-1.55874 -2.683901 -0.795609 -3 0 -3 c
cl

gsave
0.122 0.467 0.706 setrgbcolor
fill
grestore
stroke
grestore
} bind def
360.72 291.034 o
grestore
0.000 setgray
gsave
378.720000 287.534250 translate
0.000000 rotate
/DejaVuSans-Oblique findfont
10.0 scalefont
setfont
0.000000 0.578125 moveto
/A glyphshow

6.840820 0.578125 moveto
/B glyphshow

13.701172 0.578125 moveto
/C glyphshow


grestore
1.500 setlinewidth
2 setlinecap
1.000 0.498 0.055 setrgbcolor
gsave
350.72 275.03425 m
370.72 275.03425 l
stroke
grestore
1.000 setlinewidth
0 setlinejoin
0 setlinecap
gsave
/o {
gsave
newpath
translate
1.0 setlinewidth
0 setlinejoin
0 setlinecap
-3 -3 m
3 -3 l
3 3 l
-3 3 l
cl

gsave
1.000 0.498 0.055 setrgbcolor
fill
grestore
stroke
grestore
} bind def
360.72 275.034 o
grestore
0.000 setgray
gsave
378.720000 271.534250 translate
0.000000 rotate
/DejaVuSans-Oblique findfont
10.0 scalefont
setfont
0.000000 0.856250 moveto
/A glyphshow

6.840820 0.856250 moveto
/B glyphshow

13.701172 0.856250 moveto
/C glyphshow

/DejaVuSans-Oblique findfont
7.0 scalefont
setfont
21.403646 4.684375 moveto
/d glyphshow


grestore

end
showpage
