%!PS-Adobe-3.0 EPSF-3.0
%%Title: /home/gomes/Documentos/gitRepo/mgabc/Texto/images/rastrigin.eps
%%Creator: matplotlib version 2.1.2, http://matplotlib.org/
%%CreationDate: Wed May  2 13:59:31 2018
%%Orientation: portrait
%%BoundingBox: 75 223 536 568
%%EndComments
%%BeginProlog
/mpldict 9 dict def
mpldict begin
/m { moveto } bind def
/l { lineto } bind def
/r { rlineto } bind def
/c { curveto } bind def
/cl { closepath } bind def
/box {
m
1 index 0 r
0 exch r
neg 0 r
cl
} bind def
/clipbox {
box
clip
newpath
} bind def
%!PS-Adobe-3.0 Resource-Font
%%Title: DejaVu Sans Oblique
%%Copyright: Copyright (c) 2003 by Bitstream, Inc. All Rights Reserved. Copyright (c) 2006 by Tavmjong Bah. All Rights Reserved. DejaVu changes are in public domain 
%%Creator: Converted from TrueType to type 3 by PPR
25 dict begin
/_d{bind def}bind def
/_m{moveto}_d
/_l{lineto}_d
/_cl{closepath eofill}_d
/_c{curveto}_d
/_sc{7 -1 roll{setcachedevice}{pop pop pop pop pop pop}ifelse}_d
/_e{exec}_d
/FontName /DejaVuSans-Oblique def
/PaintType 0 def
/FontMatrix[.001 0 0 .001 0 0]def
/FontBBox[-1016 -350 1659 1068]def
/FontType 3 def
/Encoding [ /A /B /C /d ] def
/FontInfo 10 dict dup begin
/FamilyName (DejaVu Sans) def
/FullName (DejaVu Sans Oblique) def
/Notice (Copyright (c) 2003 by Bitstream, Inc. All Rights Reserved. Copyright (c) 2006 by Tavmjong Bah. All Rights Reserved. DejaVu changes are in public domain ) def
/Weight (Oblique) def
/Version (Version 2.35) def
/ItalicAngle -11.0 def
/isFixedPitch false def
/UnderlinePosition -130 def
/UnderlineThickness 90 def
end readonly def
/CharStrings 5 dict dup begin
/.notdef 0 def
/A{684 0 -52 0 615 729 _sc
368 729 _m
480 729 _l
615 0 _l
512 0 _l
482 187 _l
154 187 _l
51 0 _l
-52 0 _l
368 729 _l
404 632 _m
199 269 _l
467 269 _l
404 632 _l
_cl}_d
/B{{686 0 27 0 625 729 _sc
169 729 _m
421 729 _l
489 729 540 716 574 691 _c
608 665 625 627 625 576 _c
625 529 610 489 581 455 _c
552 421 514 400 467 393 _c
507 383 537 366 557 340 _c
577 314 588 280 588 238 _c
588 164 560 106 506 64 _c
452 21 378 0 284 0 _c
27 0 _l
169 729 _l
193 348 _m
141 81 _l
300 81 _l
359 81 405 94 437 122 _c
469 149 486 188 486 238 _c
}_e{486 276 475 303 454 321 _c
432 339 398 348 351 348 _c
193 348 _l
251 648 _m
208 428 _l
355 428 _l
407 428 448 439 478 462 _c
507 485 522 517 522 557 _c
522 588 512 611 492 626 _c
472 640 440 648 397 648 _c
251 648 _l
_cl}_e}_d
/C{{698 0 42 -13 695 742 _sc
695 673 _m
675 569 _l
643 600 610 623 575 639 _c
540 654 502 662 462 662 _c
406 662 357 648 315 622 _c
273 595 236 554 206 500 _c
186 464 171 427 161 388 _c
151 349 146 310 146 270 _c
146 203 163 152 197 118 _c
231 83 281 66 347 66 _c
392 66 435 73 477 87 _c
519 101 559 123 599 153 _c
576 36 _l
537 19 498 7 458 -1 _c
}_e{418 -9 379 -13 340 -13 _c
246 -13 173 12 121 62 _c
68 112 42 183 42 274 _c
42 332 52 389 72 445 _c
92 501 120 552 158 598 _c
198 647 243 683 294 707 _c
345 730 404 742 472 742 _c
514 742 553 736 590 725 _c
627 713 662 696 695 673 _c
_cl}_e}_d
/d{{635 0 46 -13 639 760 _sc
418 82 _m
394 50 365 27 332 11 _c
299 -5 263 -13 223 -13 _c
168 -13 125 5 93 42 _c
61 79 46 130 46 195 _c
46 249 55 300 75 349 _c
94 398 122 442 158 481 _c
182 507 209 526 239 540 _c
269 553 301 560 335 560 _c
370 560 401 551 428 534 _c
454 517 475 493 490 462 _c
549 760 _l
639 760 _l
491 0 _l
401 0 _l
418 82 _l
139 211 _m
}_e{139 163 149 126 171 100 _c
192 74 222 61 260 61 _c
288 61 314 67 338 81 _c
362 95 383 115 401 141 _c
420 168 435 200 446 236 _c
457 272 463 307 463 342 _c
463 387 452 422 431 448 _c
409 473 380 486 343 486 _c
314 486 287 479 263 466 _c
239 452 218 433 201 408 _c
182 381 167 350 156 314 _c
144 278 139 243 139 211 _c
_cl}_e}_d
end readonly def

/BuildGlyph
 {exch begin
 CharStrings exch
 2 copy known not{pop /.notdef}if
 true 3 1 roll get exec
 end}_d

/BuildChar {
 1 index /Encoding get exch get
 1 index /BuildGlyph get exec
}_d

FontName currentdict end definefont pop
%!PS-Adobe-3.0 Resource-Font
%%Title: DejaVu Sans
%%Copyright: Copyright (c) 2003 by Bitstream, Inc. All Rights Reserved. Copyright (c) 2006 by Tavmjong Bah. All Rights Reserved. DejaVu changes are in public domain 
%%Creator: Converted from TrueType to type 3 by PPR
25 dict begin
/_d{bind def}bind def
/_m{moveto}_d
/_l{lineto}_d
/_cl{closepath eofill}_d
/_c{curveto}_d
/_sc{7 -1 roll{setcachedevice}{pop pop pop pop pop pop}ifelse}_d
/_e{exec}_d
/FontName /DejaVuSans def
/PaintType 0 def
/FontMatrix[.001 0 0 .001 0 0]def
/FontBBox[-1021 -463 1793 1232]def
/FontType 3 def
/Encoding [ /parenleft /parenright /period /zero /one /two /four /five /six /seven /eight /D /I /M /a /e /g /i /l /m /n /o /r /s /t /u /v /y /minus ] def
/FontInfo 10 dict dup begin
/FamilyName (DejaVu Sans) def
/FullName (DejaVu Sans) def
/Notice (Copyright (c) 2003 by Bitstream, Inc. All Rights Reserved. Copyright (c) 2006 by Tavmjong Bah. All Rights Reserved. DejaVu changes are in public domain ) def
/Weight (Book) def
/Version (Version 2.35) def
/ItalicAngle 0.0 def
/isFixedPitch false def
/UnderlinePosition -130 def
/UnderlineThickness 90 def
end readonly def
/CharStrings 30 dict dup begin
/.notdef 0 def
/parenleft{390 0 86 -131 310 759 _sc
310 759 _m
266 683 234 609 213 536 _c
191 463 181 389 181 314 _c
181 238 191 164 213 91 _c
234 17 266 -56 310 -131 _c
232 -131 _l
183 -54 146 20 122 94 _c
98 168 86 241 86 314 _c
86 386 98 459 122 533 _c
146 607 182 682 232 759 _c
310 759 _l
_cl}_d
/parenright{390 0 80 -131 304 759 _sc
80 759 _m
158 759 _l
206 682 243 607 267 533 _c
291 459 304 386 304 314 _c
304 241 291 168 267 94 _c
243 20 206 -54 158 -131 _c
80 -131 _l
123 -56 155 17 177 91 _c
198 164 209 238 209 314 _c
209 389 198 463 177 536 _c
155 609 123 683 80 759 _c
_cl}_d
/period{318 0 107 0 210 124 _sc
107 124 _m
210 124 _l
210 0 _l
107 0 _l
107 124 _l
_cl}_d
/zero{636 0 66 -13 570 742 _sc
318 664 _m
267 664 229 639 203 589 _c
177 539 165 464 165 364 _c
165 264 177 189 203 139 _c
229 89 267 64 318 64 _c
369 64 407 89 433 139 _c
458 189 471 264 471 364 _c
471 464 458 539 433 589 _c
407 639 369 664 318 664 _c
318 742 _m
399 742 461 709 505 645 _c
548 580 570 486 570 364 _c
570 241 548 147 505 83 _c
461 19 399 -13 318 -13 _c
236 -13 173 19 130 83 _c
87 147 66 241 66 364 _c
66 486 87 580 130 645 _c
173 709 236 742 318 742 _c
_cl}_d
/one{636 0 110 0 544 729 _sc
124 83 _m
285 83 _l
285 639 _l
110 604 _l
110 694 _l
284 729 _l
383 729 _l
383 83 _l
544 83 _l
544 0 _l
124 0 _l
124 83 _l
_cl}_d
/two{{636 0 73 0 536 742 _sc
192 83 _m
536 83 _l
536 0 _l
73 0 _l
73 83 _l
110 121 161 173 226 239 _c
290 304 331 346 348 365 _c
380 400 402 430 414 455 _c
426 479 433 504 433 528 _c
433 566 419 598 392 622 _c
365 646 330 659 286 659 _c
255 659 222 653 188 643 _c
154 632 117 616 78 594 _c
78 694 _l
118 710 155 722 189 730 _c
223 738 255 742 284 742 _c
}_e{359 742 419 723 464 685 _c
509 647 532 597 532 534 _c
532 504 526 475 515 449 _c
504 422 484 390 454 354 _c
446 344 420 317 376 272 _c
332 227 271 164 192 83 _c
_cl}_e}_d
/four{636 0 49 0 580 729 _sc
378 643 _m
129 254 _l
378 254 _l
378 643 _l
352 729 _m
476 729 _l
476 254 _l
580 254 _l
580 172 _l
476 172 _l
476 0 _l
378 0 _l
378 172 _l
49 172 _l
49 267 _l
352 729 _l
_cl}_d
/five{{636 0 77 -13 549 729 _sc
108 729 _m
495 729 _l
495 646 _l
198 646 _l
198 467 _l
212 472 227 476 241 478 _c
255 480 270 482 284 482 _c
365 482 429 459 477 415 _c
525 370 549 310 549 234 _c
549 155 524 94 475 51 _c
426 8 357 -13 269 -13 _c
238 -13 207 -10 175 -6 _c
143 -1 111 6 77 17 _c
77 116 _l
106 100 136 88 168 80 _c
199 72 232 69 267 69 _c
}_e{323 69 368 83 401 113 _c
433 143 450 183 450 234 _c
450 284 433 324 401 354 _c
368 384 323 399 267 399 _c
241 399 214 396 188 390 _c
162 384 135 375 108 363 _c
108 729 _l
_cl}_e}_d
/six{{636 0 70 -13 573 742 _sc
330 404 _m
286 404 251 388 225 358 _c
199 328 186 286 186 234 _c
186 181 199 139 225 109 _c
251 79 286 64 330 64 _c
374 64 409 79 435 109 _c
461 139 474 181 474 234 _c
474 286 461 328 435 358 _c
409 388 374 404 330 404 _c
526 713 _m
526 623 _l
501 635 476 644 451 650 _c
425 656 400 659 376 659 _c
310 659 260 637 226 593 _c
}_e{192 549 172 482 168 394 _c
187 422 211 444 240 459 _c
269 474 301 482 336 482 _c
409 482 467 459 509 415 _c
551 371 573 310 573 234 _c
573 159 550 99 506 54 _c
462 9 403 -13 330 -13 _c
246 -13 181 19 137 83 _c
92 147 70 241 70 364 _c
70 479 97 571 152 639 _c
206 707 280 742 372 742 _c
396 742 421 739 447 735 _c
472 730 498 723 526 713 _c
_cl}_e}_d
/seven{636 0 82 0 551 729 _sc
82 729 _m
551 729 _l
551 687 _l
286 0 _l
183 0 _l
432 646 _l
82 646 _l
82 729 _l
_cl}_d
/eight{{636 0 68 -13 568 742 _sc
318 346 _m
271 346 234 333 207 308 _c
180 283 167 249 167 205 _c
167 161 180 126 207 101 _c
234 76 271 64 318 64 _c
364 64 401 76 428 102 _c
455 127 469 161 469 205 _c
469 249 455 283 429 308 _c
402 333 365 346 318 346 _c
219 388 _m
177 398 144 418 120 447 _c
96 476 85 511 85 553 _c
85 611 105 657 147 691 _c
188 725 245 742 318 742 _c
}_e{390 742 447 725 489 691 _c
530 657 551 611 551 553 _c
551 511 539 476 515 447 _c
491 418 459 398 417 388 _c
464 377 501 355 528 323 _c
554 291 568 251 568 205 _c
568 134 546 80 503 43 _c
459 5 398 -13 318 -13 _c
237 -13 175 5 132 43 _c
89 80 68 134 68 205 _c
68 251 81 291 108 323 _c
134 355 171 377 219 388 _c
183 544 _m
183 506 194 476 218 455 _c
}_e{242 434 275 424 318 424 _c
360 424 393 434 417 455 _c
441 476 453 506 453 544 _c
453 582 441 611 417 632 _c
393 653 360 664 318 664 _c
275 664 242 653 218 632 _c
194 611 183 582 183 544 _c
_cl}_e}_d
/D{770 0 98 0 711 729 _sc
197 648 _m
197 81 _l
316 81 _l
416 81 490 103 537 149 _c
583 195 607 267 607 365 _c
607 463 583 534 537 580 _c
490 625 416 648 316 648 _c
197 648 _l
98 729 _m
301 729 _l
442 729 546 699 612 641 _c
678 582 711 490 711 365 _c
711 239 677 147 611 88 _c
545 29 441 0 301 0 _c
98 0 _l
98 729 _l
_cl}_d
/I{295 0 98 0 197 729 _sc
98 729 _m
197 729 _l
197 0 _l
98 0 _l
98 729 _l
_cl}_d
/M{863 0 98 0 765 729 _sc
98 729 _m
245 729 _l
431 233 _l
618 729 _l
765 729 _l
765 0 _l
669 0 _l
669 640 _l
481 140 _l
382 140 _l
194 640 _l
194 0 _l
98 0 _l
98 729 _l
_cl}_d
/a{{613 0 60 -13 522 560 _sc
343 275 _m
270 275 220 266 192 250 _c
164 233 150 205 150 165 _c
150 133 160 107 181 89 _c
202 70 231 61 267 61 _c
317 61 357 78 387 114 _c
417 149 432 196 432 255 _c
432 275 _l
343 275 _l
522 312 _m
522 0 _l
432 0 _l
432 83 _l
411 49 385 25 355 10 _c
325 -5 287 -13 243 -13 _c
187 -13 142 2 109 33 _c
76 64 60 106 60 159 _c
}_e{60 220 80 266 122 298 _c
163 329 224 345 306 345 _c
432 345 _l
432 354 _l
432 395 418 427 391 450 _c
364 472 326 484 277 484 _c
245 484 215 480 185 472 _c
155 464 127 453 100 439 _c
100 522 _l
132 534 164 544 195 550 _c
226 556 256 560 286 560 _c
365 560 424 539 463 498 _c
502 457 522 395 522 312 _c
_cl}_e}_d
/e{{615 0 55 -13 562 560 _sc
562 296 _m
562 252 _l
149 252 _l
153 190 171 142 205 110 _c
238 78 284 62 344 62 _c
378 62 412 66 444 74 _c
476 82 509 95 541 113 _c
541 28 _l
509 14 476 3 442 -3 _c
408 -9 373 -13 339 -13 _c
251 -13 182 12 131 62 _c
80 112 55 181 55 268 _c
55 357 79 428 127 481 _c
175 533 241 560 323 560 _c
397 560 455 536 498 489 _c
}_e{540 441 562 377 562 296 _c
472 322 _m
471 371 457 410 431 440 _c
404 469 368 484 324 484 _c
274 484 234 469 204 441 _c
174 413 156 373 152 322 _c
472 322 _l
_cl}_e}_d
/g{{635 0 55 -207 544 560 _sc
454 280 _m
454 344 440 395 414 431 _c
387 467 349 485 301 485 _c
253 485 215 467 188 431 _c
161 395 148 344 148 280 _c
148 215 161 165 188 129 _c
215 93 253 75 301 75 _c
349 75 387 93 414 129 _c
440 165 454 215 454 280 _c
544 68 _m
544 -24 523 -93 482 -139 _c
440 -184 377 -207 292 -207 _c
260 -207 231 -204 203 -200 _c
175 -195 147 -188 121 -178 _c
}_e{121 -91 _l
147 -105 173 -115 199 -122 _c
225 -129 251 -133 278 -133 _c
336 -133 380 -117 410 -87 _c
439 -56 454 -10 454 52 _c
454 96 _l
435 64 411 40 382 24 _c
353 8 319 0 279 0 _c
211 0 157 25 116 76 _c
75 127 55 195 55 280 _c
55 364 75 432 116 483 _c
157 534 211 560 279 560 _c
319 560 353 552 382 536 _c
411 520 435 496 454 464 _c
454 547 _l
544 547 _l
}_e{544 68 _l
_cl}_e}_d
/i{278 0 94 0 184 760 _sc
94 547 _m
184 547 _l
184 0 _l
94 0 _l
94 547 _l
94 760 _m
184 760 _l
184 646 _l
94 646 _l
94 760 _l
_cl}_d
/l{278 0 94 0 184 760 _sc
94 760 _m
184 760 _l
184 0 _l
94 0 _l
94 760 _l
_cl}_d
/m{{974 0 91 0 889 560 _sc
520 442 _m
542 482 569 511 600 531 _c
631 550 668 560 711 560 _c
767 560 811 540 842 500 _c
873 460 889 403 889 330 _c
889 0 _l
799 0 _l
799 327 _l
799 379 789 418 771 444 _c
752 469 724 482 686 482 _c
639 482 602 466 575 435 _c
548 404 535 362 535 309 _c
535 0 _l
445 0 _l
445 327 _l
445 379 435 418 417 444 _c
398 469 369 482 331 482 _c
}_e{285 482 248 466 221 435 _c
194 404 181 362 181 309 _c
181 0 _l
91 0 _l
91 547 _l
181 547 _l
181 462 _l
201 495 226 520 255 536 _c
283 552 317 560 357 560 _c
397 560 430 550 458 530 _c
486 510 506 480 520 442 _c
_cl}_e}_d
/n{634 0 91 0 549 560 _sc
549 330 _m
549 0 _l
459 0 _l
459 327 _l
459 379 448 417 428 443 _c
408 469 378 482 338 482 _c
289 482 251 466 223 435 _c
195 404 181 362 181 309 _c
181 0 _l
91 0 _l
91 547 _l
181 547 _l
181 462 _l
202 494 227 519 257 535 _c
286 551 320 560 358 560 _c
420 560 468 540 500 501 _c
532 462 549 405 549 330 _c
_cl}_d
/o{612 0 55 -13 557 560 _sc
306 484 _m
258 484 220 465 192 427 _c
164 389 150 338 150 273 _c
150 207 163 156 191 118 _c
219 80 257 62 306 62 _c
354 62 392 80 420 118 _c
448 156 462 207 462 273 _c
462 337 448 389 420 427 _c
392 465 354 484 306 484 _c
306 560 _m
384 560 445 534 490 484 _c
534 433 557 363 557 273 _c
557 183 534 113 490 63 _c
445 12 384 -13 306 -13 _c
227 -13 165 12 121 63 _c
77 113 55 183 55 273 _c
55 363 77 433 121 484 _c
165 534 227 560 306 560 _c
_cl}_d
/r{411 0 91 0 411 560 _sc
411 463 _m
401 469 390 473 378 476 _c
366 478 353 480 339 480 _c
288 480 249 463 222 430 _c
194 397 181 350 181 288 _c
181 0 _l
91 0 _l
91 547 _l
181 547 _l
181 462 _l
199 495 224 520 254 536 _c
284 552 321 560 365 560 _c
371 560 378 559 386 559 _c
393 558 401 557 411 555 _c
411 463 _l
_cl}_d
/s{{521 0 54 -13 472 560 _sc
443 531 _m
443 446 _l
417 458 391 468 364 475 _c
336 481 308 485 279 485 _c
234 485 200 478 178 464 _c
156 450 145 430 145 403 _c
145 382 153 366 169 354 _c
185 342 217 330 265 320 _c
296 313 _l
360 299 405 279 432 255 _c
458 230 472 195 472 151 _c
472 100 452 60 412 31 _c
372 1 316 -13 246 -13 _c
216 -13 186 -10 154 -5 _c
}_e{122 0 89 8 54 20 _c
54 113 _l
87 95 120 82 152 74 _c
184 65 216 61 248 61 _c
290 61 323 68 346 82 _c
368 96 380 117 380 144 _c
380 168 371 187 355 200 _c
339 213 303 226 247 238 _c
216 245 _l
160 257 119 275 95 299 _c
70 323 58 356 58 399 _c
58 450 76 490 112 518 _c
148 546 200 560 268 560 _c
301 560 332 557 362 552 _c
391 547 418 540 443 531 _c
}_e{_cl}_e}_d
/t{392 0 27 0 368 702 _sc
183 702 _m
183 547 _l
368 547 _l
368 477 _l
183 477 _l
183 180 _l
183 135 189 106 201 94 _c
213 81 238 75 276 75 _c
368 75 _l
368 0 _l
276 0 _l
206 0 158 13 132 39 _c
106 65 93 112 93 180 _c
93 477 _l
27 477 _l
27 547 _l
93 547 _l
93 702 _l
183 702 _l
_cl}_d
/u{634 0 85 -13 543 560 _sc
85 216 _m
85 547 _l
175 547 _l
175 219 _l
175 167 185 129 205 103 _c
225 77 255 64 296 64 _c
344 64 383 79 411 110 _c
439 141 453 183 453 237 _c
453 547 _l
543 547 _l
543 0 _l
453 0 _l
453 84 _l
431 50 405 26 377 10 _c
348 -5 315 -13 277 -13 _c
214 -13 166 6 134 45 _c
101 83 85 140 85 216 _c
311 560 _m
311 560 _l
_cl}_d
/v{592 0 30 0 562 547 _sc
30 547 _m
125 547 _l
296 88 _l
467 547 _l
562 547 _l
357 0 _l
235 0 _l
30 547 _l
_cl}_d
/y{592 0 30 -207 562 547 _sc
322 -50 _m
296 -114 271 -157 247 -177 _c
223 -197 191 -207 151 -207 _c
79 -207 _l
79 -132 _l
132 -132 _l
156 -132 175 -126 189 -114 _c
203 -102 218 -75 235 -31 _c
251 9 _l
30 547 _l
125 547 _l
296 119 _l
467 547 _l
562 547 _l
322 -50 _l
_cl}_d
/minus{838 0 106 272 732 355 _sc
106 355 _m
732 355 _l
732 272 _l
106 272 _l
106 355 _l
_cl}_d
end readonly def

/BuildGlyph
 {exch begin
 CharStrings exch
 2 copy known not{pop /.notdef}if
 true 3 1 roll get exec
 end}_d

/BuildChar {
 1 index /Encoding get exch get
 1 index /BuildGlyph get exec
}_d

FontName currentdict end definefont pop
end
%%EndProlog
mpldict begin
75.6 223.2 translate
460.8 345.6 0 0 clipbox
gsave
0 0 m
460.8 0 l
460.8 345.6 l
0 345.6 l
cl
1.000 setgray
fill
grestore
gsave
57.6 38.016 m
414.72 38.016 l
414.72 304.128 l
57.6 304.128 l
cl
1.000 setgray
fill
grestore
0.800 setlinewidth
1 setlinejoin
0 setlinecap
[] 0 setdash
0.000 setgray
gsave
/o {
gsave
newpath
translate
0.8 setlinewidth
1 setlinejoin
0 setlinecap
0 0 m
0 -3.5 l

gsave
0.000 setgray
fill
grestore
stroke
grestore
} bind def
73.8327 38.016 o
grestore
/DejaVuSans findfont
10.000 scalefont
setfont
gsave
70.653040 23.422250 translate
0.000000 rotate
0.000000 0.000000 m /zero glyphshow
grestore
gsave
/o {
gsave
newpath
translate
0.8 setlinewidth
1 setlinejoin
0 setlinecap
0 0 m
0 -3.5 l

gsave
0.000 setgray
fill
grestore
stroke
grestore
} bind def
114.435 38.016 o
grestore
gsave
104.895784 23.422250 translate
0.000000 rotate
0.000000 0.000000 m /two glyphshow
6.362305 0.000000 m /five glyphshow
12.724609 0.000000 m /zero glyphshow
grestore
gsave
/o {
gsave
newpath
translate
0.8 setlinewidth
1 setlinejoin
0 setlinecap
0 0 m
0 -3.5 l

gsave
0.000 setgray
fill
grestore
stroke
grestore
} bind def
155.037 38.016 o
grestore
gsave
145.497903 23.422250 translate
0.000000 rotate
0.000000 0.000000 m /five glyphshow
6.362305 0.000000 m /zero glyphshow
12.724609 0.000000 m /zero glyphshow
grestore
gsave
/o {
gsave
newpath
translate
0.8 setlinewidth
1 setlinejoin
0 setlinecap
0 0 m
0 -3.5 l

gsave
0.000 setgray
fill
grestore
stroke
grestore
} bind def
195.639 38.016 o
grestore
gsave
186.100022 23.422250 translate
0.000000 rotate
0.000000 0.000000 m /seven glyphshow
6.362305 0.000000 m /five glyphshow
12.724609 0.000000 m /zero glyphshow
grestore
gsave
/o {
gsave
newpath
translate
0.8 setlinewidth
1 setlinejoin
0 setlinecap
0 0 m
0 -3.5 l

gsave
0.000 setgray
fill
grestore
stroke
grestore
} bind def
236.241 38.016 o
grestore
gsave
223.522454 23.422250 translate
0.000000 rotate
0.000000 0.000000 m /one glyphshow
6.362305 0.000000 m /zero glyphshow
12.724609 0.000000 m /zero glyphshow
19.086914 0.000000 m /zero glyphshow
grestore
gsave
/o {
gsave
newpath
translate
0.8 setlinewidth
1 setlinejoin
0 setlinecap
0 0 m
0 -3.5 l

gsave
0.000 setgray
fill
grestore
stroke
grestore
} bind def
276.843 38.016 o
grestore
gsave
264.124573 23.422250 translate
0.000000 rotate
0.000000 0.000000 m /one glyphshow
6.362305 0.000000 m /two glyphshow
12.724609 0.000000 m /five glyphshow
19.086914 0.000000 m /zero glyphshow
grestore
gsave
/o {
gsave
newpath
translate
0.8 setlinewidth
1 setlinejoin
0 setlinecap
0 0 m
0 -3.5 l

gsave
0.000 setgray
fill
grestore
stroke
grestore
} bind def
317.445 38.016 o
grestore
gsave
304.726693 23.422250 translate
0.000000 rotate
0.000000 0.000000 m /one glyphshow
6.362305 0.000000 m /five glyphshow
12.724609 0.000000 m /zero glyphshow
19.086914 0.000000 m /zero glyphshow
grestore
gsave
/o {
gsave
newpath
translate
0.8 setlinewidth
1 setlinejoin
0 setlinecap
0 0 m
0 -3.5 l

gsave
0.000 setgray
fill
grestore
stroke
grestore
} bind def
358.048 38.016 o
grestore
gsave
345.328812 23.422250 translate
0.000000 rotate
0.000000 0.000000 m /one glyphshow
6.362305 0.000000 m /seven glyphshow
12.724609 0.000000 m /five glyphshow
19.086914 0.000000 m /zero glyphshow
grestore
gsave
/o {
gsave
newpath
translate
0.8 setlinewidth
1 setlinejoin
0 setlinecap
0 0 m
0 -3.5 l

gsave
0.000 setgray
fill
grestore
stroke
grestore
} bind def
398.65 38.016 o
grestore
gsave
385.930931 23.422250 translate
0.000000 rotate
0.000000 0.000000 m /two glyphshow
6.362305 0.000000 m /zero glyphshow
12.724609 0.000000 m /zero glyphshow
19.086914 0.000000 m /zero glyphshow
grestore
/DejaVuSans findfont
14.000 scalefont
setfont
gsave
206.480312 6.703500 translate
0.000000 rotate
0.000000 0.000000 m /I glyphshow
4.128906 0.000000 m /t glyphshow
9.618164 0.000000 m /e glyphshow
18.231445 0.000000 m /r glyphshow
23.987305 0.000000 m /a glyphshow
32.566406 0.000000 m /t glyphshow
38.055664 0.000000 m /i glyphshow
41.945312 0.000000 m /o glyphshow
50.510742 0.000000 m /n glyphshow
grestore
gsave
/o {
gsave
newpath
translate
0.8 setlinewidth
1 setlinejoin
0 setlinecap
0 0 m
-3.5 0 l

gsave
0.000 setgray
fill
grestore
stroke
grestore
} bind def
57.6 54.8194 o
grestore
/DejaVuSans findfont
10.000 scalefont
setfont
gsave
29.506250 51.022574 translate
0.000000 rotate
0.000000 0.000000 m /minus glyphshow
8.378906 0.000000 m /one glyphshow
14.741211 0.000000 m /two glyphshow
grestore
gsave
/o {
gsave
newpath
translate
0.8 setlinewidth
1 setlinejoin
0 setlinecap
0 0 m
-3.5 0 l

gsave
0.000 setgray
fill
grestore
stroke
grestore
} bind def
57.6 87.1645 o
grestore
gsave
29.506250 83.367582 translate
0.000000 rotate
0.000000 0.000000 m /minus glyphshow
8.378906 0.000000 m /one glyphshow
14.741211 0.000000 m /zero glyphshow
grestore
gsave
/o {
gsave
newpath
translate
0.8 setlinewidth
1 setlinejoin
0 setlinecap
0 0 m
-3.5 0 l

gsave
0.000 setgray
fill
grestore
stroke
grestore
} bind def
57.6 119.509 o
grestore
gsave
35.865625 115.712590 translate
0.000000 rotate
0.000000 0.000000 m /minus glyphshow
8.378906 0.000000 m /eight glyphshow
grestore
gsave
/o {
gsave
newpath
translate
0.8 setlinewidth
1 setlinejoin
0 setlinecap
0 0 m
-3.5 0 l

gsave
0.000 setgray
fill
grestore
stroke
grestore
} bind def
57.6 151.854 o
grestore
gsave
35.865625 148.057599 translate
0.000000 rotate
0.000000 0.000000 m /minus glyphshow
8.378906 0.000000 m /six glyphshow
grestore
gsave
/o {
gsave
newpath
translate
0.8 setlinewidth
1 setlinejoin
0 setlinecap
0 0 m
-3.5 0 l

gsave
0.000 setgray
fill
grestore
stroke
grestore
} bind def
57.6 184.199 o
grestore
gsave
35.865625 180.402607 translate
0.000000 rotate
0.000000 0.000000 m /minus glyphshow
8.378906 0.000000 m /four glyphshow
grestore
gsave
/o {
gsave
newpath
translate
0.8 setlinewidth
1 setlinejoin
0 setlinecap
0 0 m
-3.5 0 l

gsave
0.000 setgray
fill
grestore
stroke
grestore
} bind def
57.6 216.544 o
grestore
gsave
35.865625 212.747615 translate
0.000000 rotate
0.000000 0.000000 m /minus glyphshow
8.378906 0.000000 m /two glyphshow
grestore
gsave
/o {
gsave
newpath
translate
0.8 setlinewidth
1 setlinejoin
0 setlinecap
0 0 m
-3.5 0 l

gsave
0.000 setgray
fill
grestore
stroke
grestore
} bind def
57.6 248.889 o
grestore
gsave
44.240625 245.092623 translate
0.000000 rotate
0.000000 0.000000 m /zero glyphshow
grestore
gsave
/o {
gsave
newpath
translate
0.8 setlinewidth
1 setlinejoin
0 setlinecap
0 0 m
-3.5 0 l

gsave
0.000 setgray
fill
grestore
stroke
grestore
} bind def
57.6 281.235 o
grestore
gsave
44.240625 277.437632 translate
0.000000 rotate
0.000000 0.000000 m /two glyphshow
grestore
/DejaVuSans findfont
14.000 scalefont
setfont
gsave
22.600000 122.486062 translate
90.000000 rotate
0.000000 0.000000 m /l glyphshow
3.889648 0.000000 m /o glyphshow
12.455078 0.000000 m /g glyphshow
21.341797 0.000000 m /parenleft glyphshow
26.803711 0.000000 m /M glyphshow
38.882812 0.000000 m /i glyphshow
42.772461 0.000000 m /n glyphshow
51.645508 0.000000 m /i glyphshow
55.535156 0.000000 m /m glyphshow
69.172852 0.000000 m /u glyphshow
78.045898 0.000000 m /m glyphshow
91.683594 0.000000 m /parenright glyphshow
grestore
1.500 setlinewidth
2 setlinecap
0.122 0.467 0.706 setrgbcolor
gsave
357.1 266.1 57.6 38.02 clipbox
73.832727 291.054534 m
73.995136 290.987704 l
74.482361 290.409195 l
74.64477 290.406815 l
74.969587 289.768465 l
75.131995 289.158419 l
75.619221 289.149528 l
75.944037 289.014178 l
76.106446 289.014173 l
76.431263 288.545825 l
76.593671 288.276293 l
76.75608 288.276293 l
76.918488 287.641749 l
77.405714 287.641749 l
78.055348 287.218938 l
78.380165 287.218938 l
78.542573 286.85359 l
78.704982 286.85359 l
78.86739 286.257365 l
79.192207 286.257365 l
79.354615 286.078773 l
79.679432 286.078773 l
79.841841 285.818417 l
80.004249 285.212922 l
80.653883 285.209437 l
80.9787 284.510083 l
82.277968 284.465495 l
82.440377 284.312861 l
82.602785 283.94466 l
82.927602 283.94466 l
83.09001 283.781637 l
83.252419 283.780594 l
83.414827 283.53305 l
83.577236 283.528523 l
83.739644 283.373399 l
84.714095 283.283045 l
84.876504 282.977254 l
85.201321 282.977254 l
85.363729 282.741541 l
85.850955 282.737511 l
86.013363 282.349178 l
86.33818 282.349178 l
86.500588 281.79254 l
87.150222 281.517605 l
87.637448 281.517605 l
87.962265 281.329479 l
88.287082 281.329479 l
88.44949 280.864913 l
88.774307 280.864913 l
88.936716 280.609438 l
89.748758 280.516432 l
90.235983 280.477376 l
90.398392 280.477376 l
90.5608 279.947079 l
92.509702 279.907446 l
92.672111 278.328234 l
93.971378 278.223332 l
94.133787 277.879715 l
95.108238 277.789976 l
95.270646 277.42988 l
98.843633 277.143145 l
99.006041 277.068252 l
99.16845 276.777798 l
101.604577 276.776818 l
101.929394 276.65387 l
102.741436 276.65387 l
102.903845 276.271949 l
103.228662 276.267741 l
103.39107 275.48887 l
105.664789 275.404118 l
105.827197 274.906146 l
106.152014 274.904503 l
106.314423 274.72898 l
106.801648 274.726731 l
106.964057 274.054668 l
107.288874 274.049301 l
107.451282 273.228533 l
108.263324 273.222366 l
108.425733 272.213783 l
110.537043 272.202298 l
110.699452 271.538625 l
111.024268 271.411125 l
112.485945 271.375694 l
112.810762 271.290697 l
117.358199 271.227304 l
118.007833 271.106391 l
118.33265 271.106391 l
118.495058 270.944447 l
118.982284 270.944161 l
119.144692 270.475019 l
120.606369 270.473269 l
120.768777 270.240224 l
121.905636 270.177112 l
122.068045 269.899226 l
123.69213 269.863714 l
123.854538 269.554279 l
126.615482 269.532124 l
126.777891 269.167025 l
127.102708 269.167025 l
127.427525 268.99936 l
129.051609 268.991972 l
129.214018 268.701511 l
131.812554 268.659671 l
131.974962 267.947805 l
132.787004 267.947764 l
133.111821 267.215212 l
133.27423 267.200632 l
133.599047 266.519764 l
136.847216 266.477966 l
137.009625 265.881771 l
137.334442 265.881771 l
137.659259 265.734112 l
138.796118 265.724967 l
138.958527 265.54294 l
139.120935 265.54294 l
139.445752 265.418867 l
140.582611 265.417321 l
141.069837 264.871226 l
141.394654 264.786831 l
141.557062 262.658269 l
142.693922 262.658269 l
143.018738 262.524883 l
143.343555 262.524883 l
143.505964 261.807973 l
146.1045 261.802999 l
146.266908 261.261484 l
149.515078 261.234051 l
149.677486 260.95254 l
150.489528 260.930079 l
150.651937 259.544055 l
152.113613 259.434304 l
156.661051 259.268787 l
156.985867 259.162093 l
157.635501 259.150844 l
157.79791 258.534321 l
158.772361 258.503981 l
159.097178 258.396206 l
159.259586 257.20399 l
161.370896 257.203275 l
161.533305 256.954686 l
161.858122 256.954686 l
162.02053 254.538888 l
163.319798 254.538119 l
163.482207 254.339004 l
169.004095 254.251818 l
169.328912 254.122774 l
171.60263 254.032433 l
171.765039 250.252851 l
174.038758 250.232452 l
174.201166 250.077796 l
175.175617 250.049828 l
175.338025 249.476975 l
176.96211 249.476893 l
177.124519 249.201918 l
185.569759 249.165844 l
185.894576 249.08063 l
192.228507 249.001116 l
192.715732 248.950969 l
197.750395 248.949152 l
197.912804 223.662598 l
198.562438 223.662597 l
198.887255 223.547796 l
200.348931 223.536497 l
200.511339 219.345433 l
201.810607 219.34399 l
201.973016 218.612438 l
204.409143 218.600577 l
204.571551 216.049521 l
204.896368 216.04952 l
205.058777 215.718891 l
205.546002 215.717033 l
205.708411 214.668368 l
205.870819 214.668368 l
206.033228 211.304653 l
206.682861 211.203846 l
207.007678 211.096224 l
207.819721 211.088411 l
207.982129 199.582282 l
208.144538 197.575097 l
210.580665 197.558362 l
210.743073 197.338562 l
211.717524 197.336864 l
211.879933 188.923575 l
213.991243 188.892631 l
214.153651 187.376971 l
216.914595 187.325596 l
217.077004 187.165471 l
219.837948 187.136772 l
220.000357 180.137437 l
224.710202 180.135032 l
224.872611 179.423408 l
228.608006 179.422003 l
228.770414 178.945241 l
231.044133 178.934417 l
231.36895 178.803602 l
233.155443 178.777013 l
233.317852 177.925508 l
239.814191 177.886115 l
239.976599 176.78631 l
256.704672 176.78631 l
256.867081 174.625218 l
257.191898 174.625198 l
257.354306 174.159773 l
261.576927 174.148042 l
261.739335 166.302874 l
261.901744 166.302373 l
262.064152 138.692935 l
265.637139 138.683325 l
265.799547 128.215415 l
267.261223 128.192004 l
269.372534 128.189057 l
269.534942 127.329863 l
270.346984 127.323093 l
270.509393 121.76853 l
271.159027 121.765462 l
271.321435 120.342225 l
272.458295 120.339246 l
272.620703 118.516777 l
278.792225 118.455116 l
278.954634 114.520905 l
280.091493 114.427608 l
398.487273 114.426538 l
398.487273 114.426538 l
stroke
grestore
1.000 0.498 0.055 setrgbcolor
gsave
357.1 266.1 57.6 38.02 clipbox
73.832727 292.032 m
74.807178 290.42119 l
74.969587 290.369657 l
75.294404 289.369987 l
75.944037 289.090624 l
76.106446 289.070922 l
76.268854 288.683135 l
76.593671 288.587514 l
76.918488 288.566481 l
77.405714 288.274394 l
77.568122 287.441134 l
78.055348 287.441134 l
78.217756 287.088203 l
78.380165 287.076334 l
78.704982 286.05005 l
79.517024 285.939746 l
80.491475 285.637347 l
80.653883 285.233942 l
81.628334 285.142843 l
81.953151 284.624787 l
82.277968 284.624787 l
82.765194 283.604602 l
83.09001 283.46124 l
83.252419 283.46124 l
83.414827 283.217916 l
84.22687 283.098634 l
84.389278 282.834461 l
84.714095 282.831726 l
84.876504 282.414306 l
85.201321 282.414306 l
85.363729 282.1703 l
86.175772 282.1703 l
86.33818 282.040686 l
86.825405 281.065235 l
87.150222 281.065235 l
87.799856 280.479374 l
87.962265 280.070271 l
89.099124 279.975981 l
89.423941 279.873971 l
89.911166 279.66389 l
90.073575 279.256219 l
90.398392 279.191301 l
90.885617 279.191301 l
91.210434 278.676648 l
92.022477 278.672722 l
92.184885 277.867767 l
93.971378 277.865996 l
94.296195 277.727228 l
94.945829 277.620912 l
95.270646 277.601781 l
95.433055 277.197448 l
95.92028 276.962219 l
96.082689 276.450315 l
96.245097 275.503331 l
97.219548 275.469531 l
98.03159 275.374394 l
98.193999 275.070375 l
99.980492 274.966953 l
100.305309 274.83881 l
100.467717 274.83881 l
100.630126 274.504932 l
102.091802 273.942718 l
102.741436 273.941389 l
103.39107 273.113277 l
103.553479 272.724695 l
103.878296 272.724695 l
104.203112 272.182124 l
104.690338 272.127507 l
105.015155 272.049794 l
105.177563 271.744229 l
106.314423 271.590367 l
106.476831 271.364205 l
107.288874 271.265326 l
107.451282 271.093466 l
109.075367 271.041046 l
109.400184 270.953448 l
109.562592 270.383814 l
109.725001 270.383814 l
110.049818 269.622467 l
110.699452 269.584301 l
110.86186 269.227353 l
111.024268 269.227353 l
111.186677 268.833991 l
112.97317 268.719035 l
113.135579 268.647025 l
113.297987 268.220208 l
115.08448 268.164709 l
115.409297 267.624948 l
115.734114 267.619742 l
115.896523 266.816573 l
117.358199 266.732587 l
117.683016 266.595893 l
119.307101 266.424819 l
119.469509 265.517117 l
119.631918 265.5171 l
119.956735 264.732945 l
120.281552 264.552608 l
120.44396 264.074585 l
120.768777 264.074585 l
120.931186 263.521532 l
121.418411 263.211771 l
122.068045 263.120448 l
122.230453 262.796475 l
122.392862 262.78502 l
122.55527 262.480425 l
123.69213 262.395421 l
124.341764 262.368455 l
124.504172 262.035578 l
124.666581 262.03556 l
124.828989 261.721994 l
127.752342 261.615128 l
128.077159 261.469001 l
128.401976 261.469001 l
128.564384 260.86498 l
128.726792 260.86498 l
129.051609 259.322149 l
129.376426 259.321907 l
129.701243 257.648418 l
130.513286 257.545201 l
130.675694 257.520236 l
130.838103 257.215761 l
131.000511 256.473537 l
133.761455 256.372031 l
134.573498 256.351089 l
134.735906 256.073835 l
138.146484 255.980823 l
138.308893 255.429955 l
138.471301 255.429951 l
138.63371 253.313049 l
138.958527 253.31106 l
139.120935 252.402909 l
139.445752 252.230981 l
141.394654 252.163361 l
141.557062 249.36747 l
143.343555 249.298813 l
143.668372 249.192777 l
148.21581 249.034277 l
148.540627 239.040915 l
148.865444 239.040709 l
149.027852 227.865886 l
149.352669 227.865294 l
149.515078 227.415145 l
150.002303 227.414988 l
150.164711 223.757369 l
150.814345 223.656659 l
150.976754 217.916359 l
151.951205 217.908378 l
152.276022 217.785904 l
152.600839 217.783587 l
152.763247 217.545243 l
153.250473 217.544984 l
153.412881 217.190775 l
153.575289 217.18808 l
153.737698 216.440296 l
153.900106 216.439982 l
154.062515 214.828874 l
154.54974 214.827163 l
155.361783 214.28638 l
155.6866 214.232314 l
155.849008 213.865957 l
156.661051 213.82253 l
156.823459 211.807728 l
157.148276 211.807654 l
157.310684 211.646529 l
159.90922 211.555547 l
160.558854 211.523501 l
160.721262 210.422975 l
162.345347 210.4034 l
162.507756 210.234656 l
165.755925 210.197 l
166.080742 210.106378 l
167.867235 210.105768 l
168.029644 206.31315 l
168.516869 206.243088 l
168.679278 204.306139 l
169.653729 204.303585 l
169.816137 203.56646 l
170.952996 203.562615 l
171.115405 202.91093 l
171.277813 202.91093 l
171.440222 189.14308 l
172.089856 189.032759 l
175.175617 188.973764 l
175.338025 188.795954 l
177.449336 188.795327 l
177.611744 188.631912 l
178.098969 188.631912 l
178.261378 188.399047 l
182.808815 188.359394 l
182.971224 188.067315 l
185.082534 187.956441 l
185.244942 181.1914 l
187.68107 181.175305 l
187.843478 163.173414 l
188.005887 158.734118 l
194.015 158.720721 l
194.177409 158.407208 l
194.827043 158.3753 l
198.400029 158.323786 l
198.562438 155.053196 l
198.724846 147.926877 l
199.861705 147.924945 l
200.024114 144.911855 l
200.998565 144.910197 l
201.323382 144.760945 l
201.48579 144.760945 l
201.648199 142.704612 l
204.246734 142.644439 l
204.409143 134.248784 l
204.571551 134.052983 l
204.73396 132.468843 l
207.982129 132.461029 l
208.144538 123.242337 l
208.306946 122.872259 l
210.093439 122.836252 l
210.418256 122.378303 l
211.230299 122.377879 l
211.392707 111.024728 l
214.803285 110.921213 l
215.128102 110.861838 l
215.290511 107.818335 l
215.615328 107.720202 l
215.777736 107.720202 l
215.940145 105.081101 l
229.420048 105.061452 l
229.582457 102.616012 l
230.232091 102.616012 l
230.394499 101.935032 l
235.266753 101.908171 l
235.429162 91.040867 l
236.566021 91.040867 l
236.72843 90.754628 l
239.814191 90.754628 l
239.976599 87.475971 l
240.788642 87.47215 l
240.95105 87.046823 l
245.011262 87.010189 l
245.17367 54.153144 l
245.336079 50.112 l
398.487273 50.112 l
398.487273 50.112 l
stroke
grestore
0.800 setlinewidth
0 setlinejoin
[] 0 setdash
0.000 setgray
gsave
57.6 38.016 m
57.6 304.128 l
stroke
grestore
gsave
414.72 38.016 m
414.72 304.128 l
stroke
grestore
gsave
57.6 38.016 m
414.72 38.016 l
stroke
grestore
gsave
57.6 304.128 m
414.72 304.128 l
stroke
grestore
1.000 setlinewidth
0 setlinecap
0.800 setgray
gsave
334.72 233.456125 m
407.72 233.456125 l
409.053333 233.456125 409.72 234.122792 409.72 235.456125 c
409.72 297.128 l
409.72 298.461333 409.053333 299.128 407.72 299.128 c
334.72 299.128 l
333.386667 299.128 332.72 298.461333 332.72 297.128 c
332.72 235.456125 l
332.72 234.122792 333.386667 233.456125 334.72 233.456125 c
cl
gsave
1.000 setgray
fill
grestore
stroke
grestore
1.500 setlinewidth
1 setlinejoin
2 setlinecap
[] 0 setdash
0.122 0.467 0.706 setrgbcolor
gsave
336.72 291.03425 m
356.72 291.03425 l
stroke
grestore
0.000 setgray
gsave
364.720000 287.534250 translate
0.000000 rotate
/DejaVuSans-Oblique findfont
10.0 scalefont
setfont
0.000000 0.578125 moveto
/A glyphshow

6.840820 0.578125 moveto
/B glyphshow

13.701172 0.578125 moveto
/C glyphshow


grestore
1.000 0.498 0.055 setrgbcolor
gsave
336.72 275.03425 m
356.72 275.03425 l
stroke
grestore
0.000 setgray
gsave
364.720000 271.534250 translate
0.000000 rotate
/DejaVuSans-Oblique findfont
10.0 scalefont
setfont
0.000000 0.856250 moveto
/A glyphshow

6.840820 0.856250 moveto
/B glyphshow

13.701172 0.856250 moveto
/C glyphshow

/DejaVuSans-Oblique findfont
7.0 scalefont
setfont
21.403646 4.684375 moveto
/d glyphshow


grestore
0 setlinecap
[5.55 2.4] 0 setdash
0.122 0.467 0.706 setrgbcolor
gsave
336.72 260.03425 m
356.72 260.03425 l
stroke
grestore
0.000 setgray
gsave
364.720000 256.534250 translate
0.000000 rotate
/DejaVuSans-Oblique findfont
10.0 scalefont
setfont
0.000000 0.406250 moveto
/d glyphshow

/DejaVuSans findfont
10.0 scalefont
setfont
6.347656 0.406250 moveto
/parenleft glyphshow

/DejaVuSans-Oblique findfont
10.0 scalefont
setfont
10.249023 0.406250 moveto
/A glyphshow

17.089844 0.406250 moveto
/B glyphshow

23.950195 0.406250 moveto
/C glyphshow

/DejaVuSans findfont
10.0 scalefont
setfont
30.932617 0.406250 moveto
/parenright glyphshow


grestore
1.000 0.498 0.055 setrgbcolor
gsave
336.72 243.03425 m
356.72 243.03425 l
stroke
grestore
0.000 setgray
gsave
364.720000 239.534250 translate
0.000000 rotate
/DejaVuSans-Oblique findfont
10.0 scalefont
setfont
0.000000 0.856250 moveto
/d glyphshow

/DejaVuSans findfont
10.0 scalefont
setfont
6.347656 0.856250 moveto
/parenleft glyphshow

/DejaVuSans-Oblique findfont
10.0 scalefont
setfont
10.249023 0.856250 moveto
/A glyphshow

17.089844 0.856250 moveto
/B glyphshow

23.950195 0.856250 moveto
/C glyphshow

/DejaVuSans-Oblique findfont
7.0 scalefont
setfont
31.652669 4.684375 moveto
/d glyphshow

/DejaVuSans findfont
10.0 scalefont
setfont
36.369466 0.856250 moveto
/parenright glyphshow


grestore
0.800 setlinewidth
[] 0 setdash
gsave
/o {
gsave
newpath
translate
0.8 setlinewidth
1 setlinejoin
0 setlinecap
0 0 m
3.5 0 l

gsave
0.000 setgray
fill
grestore
stroke
grestore
} bind def
414.72 65.9825 o
grestore
/DejaVuSans findfont
10.000 scalefont
setfont
gsave
421.720000 62.185658 translate
0.000000 rotate
0.000000 0.000000 m /zero glyphshow
6.362305 0.000000 m /period glyphshow
9.541016 0.000000 m /zero glyphshow
grestore
gsave
/o {
gsave
newpath
translate
0.8 setlinewidth
1 setlinejoin
0 setlinecap
0 0 m
3.5 0 l

gsave
0.000 setgray
fill
grestore
stroke
grestore
} bind def
414.72 106.225 o
grestore
gsave
421.720000 102.428609 translate
0.000000 rotate
0.000000 0.000000 m /zero glyphshow
6.362305 0.000000 m /period glyphshow
9.541016 0.000000 m /two glyphshow
grestore
gsave
/o {
gsave
newpath
translate
0.8 setlinewidth
1 setlinejoin
0 setlinecap
0 0 m
3.5 0 l

gsave
0.000 setgray
fill
grestore
stroke
grestore
} bind def
414.72 146.468 o
grestore
gsave
421.720000 142.671560 translate
0.000000 rotate
0.000000 0.000000 m /zero glyphshow
6.362305 0.000000 m /period glyphshow
9.541016 0.000000 m /four glyphshow
grestore
gsave
/o {
gsave
newpath
translate
0.8 setlinewidth
1 setlinejoin
0 setlinecap
0 0 m
3.5 0 l

gsave
0.000 setgray
fill
grestore
stroke
grestore
} bind def
414.72 186.711 o
grestore
gsave
421.720000 182.914512 translate
0.000000 rotate
0.000000 0.000000 m /zero glyphshow
6.362305 0.000000 m /period glyphshow
9.541016 0.000000 m /six glyphshow
grestore
gsave
/o {
gsave
newpath
translate
0.8 setlinewidth
1 setlinejoin
0 setlinecap
0 0 m
3.5 0 l

gsave
0.000 setgray
fill
grestore
stroke
grestore
} bind def
414.72 226.954 o
grestore
gsave
421.720000 223.157463 translate
0.000000 rotate
0.000000 0.000000 m /zero glyphshow
6.362305 0.000000 m /period glyphshow
9.541016 0.000000 m /eight glyphshow
grestore
gsave
/o {
gsave
newpath
translate
0.8 setlinewidth
1 setlinejoin
0 setlinecap
0 0 m
3.5 0 l

gsave
0.000 setgray
fill
grestore
stroke
grestore
} bind def
414.72 267.197 o
grestore
gsave
421.720000 263.400414 translate
0.000000 rotate
0.000000 0.000000 m /one glyphshow
6.362305 0.000000 m /period glyphshow
9.541016 0.000000 m /zero glyphshow
grestore
/DejaVuSans findfont
14.000 scalefont
setfont
gsave
452.266875 139.939187 translate
90.000000 rotate
0.000000 0.000000 m /D glyphshow
10.780273 0.000000 m /i glyphshow
14.669922 0.000000 m /v glyphshow
22.955078 0.000000 m /e glyphshow
31.568359 0.000000 m /r glyphshow
37.324219 0.000000 m /s glyphshow
44.618164 0.000000 m /i glyphshow
48.507812 0.000000 m /t glyphshow
53.997070 0.000000 m /y glyphshow
grestore
1.500 setlinewidth
[5.55 2.4] 0 setdash
0.122 0.467 0.706 setrgbcolor
gsave
357.1 266.1 57.6 38.02 clipbox
73.832727 284.006524 m
74.157544 280.108308 l
74.319953 279.572291 l
74.482361 279.622503 l
75.456812 270.163683 l
75.619221 269.591298 l
75.781629 265.664416 l
75.944037 265.125623 l
76.106446 263.137566 l
76.268854 263.318815 l
76.593671 261.421864 l
76.918488 259.27147 l
77.080897 259.128425 l
77.243305 258.689085 l
77.405714 258.853476 l
77.568122 257.864334 l
77.730531 254.86246 l
77.892939 254.159936 l
78.055348 254.18898 l
78.542573 251.966108 l
78.704982 251.272103 l
78.86739 251.322599 l
79.029799 250.432533 l
79.679432 244.325345 l
80.166658 242.498648 l
80.329066 241.784013 l
80.491475 238.546675 l
80.653883 237.74727 l
80.816292 235.190223 l
81.303517 233.762744 l
81.465926 233.758581 l
81.790743 228.853254 l
82.11556 227.945718 l
82.277968 228.203399 l
82.440377 227.600855 l
82.602785 227.543925 l
82.765194 226.665531 l
82.927602 224.862027 l
83.252419 225.486362 l
83.739644 223.088518 l
83.902053 223.640094 l
84.389278 221.415427 l
84.714095 220.927867 l
84.876504 220.510067 l
85.201321 217.447632 l
85.363729 216.669613 l
85.526138 215.16437 l
85.688546 215.177702 l
85.850955 214.85516 l
86.013363 213.726144 l
86.33818 213.158356 l
86.500588 212.609444 l
86.825405 209.507652 l
86.987814 210.137142 l
87.150222 210.315458 l
87.312631 209.16508 l
87.475039 209.072421 l
88.124673 205.692411 l
88.287082 205.714066 l
88.44949 204.180676 l
88.611899 204.140559 l
88.936716 202.449803 l
89.261533 202.354989 l
89.423941 200.710214 l
89.58635 200.911328 l
89.748758 200.541653 l
89.911166 198.657354 l
90.235983 198.479531 l
90.5608 196.610308 l
90.723209 196.491002 l
90.885617 196.531921 l
91.048026 196.423499 l
91.210434 195.787498 l
91.372843 195.858828 l
91.535251 195.645323 l
91.69766 195.640128 l
91.860068 195.486899 l
92.022477 195.662421 l
92.184885 194.631413 l
92.347294 194.627719 l
92.509702 194.415568 l
92.834519 192.428381 l
93.321745 191.802632 l
93.484153 191.803019 l
93.646561 189.995591 l
93.80897 189.877857 l
94.296195 188.875018 l
94.458604 188.538975 l
94.621012 187.943961 l
94.945829 186.116512 l
95.108238 185.435989 l
95.270646 185.373669 l
95.433055 185.043221 l
95.757872 184.067696 l
95.92028 183.82387 l
96.407506 182.652709 l
96.569914 182.536707 l
96.732323 182.602134 l
97.219548 181.452643 l
97.544365 179.277098 l
97.869182 179.214813 l
98.03159 178.496402 l
98.193999 178.499183 l
98.356407 178.695409 l
98.681224 178.087677 l
98.843633 177.859628 l
99.16845 175.145378 l
99.330858 175.10505 l
99.493267 174.705093 l
99.655675 174.740604 l
99.818084 174.896697 l
99.980492 174.726597 l
100.305309 172.599909 l
100.792534 172.463992 l
100.954943 172.045333 l
101.117351 172.04335 l
101.27976 171.469417 l
101.766985 171.402159 l
102.091802 170.17601 l
102.254211 170.175053 l
102.416619 169.793133 l
102.579028 169.789933 l
102.741436 169.406598 l
102.903845 169.508379 l
103.066253 168.708748 l
103.39107 168.343618 l
103.553479 167.724543 l
103.878296 167.713725 l
104.203112 166.078559 l
104.365521 166.090696 l
104.527929 164.46896 l
105.177563 162.818315 l
105.339972 162.607961 l
105.50238 162.605165 l
105.827197 161.005876 l
105.989606 160.255463 l
106.152014 160.061418 l
106.476831 158.89277 l
106.63924 157.773525 l
106.801648 157.743112 l
107.288874 156.876074 l
107.61369 156.294319 l
108.263324 155.098184 l
108.588141 155.14063 l
108.75055 154.839917 l
109.237775 154.846426 l
109.400184 153.358377 l
109.725001 153.496539 l
109.887409 153.501417 l
110.212226 153.368502 l
111.349085 151.127771 l
111.673902 151.087777 l
111.836311 150.841823 l
112.161128 150.834392 l
112.323536 150.583183 l
112.648353 150.60916 l
112.97317 150.133835 l
113.297987 149.470981 l
113.460396 149.310058 l
113.785213 149.283267 l
114.272438 148.720023 l
114.434847 148.475814 l
114.759663 148.596464 l
115.08448 147.812139 l
116.383748 147.874704 l
116.546157 147.67588 l
117.358199 147.65744 l
117.520608 147.31406 l
117.683016 147.321607 l
117.845425 147.151012 l
118.33265 147.16557 l
118.495058 145.751661 l
118.657467 145.685514 l
118.819875 145.187065 l
118.982284 145.108196 l
119.144692 145.273186 l
119.307101 145.006626 l
119.469509 144.998756 l
119.631918 144.83122 l
119.794326 144.826632 l
120.44396 143.128721 l
120.768777 142.696901 l
120.931186 143.194561 l
121.256003 143.194524 l
121.58082 142.810244 l
122.55527 142.756553 l
122.717679 142.592697 l
122.880087 142.258022 l
123.204904 142.250739 l
123.529721 141.812961 l
123.69213 141.813753 l
124.016947 141.65102 l
124.504172 141.57607 l
124.828989 140.402265 l
125.316214 140.297402 l
125.478623 139.542972 l
125.641031 139.433266 l
125.80344 139.146893 l
126.615482 139.140479 l
126.777891 138.666057 l
126.940299 138.88027 l
127.427525 138.848059 l
127.589933 138.352141 l
127.752342 138.352261 l
128.564384 137.458315 l
128.889201 136.519395 l
129.214018 136.518956 l
129.376426 136.321875 l
129.701243 135.645761 l
130.02606 135.54357 l
130.838103 135.527469 l
131.000511 134.431694 l
131.16292 134.22072 l
131.812554 134.232744 l
131.974962 134.09507 l
132.299779 134.106348 l
132.624596 133.998251 l
132.787004 133.065271 l
133.436638 132.99549 l
133.599047 131.684632 l
133.761455 131.690415 l
133.923864 131.895037 l
134.573498 131.856785 l
134.898315 131.903988 l
135.38554 131.381986 l
136.035174 131.312869 l
136.359991 131.188279 l
136.522399 131.189608 l
137.172033 130.63422 l
137.821667 130.611212 l
137.984076 129.961659 l
138.308893 129.922898 l
138.63371 129.286884 l
138.796118 128.927136 l
139.445752 128.691357 l
139.60816 127.322813 l
139.932977 127.211029 l
140.582611 127.110605 l
141.069837 126.879217 l
141.394654 126.879047 l
141.557062 125.710671 l
141.719471 125.53405 l
142.369105 123.78476 l
142.693922 123.78894 l
142.85633 123.485743 l
143.343555 123.486644 l
143.668372 122.490679 l
143.993189 122.363544 l
144.805232 122.244351 l
145.130049 122.156496 l
145.779683 122.10066 l
145.942091 121.758124 l
146.429316 121.664605 l
146.754133 121.579686 l
146.916542 121.579723 l
147.07895 121.411601 l
147.241359 121.415813 l
147.403767 121.157454 l
147.566176 120.396182 l
148.21581 120.387958 l
148.540627 120.280448 l
148.703035 119.767203 l
149.027852 119.723119 l
149.352669 119.59649 l
150.002303 119.634236 l
150.32712 118.261352 l
150.489528 118.262292 l
150.651937 117.990935 l
150.814345 117.986871 l
150.976754 117.770519 l
151.463979 117.722336 l
151.626388 117.532832 l
152.763247 117.571102 l
152.925656 117.289849 l
153.088064 117.289865 l
153.250473 116.788684 l
153.412881 116.804512 l
153.575289 116.685464 l
153.737698 116.281698 l
155.524191 116.329965 l
155.6866 116.088095 l
156.985867 115.906171 l
157.148276 115.657449 l
157.635501 115.643664 l
157.79791 115.379787 l
159.259586 115.308299 l
159.584403 115.191695 l
161.858122 115.140759 l
162.02053 114.82497 l
162.507756 114.821285 l
162.670164 114.27154 l
162.994981 114.271193 l
163.482207 113.772982 l
163.644615 113.780324 l
163.807024 113.372845 l
165.755925 113.20292 l
165.918334 113.037014 l
166.243151 113.042392 l
166.405559 112.868021 l
167.217602 112.837556 l
167.38001 112.63249 l
168.029644 112.539688 l
168.192052 112.203713 l
168.516869 112.21374 l
168.679278 112.01848 l
169.49132 112.021048 l
169.978546 111.802932 l
170.62818 111.723056 l
170.790588 111.445939 l
170.952996 111.409614 l
171.115405 110.942897 l
171.277813 110.942945 l
171.440222 110.690322 l
171.60263 110.689418 l
171.765039 110.503222 l
172.414673 110.503284 l
172.577081 110.222351 l
172.73949 110.222228 l
173.064307 110.069737 l
175.500434 109.943774 l
177.286927 109.892747 l
177.611744 109.598648 l
178.098969 109.531304 l
178.261378 109.364137 l
180.21028 109.289727 l
180.697505 109.284647 l
180.859914 108.874205 l
181.022322 108.867169 l
181.184731 108.550792 l
181.347139 108.550672 l
181.509548 108.363251 l
181.671956 108.3633 l
181.834364 108.182017 l
181.996773 107.708687 l
183.945675 107.610247 l
184.108083 107.364925 l
184.4329 107.365145 l
184.595309 106.95081 l
185.407351 106.950927 l
185.569759 106.773722 l
186.706619 106.674771 l
187.031436 106.041328 l
187.193844 105.977187 l
187.356253 105.737272 l
188.005887 105.736656 l
188.168295 105.567295 l
188.817929 105.570302 l
188.980337 105.387988 l
189.79238 105.38704 l
189.954788 104.899818 l
191.091648 104.810895 l
191.416465 104.036744 l
192.715732 103.946718 l
193.040549 103.577255 l
193.202958 103.09923 l
194.015 103.096378 l
194.177409 102.437995 l
197.750395 102.348248 l
197.912804 101.966637 l
198.075212 101.96661 l
198.400029 101.824598 l
198.724846 101.824926 l
199.049663 101.601163 l
199.212071 101.601132 l
199.37448 101.415317 l
200.511339 101.424238 l
200.673748 101.271325 l
200.836156 101.271281 l
200.998565 101.079335 l
203.109875 101.020772 l
203.5971 100.818542 l
205.058777 100.828519 l
205.383594 100.013746 l
205.708411 100.011588 l
205.870819 99.831423 l
206.520453 99.83086 l
207.007678 98.978186 l
207.332495 98.9753 l
207.657312 98.85119 l
207.982129 98.85182 l
208.144538 98.646294 l
209.606214 98.648975 l
209.931031 98.297434 l
211.06789 98.295539 l
211.392707 98.146704 l
211.717524 98.147835 l
211.879933 97.945691 l
214.153651 97.936886 l
214.31606 97.707955 l
214.478468 97.707957 l
214.640877 97.490036 l
214.803285 97.490037 l
214.965694 97.303175 l
216.752187 97.192605 l
216.914595 97.018462 l
218.051455 96.987608 l
218.376272 96.868915 l
220.000357 96.762061 l
220.325173 96.645167 l
220.974807 96.645149 l
221.137216 96.491417 l
222.761301 96.493037 l
222.923709 95.996589 l
225.197428 95.981655 l
225.522245 95.870161 l
225.847062 95.317109 l
226.983921 95.319282 l
227.14633 95.156099 l
227.471146 95.155963 l
227.633555 94.99747 l
228.932823 95.000315 l
229.25764 94.669838 l
229.582457 94.669711 l
229.744865 94.344471 l
229.907274 94.345038 l
230.069682 94.100358 l
230.232091 94.10037 l
230.394499 93.851167 l
230.719316 93.851183 l
231.206541 93.489985 l
231.693767 93.489952 l
231.856175 93.159867 l
232.830626 93.149826 l
232.993035 92.952306 l
235.429162 92.952934 l
235.59157 92.587301 l
236.241204 92.58734 l
236.566021 92.448314 l
237.215655 92.441952 l
237.378064 92.24973 l
237.540472 91.884072 l
237.702881 91.883959 l
237.865289 91.636965 l
241.600684 91.506961 l
241.763092 90.858602 l
241.925501 104.876023 l
242.250318 104.876078 l
242.412726 105.247042 l
242.575135 104.920194 l
242.737543 104.92019 l
242.899952 104.150417 l
243.06236 104.150331 l
243.224769 104.317783 l
243.549586 104.317838 l
243.711994 104.103483 l
244.036811 104.103478 l
244.361628 103.370619 l
244.524037 103.364203 l
244.686445 103.150745 l
244.848854 103.411751 l
245.823304 103.41046 l
246.31053 102.95573 l
246.472938 101.714818 l
246.797755 101.83223 l
246.960164 101.825383 l
247.122572 101.999153 l
247.284981 101.598884 l
247.609798 101.599316 l
247.772206 101.406333 l
247.934615 101.406136 l
248.097023 100.814885 l
248.259432 100.814856 l
248.42184 101.075155 l
248.746657 101.089329 l
248.909065 100.603837 l
249.396291 100.396239 l
249.558699 100.00108 l
249.721108 100.19737 l
249.883516 100.197234 l
250.208333 99.551408 l
250.370742 98.276256 l
251.182784 98.21669 l
251.507601 98.049632 l
251.67001 97.477024 l
251.832418 96.324242 l
252.319643 96.314355 l
252.482052 95.476157 l
253.943728 95.455255 l
254.106137 95.294112 l
254.430954 95.295339 l
254.593362 94.875793 l
255.242996 94.832103 l
255.405405 94.23718 l
257.029489 94.23422 l
257.354306 94.10507 l
257.841532 94.054304 l
258.00394 93.539965 l
259.790433 93.595008 l
259.952842 93.268534 l
260.440067 93.268331 l
260.602476 93.46842 l
262.064152 93.46845 l
262.226561 93.264167 l
262.551378 93.262261 l
262.713786 92.899152 l
265.961956 92.898529 l
266.124364 92.682483 l
266.449181 92.682762 l
266.773998 92.534696 l
267.261223 92.533866 l
267.423632 92.08539 l
268.7229 92.112577 l
268.885308 91.288042 l
273.919971 91.31822 l
274.082379 91.121676 l
275.05683 91.108279 l
275.381647 91.00103 l
275.706464 91.001028 l
275.868873 91.225327 l
277.16814 91.121101 l
277.492957 90.986822 l
281.553169 90.891466 l
282.365212 90.871816 l
282.52762 90.442818 l
282.852437 90.442818 l
283.014846 90.155053 l
283.502071 90.154773 l
283.66448 106.08084 l
283.989296 106.033477 l
284.314113 106.037551 l
284.476522 104.985467 l
284.63893 104.864056 l
284.801339 104.198013 l
285.126156 104.129607 l
285.613381 104.154315 l
285.77579 103.876158 l
285.938198 102.721522 l
286.263015 102.867941 l
286.425424 102.867941 l
286.587832 103.104019 l
287.399874 103.138269 l
287.562283 103.402083 l
287.8871 103.393512 l
288.049508 102.949063 l
288.211917 102.946979 l
288.374325 102.471178 l
288.536734 102.777401 l
289.186368 102.75301 l
289.348776 102.538523 l
289.511185 102.538523 l
289.99841 102.042202 l
290.160819 102.072412 l
290.323227 101.907468 l
290.485636 101.907468 l
290.648044 101.039805 l
291.460086 100.959841 l
291.784903 100.893952 l
292.10972 100.894057 l
292.272129 100.47365 l
292.596946 100.518379 l
292.759354 100.518345 l
292.921763 100.001297 l
293.24658 100.001243 l
293.408988 99.656294 l
294.221031 99.653808 l
294.383439 98.353892 l
294.545847 98.006497 l
294.870664 98.095819 l
296.169932 98.097006 l
296.332341 97.204952 l
296.657158 97.220548 l
296.819566 96.832613 l
297.306792 96.833135 l
297.4692 96.408028 l
298.443651 96.326579 l
298.606059 96.098097 l
299.742919 96.098245 l
299.905327 112.370568 l
300.067736 111.731354 l
300.392553 111.73164 l
300.554961 111.873911 l
300.879778 110.88023 l
301.204595 110.722659 l
301.529412 110.317675 l
301.854229 110.313827 l
302.016637 109.895609 l
302.341454 109.944259 l
302.666271 108.843417 l
303.803131 108.759231 l
303.965539 107.51188 l
305.427215 107.46164 l
305.589624 107.231818 l
305.914441 107.260792 l
306.076849 106.836659 l
306.564075 106.836737 l
306.726483 106.509831 l
307.0513 106.509861 l
307.213709 105.090824 l
307.538526 105.040808 l
307.700934 104.584073 l
308.837793 104.583993 l
309.000202 104.250333 l
309.812244 104.248957 l
309.974653 104.057164 l
310.29947 104.058292 l
310.461878 104.686205 l
310.949104 104.663646 l
311.111512 104.435447 l
311.273921 104.435318 l
311.436329 104.058609 l
311.923555 104.070146 l
312.085963 102.923018 l
312.41078 102.923012 l
312.573188 103.15219 l
313.060414 103.071118 l
313.385231 102.974612 l
313.547639 102.939666 l
313.710048 102.585717 l
313.872456 102.58567 l
314.034865 103.299142 l
314.197273 103.111122 l
314.359682 103.11112 l
314.52209 102.890252 l
315.171724 102.890283 l
315.496541 100.5466 l
315.983766 100.496976 l
316.470992 100.496412 l
316.6334 117.981045 l
316.795809 118.110092 l
316.958217 117.450114 l
317.445443 116.895413 l
317.607851 115.935222 l
317.77026 115.725145 l
318.095077 115.725916 l
318.257485 115.417173 l
318.582302 115.485585 l
318.744711 114.690064 l
319.394344 114.707679 l
319.719161 114.476414 l
319.88157 114.477116 l
320.043978 114.228182 l
320.206387 114.23071 l
320.368795 114.737802 l
320.693612 114.731917 l
320.856021 113.606402 l
321.018429 113.600957 l
321.180838 129.743925 l
321.830472 129.209725 l
321.99288 128.465699 l
322.155289 128.729131 l
322.317697 128.42545 l
322.480106 128.425451 l
323.454556 127.442053 l
323.616965 127.508299 l
323.779373 126.395435 l
324.266599 126.376909 l
324.429007 126.02283 l
324.753824 126.024201 l
324.916233 124.506559 l
325.078641 124.272457 l
325.24105 124.27445 l
325.403458 123.912325 l
325.728275 123.883462 l
325.890684 123.385167 l
326.053092 123.385082 l
326.2155 123.830966 l
326.540317 123.386877 l
326.702726 123.386877 l
326.865134 123.097082 l
327.189951 123.09714 l
327.35236 122.901049 l
327.514768 121.851278 l
328.164402 121.829327 l
328.326811 120.862147 l
328.814036 120.847732 l
328.976445 119.294904 l
329.301262 119.282633 l
329.46367 118.364812 l
329.626078 118.572925 l
330.600529 118.512915 l
330.925346 118.462541 l
331.087755 117.712937 l
331.737389 117.719242 l
331.899797 116.144139 l
332.062206 116.144131 l
332.224614 115.724358 l
332.387023 115.71585 l
332.549431 115.163709 l
332.874248 115.155948 l
333.036657 115.542559 l
333.361473 114.146315 l
333.523882 114.836407 l
333.848699 114.836378 l
334.173516 114.686191 l
334.498333 114.667818 l
334.82315 114.798175 l
334.985558 114.497697 l
335.310375 113.568749 l
335.635192 113.189307 l
335.797601 127.383661 l
335.960009 126.577225 l
336.122418 126.584274 l
336.284826 125.787601 l
336.447235 125.764087 l
336.772051 125.556398 l
336.93446 125.555069 l
337.096868 125.165575 l
337.259277 125.164695 l
337.421685 124.544584 l
338.071319 124.392916 l
338.233728 124.39193 l
338.396136 123.270453 l
338.558545 123.270454 l
338.720953 123.134578 l
338.883362 122.746008 l
339.532996 122.831951 l
339.695404 122.710601 l
339.857813 120.774058 l
340.020221 120.534769 l
340.182629 120.535074 l
340.345038 120.288577 l
340.832263 120.288281 l
340.994672 119.900222 l
342.29394 119.884257 l
342.456348 120.433812 l
342.618757 120.378725 l
342.781165 120.11136 l
343.430799 120.128657 l
343.593208 119.04313 l
343.755616 118.982444 l
343.918024 119.113912 l
344.080433 118.000202 l
344.40525 118.13502 l
345.379701 118.159477 l
345.542109 118.242721 l
345.704518 117.978732 l
346.354152 117.87601 l
346.51656 117.305849 l
346.841377 117.306631 l
347.003786 117.013644 l
347.328602 116.98439 l
347.491011 116.788406 l
347.653419 116.815332 l
348.140645 116.575619 l
348.62787 116.51612 l
348.790279 116.060133 l
349.115096 116.05989 l
349.277504 115.50817 l
350.251955 115.121222 l
350.414364 132.429955 l
350.576772 132.405984 l
350.73918 131.765957 l
350.901589 131.913735 l
351.226406 130.940462 l
351.388814 131.009653 l
351.551223 131.291728 l
351.713631 131.130741 l
351.87604 131.352028 l
352.038448 131.349172 l
352.200857 130.934504 l
352.363265 130.934504 l
352.525674 130.189479 l
352.850491 127.892734 l
353.012899 127.912097 l
353.175308 127.182142 l
353.500125 127.233917 l
353.662533 127.564955 l
354.312167 127.566449 l
354.474575 127.044124 l
354.636984 127.022482 l
354.799392 143.168553 l
354.961801 143.112775 l
355.286618 141.657179 l
355.449026 141.661027 l
355.611435 153.549639 l
355.936252 153.396819 l
356.09866 153.800912 l
356.261069 153.437759 l
356.423477 153.756666 l
356.585886 165.615852 l
356.748294 165.04085 l
356.910703 165.041866 l
357.073111 164.284443 l
357.397928 163.77071 l
357.560337 163.462715 l
357.885153 163.385583 l
358.047562 162.602032 l
358.20997 162.394348 l
358.372379 161.269031 l
358.534787 161.321168 l
358.697196 160.07934 l
358.859604 171.732523 l
359.022013 171.667004 l
359.34683 171.806914 l
359.509238 171.523148 l
359.671647 169.511067 l
359.834055 168.980691 l
359.996464 167.274137 l
360.158872 166.775575 l
360.321281 165.503023 l
360.483689 165.770238 l
360.808506 165.443857 l
360.970915 165.425313 l
361.133323 164.696168 l
361.295732 164.809897 l
361.620548 164.276116 l
361.782957 162.924552 l
362.107774 162.629506 l
362.432591 162.226164 l
362.757408 162.224321 l
362.919816 161.728505 l
363.082225 161.846473 l
363.407042 161.715578 l
363.56945 161.905551 l
363.894267 161.375752 l
364.056676 172.943422 l
364.219084 172.736149 l
364.543901 171.401304 l
364.70631 184.191105 l
364.868718 184.349291 l
365.031126 183.6675 l
365.193535 183.54158 l
365.355943 182.66193 l
365.518352 195.452851 l
365.68076 195.240739 l
365.843169 195.235252 l
366.005577 195.505531 l
366.330394 194.58645 l
366.492803 194.348276 l
366.655211 207.361779 l
366.980028 204.931206 l
367.142437 203.679797 l
367.304845 203.589052 l
367.467254 203.235691 l
367.629662 201.97674 l
367.792071 202.393839 l
367.954479 202.054352 l
368.116888 200.720498 l
368.441704 199.97028 l
368.604113 199.560382 l
368.766521 198.23802 l
368.92893 198.511547 l
369.091338 197.472792 l
369.253747 197.22207 l
369.416155 197.365759 l
369.578564 197.952032 l
370.228198 195.724184 l
370.553015 218.522828 l
370.715423 217.479125 l
370.877832 217.414178 l
371.202649 215.126798 l
371.365057 215.071531 l
371.527466 214.159156 l
371.689874 214.512353 l
372.339508 210.420241 l
372.501916 211.135664 l
372.826733 210.18173 l
372.989142 210.791615 l
373.15155 208.953973 l
373.313959 208.731222 l
373.801184 207.373268 l
373.963593 207.119686 l
374.126001 206.315421 l
374.28841 206.329351 l
374.450818 205.442896 l
374.613227 205.256527 l
374.775635 205.45619 l
375.100452 204.151181 l
375.425269 202.833499 l
375.587677 202.799423 l
375.912494 201.722606 l
376.074903 202.106439 l
377.049354 199.686183 l
377.374171 199.416913 l
377.861396 197.993513 l
378.186213 198.013302 l
378.348622 210.000421 l
378.51103 209.345033 l
378.673439 209.334798 l
378.835847 206.684097 l
378.998255 212.698591 l
379.323072 209.754716 l
379.810298 208.941805 l
380.135115 206.02538 l
380.297523 205.929792 l
380.459932 204.890616 l
380.62234 204.640407 l
380.784749 203.807908 l
380.947157 204.142908 l
382.084017 198.640772 l
382.246425 198.60934 l
382.408834 197.36293 l
382.571242 197.405427 l
382.896059 196.289965 l
383.058467 194.822822 l
383.220876 194.924069 l
383.545693 193.328214 l
383.708101 192.393901 l
384.195327 193.002499 l
384.357735 193.137966 l
384.520144 191.826601 l
384.682552 191.923607 l
384.844961 202.916177 l
385.169778 202.181026 l
385.332186 202.109736 l
385.494595 202.228768 l
385.657003 199.598928 l
385.819412 199.522798 l
385.98182 199.266603 l
386.469045 196.761169 l
386.631454 195.544225 l
386.956271 195.341139 l
387.118679 194.632784 l
387.281088 194.541583 l
387.443496 194.085489 l
387.768313 192.875293 l
388.09313 191.982859 l
388.417947 189.380896 l
388.580356 188.990948 l
388.742764 189.016705 l
389.067581 187.201194 l
389.22999 186.902081 l
389.717215 186.871016 l
389.879623 184.633648 l
390.366849 183.202274 l
390.529257 183.051162 l
390.691666 183.39646 l
390.854074 183.378981 l
391.016483 182.775035 l
391.178891 182.746926 l
392.153342 180.33713 l
392.478159 178.345258 l
392.640568 177.722317 l
392.802976 177.728661 l
393.127793 177.611501 l
393.290201 177.685873 l
393.45261 175.740626 l
393.615018 175.779139 l
393.777427 175.423258 l
393.939835 174.352168 l
394.102244 174.359696 l
394.264652 172.399702 l
394.589469 171.446611 l
394.751878 171.436097 l
394.914286 170.488362 l
395.076695 167.883627 l
395.401512 168.02268 l
395.56392 167.771076 l
395.726329 167.23065 l
395.888737 165.919035 l
396.213554 166.186902 l
396.375963 166.038518 l
396.538371 164.559841 l
396.700779 164.390089 l
397.188005 164.344688 l
397.512822 162.979037 l
397.837639 162.898806 l
398.000047 163.038308 l
398.487273 162.267189 l
398.487273 162.267189 l
stroke
grestore
1.000 0.498 0.055 setrgbcolor
gsave
357.1 266.1 57.6 38.02 clipbox
73.832727 277.807372 m
73.995136 276.954099 l
74.482361 270.937237 l
74.64477 270.906756 l
75.131995 263.529972 l
75.456812 258.464889 l
75.619221 257.312389 l
75.781629 254.807327 l
76.268854 252.765714 l
76.431263 253.276192 l
76.593671 252.768762 l
76.75608 252.776579 l
76.918488 252.152946 l
77.080897 251.037779 l
77.405714 246.825748 l
77.568122 241.90906 l
77.730531 241.203891 l
78.217756 235.071749 l
78.380165 235.392498 l
78.542573 235.235848 l
79.192207 230.13771 l
79.354615 227.380066 l
79.841841 225.89126 l
80.166658 222.184405 l
80.329066 221.755185 l
80.816292 219.505442 l
80.9787 219.480722 l
81.141109 219.103002 l
81.465926 215.802389 l
81.628334 213.818472 l
81.790743 210.124826 l
82.11556 210.396862 l
82.277968 209.912568 l
82.927602 205.065859 l
83.09001 204.213811 l
83.252419 204.437196 l
83.414827 203.506965 l
83.577236 203.699078 l
83.902053 202.337406 l
84.22687 198.524122 l
84.389278 198.117996 l
84.551687 198.317811 l
84.714095 198.020158 l
84.876504 195.503585 l
85.038912 195.660088 l
85.201321 194.111983 l
85.363729 193.806724 l
85.850955 191.369909 l
86.013363 191.275546 l
86.175772 191.322718 l
86.33818 189.968318 l
86.662997 185.527786 l
86.825405 185.53111 l
86.987814 184.669707 l
87.150222 184.876161 l
87.312631 184.869963 l
87.637448 182.261125 l
87.962265 180.722757 l
88.124673 180.652614 l
88.287082 179.008882 l
88.611899 178.799634 l
88.774307 178.231423 l
88.936716 178.542155 l
89.423941 176.570481 l
89.58635 176.448686 l
89.911166 175.779056 l
90.723209 167.68093 l
91.048026 166.988493 l
91.210434 166.716477 l
91.69766 164.17286 l
91.860068 164.239973 l
92.184885 163.536539 l
92.509702 163.286497 l
92.672111 161.228693 l
93.159336 160.182254 l
93.646561 160.200661 l
93.80897 159.827816 l
94.133787 159.850525 l
94.296195 159.354959 l
94.458604 158.488405 l
94.621012 158.370506 l
95.108238 157.553084 l
95.433055 155.910016 l
95.595463 156.306814 l
96.082689 155.760438 l
96.245097 156.212155 l
96.732323 155.238167 l
97.057139 155.171845 l
97.544365 153.524808 l
97.869182 151.416724 l
98.03159 151.049831 l
98.193999 150.961148 l
98.518816 149.923159 l
98.681224 150.320555 l
99.006041 149.938928 l
99.493267 149.873612 l
99.655675 149.622785 l
99.980492 149.641534 l
100.305309 149.441335 l
100.954943 146.907212 l
101.27976 146.433013 l
101.442168 145.280855 l
101.604577 144.98826 l
101.929394 145.035874 l
102.091802 145.059873 l
102.741436 143.561135 l
102.903845 142.800339 l
103.066253 142.726448 l
103.39107 141.595561 l
103.553479 140.735285 l
103.715887 140.634446 l
103.878296 140.394738 l
104.040704 139.619429 l
104.203112 139.618089 l
104.365521 139.468371 l
104.527929 138.582316 l
104.690338 138.504524 l
104.852746 137.414663 l
105.015155 137.284316 l
106.152014 133.79769 l
106.476831 133.759126 l
106.63924 132.872678 l
106.801648 132.872893 l
107.126465 131.834858 l
107.451282 131.664228 l
107.61369 131.663946 l
107.938507 131.256099 l
108.263324 131.236414 l
108.425733 131.198521 l
108.588141 130.965269 l
108.912958 130.873587 l
109.075367 130.600752 l
109.725001 130.559263 l
110.049818 130.08391 l
110.212226 130.087222 l
110.537043 129.757243 l
111.024268 129.712112 l
111.186677 129.187201 l
111.673902 129.225103 l
112.161128 128.198744 l
112.648353 128.214239 l
112.810762 127.938046 l
113.135579 127.947955 l
113.297987 127.546271 l
113.947621 127.494545 l
114.272438 127.135427 l
114.434847 126.763316 l
114.597255 125.432342 l
114.759663 125.156856 l
114.922072 125.155701 l
115.409297 124.485248 l
115.571706 124.534527 l
115.896523 124.358137 l
116.058931 123.54437 l
116.708565 123.445847 l
117.195791 122.90718 l
117.845425 122.487729 l
118.170241 120.48528 l
118.495058 120.409224 l
119.469509 120.432731 l
119.631918 120.254439 l
120.119143 119.033263 l
120.606369 118.965265 l
120.931186 118.571793 l
121.093594 117.695162 l
121.418411 117.573028 l
122.068045 117.569053 l
122.230453 117.235029 l
122.392862 116.630922 l
123.204904 116.624775 l
124.341764 115.924141 l
124.504172 115.530686 l
124.666581 114.572567 l
125.153806 114.203387 l
125.316214 114.120084 l
125.641031 112.913399 l
125.965848 112.74166 l
126.453074 112.467966 l
126.777891 112.378711 l
127.427525 112.232475 l
127.589933 111.934893 l
127.752342 111.915058 l
127.91475 111.473531 l
128.077159 111.473601 l
128.239567 111.260634 l
128.401976 111.318137 l
128.726792 111.19239 l
129.214018 110.878785 l
129.376426 110.712182 l
129.701243 110.7549 l
130.02606 110.565157 l
130.513286 110.513129 l
130.838103 110.413717 l
131.16292 110.291814 l
131.812554 110.307885 l
132.137371 110.174403 l
132.787004 110.097284 l
133.111821 109.431244 l
133.436638 109.477781 l
133.599047 109.243227 l
133.761455 109.242378 l
134.411089 108.872292 l
135.38554 108.617757 l
136.197582 107.946969 l
136.359991 107.58155 l
137.009625 107.581421 l
137.334442 107.457813 l
137.984076 107.433018 l
138.146484 106.649032 l
138.796118 106.12385 l
139.120935 106.115791 l
139.445752 105.804955 l
140.257794 105.722209 l
140.582611 105.662162 l
140.74502 105.662242 l
140.907428 105.177894 l
142.044288 105.073582 l
142.206696 104.849417 l
144.318006 104.772508 l
144.642823 104.658389 l
144.805232 104.649355 l
144.96764 104.333209 l
145.130049 104.337465 l
145.454866 103.963441 l
146.266908 103.902885 l
146.429316 103.821845 l
146.591725 103.075117 l
147.566176 103.053943 l
148.21581 102.171715 l
148.540627 101.676091 l
149.677486 101.581234 l
150.489528 101.360079 l
150.814345 101.35691 l
150.976754 99.394051 l
151.139162 99.075317 l
152.276022 99.073563 l
152.600839 98.940783 l
152.763247 98.940522 l
152.925656 98.599569 l
153.250473 98.603083 l
153.412881 98.400502 l
153.900106 98.402375 l
154.062515 97.626074 l
154.387332 97.624795 l
154.54974 97.36701 l
154.874557 97.370361 l
155.036966 97.192194 l
155.361783 97.190696 l
155.524191 96.986674 l
157.473093 96.9021 l
157.635501 96.735542 l
158.609952 96.704247 l
158.934769 96.55349 l
159.097178 96.553631 l
159.259586 96.386856 l
159.746812 96.387404 l
160.234037 95.958321 l
160.558854 95.849352 l
161.046079 95.568691 l
162.182939 95.508105 l
162.345347 95.306684 l
163.319798 95.305054 l
163.644615 95.169748 l
164.456657 95.167319 l
164.619066 94.853142 l
166.243151 94.853258 l
166.405559 94.656753 l
166.567968 94.656499 l
166.892785 94.420041 l
167.38001 94.420124 l
167.867235 93.891641 l
168.516869 93.894188 l
169.004095 93.239102 l
169.978546 93.16413 l
170.303363 93.043807 l
170.952996 93.04369 l
171.115405 92.735038 l
171.927447 92.749645 l
172.252264 92.625384 l
173.551532 92.619832 l
173.713941 92.439455 l
173.876349 92.439457 l
174.201166 92.309684 l
174.363575 92.309764 l
174.525983 92.148143 l
175.175617 92.155433 l
175.500434 91.592702 l
175.987659 91.591757 l
176.150068 91.390392 l
177.124519 91.389553 l
177.611744 90.49238 l
178.261378 90.488117 l
178.586195 90.347083 l
179.235829 90.347014 l
179.398237 90.136914 l
180.372688 90.12619 l
180.535097 89.936242 l
181.996773 89.935704 l
182.159181 89.755438 l
182.971224 89.753334 l
183.133632 89.212689 l
183.945675 89.213198 l
184.108083 88.890876 l
185.244942 88.888585 l
185.407351 88.702883 l
187.193844 88.701032 l
187.356253 88.383098 l
188.65552 88.382169 l
188.817929 88.201108 l
189.467563 88.201694 l
189.79238 87.619318 l
190.766831 87.619958 l
191.254056 86.765585 l
191.578873 86.765716 l
191.741282 86.496418 l
193.202958 86.48632 l
193.365366 85.996149 l
194.015 85.993203 l
194.177409 85.61518 l
195.476677 85.61505 l
195.639085 85.332871 l
195.963902 85.331715 l
196.12631 85.032831 l
199.37448 85.044859 l
199.536888 84.400545 l
201.973016 84.396356 l
202.460241 83.420415 l
203.109875 83.420834 l
203.272283 82.848486 l
203.759509 82.848486 l
203.921917 82.547216 l
204.409143 82.546528 l
204.571551 82.245043 l
205.221185 82.245128 l
205.383594 81.884281 l
207.007678 81.884048 l
207.170087 81.207706 l
207.657312 81.20533 l
207.819721 80.824907 l
208.144538 80.824549 l
208.306946 80.5351 l
210.093439 80.534976 l
210.255848 79.848277 l
213.828834 79.854204 l
214.31606 79.20241 l
217.564229 79.200233 l
217.726638 78.860183 l
218.213863 78.860185 l
218.376272 78.260162 l
219.67554 78.258951 l
219.837948 100.220156 l
220.000357 100.220162 l
220.325173 100.053518 l
220.487582 100.051512 l
220.64999 99.790238 l
220.974807 99.791542 l
221.137216 99.452156 l
221.299624 97.92612 l
221.462033 97.864797 l
221.624441 97.452765 l
222.436484 97.376484 l
222.598892 97.059594 l
223.086118 97.035328 l
223.248526 96.3203 l
223.410935 96.558874 l
223.89816 95.36861 l
224.385385 95.368599 l
224.547794 95.066042 l
224.710202 95.012086 l
224.872611 94.243406 l
225.684653 94.209303 l
226.171879 94.209301 l
226.334287 92.822984 l
226.496696 92.616681 l
226.659104 90.998479 l
228.445597 91.077654 l
228.608006 90.253869 l
229.582457 90.253621 l
229.744865 90.098364 l
230.069682 89.133784 l
230.394499 89.096239 l
230.556908 88.983708 l
230.719316 89.212255 l
230.881724 89.212255 l
231.044133 87.306273 l
231.206541 87.305745 l
231.36895 104.520678 l
231.531358 104.349445 l
231.693767 103.435966 l
232.018584 103.2863 l
232.343401 103.055316 l
232.505809 102.383117 l
232.993035 102.334675 l
233.155443 102.334675 l
233.317852 102.637052 l
233.967486 102.635363 l
234.129894 102.326841 l
234.454711 102.326905 l
234.617119 102.132536 l
234.779528 101.587373 l
234.941936 102.39042 l
236.078796 102.254293 l
236.566021 102.213878 l
236.72843 102.213878 l
237.215655 100.632073 l
237.378064 100.632073 l
237.540472 99.803958 l
237.702881 99.803958 l
238.027697 99.278653 l
238.190106 99.278653 l
238.352514 98.959509 l
238.514923 98.958332 l
238.677331 98.008429 l
239.002148 98.007757 l
239.164557 97.425923 l
239.326965 97.434507 l
239.489374 116.298781 l
239.651782 115.65794 l
239.814191 115.663556 l
239.976599 114.897645 l
240.139008 114.897448 l
240.626233 114.451936 l
240.95105 111.674796 l
241.113459 111.616341 l
241.275867 111.074806 l
241.763092 111.045464 l
242.087909 110.628475 l
242.250318 110.546596 l
242.412726 109.573626 l
242.575135 109.73914 l
242.737543 109.547099 l
242.899952 109.59958 l
243.224769 107.274029 l
243.549586 107.23504 l
243.874403 107.319698 l
245.011262 107.158328 l
245.17367 106.432972 l
245.498487 106.42796 l
245.660896 106.168586 l
245.823304 104.44339 l
245.985713 104.615163 l
246.472938 104.612356 l
246.797755 103.431379 l
246.960164 103.431793 l
247.284981 102.906016 l
247.934615 102.88852 l
248.097023 100.791209 l
248.259432 100.791209 l
248.42184 100.346349 l
248.746657 100.330296 l
248.909065 115.39366 l
249.071474 115.894078 l
249.396291 146.90556 l
249.558699 146.222264 l
249.721108 146.222266 l
249.883516 146.059631 l
250.045925 145.339005 l
250.208333 145.339008 l
250.53315 144.022678 l
250.695559 144.107169 l
250.857967 140.753613 l
251.020376 140.755359 l
251.507601 138.176705 l
252.319643 134.847247 l
252.482052 133.190428 l
252.806869 133.113406 l
252.969277 131.893033 l
253.294094 131.431078 l
253.456503 145.987378 l
253.618911 144.930519 l
253.78132 144.691763 l
253.943728 144.672789 l
254.755771 140.235184 l
254.918179 140.129284 l
255.242996 138.044953 l
255.405405 147.969276 l
255.89263 146.028782 l
256.055038 144.920677 l
256.379855 144.973609 l
256.542264 145.487065 l
256.704672 145.43296 l
257.029489 171.29396 l
257.354306 170.103071 l
257.679123 169.768166 l
258.00394 168.470328 l
258.166349 168.774796 l
258.328757 168.511313 l
258.491166 167.986923 l
258.653574 166.590176 l
258.815983 166.320207 l
258.978391 166.313711 l
259.140799 165.29441 l
259.303208 177.899 l
259.628025 176.909122 l
259.790433 187.398831 l
260.11525 183.427211 l
260.602476 179.892522 l
260.764884 190.238379 l
261.089701 186.630778 l
261.25211 186.150751 l
261.414518 186.131264 l
261.901744 184.396112 l
262.064152 197.621903 l
262.551378 193.935924 l
262.713786 208.193893 l
263.038603 207.077013 l
263.201011 207.276314 l
263.525828 206.032796 l
263.688237 204.134809 l
263.850645 204.011669 l
264.013054 203.409864 l
264.175462 203.311119 l
264.500279 201.569755 l
264.662688 201.052022 l
264.987505 198.64082 l
265.149913 198.6295 l
265.312322 197.717445 l
265.47473 197.891564 l
265.637139 197.655235 l
265.799547 197.217397 l
265.961956 197.308307 l
266.124364 196.455429 l
266.286772 194.487025 l
266.773998 193.45864 l
267.423632 186.880124 l
267.58604 186.774384 l
267.748449 186.960814 l
268.235674 185.444894 l
268.398083 183.856987 l
268.7229 183.045725 l
269.047717 179.841525 l
269.210125 179.068142 l
269.534942 178.997697 l
269.859759 177.199313 l
270.022167 176.912988 l
270.346984 176.844467 l
270.509393 176.592661 l
270.671801 175.901796 l
270.83421 175.819844 l
270.996618 175.107422 l
271.159027 175.047121 l
271.321435 174.348225 l
271.646252 174.199591 l
271.808661 173.909353 l
271.971069 174.018151 l
272.783112 170.158027 l
272.94552 170.09834 l
273.270337 168.209241 l
273.432745 167.96879 l
273.757562 165.923162 l
274.407196 162.496254 l
274.569605 162.484001 l
274.732013 162.228715 l
275.219239 160.717533 l
275.544056 158.751697 l
275.706464 158.744823 l
276.680915 155.067339 l
276.843323 155.132722 l
277.492957 154.052089 l
277.655366 154.09377 l
277.817774 153.825726 l
277.980183 153.774566 l
278.467408 151.162606 l
278.792225 151.054133 l
279.117042 150.226582 l
279.279451 150.160054 l
279.441859 149.893053 l
279.604268 149.879449 l
279.766676 148.517801 l
279.929085 148.146443 l
280.091493 147.424485 l
280.41631 147.09937 l
280.578718 146.787676 l
280.741127 146.819349 l
281.065944 144.641597 l
281.228352 144.635635 l
281.390761 144.062851 l
281.553169 144.068433 l
281.715578 143.077713 l
282.040395 143.022662 l
282.202803 142.559872 l
282.52762 140.503076 l
282.690029 140.346 l
282.852437 140.004709 l
283.014846 140.105901 l
283.177254 139.741878 l
283.339663 139.68074 l
283.502071 139.22805 l
283.66448 138.004869 l
283.826888 137.846092 l
284.151705 138.232397 l
284.476522 137.761562 l
284.801339 135.080406 l
284.963747 134.777974 l
285.288564 133.40448 l
285.613381 133.458303 l
285.77579 133.168427 l
285.938198 133.134199 l
286.587832 130.374955 l
286.750241 130.318543 l
286.912649 129.437725 l
287.237466 129.413275 l
287.724691 128.665432 l
288.049508 128.645743 l
288.211917 128.599587 l
288.374325 128.693355 l
288.536734 128.962737 l
289.186368 128.94844 l
289.348776 128.733033 l
289.511185 128.272482 l
290.323227 127.832179 l
290.972861 127.860979 l
291.135269 127.565363 l
291.460086 127.542106 l
291.622495 126.837767 l
291.784903 126.837797 l
292.10972 126.223281 l
292.596946 126.25235 l
292.759354 125.694787 l
293.084171 125.6375 l
293.24658 125.33038 l
293.408988 125.33231 l
293.571397 124.746416 l
293.733805 124.745395 l
293.896214 124.264628 l
294.870664 124.146222 l
295.033073 124.145765 l
295.195481 123.988763 l
295.520298 123.986001 l
295.682707 123.410869 l
295.845115 123.409775 l
296.007524 123.017324 l
296.981975 122.957784 l
297.306792 122.821269 l
297.4692 121.715393 l
298.118834 121.194545 l
298.281242 121.198475 l
298.443651 120.299444 l
299.093285 120.239608 l
299.255693 120.137327 l
299.418102 119.247846 l
299.58051 119.202733 l
299.905327 118.850305 l
300.392553 118.859335 l
300.554961 118.757498 l
300.71737 117.173893 l
300.879778 117.173359 l
301.042187 116.842072 l
301.529412 116.690935 l
301.69182 116.528063 l
301.854229 115.555349 l
302.016637 115.590454 l
302.179046 115.188251 l
303.803131 115.014857 l
303.965539 114.727421 l
304.290356 114.691898 l
304.452765 112.192985 l
304.615173 112.192887 l
304.777582 111.501957 l
304.93999 111.433236 l
305.102398 111.121486 l
305.264807 111.125248 l
305.427215 110.9642 l
306.076849 110.952343 l
306.401666 110.84123 l
306.564075 110.11245 l
306.888892 110.088292 l
307.0513 110.363247 l
307.538526 110.404376 l
308.025751 110.094816 l
308.350568 110.089388 l
308.512976 109.951816 l
308.675385 109.547217 l
309.000202 109.549573 l
309.487427 109.208391 l
309.812244 109.125825 l
309.974653 108.807596 l
311.273921 108.771141 l
311.598738 108.034984 l
311.761146 108.038609 l
312.41078 107.428278 l
312.735597 107.336194 l
313.222822 107.351226 l
313.385231 106.834416 l
313.710048 106.86213 l
313.872456 105.778423 l
314.034865 105.778561 l
314.197273 104.558239 l
314.359682 104.555404 l
314.684499 104.163866 l
315.496541 104.144 l
315.821358 103.901589 l
315.983766 103.903119 l
316.146175 103.685695 l
316.308583 103.685637 l
316.470992 103.487049 l
316.958217 103.472234 l
317.120626 103.306341 l
317.283034 103.310663 l
317.77026 103.07383 l
318.582302 103.069837 l
318.744711 102.96112 l
318.907119 102.503911 l
319.394344 102.506341 l
319.556753 102.282269 l
320.043978 102.28448 l
320.206387 102.165752 l
320.531204 101.493748 l
320.693612 101.492782 l
320.856021 101.201095 l
321.018429 101.265001 l
321.343246 101.14206 l
321.505655 101.1409 l
321.830472 100.740109 l
322.317697 100.747974 l
322.480106 100.546994 l
322.967331 100.527207 l
323.129739 100.365632 l
323.616965 100.365492 l
323.779373 99.782577 l
323.941782 99.627345 l
327.027543 99.545982 l
327.189951 99.116602 l
327.677177 99.123201 l
328.001994 98.968879 l
328.326811 98.881305 l
329.301262 98.782261 l
329.788487 98.40774 l
331.250163 98.398402 l
331.737389 98.137448 l
332.062206 98.132043 l
332.549431 96.985369 l
332.71184 96.98615 l
332.874248 96.748525 l
333.199065 96.704825 l
333.68629 96.352065 l
334.498333 96.251698 l
334.82315 96.148969 l
335.960009 96.043167 l
336.122418 95.750009 l
337.746502 95.765495 l
337.908911 95.449144 l
338.233728 95.450933 l
338.396136 95.262315 l
338.720953 95.25268 l
339.04577 94.845463 l
339.208179 94.188731 l
340.020221 94.167437 l
340.182629 93.395264 l
340.345038 93.395161 l
340.507446 93.19251 l
341.319489 93.189551 l
341.644306 92.742113 l
343.268391 92.621817 l
344.242841 92.6191 l
344.567658 92.10494 l
344.892475 92.102949 l
345.054884 91.092254 l
345.866926 91.094449 l
346.029335 90.938473 l
346.678969 90.936215 l
346.841377 90.698965 l
347.653419 90.70546 l
348.140645 90.210091 l
349.277504 90.275212 l
349.439913 89.766287 l
351.388814 89.761369 l
351.551223 89.548861 l
352.525674 89.539397 l
352.688082 89.256292 l
353.012899 89.257385 l
353.175308 89.007497 l
353.500125 89.002096 l
353.662533 88.812881 l
353.824942 88.444747 l
357.073111 88.435827 l
357.23552 88.26741 l
357.560337 88.267426 l
357.722745 87.258726 l
358.534787 87.257159 l
358.697196 87.1036 l
359.834055 87.103998 l
359.996464 86.525541 l
360.321281 86.525526 l
360.483689 86.250389 l
362.107774 86.250981 l
362.432591 85.711956 l
366.655211 85.710389 l
366.81762 85.285303 l
367.954479 85.285362 l
368.116888 84.674338 l
370.065789 84.684021 l
370.390606 84.143304 l
372.826733 84.145505 l
372.989142 83.821111 l
373.313959 83.821124 l
373.476367 83.142664 l
374.28841 83.142353 l
374.450818 82.902659 l
376.074903 82.90499 l
376.237311 82.613077 l
378.998255 82.558741 l
379.160664 82.209467 l
381.271974 82.209143 l
381.434383 81.564614 l
382.408834 81.564353 l
382.571242 80.915626 l
383.87051 80.908581 l
384.032918 80.21164 l
385.98182 80.210106 l
386.144228 79.904246 l
386.631454 79.904247 l
386.793862 100.599389 l
386.956271 100.226319 l
387.281088 100.226317 l
387.443496 99.936538 l
387.605905 98.522927 l
387.768313 98.555273 l
387.930722 99.169523 l
388.09313 98.217723 l
388.255539 98.217723 l
388.580356 97.161321 l
388.742764 96.880035 l
388.905173 96.872863 l
389.392398 95.276598 l
389.717215 95.221804 l
389.879623 94.669496 l
390.20444 94.669496 l
390.529257 93.622768 l
390.691666 93.468912 l
391.016483 93.468912 l
391.178891 93.816573 l
391.3413 93.779522 l
391.503708 93.455168 l
391.828525 93.45538 l
391.990934 93.161584 l
393.127793 93.078359 l
393.45261 92.495931 l
393.777427 91.687786 l
394.751878 91.743449 l
394.914286 91.019896 l
395.401512 91.019329 l
395.56392 90.764438 l
396.375963 90.669377 l
396.863188 90.617882 l
397.350413 90.616206 l
397.67523 89.959615 l
398.487273 89.963471 l
398.487273 89.963471 l
stroke
grestore
0.800 setlinewidth
0 setlinejoin
2 setlinecap
[] 0 setdash
0.000 setgray
gsave
57.6 38.016 m
57.6 304.128 l
stroke
grestore
gsave
414.72 38.016 m
414.72 304.128 l
stroke
grestore
gsave
57.6 38.016 m
414.72 38.016 l
stroke
grestore
gsave
57.6 304.128 m
414.72 304.128 l
stroke
grestore

end
showpage
