%!PS-Adobe-3.0 EPSF-3.0
%%Title: plots/Rastrigin2.eps
%%Creator: matplotlib version 2.2.2, http://matplotlib.org/
%%CreationDate: Mon Jul 30 07:27:37 2018
%%Orientation: portrait
%%BoundingBox: 75 223 536 568
%%EndComments
%%BeginProlog
/mpldict 9 dict def
mpldict begin
/m { moveto } bind def
/l { lineto } bind def
/r { rlineto } bind def
/c { curveto } bind def
/cl { closepath } bind def
/box {
m
1 index 0 r
0 exch r
neg 0 r
cl
} bind def
/clipbox {
box
clip
newpath
} bind def
%!PS-Adobe-3.0 Resource-Font
%%Title: DejaVu Sans
%%Copyright: Copyright (c) 2003 by Bitstream, Inc. All Rights Reserved. Copyright (c) 2006 by Tavmjong Bah. All Rights Reserved. DejaVu changes are in public domain 
%%Creator: Converted from TrueType to type 3 by PPR
25 dict begin
/_d{bind def}bind def
/_m{moveto}_d
/_l{lineto}_d
/_cl{closepath eofill}_d
/_c{curveto}_d
/_sc{7 -1 roll{setcachedevice}{pop pop pop pop pop pop}ifelse}_d
/_e{exec}_d
/FontName /DejaVuSans def
/PaintType 0 def
/FontMatrix[.001 0 0 .001 0 0]def
/FontBBox[-1021 -463 1793 1232]def
/FontType 3 def
/Encoding [ /parenleft /parenright /zero /one /two /three /four /five /I /a /e /i /n /o /r /t /minus ] def
/FontInfo 10 dict dup begin
/FamilyName (DejaVu Sans) def
/FullName (DejaVu Sans) def
/Notice (Copyright (c) 2003 by Bitstream, Inc. All Rights Reserved. Copyright (c) 2006 by Tavmjong Bah. All Rights Reserved. DejaVu changes are in public domain ) def
/Weight (Book) def
/Version (Version 2.35) def
/ItalicAngle 0.0 def
/isFixedPitch false def
/UnderlinePosition -130 def
/UnderlineThickness 90 def
end readonly def
/CharStrings 18 dict dup begin
/.notdef 0 def
/parenleft{390 0 86 -131 310 759 _sc
310 759 _m
266 683 234 609 213 536 _c
191 463 181 389 181 314 _c
181 238 191 164 213 91 _c
234 17 266 -56 310 -131 _c
232 -131 _l
183 -54 146 20 122 94 _c
98 168 86 241 86 314 _c
86 386 98 459 122 533 _c
146 607 182 682 232 759 _c
310 759 _l
_cl}_d
/parenright{390 0 80 -131 304 759 _sc
80 759 _m
158 759 _l
206 682 243 607 267 533 _c
291 459 304 386 304 314 _c
304 241 291 168 267 94 _c
243 20 206 -54 158 -131 _c
80 -131 _l
123 -56 155 17 177 91 _c
198 164 209 238 209 314 _c
209 389 198 463 177 536 _c
155 609 123 683 80 759 _c
_cl}_d
/zero{636 0 66 -13 570 742 _sc
318 664 _m
267 664 229 639 203 589 _c
177 539 165 464 165 364 _c
165 264 177 189 203 139 _c
229 89 267 64 318 64 _c
369 64 407 89 433 139 _c
458 189 471 264 471 364 _c
471 464 458 539 433 589 _c
407 639 369 664 318 664 _c
318 742 _m
399 742 461 709 505 645 _c
548 580 570 486 570 364 _c
570 241 548 147 505 83 _c
461 19 399 -13 318 -13 _c
236 -13 173 19 130 83 _c
87 147 66 241 66 364 _c
66 486 87 580 130 645 _c
173 709 236 742 318 742 _c
_cl}_d
/one{636 0 110 0 544 729 _sc
124 83 _m
285 83 _l
285 639 _l
110 604 _l
110 694 _l
284 729 _l
383 729 _l
383 83 _l
544 83 _l
544 0 _l
124 0 _l
124 83 _l
_cl}_d
/two{{636 0 73 0 536 742 _sc
192 83 _m
536 83 _l
536 0 _l
73 0 _l
73 83 _l
110 121 161 173 226 239 _c
290 304 331 346 348 365 _c
380 400 402 430 414 455 _c
426 479 433 504 433 528 _c
433 566 419 598 392 622 _c
365 646 330 659 286 659 _c
255 659 222 653 188 643 _c
154 632 117 616 78 594 _c
78 694 _l
118 710 155 722 189 730 _c
223 738 255 742 284 742 _c
}_e{359 742 419 723 464 685 _c
509 647 532 597 532 534 _c
532 504 526 475 515 449 _c
504 422 484 390 454 354 _c
446 344 420 317 376 272 _c
332 227 271 164 192 83 _c
_cl}_e}_d
/three{{636 0 76 -13 556 742 _sc
406 393 _m
453 383 490 362 516 330 _c
542 298 556 258 556 212 _c
556 140 531 84 482 45 _c
432 6 362 -13 271 -13 _c
240 -13 208 -10 176 -4 _c
144 1 110 10 76 22 _c
76 117 _l
103 101 133 89 166 81 _c
198 73 232 69 268 69 _c
330 69 377 81 409 105 _c
441 129 458 165 458 212 _c
458 254 443 288 413 312 _c
383 336 341 349 287 349 _c
}_e{202 349 _l
202 430 _l
291 430 _l
339 430 376 439 402 459 _c
428 478 441 506 441 543 _c
441 580 427 609 401 629 _c
374 649 336 659 287 659 _c
260 659 231 656 200 650 _c
169 644 135 635 98 623 _c
98 711 _l
135 721 170 729 203 734 _c
235 739 266 742 296 742 _c
370 742 429 725 473 691 _c
517 657 539 611 539 553 _c
539 513 527 479 504 451 _c
481 423 448 403 406 393 _c
_cl}_e}_d
/four{636 0 49 0 580 729 _sc
378 643 _m
129 254 _l
378 254 _l
378 643 _l
352 729 _m
476 729 _l
476 254 _l
580 254 _l
580 172 _l
476 172 _l
476 0 _l
378 0 _l
378 172 _l
49 172 _l
49 267 _l
352 729 _l
_cl}_d
/five{{636 0 77 -13 549 729 _sc
108 729 _m
495 729 _l
495 646 _l
198 646 _l
198 467 _l
212 472 227 476 241 478 _c
255 480 270 482 284 482 _c
365 482 429 459 477 415 _c
525 370 549 310 549 234 _c
549 155 524 94 475 51 _c
426 8 357 -13 269 -13 _c
238 -13 207 -10 175 -6 _c
143 -1 111 6 77 17 _c
77 116 _l
106 100 136 88 168 80 _c
199 72 232 69 267 69 _c
}_e{323 69 368 83 401 113 _c
433 143 450 183 450 234 _c
450 284 433 324 401 354 _c
368 384 323 399 267 399 _c
241 399 214 396 188 390 _c
162 384 135 375 108 363 _c
108 729 _l
_cl}_e}_d
/I{295 0 98 0 197 729 _sc
98 729 _m
197 729 _l
197 0 _l
98 0 _l
98 729 _l
_cl}_d
/a{{613 0 60 -13 522 560 _sc
343 275 _m
270 275 220 266 192 250 _c
164 233 150 205 150 165 _c
150 133 160 107 181 89 _c
202 70 231 61 267 61 _c
317 61 357 78 387 114 _c
417 149 432 196 432 255 _c
432 275 _l
343 275 _l
522 312 _m
522 0 _l
432 0 _l
432 83 _l
411 49 385 25 355 10 _c
325 -5 287 -13 243 -13 _c
187 -13 142 2 109 33 _c
76 64 60 106 60 159 _c
}_e{60 220 80 266 122 298 _c
163 329 224 345 306 345 _c
432 345 _l
432 354 _l
432 395 418 427 391 450 _c
364 472 326 484 277 484 _c
245 484 215 480 185 472 _c
155 464 127 453 100 439 _c
100 522 _l
132 534 164 544 195 550 _c
226 556 256 560 286 560 _c
365 560 424 539 463 498 _c
502 457 522 395 522 312 _c
_cl}_e}_d
/e{{615 0 55 -13 562 560 _sc
562 296 _m
562 252 _l
149 252 _l
153 190 171 142 205 110 _c
238 78 284 62 344 62 _c
378 62 412 66 444 74 _c
476 82 509 95 541 113 _c
541 28 _l
509 14 476 3 442 -3 _c
408 -9 373 -13 339 -13 _c
251 -13 182 12 131 62 _c
80 112 55 181 55 268 _c
55 357 79 428 127 481 _c
175 533 241 560 323 560 _c
397 560 455 536 498 489 _c
}_e{540 441 562 377 562 296 _c
472 322 _m
471 371 457 410 431 440 _c
404 469 368 484 324 484 _c
274 484 234 469 204 441 _c
174 413 156 373 152 322 _c
472 322 _l
_cl}_e}_d
/i{278 0 94 0 184 760 _sc
94 547 _m
184 547 _l
184 0 _l
94 0 _l
94 547 _l
94 760 _m
184 760 _l
184 646 _l
94 646 _l
94 760 _l
_cl}_d
/n{634 0 91 0 549 560 _sc
549 330 _m
549 0 _l
459 0 _l
459 327 _l
459 379 448 417 428 443 _c
408 469 378 482 338 482 _c
289 482 251 466 223 435 _c
195 404 181 362 181 309 _c
181 0 _l
91 0 _l
91 547 _l
181 547 _l
181 462 _l
202 494 227 519 257 535 _c
286 551 320 560 358 560 _c
420 560 468 540 500 501 _c
532 462 549 405 549 330 _c
_cl}_d
/o{612 0 55 -13 557 560 _sc
306 484 _m
258 484 220 465 192 427 _c
164 389 150 338 150 273 _c
150 207 163 156 191 118 _c
219 80 257 62 306 62 _c
354 62 392 80 420 118 _c
448 156 462 207 462 273 _c
462 337 448 389 420 427 _c
392 465 354 484 306 484 _c
306 560 _m
384 560 445 534 490 484 _c
534 433 557 363 557 273 _c
557 183 534 113 490 63 _c
445 12 384 -13 306 -13 _c
227 -13 165 12 121 63 _c
77 113 55 183 55 273 _c
55 363 77 433 121 484 _c
165 534 227 560 306 560 _c
_cl}_d
/r{411 0 91 0 411 560 _sc
411 463 _m
401 469 390 473 378 476 _c
366 478 353 480 339 480 _c
288 480 249 463 222 430 _c
194 397 181 350 181 288 _c
181 0 _l
91 0 _l
91 547 _l
181 547 _l
181 462 _l
199 495 224 520 254 536 _c
284 552 321 560 365 560 _c
371 560 378 559 386 559 _c
393 558 401 557 411 555 _c
411 463 _l
_cl}_d
/t{392 0 27 0 368 702 _sc
183 702 _m
183 547 _l
368 547 _l
368 477 _l
183 477 _l
183 180 _l
183 135 189 106 201 94 _c
213 81 238 75 276 75 _c
368 75 _l
368 0 _l
276 0 _l
206 0 158 13 132 39 _c
106 65 93 112 93 180 _c
93 477 _l
27 477 _l
27 547 _l
93 547 _l
93 702 _l
183 702 _l
_cl}_d
/minus{838 0 106 272 732 355 _sc
106 355 _m
732 355 _l
732 272 _l
106 272 _l
106 355 _l
_cl}_d
end readonly def

/BuildGlyph
 {exch begin
 CharStrings exch
 2 copy known not{pop /.notdef}if
 true 3 1 roll get exec
 end}_d

/BuildChar {
 1 index /Encoding get exch get
 1 index /BuildGlyph get exec
}_d

FontName currentdict end definefont pop
%!PS-Adobe-3.0 Resource-Font
%%Title: DejaVu Sans Oblique
%%Copyright: Copyright (c) 2003 by Bitstream, Inc. All Rights Reserved. Copyright (c) 2006 by Tavmjong Bah. All Rights Reserved. DejaVu changes are in public domain 
%%Creator: Converted from TrueType to type 3 by PPR
25 dict begin
/_d{bind def}bind def
/_m{moveto}_d
/_l{lineto}_d
/_cl{closepath eofill}_d
/_c{curveto}_d
/_sc{7 -1 roll{setcachedevice}{pop pop pop pop pop pop}ifelse}_d
/_e{exec}_d
/FontName /DejaVuSans-Oblique def
/PaintType 0 def
/FontMatrix[.001 0 0 .001 0 0]def
/FontBBox[-1016 -350 1659 1068]def
/FontType 3 def
/Encoding [ /A /B /C /X /b /d /e /f /g /l /o /s /t ] def
/FontInfo 10 dict dup begin
/FamilyName (DejaVu Sans) def
/FullName (DejaVu Sans Oblique) def
/Notice (Copyright (c) 2003 by Bitstream, Inc. All Rights Reserved. Copyright (c) 2006 by Tavmjong Bah. All Rights Reserved. DejaVu changes are in public domain ) def
/Weight (Oblique) def
/Version (Version 2.35) def
/ItalicAngle -11.0 def
/isFixedPitch false def
/UnderlinePosition -130 def
/UnderlineThickness 90 def
end readonly def
/CharStrings 14 dict dup begin
/.notdef 0 def
/A{684 0 -52 0 615 729 _sc
368 729 _m
480 729 _l
615 0 _l
512 0 _l
482 187 _l
154 187 _l
51 0 _l
-52 0 _l
368 729 _l
404 632 _m
199 269 _l
467 269 _l
404 632 _l
_cl}_d
/B{{686 0 27 0 625 729 _sc
169 729 _m
421 729 _l
489 729 540 716 574 691 _c
608 665 625 627 625 576 _c
625 529 610 489 581 455 _c
552 421 514 400 467 393 _c
507 383 537 366 557 340 _c
577 314 588 280 588 238 _c
588 164 560 106 506 64 _c
452 21 378 0 284 0 _c
27 0 _l
169 729 _l
193 348 _m
141 81 _l
300 81 _l
359 81 405 94 437 122 _c
469 149 486 188 486 238 _c
}_e{486 276 475 303 454 321 _c
432 339 398 348 351 348 _c
193 348 _l
251 648 _m
208 428 _l
355 428 _l
407 428 448 439 478 462 _c
507 485 522 517 522 557 _c
522 588 512 611 492 626 _c
472 640 440 648 397 648 _c
251 648 _l
_cl}_e}_d
/C{{698 0 42 -13 695 742 _sc
695 673 _m
675 569 _l
643 600 610 623 575 639 _c
540 654 502 662 462 662 _c
406 662 357 648 315 622 _c
273 595 236 554 206 500 _c
186 464 171 427 161 388 _c
151 349 146 310 146 270 _c
146 203 163 152 197 118 _c
231 83 281 66 347 66 _c
392 66 435 73 477 87 _c
519 101 559 123 599 153 _c
576 36 _l
537 19 498 7 458 -1 _c
}_e{418 -9 379 -13 340 -13 _c
246 -13 173 12 121 62 _c
68 112 42 183 42 274 _c
42 332 52 389 72 445 _c
92 501 120 552 158 598 _c
198 647 243 683 294 707 _c
345 730 404 742 472 742 _c
514 742 553 736 590 725 _c
627 713 662 696 695 673 _c
_cl}_e}_d
/X{685 0 -42 0 703 729 _sc
137 729 _m
237 729 _l
362 466 _l
588 729 _l
703 729 _l
403 381 _l
584 0 _l
485 0 _l
338 307 _l
72 0 _l
-42 0 _l
298 392 _l
137 729 _l
_cl}_d
/b{{635 0 36 -13 587 760 _sc
495 334 _m
495 381 484 418 462 445 _c
440 471 411 485 373 485 _c
345 485 319 478 295 464 _c
271 450 250 431 232 406 _c
213 378 198 347 187 311 _c
176 275 171 240 171 205 _c
171 160 181 125 203 99 _c
224 73 253 61 291 61 _c
319 61 345 67 369 81 _c
393 94 415 113 433 139 _c
451 165 466 196 478 232 _c
489 268 495 302 495 334 _c
216 464 _m
}_e{238 494 265 517 299 534 _c
332 551 367 560 404 560 _c
460 560 504 541 537 503 _c
570 465 587 414 587 350 _c
587 297 577 246 558 197 _c
538 147 511 103 475 65 _c
451 39 424 20 394 7 _c
363 -6 331 -13 298 -13 _c
262 -13 232 -5 206 11 _c
180 27 158 51 142 83 _c
126 0 _l
36 0 _l
184 760 _l
274 760 _l
216 464 _l
_cl}_e}_d
/d{{635 0 46 -13 639 760 _sc
418 82 _m
394 50 365 27 332 11 _c
299 -5 263 -13 223 -13 _c
168 -13 125 5 93 42 _c
61 79 46 130 46 195 _c
46 249 55 300 75 349 _c
94 398 122 442 158 481 _c
182 507 209 526 239 540 _c
269 553 301 560 335 560 _c
370 560 401 551 428 534 _c
454 517 475 493 490 462 _c
549 760 _l
639 760 _l
491 0 _l
401 0 _l
418 82 _l
139 211 _m
}_e{139 163 149 126 171 100 _c
192 74 222 61 260 61 _c
288 61 314 67 338 81 _c
362 95 383 115 401 141 _c
420 168 435 200 446 236 _c
457 272 463 307 463 342 _c
463 387 452 422 431 448 _c
409 473 380 486 343 486 _c
314 486 287 479 263 466 _c
239 452 218 433 201 408 _c
182 381 167 350 156 314 _c
144 278 139 243 139 211 _c
_cl}_e}_d
/e{{615 0 46 -13 571 560 _sc
481 322 _m
481 327 482 332 483 338 _c
483 344 484 349 484 355 _c
484 395 472 426 449 449 _c
425 472 394 484 354 484 _c
309 484 270 469 236 441 _c
202 413 176 373 158 322 _c
481 322 _l
559 252 _m
141 252 _l
139 239 137 229 137 222 _c
136 215 136 209 136 204 _c
136 158 150 123 178 99 _c
206 74 245 62 296 62 _c
334 62 371 66 406 75 _c
}_e{441 83 474 96 504 114 _c
487 25 _l
454 11 420 2 386 -4 _c
352 -10 317 -13 282 -13 _c
206 -13 147 5 107 41 _c
66 77 46 128 46 195 _c
46 251 56 304 76 353 _c
96 402 126 446 166 485 _c
191 509 221 527 256 540 _c
291 553 328 560 368 560 _c
430 560 479 541 516 504 _c
552 467 571 417 571 355 _c
571 340 570 324 568 307 _c
566 289 563 271 559 252 _c
_cl}_e}_d
/f{352 0 68 0 478 760 _sc
478 760 _m
464 685 _l
378 685 _l
345 685 321 678 307 665 _c
292 652 281 629 274 595 _c
264 547 _l
412 547 _l
399 477 _l
251 477 _l
158 0 _l
68 0 _l
161 477 _l
75 477 _l
88 547 _l
174 547 _l
181 585 _l
193 649 215 695 246 721 _c
277 747 326 760 393 760 _c
478 760 _l
_cl}_d
/g{{635 0 32 -207 596 560 _sc
596 547 _m
503 68 _l
485 -24 450 -92 400 -138 _c
349 -184 281 -207 196 -207 _c
164 -207 134 -204 107 -200 _c
80 -195 55 -188 32 -178 _c
49 -91 _l
71 -105 94 -115 119 -122 _c
143 -129 170 -133 198 -133 _c
255 -133 302 -117 339 -86 _c
375 -55 399 -11 411 47 _c
419 88 _l
393 59 364 37 331 22 _c
298 7 262 0 224 0 _c
168 0 125 18 93 55 _c
}_e{61 91 46 142 46 206 _c
46 256 55 306 75 354 _c
94 402 121 445 156 483 _c
178 507 205 526 236 540 _c
267 553 299 560 333 560 _c
369 560 401 551 429 534 _c
456 517 476 493 490 462 _c
506 547 _l
596 547 _l
461 346 _m
461 390 450 425 429 449 _c
408 473 379 485 341 485 _c
317 485 294 480 273 471 _c
251 461 233 448 218 431 _c
193 403 174 370 160 332 _c
}_e{146 294 139 255 139 215 _c
139 169 149 135 170 111 _c
191 87 221 75 261 75 _c
318 75 366 100 404 152 _c
442 204 461 268 461 346 _c
_cl}_e}_d
/l{278 0 35 0 273 760 _sc
183 760 _m
273 760 _l
125 0 _l
35 0 _l
183 760 _l
_cl}_d
/o{{612 0 46 -13 566 560 _sc
254 -13 _m
190 -13 139 6 102 45 _c
64 84 46 138 46 207 _c
46 247 52 287 65 328 _c
77 369 94 404 115 432 _c
147 476 183 508 223 529 _c
263 549 308 560 358 560 _c
420 560 470 540 508 502 _c
546 463 566 412 566 350 _c
566 306 559 263 547 220 _c
534 177 517 142 497 114 _c
465 70 429 37 389 17 _c
349 -3 304 -13 254 -13 _c
139 210 _m
}_e{139 160 149 123 170 99 _c
190 74 222 62 264 62 _c
324 62 373 88 413 141 _c
453 193 473 260 473 341 _c
473 388 462 424 441 448 _c
420 472 389 484 348 484 _c
314 484 283 476 257 460 _c
231 444 207 420 187 388 _c
171 364 159 336 151 305 _c
143 274 139 242 139 210 _c
_cl}_e}_d
/s{{521 0 11 -13 500 560 _sc
500 531 _m
483 446 _l
459 458 433 468 407 475 _c
381 481 354 485 326 485 _c
278 485 241 477 214 461 _c
187 445 174 423 174 395 _c
174 363 205 338 269 321 _c
273 319 277 318 279 318 _c
308 309 _l
368 292 408 274 428 256 _c
448 238 458 213 458 182 _c
458 124 435 77 389 41 _c
343 5 282 -13 208 -13 _c
179 -13 149 -10 117 -5 _c
}_e{85 0 49 8 11 20 _c
29 113 _l
61 95 94 82 126 74 _c
158 65 188 61 218 61 _c
262 61 297 70 325 89 _c
352 108 366 132 366 161 _c
366 192 330 217 258 237 _c
249 239 _l
218 247 _l
172 259 138 274 117 294 _c
96 314 86 339 86 370 _c
86 428 107 475 151 509 _c
195 543 254 560 330 560 _c
360 560 389 557 417 552 _c
445 547 472 540 500 531 _c
_cl}_e}_d
/t{{392 0 64 0 423 702 _sc
423 547 _m
409 477 _l
230 477 _l
172 180 _l
170 169 168 160 167 152 _c
166 144 166 139 166 135 _c
166 114 172 99 185 89 _c
197 79 217 75 245 75 _c
336 75 _l
321 0 _l
235 0 _l
181 0 141 10 115 31 _c
89 52 76 84 76 126 _c
76 133 76 141 77 150 _c
78 159 80 169 82 180 _c
140 477 _l
64 477 _l
78 547 _l
153 547 _l
183 702 _l
}_e{273 702 _l
243 547 _l
423 547 _l
_cl}_e}_d
end readonly def

/BuildGlyph
 {exch begin
 CharStrings exch
 2 copy known not{pop /.notdef}if
 true 3 1 roll get exec
 end}_d

/BuildChar {
 1 index /Encoding get exch get
 1 index /BuildGlyph get exec
}_d

FontName currentdict end definefont pop
end
%%EndProlog
mpldict begin
75.6 223.2 translate
460.8 345.6 0 0 clipbox
gsave
0 0 m
460.8 0 l
460.8 345.6 l
0 345.6 l
cl
1.000 setgray
fill
grestore
gsave
57.6 38.016 m
414.72 38.016 l
414.72 304.128 l
57.6 304.128 l
cl
1.000 setgray
fill
grestore
0.800 setlinewidth
1 setlinejoin
0 setlinecap
[] 0 setdash
0.000 setgray
gsave
/o {
gsave
newpath
translate
0.8 setlinewidth
1 setlinejoin
0 setlinecap
0 0 m
0 -3.5 l

gsave
0.000 setgray
fill
grestore
stroke
grestore
} bind def
73.8327 38.016 o
grestore
/DejaVuSans findfont
10.000 scalefont
setfont
gsave
70.653040 23.422250 translate
0.000000 rotate
0.000000 0.000000 m /zero glyphshow
grestore
gsave
/o {
gsave
newpath
translate
0.8 setlinewidth
1 setlinejoin
0 setlinecap
0 0 m
0 -3.5 l

gsave
0.000 setgray
fill
grestore
stroke
grestore
} bind def
138.777 38.016 o
grestore
gsave
126.057875 23.422250 translate
0.000000 rotate
0.000000 0.000000 m /one glyphshow
6.362305 0.000000 m /zero glyphshow
12.724609 0.000000 m /zero glyphshow
19.086914 0.000000 m /zero glyphshow
grestore
gsave
/o {
gsave
newpath
translate
0.8 setlinewidth
1 setlinejoin
0 setlinecap
0 0 m
0 -3.5 l

gsave
0.000 setgray
fill
grestore
stroke
grestore
} bind def
203.721 38.016 o
grestore
gsave
191.001773 23.422250 translate
0.000000 rotate
0.000000 0.000000 m /two glyphshow
6.362305 0.000000 m /zero glyphshow
12.724609 0.000000 m /zero glyphshow
19.086914 0.000000 m /zero glyphshow
grestore
gsave
/o {
gsave
newpath
translate
0.8 setlinewidth
1 setlinejoin
0 setlinecap
0 0 m
0 -3.5 l

gsave
0.000 setgray
fill
grestore
stroke
grestore
} bind def
268.664 38.016 o
grestore
gsave
255.945671 23.422250 translate
0.000000 rotate
0.000000 0.000000 m /three glyphshow
6.362305 0.000000 m /zero glyphshow
12.724609 0.000000 m /zero glyphshow
19.086914 0.000000 m /zero glyphshow
grestore
gsave
/o {
gsave
newpath
translate
0.8 setlinewidth
1 setlinejoin
0 setlinecap
0 0 m
0 -3.5 l

gsave
0.000 setgray
fill
grestore
stroke
grestore
} bind def
333.608 38.016 o
grestore
gsave
320.889569 23.422250 translate
0.000000 rotate
0.000000 0.000000 m /four glyphshow
6.362305 0.000000 m /zero glyphshow
12.724609 0.000000 m /zero glyphshow
19.086914 0.000000 m /zero glyphshow
grestore
gsave
/o {
gsave
newpath
translate
0.8 setlinewidth
1 setlinejoin
0 setlinecap
0 0 m
0 -3.5 l

gsave
0.000 setgray
fill
grestore
stroke
grestore
} bind def
398.552 38.016 o
grestore
gsave
385.833467 23.422250 translate
0.000000 rotate
0.000000 0.000000 m /five glyphshow
6.362305 0.000000 m /zero glyphshow
12.724609 0.000000 m /zero glyphshow
19.086914 0.000000 m /zero glyphshow
grestore
/DejaVuSans findfont
14.000 scalefont
setfont
gsave
206.480312 6.703500 translate
0.000000 rotate
0.000000 0.000000 m /I glyphshow
4.128906 0.000000 m /t glyphshow
9.618164 0.000000 m /e glyphshow
18.231445 0.000000 m /r glyphshow
23.987305 0.000000 m /a glyphshow
32.566406 0.000000 m /t glyphshow
38.055664 0.000000 m /i glyphshow
41.945312 0.000000 m /o glyphshow
50.510742 0.000000 m /n glyphshow
grestore
gsave
/o {
gsave
newpath
translate
0.8 setlinewidth
1 setlinejoin
0 setlinecap
0 0 m
-3.5 0 l

gsave
0.000 setgray
fill
grestore
stroke
grestore
} bind def
57.6 61.8032 o
grestore
/DejaVuSans findfont
10.000 scalefont
setfont
gsave
35.865625 58.006311 translate
0.000000 rotate
0.000000 0.000000 m /minus glyphshow
8.378906 0.000000 m /three glyphshow
grestore
gsave
/o {
gsave
newpath
translate
0.8 setlinewidth
1 setlinejoin
0 setlinecap
0 0 m
-3.5 0 l

gsave
0.000 setgray
fill
grestore
stroke
grestore
} bind def
57.6 100.25 o
grestore
gsave
35.865625 96.453029 translate
0.000000 rotate
0.000000 0.000000 m /minus glyphshow
8.378906 0.000000 m /two glyphshow
grestore
gsave
/o {
gsave
newpath
translate
0.8 setlinewidth
1 setlinejoin
0 setlinecap
0 0 m
-3.5 0 l

gsave
0.000 setgray
fill
grestore
stroke
grestore
} bind def
57.6 138.697 o
grestore
gsave
35.865625 134.899747 translate
0.000000 rotate
0.000000 0.000000 m /minus glyphshow
8.378906 0.000000 m /one glyphshow
grestore
gsave
/o {
gsave
newpath
translate
0.8 setlinewidth
1 setlinejoin
0 setlinecap
0 0 m
-3.5 0 l

gsave
0.000 setgray
fill
grestore
stroke
grestore
} bind def
57.6 177.143 o
grestore
gsave
44.240625 173.346465 translate
0.000000 rotate
0.000000 0.000000 m /zero glyphshow
grestore
gsave
/o {
gsave
newpath
translate
0.8 setlinewidth
1 setlinejoin
0 setlinecap
0 0 m
-3.5 0 l

gsave
0.000 setgray
fill
grestore
stroke
grestore
} bind def
57.6 215.59 o
grestore
gsave
44.240625 211.793183 translate
0.000000 rotate
0.000000 0.000000 m /one glyphshow
grestore
gsave
/o {
gsave
newpath
translate
0.8 setlinewidth
1 setlinejoin
0 setlinecap
0 0 m
-3.5 0 l

gsave
0.000 setgray
fill
grestore
stroke
grestore
} bind def
57.6 254.037 o
grestore
gsave
44.240625 250.239901 translate
0.000000 rotate
0.000000 0.000000 m /two glyphshow
grestore
gsave
/o {
gsave
newpath
translate
0.8 setlinewidth
1 setlinejoin
0 setlinecap
0 0 m
-3.5 0 l

gsave
0.000 setgray
fill
grestore
stroke
grestore
} bind def
57.6 292.483 o
grestore
gsave
44.240625 288.686619 translate
0.000000 rotate
0.000000 0.000000 m /three glyphshow
grestore
gsave
28.865625 133.572000 translate
90.000000 rotate
/DejaVuSans-Oblique findfont
14.0 scalefont
setfont
0.000000 0.359375 moveto
/l glyphshow

3.889648 0.359375 moveto
/o glyphshow

12.455078 0.359375 moveto
/g glyphshow

21.341797 0.359375 moveto
/f glyphshow

/DejaVuSans findfont
9.8 scalefont
setfont
26.270508 -1.937500 moveto
/one glyphshow

/DejaVuSans findfont
14.0 scalefont
setfont
32.888379 0.359375 moveto
/parenleft glyphshow

/DejaVuSans-Oblique findfont
14.0 scalefont
setfont
38.350293 0.359375 moveto
/X glyphshow

/DejaVuSans-Oblique findfont
9.8 scalefont
setfont
47.941113 -1.937500 moveto
/b glyphshow

54.161816 -1.937500 moveto
/e glyphshow

60.191113 -1.937500 moveto
/s glyphshow

65.296875 -1.937500 moveto
/t glyphshow

/DejaVuSans findfont
14.0 scalefont
setfont
69.522168 0.359375 moveto
/parenright glyphshow


grestore
1.500 setlinewidth
2 setlinecap
0.122 0.467 0.706 setrgbcolor
gsave
357.1 266.1 57.6 38.02 clipbox
73.832727 292.032 m
74.287335 290.88558 l
74.806886 289.746846 l
75.261493 288.717316 l
75.521269 288.100008 l
75.845988 287.364474 l
76.430483 286.183487 l
77.664417 283.471084 l
78.119025 282.559028 l
78.70352 281.339574 l
80.586893 277.450037 l
80.846668 277.016824 l
81.301276 276.239911 l
81.755883 275.553246 l
84.028919 271.372695 l
86.951395 266.649729 l
87.406002 266.091801 l
87.925553 265.282474 l
88.445104 264.67587 l
88.964655 264.10845 l
89.159487 263.800593 l
89.484207 263.361982 l
89.938814 262.908699 l
96.498148 255.214384 l
96.628035 255.117516 l
98.056801 253.389505 l
98.576352 252.845705 l
99.095904 252.344479 l
100.264894 251.055355 l
100.589613 250.666343 l
101.109164 250.104995 l
104.03164 247.182136 l
104.810967 246.429239 l
105.135686 246.174004 l
105.850069 245.533564 l
106.564452 244.870807 l
106.69434 244.788038 l
107.278835 244.098675 l
107.53861 243.895514 l
107.993218 243.593432 l
108.447825 243.273906 l
109.162208 242.807317 l
109.421983 242.543679 l
110.071422 242.003028 l
110.331198 241.636697 l
112.149627 240.052795 l
112.344459 239.947193 l
112.928954 239.369388 l
113.188729 239.161854 l
113.448505 238.963026 l
114.097944 238.424657 l
114.617495 238.032926 l
114.942215 237.908081 l
115.591654 237.467348 l
115.916373 237.326607 l
116.176149 237.110211 l
116.630756 236.826088 l
116.890532 236.645162 l
117.475027 236.239321 l
117.734802 236.061866 l
117.994578 235.931618 l
118.449185 235.504506 l
118.968736 235.236779 l
119.098624 235.143172 l
119.3584 234.949414 l
119.683119 234.785818 l
120.072783 234.463092 l
120.267614 234.365007 l
120.332558 234.326928 l
120.52739 234.0662 l
121.046941 233.741818 l
121.306717 233.601338 l
121.761324 233.294267 l
122.021099 233.134857 l
122.86537 232.563345 l
123.644697 232.013973 l
123.904473 231.877748 l
125.463126 230.581022 l
126.047621 230.395083 l
126.437285 230.151479 l
126.69706 229.960353 l
127.086724 229.66069 l
127.541331 229.488212 l
127.995938 229.281685 l
128.385601 229.008199 l
130.463806 227.664812 l
130.918414 227.439305 l
131.308077 227.219969 l
131.827628 226.878693 l
132.542011 226.360337 l
132.86673 226.109166 l
133.126506 225.836859 l
133.581113 225.637351 l
134.425384 225.038527 l
135.009879 224.684129 l
135.139767 224.620517 l
135.399542 224.434738 l
135.984038 224.125536 l
136.243813 223.923147 l
136.568533 223.751455 l
136.958196 223.454904 l
137.282915 223.241697 l
137.607635 223.135898 l
137.867411 222.924105 l
138.257074 222.784027 l
138.581793 222.624881 l
139.750784 221.997604 l
140.400223 221.749007 l
140.789886 221.535153 l
141.049662 221.390572 l
144.166969 219.712684 l
144.3618 219.53498 l
145.465847 218.999656 l
146.18023 218.566182 l
146.829668 218.124465 l
147.0245 218.016303 l
147.738883 217.611072 l
148.128546 217.459319 l
148.388322 217.303557 l
148.713042 217.180547 l
151.700461 215.942159 l
151.895293 215.857288 l
152.284956 215.685697 l
154.882712 214.683598 l
155.662039 214.434179 l
155.921814 214.298276 l
156.441365 214.074185 l
156.701141 213.998281 l
157.090804 213.706978 l
158.454626 212.978149 l
158.714402 212.889954 l
159.753504 212.171006 l
159.948336 212.104851 l
160.273055 211.821765 l
160.792607 211.63048 l
160.987438 211.459276 l
161.701821 210.965616 l
161.961597 210.721724 l
162.221372 210.622232 l
162.416204 210.515862 l
162.740923 210.37103 l
163.455306 210.052983 l
163.650138 209.827814 l
164.169689 209.590664 l
164.68924 209.476991 l
165.403623 209.109355 l
165.598455 208.872245 l
165.793287 208.810704 l
166.053062 208.640033 l
166.377782 208.588585 l
166.702501 208.419121 l
166.962277 208.300621 l
167.611716 208.002768 l
167.936435 207.928821 l
168.326099 207.666386 l
169.949696 206.76848 l
170.33936 206.356895 l
170.534191 206.254139 l
170.729023 206.173464 l
170.858911 206.07996 l
171.118686 205.979613 l
171.378462 205.921525 l
171.573294 205.625677 l
171.898013 205.450149 l
172.287676 205.290417 l
172.937115 205.10074 l
173.196891 204.848722 l
173.261835 204.847077 l
173.391723 204.694567 l
175.794647 204.152684 l
175.989479 204.022496 l
176.833749 203.794458 l
177.028581 203.661891 l
177.223413 203.590334 l
177.483188 203.459489 l
177.742964 203.389218 l
178.132627 203.195803 l
179.431505 202.44682 l
179.821169 202.31301 l
180.470608 201.909487 l
181.379822 201.71905 l
181.704542 201.246469 l
182.353981 201.092068 l
182.548812 201.028255 l
183.393083 200.915984 l
183.912634 200.572957 l
184.107466 200.531384 l
184.302298 200.345884 l
184.497129 200.230768 l
185.211512 199.950115 l
185.601176 199.894914 l
185.925895 199.707411 l
186.055783 199.695417 l
186.185671 199.498285 l
186.445446 199.460477 l
186.640278 199.27591 l
187.029941 199.092259 l
187.419605 198.93715 l
187.614436 198.811687 l
188.263875 198.731086 l
188.523651 198.567813 l
188.913314 198.4951 l
189.108146 198.342657 l
189.238034 198.256838 l
189.692641 198.037088 l
190.212192 197.821694 l
190.471968 197.485138 l
190.861631 197.380711 l
191.056463 197.264259 l
191.51107 197.185089 l
191.705902 197.040854 l
192.485229 196.775349 l
192.615116 196.596914 l
193.264555 196.495202 l
193.913994 196.173467 l
194.108826 195.962982 l
194.823209 195.905189 l
195.018041 195.814627 l
195.34276 195.641422 l
195.537592 195.355383 l
197.031302 194.907051 l
197.226133 194.7915 l
197.485909 194.718898 l
197.680741 194.549785 l
198.070404 194.424286 l
198.395123 194.037388 l
198.460067 194.034504 l
198.589955 193.805421 l
199.044562 193.681905 l
199.304338 193.351183 l
199.434226 193.332558 l
199.694001 193.080316 l
199.758945 193.078332 l
199.953777 192.854242 l
200.278496 192.771489 l
200.473328 192.409 l
200.798048 192.32508 l
200.992879 192.258764 l
201.122767 192.242384 l
201.317599 192.052388 l
201.51243 191.8822 l
201.967038 191.682754 l
202.291757 191.572911 l
202.486589 191.452824 l
203.00614 191.258981 l
203.200972 191.135791 l
203.265916 191.130578 l
203.395804 190.984757 l
203.525691 190.984707 l
203.655579 190.855593 l
203.915355 190.798103 l
204.110186 190.612922 l
204.564794 190.423161 l
204.694681 190.202421 l
205.34412 189.882958 l
205.733784 189.478226 l
207.097606 188.181007 l
207.227493 188.11472 l
207.357381 187.82132 l
207.747045 187.603055 l
207.811989 187.602742 l
207.941876 187.45495 l
208.656259 187.417233 l
208.786147 187.190634 l
208.851091 187.189693 l
208.980979 187.059741 l
209.50053 187.000675 l
210.214913 186.160984 l
210.344801 186.097144 l
210.604576 185.785378 l
210.66952 185.785329 l
210.799408 185.585869 l
210.99424 185.577777 l
211.124127 185.3775 l
211.189071 185.377462 l
211.513791 184.823147 l
211.578735 184.821364 l
211.773566 184.59578 l
212.033342 184.473808 l
212.228174 184.25173 l
212.358061 184.135122 l
212.812669 183.79952 l
213.072444 183.796865 l
213.202332 183.565893 l
214.306378 183.3272 l
214.436266 183.092769 l
214.82593 183.089633 l
214.955817 182.893376 l
215.020761 182.892904 l
215.215593 182.629218 l
215.540312 182.593225 l
215.6702 182.299145 l
215.865032 182.287956 l
215.99492 182.148772 l
216.969078 182.075133 l
217.16391 181.486246 l
217.293798 181.463963 l
217.423685 181.043245 l
217.553573 181.037808 l
217.813349 180.671236 l
218.462788 180.652923 l
218.592676 180.47077 l
218.65762 180.470663 l
218.852451 180.324074 l
219.112227 180.22571 l
219.631778 180.116797 l
220.021441 179.992735 l
220.216273 179.428369 l
220.800768 179.379102 l
220.930656 179.080951 l
221.774927 178.965035 l
221.839871 178.928376 l
222.034702 178.417315 l
222.099646 178.417315 l
222.294478 178.254181 l
223.008861 178.252011 l
223.138748 177.929973 l
223.33358 177.929972 l
223.528412 177.712706 l
223.723244 177.711168 l
223.853131 177.564587 l
224.372683 177.471968 l
224.50257 177.332586 l
225.022122 177.296073 l
225.216953 177.200149 l
225.541673 177.197833 l
225.801448 176.493017 l
225.866392 176.49301 l
225.99628 176.305695 l
226.710663 176.229788 l
226.840551 175.91635 l
227.16527 175.79882 l
227.295158 175.443012 l
227.554934 175.420811 l
227.684821 175.039692 l
228.009541 175.002405 l
228.139429 174.619108 l
228.529092 174.524379 l
228.65898 174.024352 l
229.438307 173.914815 l
230.217633 173.672185 l
230.542353 173.671109 l
230.672241 173.334602 l
231.191792 173.266619 l
231.32168 172.9486 l
231.516511 172.945976 l
231.711343 172.138719 l
232.620558 171.97592 l
232.750445 171.612867 l
235.348201 171.50448 l
235.478089 171.029414 l
235.737865 170.972861 l
235.867752 170.617766 l
237.816069 170.47432 l
237.945957 170.229911 l
238.725284 170.13912 l
238.98506 170.095776 l
239.309779 170.094984 l
239.569555 169.714358 l
239.764386 169.714347 l
239.894274 169.525303 l
240.673601 169.525209 l
241.063264 168.681518 l
241.387984 168.66739 l
241.517872 168.043648 l
241.777647 168.043643 l
241.907535 167.850888 l
242.49203 167.782411 l
242.621918 167.556324 l
242.686862 167.556318 l
242.81675 167.426633 l
243.011581 167.425866 l
243.206413 167.084888 l
243.401245 166.934462 l
243.596076 166.831432 l
244.83001 166.780249 l
244.959898 166.247566 l
245.024842 166.247566 l
245.15473 165.608066 l
246.713383 165.532072 l
246.843271 164.897322 l
247.947317 164.889623 l
248.531813 164.882891 l
248.6617 164.533919 l
248.856532 164.533846 l
249.051364 164.253833 l
249.311139 164.253499 l
249.441027 163.511925 l
249.830691 163.452513 l
250.025522 163.074532 l
251.129568 162.969441 l
251.454288 162.829933 l
251.584176 162.829933 l
251.779007 162.666025 l
252.038783 162.666 l
252.168671 162.450467 l
253.337661 162.367038 l
253.532493 162.30443 l
254.116988 162.297198 l
254.246876 161.808073 l
254.441707 161.808071 l
254.571595 161.088408 l
254.961258 161.088245 l
255.091146 160.449156 l
255.610697 160.422505 l
255.740585 159.880234 l
256.065305 159.766523 l
256.195192 158.803723 l
256.32508 158.68839 l
259.182612 158.574105 l
259.507331 158.553816 l
259.637219 157.576132 l
260.026882 157.572508 l
260.15677 157.330552 l
260.221714 157.33055 l
260.351602 156.319283 l
260.611378 156.247425 l
260.741265 155.975382 l
261.455648 155.944396 l
261.585536 155.507549 l
262.105087 155.507279 l
262.234975 155.076829 l
262.949358 155.008071 l
263.14419 154.934305 l
263.923516 154.922502 l
264.053404 154.138552 l
264.31318 154.138549 l
264.443068 152.94782 l
265.15745 152.944898 l
265.287338 152.538573 l
266.261497 152.465587 l
266.521272 152.426125 l
266.586216 152.425032 l
266.716104 152.298925 l
269.508692 152.277332 l
269.638579 151.943973 l
269.898355 151.901587 l
274.184652 151.892759 l
274.31454 151.76781 l
371.795331 151.746948 l
371.925218 150.223546 l
395.240078 150.143521 l
395.369966 148.998639 l
395.43491 148.997993 l
395.564797 148.83477 l
396.214236 148.834765 l
396.344124 148.433751 l
397.643002 148.433748 l
397.77289 148.115744 l
398.487273 148.115568 l
398.487273 148.115568 l
stroke
grestore
1.000 setlinewidth
0 setlinecap
gsave
357.1 266.1 57.6 38.02 clipbox
/o {
gsave
newpath
translate
1.0 setlinewidth
1 setlinejoin
0 setlinecap
0 -3 m
0.795609 -3 1.55874 -2.683901 2.12132 -2.12132 c
2.683901 -1.55874 3 -0.795609 3 0 c
3 0.795609 2.683901 1.55874 2.12132 2.12132 c
1.55874 2.683901 0.795609 3 0 3 c
-0.795609 3 -1.55874 2.683901 -2.12132 2.12132 c
-2.683901 1.55874 -3 0.795609 -3 0 c
-3 -0.795609 -2.683901 -1.55874 -2.12132 -2.12132 c
-1.55874 -2.683901 -0.795609 -3 0 -3 c
cl

gsave
0.122 0.467 0.706 setrgbcolor
fill
grestore
stroke
grestore
} bind def
73.8327 292.032 o
120.203 234.436 o
166.573 208.471 o
212.943 183.799 o
259.312 158.554 o
305.682 151.747 o
352.052 151.747 o
398.422 148.116 o
grestore
1.500 setlinewidth
2 setlinecap
1.000 0.498 0.055 setrgbcolor
gsave
357.1 266.1 57.6 38.02 clipbox
73.832727 291.763901 m
74.676998 289.548881 l
75.845988 286.405076 l
76.235651 285.330112 l
77.404642 282.326213 l
77.729361 281.40803 l
78.508688 279.333759 l
79.093183 277.927158 l
79.482846 277.082703 l
80.457005 274.621924 l
82.794985 269.209067 l
83.639256 267.228894 l
83.834088 266.86289 l
84.483527 265.373971 l
87.925553 258.85599 l
88.38016 258.136084 l
89.029599 257.021066 l
89.224431 256.718221 l
89.938814 255.660964 l
91.302636 253.544839 l
91.822187 252.886555 l
92.406682 251.943733 l
92.991177 250.94217 l
93.315897 250.488644 l
93.770504 249.836187 l
94.160167 249.309561 l
94.419943 248.839002 l
94.614775 248.573939 l
97.277474 244.913173 l
97.472306 244.720648 l
97.926913 244.20033 l
98.446465 243.602263 l
98.70624 243.203899 l
99.420623 242.527642 l
99.550511 242.347443 l
99.87523 241.968165 l
100.394782 241.354469 l
101.239052 240.23605 l
101.823547 239.626819 l
102.213211 239.109265 l
103.122425 238.124326 l
103.641976 237.644593 l
104.03164 237.147251 l
104.486247 236.717326 l
105.070742 236.040612 l
105.590293 235.649086 l
106.499508 234.693611 l
106.824227 234.537973 l
107.733442 233.640299 l
108.058161 233.167477 l
108.382881 232.848924 l
108.7076 232.532142 l
110.266254 231.305413 l
110.590973 230.928186 l
112.214571 229.348571 l
112.734122 228.979438 l
112.993898 228.644514 l
113.188729 228.438766 l
113.383561 228.322031 l
115.786485 226.232089 l
117.669858 224.755238 l
117.929634 224.582554 l
119.293456 223.708272 l
119.553231 223.432496 l
120.267614 222.988046 l
120.52739 222.684424 l
120.657278 222.569095 l
121.436604 221.885415 l
121.761324 221.563848 l
122.540651 221.074038 l
122.930314 220.683016 l
123.19009 220.419589 l
123.709641 219.923266 l
124.35908 219.531031 l
124.618855 219.319704 l
125.657958 218.503101 l
125.917733 218.326335 l
127.02178 217.32689 l
127.541331 217.022327 l
128.060882 216.565971 l
128.255714 216.33214 l
128.710321 216.020961 l
129.35976 215.71595 l
130.268975 214.904954 l
130.398862 214.769288 l
130.658638 214.576047 l
131.113245 214.333588 l
132.152348 213.843438 l
132.542011 213.468378 l
132.996618 213.160026 l
133.061562 213.132494 l
133.256394 212.874473 l
134.035721 212.46456 l
134.100664 212.449063 l
134.36044 212.072554 l
134.555272 212.008947 l
134.944935 211.60714 l
135.399542 211.281764 l
135.594374 211.161116 l
136.893252 210.084771 l
137.347859 209.682926 l
137.542691 209.576531 l
137.802467 209.304312 l
138.322018 208.875698 l
138.51685 208.581375 l
138.711681 208.393017 l
138.971457 208.29231 l
139.296176 208.170475 l
139.880671 207.611923 l
140.075503 207.51919 l
140.400223 207.274348 l
141.309437 206.604028 l
141.699101 206.239679 l
142.088764 206.009683 l
142.153708 205.987484 l
142.283596 205.761741 l
142.413483 205.676761 l
142.997979 205.131716 l
143.062922 205.118034 l
143.257754 204.810233 l
143.51753 204.698481 l
143.842249 204.445871 l
144.166969 204.356053 l
144.881352 203.825629 l
145.076183 203.612206 l
145.595734 202.974773 l
145.790566 202.884969 l
146.245173 202.745326 l
146.375061 202.611182 l
146.440005 202.601019 l
146.764725 202.122338 l
147.34922 201.857082 l
147.673939 201.502915 l
147.868771 201.380759 l
148.128546 201.27608 l
148.258434 201.147872 l
148.583154 201.080464 l
148.842929 200.870303 l
148.972817 200.808621 l
149.167649 200.586979 l
149.36248 200.474081 l
150.271695 199.831837 l
150.726302 199.444349 l
150.921134 199.437737 l
151.18091 199.021494 l
152.02518 198.757724 l
152.284956 198.664411 l
152.609675 198.395809 l
153.583834 197.84028 l
153.778666 197.558168 l
153.908553 197.536524 l
154.103385 197.37473 l
154.428105 197.325183 l
154.882712 196.804843 l
155.597095 196.230931 l
155.85687 195.927816 l
155.986758 195.853186 l
156.18159 195.656727 l
156.571253 195.27029 l
156.766085 194.949507 l
157.870131 193.648752 l
158.129907 193.625003 l
158.324738 193.221241 l
158.779346 192.994144 l
158.974177 192.89935 l
159.298897 192.665913 l
159.493729 192.632514 l
159.68856 192.499075 l
159.753504 192.493603 l
160.337999 191.542459 l
160.467887 191.446868 l
160.85755 190.795537 l
161.312158 190.568537 l
161.636877 190.050734 l
161.701821 190.050674 l
161.896653 189.87041 l
161.961597 189.870402 l
162.35126 189.170792 l
162.481148 189.158537 l
162.67598 188.653437 l
162.740923 188.633263 l
162.870811 188.38192 l
162.935755 188.355407 l
163.065643 188.191706 l
163.195531 188.191095 l
163.455306 187.702582 l
164.169689 187.326983 l
164.429465 187.197253 l
164.624296 187.101821 l
164.754184 187.072879 l
164.949016 186.841514 l
165.273735 186.742601 l
165.468567 186.652918 l
165.923174 186.601058 l
166.053062 186.441372 l
166.442726 186.390802 l
166.572613 186.240402 l
166.702501 186.215482 l
166.897333 185.826957 l
167.092165 185.825825 l
167.286996 185.551908 l
167.741604 185.488652 l
167.936435 185.428475 l
168.261155 185.360617 l
168.455986 185.209362 l
168.52093 185.208739 l
168.910594 184.598443 l
168.975538 184.591397 l
169.170369 184.419334 l
169.235313 184.330471 l
169.430145 183.520789 l
169.689921 183.034254 l
169.819808 182.940648 l
170.079584 182.122302 l
170.404303 182.013076 l
170.599135 181.731552 l
170.664079 181.712348 l
170.793967 181.261538 l
170.858911 181.257248 l
171.118686 180.667986 l
171.638237 180.575046 l
172.092845 179.874569 l
172.482508 179.780644 l
172.612396 179.526211 l
172.67734 179.513449 l
172.872172 179.096569 l
172.937115 179.095976 l
173.067003 178.874871 l
173.521611 178.80057 l
173.651498 178.589933 l
173.716442 178.58992 l
173.84633 178.378666 l
174.171049 178.272808 l
174.300937 177.919225 l
174.950376 177.807025 l
175.664759 177.70631 l
175.794647 177.508276 l
176.119366 177.418718 l
176.379142 177.37023 l
176.833749 177.232021 l
177.548132 177.197367 l
177.67802 176.934755 l
177.937796 176.692002 l
178.197571 176.246345 l
178.327459 175.850648 l
178.522291 175.847988 l
178.652178 175.593816 l
178.84701 175.518074 l
179.366561 175.425576 l
179.756225 175.198513 l
180.405664 175.145709 l
180.600495 174.637895 l
180.925215 173.896836 l
182.094205 173.744199 l
182.418925 173.523997 l
183.068363 173.428358 l
183.198251 173.145632 l
184.107466 173.07848 l
184.237354 172.550166 l
184.302298 172.550165 l
184.432185 172.124193 l
184.886793 172.09232 l
185.01668 171.568997 l
185.471288 171.564952 l
185.601176 171.380375 l
186.120727 171.35206 l
186.250614 170.932011 l
186.770166 170.838843 l
187.029941 169.998453 l
187.614436 169.915905 l
187.744324 169.590606 l
188.653539 169.584017 l
188.783427 169.175959 l
189.627697 168.635701 l
189.822529 168.635593 l
189.952417 168.324203 l
190.926575 168.189809 l
191.056463 167.913501 l
191.446126 167.912772 l
191.576014 167.592656 l
191.705902 167.592599 l
191.83579 167.378586 l
192.290397 167.29867 l
192.420285 167.011296 l
192.550173 166.982729 l
192.745004 166.832705 l
192.939836 166.832571 l
193.069724 166.657906 l
194.563433 166.637668 l
194.693321 166.262201 l
195.212872 166.261881 l
195.472648 165.847549 l
195.797367 165.821814 l
196.51175 165.821718 l
196.641638 165.334308 l
197.550853 165.326366 l
197.680741 164.65422 l
198.784787 164.638007 l
199.044562 164.161035 l
199.109506 164.161026 l
199.239394 164.033098 l
199.758945 164.032951 l
199.888833 163.735389 l
200.538272 163.727877 l
200.66816 163.290916 l
201.317599 163.286554 l
201.447487 163.171733 l
202.681421 163.124707 l
202.811308 162.639304 l
203.915355 162.637473 l
204.045243 162.501203 l
205.603896 162.500446 l
205.733784 161.73771 l
206.123447 161.735536 l
206.253335 161.595913 l
208.980979 161.552071 l
209.110867 161.371782 l
209.240754 161.371782 l
209.370642 160.513492 l
211.124127 160.49834 l
211.254015 159.923796 l
212.942557 159.898908 l
213.072444 159.279226 l
213.202332 159.279226 l
213.33222 158.309096 l
262.170031 158.214406 l
262.299919 157.736192 l
263.533853 157.732883 l
263.663741 157.539245 l
263.923516 157.523192 l
264.053404 157.000249 l
264.31318 156.9642 l
264.378124 156.964194 l
264.508011 156.351184 l
267.625319 156.273393 l
267.82015 156.209256 l
268.729365 156.206655 l
268.859253 155.205705 l
270.80757 155.156733 l
270.872513 155.072796 l
271.197233 153.779711 l
271.97656 153.697543 l
272.106447 152.636344 l
275.353642 152.547064 l
275.48353 151.96978 l
281.068705 151.956814 l
281.198593 150.414542 l
285.160171 150.392609 l
285.290059 148.971435 l
285.419947 148.681759 l
295.161531 148.597116 l
295.291419 148.09769 l
295.616139 148.083976 l
295.746026 147.506782 l
296.395465 147.49444 l
296.460409 147.494439 l
296.590297 145.731709 l
296.915016 145.720558 l
297.109848 142.622744 l
297.434568 142.622615 l
297.564455 142.245053 l
297.759287 142.163363 l
298.343782 142.142554 l
298.47367 141.913324 l
299.512772 141.815448 l
299.772548 141.243687 l
300.357043 141.243016 l
300.486931 138.199175 l
300.746706 138.199129 l
300.876594 138.021451 l
308.215255 137.940155 l
308.345142 134.111903 l
309.773908 134.10856 l
309.903796 131.593308 l
310.228516 131.512574 l
310.358403 131.404387 l
311.787169 131.345895 l
311.982001 131.259735 l
312.826271 131.230053 l
312.956159 128.882618 l
313.345823 128.882609 l
313.47571 122.958539 l
313.605598 122.883848 l
313.735486 121.566738 l
314.644701 121.550194 l
314.774588 121.272451 l
314.839532 121.27245 l
314.96942 118.475058 l
315.034364 118.472924 l
315.164252 118.280496 l
316.268298 118.180365 l
316.46313 118.080941 l
318.216615 118.031543 l
318.346503 116.485512 l
318.541334 116.482153 l
318.671222 100.588847 l
318.995942 100.588836 l
319.12583 93.97432 l
319.775269 93.974135 l
319.905156 93.422999 l
320.359764 93.36244 l
320.489651 93.230497 l
321.268978 93.203545 l
321.398866 84.247133 l
322.6328 84.181472 l
322.762688 83.975771 l
323.022463 83.874628 l
323.282239 83.834538 l
330.620899 83.788525 l
330.750787 81.359061 l
334.842253 81.238297 l
334.972141 79.348321 l
336.985401 79.348091 l
337.115289 68.815856 l
338.284279 68.814585 l
338.414167 51.112883 l
339.12855 51.112847 l
339.258438 50.768176 l
340.362484 50.768164 l
340.557316 50.637471 l
342.570577 50.63305 l
342.700464 50.371526 l
345.233276 50.368204 l
345.363164 50.113671 l
398.487273 50.112 l
398.487273 50.112 l
stroke
grestore
1.000 setlinewidth
0 setlinejoin
0 setlinecap
gsave
357.1 266.1 57.6 38.02 clipbox
/o {
gsave
newpath
translate
1.0 setlinewidth
0 setlinejoin
0 setlinecap
-3 -3 m
3 -3 l
3 3 l
-3 3 l
cl

gsave
1.000 0.498 0.055 setrgbcolor
fill
grestore
stroke
grestore
} bind def
73.8327 291.764 o
120.203 223.019 o
166.573 186.24 o
212.943 159.899 o
259.312 158.214 o
305.682 137.965 o
352.052 50.1122 o
398.422 50.112 o
grestore
0.800 setlinewidth
2 setlinecap
[] 0 setdash
0.000 setgray
gsave
57.6 38.016 m
57.6 304.128 l
stroke
grestore
gsave
414.72 38.016 m
414.72 304.128 l
stroke
grestore
gsave
57.6 38.016 m
414.72 38.016 l
stroke
grestore
gsave
57.6 304.128 m
414.72 304.128 l
stroke
grestore
1.000 setlinewidth
0 setlinecap
0.800 setgray
gsave
348.72 265.456125 m
407.72 265.456125 l
409.053333 265.456125 409.72 266.122792 409.72 267.456125 c
409.72 297.128 l
409.72 298.461333 409.053333 299.128 407.72 299.128 c
348.72 299.128 l
347.386667 299.128 346.72 298.461333 346.72 297.128 c
346.72 267.456125 l
346.72 266.122792 347.386667 265.456125 348.72 265.456125 c
cl
gsave
1.000 setgray
fill
grestore
stroke
grestore
1.500 setlinewidth
1 setlinejoin
2 setlinecap
[] 0 setdash
0.122 0.467 0.706 setrgbcolor
gsave
350.72 291.03425 m
370.72 291.03425 l
stroke
grestore
1.000 setlinewidth
0 setlinecap
gsave
/o {
gsave
newpath
translate
1.0 setlinewidth
1 setlinejoin
0 setlinecap
0 -3 m
0.795609 -3 1.55874 -2.683901 2.12132 -2.12132 c
2.683901 -1.55874 3 -0.795609 3 0 c
3 0.795609 2.683901 1.55874 2.12132 2.12132 c
1.55874 2.683901 0.795609 3 0 3 c
-0.795609 3 -1.55874 2.683901 -2.12132 2.12132 c
-2.683901 1.55874 -3 0.795609 -3 0 c
-3 -0.795609 -2.683901 -1.55874 -2.12132 -2.12132 c
-1.55874 -2.683901 -0.795609 -3 0 -3 c
cl

gsave
0.122 0.467 0.706 setrgbcolor
fill
grestore
stroke
grestore
} bind def
360.72 291.034 o
grestore
0.000 setgray
gsave
378.720000 287.534250 translate
0.000000 rotate
/DejaVuSans-Oblique findfont
10.0 scalefont
setfont
0.000000 0.578125 moveto
/A glyphshow

6.840820 0.578125 moveto
/B glyphshow

13.701172 0.578125 moveto
/C glyphshow


grestore
1.500 setlinewidth
2 setlinecap
1.000 0.498 0.055 setrgbcolor
gsave
350.72 275.03425 m
370.72 275.03425 l
stroke
grestore
1.000 setlinewidth
0 setlinejoin
0 setlinecap
gsave
/o {
gsave
newpath
translate
1.0 setlinewidth
0 setlinejoin
0 setlinecap
-3 -3 m
3 -3 l
3 3 l
-3 3 l
cl

gsave
1.000 0.498 0.055 setrgbcolor
fill
grestore
stroke
grestore
} bind def
360.72 275.034 o
grestore
0.000 setgray
gsave
378.720000 271.534250 translate
0.000000 rotate
/DejaVuSans-Oblique findfont
10.0 scalefont
setfont
0.000000 0.856250 moveto
/A glyphshow

6.840820 0.856250 moveto
/B glyphshow

13.701172 0.856250 moveto
/C glyphshow

/DejaVuSans-Oblique findfont
7.0 scalefont
setfont
21.403646 4.684375 moveto
/d glyphshow


grestore

end
showpage
