%!PS-Adobe-3.0 EPSF-3.0
%%Title: plots/Rosenbrock2.eps
%%Creator: matplotlib version 2.2.2, http://matplotlib.org/
%%CreationDate: Mon Jul 30 08:03:41 2018
%%Orientation: portrait
%%BoundingBox: 75 223 536 568
%%EndComments
%%BeginProlog
/mpldict 9 dict def
mpldict begin
/m { moveto } bind def
/l { lineto } bind def
/r { rlineto } bind def
/c { curveto } bind def
/cl { closepath } bind def
/box {
m
1 index 0 r
0 exch r
neg 0 r
cl
} bind def
/clipbox {
box
clip
newpath
} bind def
%!PS-Adobe-3.0 Resource-Font
%%Title: DejaVu Sans
%%Copyright: Copyright (c) 2003 by Bitstream, Inc. All Rights Reserved. Copyright (c) 2006 by Tavmjong Bah. All Rights Reserved. DejaVu changes are in public domain 
%%Creator: Converted from TrueType to type 3 by PPR
25 dict begin
/_d{bind def}bind def
/_m{moveto}_d
/_l{lineto}_d
/_cl{closepath eofill}_d
/_c{curveto}_d
/_sc{7 -1 roll{setcachedevice}{pop pop pop pop pop pop}ifelse}_d
/_e{exec}_d
/FontName /DejaVuSans def
/PaintType 0 def
/FontMatrix[.001 0 0 .001 0 0]def
/FontBBox[-1021 -463 1793 1232]def
/FontType 3 def
/Encoding [ /parenleft /parenright /zero /one /two /three /four /five /six /seven /I /a /e /i /n /o /r /t /minus ] def
/FontInfo 10 dict dup begin
/FamilyName (DejaVu Sans) def
/FullName (DejaVu Sans) def
/Notice (Copyright (c) 2003 by Bitstream, Inc. All Rights Reserved. Copyright (c) 2006 by Tavmjong Bah. All Rights Reserved. DejaVu changes are in public domain ) def
/Weight (Book) def
/Version (Version 2.35) def
/ItalicAngle 0.0 def
/isFixedPitch false def
/UnderlinePosition -130 def
/UnderlineThickness 90 def
end readonly def
/CharStrings 20 dict dup begin
/.notdef 0 def
/parenleft{390 0 86 -131 310 759 _sc
310 759 _m
266 683 234 609 213 536 _c
191 463 181 389 181 314 _c
181 238 191 164 213 91 _c
234 17 266 -56 310 -131 _c
232 -131 _l
183 -54 146 20 122 94 _c
98 168 86 241 86 314 _c
86 386 98 459 122 533 _c
146 607 182 682 232 759 _c
310 759 _l
_cl}_d
/parenright{390 0 80 -131 304 759 _sc
80 759 _m
158 759 _l
206 682 243 607 267 533 _c
291 459 304 386 304 314 _c
304 241 291 168 267 94 _c
243 20 206 -54 158 -131 _c
80 -131 _l
123 -56 155 17 177 91 _c
198 164 209 238 209 314 _c
209 389 198 463 177 536 _c
155 609 123 683 80 759 _c
_cl}_d
/zero{636 0 66 -13 570 742 _sc
318 664 _m
267 664 229 639 203 589 _c
177 539 165 464 165 364 _c
165 264 177 189 203 139 _c
229 89 267 64 318 64 _c
369 64 407 89 433 139 _c
458 189 471 264 471 364 _c
471 464 458 539 433 589 _c
407 639 369 664 318 664 _c
318 742 _m
399 742 461 709 505 645 _c
548 580 570 486 570 364 _c
570 241 548 147 505 83 _c
461 19 399 -13 318 -13 _c
236 -13 173 19 130 83 _c
87 147 66 241 66 364 _c
66 486 87 580 130 645 _c
173 709 236 742 318 742 _c
_cl}_d
/one{636 0 110 0 544 729 _sc
124 83 _m
285 83 _l
285 639 _l
110 604 _l
110 694 _l
284 729 _l
383 729 _l
383 83 _l
544 83 _l
544 0 _l
124 0 _l
124 83 _l
_cl}_d
/two{{636 0 73 0 536 742 _sc
192 83 _m
536 83 _l
536 0 _l
73 0 _l
73 83 _l
110 121 161 173 226 239 _c
290 304 331 346 348 365 _c
380 400 402 430 414 455 _c
426 479 433 504 433 528 _c
433 566 419 598 392 622 _c
365 646 330 659 286 659 _c
255 659 222 653 188 643 _c
154 632 117 616 78 594 _c
78 694 _l
118 710 155 722 189 730 _c
223 738 255 742 284 742 _c
}_e{359 742 419 723 464 685 _c
509 647 532 597 532 534 _c
532 504 526 475 515 449 _c
504 422 484 390 454 354 _c
446 344 420 317 376 272 _c
332 227 271 164 192 83 _c
_cl}_e}_d
/three{{636 0 76 -13 556 742 _sc
406 393 _m
453 383 490 362 516 330 _c
542 298 556 258 556 212 _c
556 140 531 84 482 45 _c
432 6 362 -13 271 -13 _c
240 -13 208 -10 176 -4 _c
144 1 110 10 76 22 _c
76 117 _l
103 101 133 89 166 81 _c
198 73 232 69 268 69 _c
330 69 377 81 409 105 _c
441 129 458 165 458 212 _c
458 254 443 288 413 312 _c
383 336 341 349 287 349 _c
}_e{202 349 _l
202 430 _l
291 430 _l
339 430 376 439 402 459 _c
428 478 441 506 441 543 _c
441 580 427 609 401 629 _c
374 649 336 659 287 659 _c
260 659 231 656 200 650 _c
169 644 135 635 98 623 _c
98 711 _l
135 721 170 729 203 734 _c
235 739 266 742 296 742 _c
370 742 429 725 473 691 _c
517 657 539 611 539 553 _c
539 513 527 479 504 451 _c
481 423 448 403 406 393 _c
_cl}_e}_d
/four{636 0 49 0 580 729 _sc
378 643 _m
129 254 _l
378 254 _l
378 643 _l
352 729 _m
476 729 _l
476 254 _l
580 254 _l
580 172 _l
476 172 _l
476 0 _l
378 0 _l
378 172 _l
49 172 _l
49 267 _l
352 729 _l
_cl}_d
/five{{636 0 77 -13 549 729 _sc
108 729 _m
495 729 _l
495 646 _l
198 646 _l
198 467 _l
212 472 227 476 241 478 _c
255 480 270 482 284 482 _c
365 482 429 459 477 415 _c
525 370 549 310 549 234 _c
549 155 524 94 475 51 _c
426 8 357 -13 269 -13 _c
238 -13 207 -10 175 -6 _c
143 -1 111 6 77 17 _c
77 116 _l
106 100 136 88 168 80 _c
199 72 232 69 267 69 _c
}_e{323 69 368 83 401 113 _c
433 143 450 183 450 234 _c
450 284 433 324 401 354 _c
368 384 323 399 267 399 _c
241 399 214 396 188 390 _c
162 384 135 375 108 363 _c
108 729 _l
_cl}_e}_d
/six{{636 0 70 -13 573 742 _sc
330 404 _m
286 404 251 388 225 358 _c
199 328 186 286 186 234 _c
186 181 199 139 225 109 _c
251 79 286 64 330 64 _c
374 64 409 79 435 109 _c
461 139 474 181 474 234 _c
474 286 461 328 435 358 _c
409 388 374 404 330 404 _c
526 713 _m
526 623 _l
501 635 476 644 451 650 _c
425 656 400 659 376 659 _c
310 659 260 637 226 593 _c
}_e{192 549 172 482 168 394 _c
187 422 211 444 240 459 _c
269 474 301 482 336 482 _c
409 482 467 459 509 415 _c
551 371 573 310 573 234 _c
573 159 550 99 506 54 _c
462 9 403 -13 330 -13 _c
246 -13 181 19 137 83 _c
92 147 70 241 70 364 _c
70 479 97 571 152 639 _c
206 707 280 742 372 742 _c
396 742 421 739 447 735 _c
472 730 498 723 526 713 _c
_cl}_e}_d
/seven{636 0 82 0 551 729 _sc
82 729 _m
551 729 _l
551 687 _l
286 0 _l
183 0 _l
432 646 _l
82 646 _l
82 729 _l
_cl}_d
/I{295 0 98 0 197 729 _sc
98 729 _m
197 729 _l
197 0 _l
98 0 _l
98 729 _l
_cl}_d
/a{{613 0 60 -13 522 560 _sc
343 275 _m
270 275 220 266 192 250 _c
164 233 150 205 150 165 _c
150 133 160 107 181 89 _c
202 70 231 61 267 61 _c
317 61 357 78 387 114 _c
417 149 432 196 432 255 _c
432 275 _l
343 275 _l
522 312 _m
522 0 _l
432 0 _l
432 83 _l
411 49 385 25 355 10 _c
325 -5 287 -13 243 -13 _c
187 -13 142 2 109 33 _c
76 64 60 106 60 159 _c
}_e{60 220 80 266 122 298 _c
163 329 224 345 306 345 _c
432 345 _l
432 354 _l
432 395 418 427 391 450 _c
364 472 326 484 277 484 _c
245 484 215 480 185 472 _c
155 464 127 453 100 439 _c
100 522 _l
132 534 164 544 195 550 _c
226 556 256 560 286 560 _c
365 560 424 539 463 498 _c
502 457 522 395 522 312 _c
_cl}_e}_d
/e{{615 0 55 -13 562 560 _sc
562 296 _m
562 252 _l
149 252 _l
153 190 171 142 205 110 _c
238 78 284 62 344 62 _c
378 62 412 66 444 74 _c
476 82 509 95 541 113 _c
541 28 _l
509 14 476 3 442 -3 _c
408 -9 373 -13 339 -13 _c
251 -13 182 12 131 62 _c
80 112 55 181 55 268 _c
55 357 79 428 127 481 _c
175 533 241 560 323 560 _c
397 560 455 536 498 489 _c
}_e{540 441 562 377 562 296 _c
472 322 _m
471 371 457 410 431 440 _c
404 469 368 484 324 484 _c
274 484 234 469 204 441 _c
174 413 156 373 152 322 _c
472 322 _l
_cl}_e}_d
/i{278 0 94 0 184 760 _sc
94 547 _m
184 547 _l
184 0 _l
94 0 _l
94 547 _l
94 760 _m
184 760 _l
184 646 _l
94 646 _l
94 760 _l
_cl}_d
/n{634 0 91 0 549 560 _sc
549 330 _m
549 0 _l
459 0 _l
459 327 _l
459 379 448 417 428 443 _c
408 469 378 482 338 482 _c
289 482 251 466 223 435 _c
195 404 181 362 181 309 _c
181 0 _l
91 0 _l
91 547 _l
181 547 _l
181 462 _l
202 494 227 519 257 535 _c
286 551 320 560 358 560 _c
420 560 468 540 500 501 _c
532 462 549 405 549 330 _c
_cl}_d
/o{612 0 55 -13 557 560 _sc
306 484 _m
258 484 220 465 192 427 _c
164 389 150 338 150 273 _c
150 207 163 156 191 118 _c
219 80 257 62 306 62 _c
354 62 392 80 420 118 _c
448 156 462 207 462 273 _c
462 337 448 389 420 427 _c
392 465 354 484 306 484 _c
306 560 _m
384 560 445 534 490 484 _c
534 433 557 363 557 273 _c
557 183 534 113 490 63 _c
445 12 384 -13 306 -13 _c
227 -13 165 12 121 63 _c
77 113 55 183 55 273 _c
55 363 77 433 121 484 _c
165 534 227 560 306 560 _c
_cl}_d
/r{411 0 91 0 411 560 _sc
411 463 _m
401 469 390 473 378 476 _c
366 478 353 480 339 480 _c
288 480 249 463 222 430 _c
194 397 181 350 181 288 _c
181 0 _l
91 0 _l
91 547 _l
181 547 _l
181 462 _l
199 495 224 520 254 536 _c
284 552 321 560 365 560 _c
371 560 378 559 386 559 _c
393 558 401 557 411 555 _c
411 463 _l
_cl}_d
/t{392 0 27 0 368 702 _sc
183 702 _m
183 547 _l
368 547 _l
368 477 _l
183 477 _l
183 180 _l
183 135 189 106 201 94 _c
213 81 238 75 276 75 _c
368 75 _l
368 0 _l
276 0 _l
206 0 158 13 132 39 _c
106 65 93 112 93 180 _c
93 477 _l
27 477 _l
27 547 _l
93 547 _l
93 702 _l
183 702 _l
_cl}_d
/minus{838 0 106 272 732 355 _sc
106 355 _m
732 355 _l
732 272 _l
106 272 _l
106 355 _l
_cl}_d
end readonly def

/BuildGlyph
 {exch begin
 CharStrings exch
 2 copy known not{pop /.notdef}if
 true 3 1 roll get exec
 end}_d

/BuildChar {
 1 index /Encoding get exch get
 1 index /BuildGlyph get exec
}_d

FontName currentdict end definefont pop
%!PS-Adobe-3.0 Resource-Font
%%Title: DejaVu Sans Oblique
%%Copyright: Copyright (c) 2003 by Bitstream, Inc. All Rights Reserved. Copyright (c) 2006 by Tavmjong Bah. All Rights Reserved. DejaVu changes are in public domain 
%%Creator: Converted from TrueType to type 3 by PPR
25 dict begin
/_d{bind def}bind def
/_m{moveto}_d
/_l{lineto}_d
/_cl{closepath eofill}_d
/_c{curveto}_d
/_sc{7 -1 roll{setcachedevice}{pop pop pop pop pop pop}ifelse}_d
/_e{exec}_d
/FontName /DejaVuSans-Oblique def
/PaintType 0 def
/FontMatrix[.001 0 0 .001 0 0]def
/FontBBox[-1016 -350 1659 1068]def
/FontType 3 def
/Encoding [ /A /B /C /X /b /d /e /f /g /l /o /s /t ] def
/FontInfo 10 dict dup begin
/FamilyName (DejaVu Sans) def
/FullName (DejaVu Sans Oblique) def
/Notice (Copyright (c) 2003 by Bitstream, Inc. All Rights Reserved. Copyright (c) 2006 by Tavmjong Bah. All Rights Reserved. DejaVu changes are in public domain ) def
/Weight (Oblique) def
/Version (Version 2.35) def
/ItalicAngle -11.0 def
/isFixedPitch false def
/UnderlinePosition -130 def
/UnderlineThickness 90 def
end readonly def
/CharStrings 14 dict dup begin
/.notdef 0 def
/A{684 0 -52 0 615 729 _sc
368 729 _m
480 729 _l
615 0 _l
512 0 _l
482 187 _l
154 187 _l
51 0 _l
-52 0 _l
368 729 _l
404 632 _m
199 269 _l
467 269 _l
404 632 _l
_cl}_d
/B{{686 0 27 0 625 729 _sc
169 729 _m
421 729 _l
489 729 540 716 574 691 _c
608 665 625 627 625 576 _c
625 529 610 489 581 455 _c
552 421 514 400 467 393 _c
507 383 537 366 557 340 _c
577 314 588 280 588 238 _c
588 164 560 106 506 64 _c
452 21 378 0 284 0 _c
27 0 _l
169 729 _l
193 348 _m
141 81 _l
300 81 _l
359 81 405 94 437 122 _c
469 149 486 188 486 238 _c
}_e{486 276 475 303 454 321 _c
432 339 398 348 351 348 _c
193 348 _l
251 648 _m
208 428 _l
355 428 _l
407 428 448 439 478 462 _c
507 485 522 517 522 557 _c
522 588 512 611 492 626 _c
472 640 440 648 397 648 _c
251 648 _l
_cl}_e}_d
/C{{698 0 42 -13 695 742 _sc
695 673 _m
675 569 _l
643 600 610 623 575 639 _c
540 654 502 662 462 662 _c
406 662 357 648 315 622 _c
273 595 236 554 206 500 _c
186 464 171 427 161 388 _c
151 349 146 310 146 270 _c
146 203 163 152 197 118 _c
231 83 281 66 347 66 _c
392 66 435 73 477 87 _c
519 101 559 123 599 153 _c
576 36 _l
537 19 498 7 458 -1 _c
}_e{418 -9 379 -13 340 -13 _c
246 -13 173 12 121 62 _c
68 112 42 183 42 274 _c
42 332 52 389 72 445 _c
92 501 120 552 158 598 _c
198 647 243 683 294 707 _c
345 730 404 742 472 742 _c
514 742 553 736 590 725 _c
627 713 662 696 695 673 _c
_cl}_e}_d
/X{685 0 -42 0 703 729 _sc
137 729 _m
237 729 _l
362 466 _l
588 729 _l
703 729 _l
403 381 _l
584 0 _l
485 0 _l
338 307 _l
72 0 _l
-42 0 _l
298 392 _l
137 729 _l
_cl}_d
/b{{635 0 36 -13 587 760 _sc
495 334 _m
495 381 484 418 462 445 _c
440 471 411 485 373 485 _c
345 485 319 478 295 464 _c
271 450 250 431 232 406 _c
213 378 198 347 187 311 _c
176 275 171 240 171 205 _c
171 160 181 125 203 99 _c
224 73 253 61 291 61 _c
319 61 345 67 369 81 _c
393 94 415 113 433 139 _c
451 165 466 196 478 232 _c
489 268 495 302 495 334 _c
216 464 _m
}_e{238 494 265 517 299 534 _c
332 551 367 560 404 560 _c
460 560 504 541 537 503 _c
570 465 587 414 587 350 _c
587 297 577 246 558 197 _c
538 147 511 103 475 65 _c
451 39 424 20 394 7 _c
363 -6 331 -13 298 -13 _c
262 -13 232 -5 206 11 _c
180 27 158 51 142 83 _c
126 0 _l
36 0 _l
184 760 _l
274 760 _l
216 464 _l
_cl}_e}_d
/d{{635 0 46 -13 639 760 _sc
418 82 _m
394 50 365 27 332 11 _c
299 -5 263 -13 223 -13 _c
168 -13 125 5 93 42 _c
61 79 46 130 46 195 _c
46 249 55 300 75 349 _c
94 398 122 442 158 481 _c
182 507 209 526 239 540 _c
269 553 301 560 335 560 _c
370 560 401 551 428 534 _c
454 517 475 493 490 462 _c
549 760 _l
639 760 _l
491 0 _l
401 0 _l
418 82 _l
139 211 _m
}_e{139 163 149 126 171 100 _c
192 74 222 61 260 61 _c
288 61 314 67 338 81 _c
362 95 383 115 401 141 _c
420 168 435 200 446 236 _c
457 272 463 307 463 342 _c
463 387 452 422 431 448 _c
409 473 380 486 343 486 _c
314 486 287 479 263 466 _c
239 452 218 433 201 408 _c
182 381 167 350 156 314 _c
144 278 139 243 139 211 _c
_cl}_e}_d
/e{{615 0 46 -13 571 560 _sc
481 322 _m
481 327 482 332 483 338 _c
483 344 484 349 484 355 _c
484 395 472 426 449 449 _c
425 472 394 484 354 484 _c
309 484 270 469 236 441 _c
202 413 176 373 158 322 _c
481 322 _l
559 252 _m
141 252 _l
139 239 137 229 137 222 _c
136 215 136 209 136 204 _c
136 158 150 123 178 99 _c
206 74 245 62 296 62 _c
334 62 371 66 406 75 _c
}_e{441 83 474 96 504 114 _c
487 25 _l
454 11 420 2 386 -4 _c
352 -10 317 -13 282 -13 _c
206 -13 147 5 107 41 _c
66 77 46 128 46 195 _c
46 251 56 304 76 353 _c
96 402 126 446 166 485 _c
191 509 221 527 256 540 _c
291 553 328 560 368 560 _c
430 560 479 541 516 504 _c
552 467 571 417 571 355 _c
571 340 570 324 568 307 _c
566 289 563 271 559 252 _c
_cl}_e}_d
/f{352 0 68 0 478 760 _sc
478 760 _m
464 685 _l
378 685 _l
345 685 321 678 307 665 _c
292 652 281 629 274 595 _c
264 547 _l
412 547 _l
399 477 _l
251 477 _l
158 0 _l
68 0 _l
161 477 _l
75 477 _l
88 547 _l
174 547 _l
181 585 _l
193 649 215 695 246 721 _c
277 747 326 760 393 760 _c
478 760 _l
_cl}_d
/g{{635 0 32 -207 596 560 _sc
596 547 _m
503 68 _l
485 -24 450 -92 400 -138 _c
349 -184 281 -207 196 -207 _c
164 -207 134 -204 107 -200 _c
80 -195 55 -188 32 -178 _c
49 -91 _l
71 -105 94 -115 119 -122 _c
143 -129 170 -133 198 -133 _c
255 -133 302 -117 339 -86 _c
375 -55 399 -11 411 47 _c
419 88 _l
393 59 364 37 331 22 _c
298 7 262 0 224 0 _c
168 0 125 18 93 55 _c
}_e{61 91 46 142 46 206 _c
46 256 55 306 75 354 _c
94 402 121 445 156 483 _c
178 507 205 526 236 540 _c
267 553 299 560 333 560 _c
369 560 401 551 429 534 _c
456 517 476 493 490 462 _c
506 547 _l
596 547 _l
461 346 _m
461 390 450 425 429 449 _c
408 473 379 485 341 485 _c
317 485 294 480 273 471 _c
251 461 233 448 218 431 _c
193 403 174 370 160 332 _c
}_e{146 294 139 255 139 215 _c
139 169 149 135 170 111 _c
191 87 221 75 261 75 _c
318 75 366 100 404 152 _c
442 204 461 268 461 346 _c
_cl}_e}_d
/l{278 0 35 0 273 760 _sc
183 760 _m
273 760 _l
125 0 _l
35 0 _l
183 760 _l
_cl}_d
/o{{612 0 46 -13 566 560 _sc
254 -13 _m
190 -13 139 6 102 45 _c
64 84 46 138 46 207 _c
46 247 52 287 65 328 _c
77 369 94 404 115 432 _c
147 476 183 508 223 529 _c
263 549 308 560 358 560 _c
420 560 470 540 508 502 _c
546 463 566 412 566 350 _c
566 306 559 263 547 220 _c
534 177 517 142 497 114 _c
465 70 429 37 389 17 _c
349 -3 304 -13 254 -13 _c
139 210 _m
}_e{139 160 149 123 170 99 _c
190 74 222 62 264 62 _c
324 62 373 88 413 141 _c
453 193 473 260 473 341 _c
473 388 462 424 441 448 _c
420 472 389 484 348 484 _c
314 484 283 476 257 460 _c
231 444 207 420 187 388 _c
171 364 159 336 151 305 _c
143 274 139 242 139 210 _c
_cl}_e}_d
/s{{521 0 11 -13 500 560 _sc
500 531 _m
483 446 _l
459 458 433 468 407 475 _c
381 481 354 485 326 485 _c
278 485 241 477 214 461 _c
187 445 174 423 174 395 _c
174 363 205 338 269 321 _c
273 319 277 318 279 318 _c
308 309 _l
368 292 408 274 428 256 _c
448 238 458 213 458 182 _c
458 124 435 77 389 41 _c
343 5 282 -13 208 -13 _c
179 -13 149 -10 117 -5 _c
}_e{85 0 49 8 11 20 _c
29 113 _l
61 95 94 82 126 74 _c
158 65 188 61 218 61 _c
262 61 297 70 325 89 _c
352 108 366 132 366 161 _c
366 192 330 217 258 237 _c
249 239 _l
218 247 _l
172 259 138 274 117 294 _c
96 314 86 339 86 370 _c
86 428 107 475 151 509 _c
195 543 254 560 330 560 _c
360 560 389 557 417 552 _c
445 547 472 540 500 531 _c
_cl}_e}_d
/t{{392 0 64 0 423 702 _sc
423 547 _m
409 477 _l
230 477 _l
172 180 _l
170 169 168 160 167 152 _c
166 144 166 139 166 135 _c
166 114 172 99 185 89 _c
197 79 217 75 245 75 _c
336 75 _l
321 0 _l
235 0 _l
181 0 141 10 115 31 _c
89 52 76 84 76 126 _c
76 133 76 141 77 150 _c
78 159 80 169 82 180 _c
140 477 _l
64 477 _l
78 547 _l
153 547 _l
183 702 _l
}_e{273 702 _l
243 547 _l
423 547 _l
_cl}_e}_d
end readonly def

/BuildGlyph
 {exch begin
 CharStrings exch
 2 copy known not{pop /.notdef}if
 true 3 1 roll get exec
 end}_d

/BuildChar {
 1 index /Encoding get exch get
 1 index /BuildGlyph get exec
}_d

FontName currentdict end definefont pop
end
%%EndProlog
mpldict begin
75.6 223.2 translate
460.8 345.6 0 0 clipbox
gsave
0 0 m
460.8 0 l
460.8 345.6 l
0 345.6 l
cl
1.000 setgray
fill
grestore
gsave
57.6 38.016 m
414.72 38.016 l
414.72 304.128 l
57.6 304.128 l
cl
1.000 setgray
fill
grestore
0.800 setlinewidth
1 setlinejoin
0 setlinecap
[] 0 setdash
0.000 setgray
gsave
/o {
gsave
newpath
translate
0.8 setlinewidth
1 setlinejoin
0 setlinecap
0 0 m
0 -3.5 l

gsave
0.000 setgray
fill
grestore
stroke
grestore
} bind def
73.8327 38.016 o
grestore
/DejaVuSans findfont
10.000 scalefont
setfont
gsave
70.653040 23.422250 translate
0.000000 rotate
0.000000 0.000000 m /zero glyphshow
grestore
gsave
/o {
gsave
newpath
translate
0.8 setlinewidth
1 setlinejoin
0 setlinecap
0 0 m
0 -3.5 l

gsave
0.000 setgray
fill
grestore
stroke
grestore
} bind def
138.777 38.016 o
grestore
gsave
126.057875 23.422250 translate
0.000000 rotate
0.000000 0.000000 m /one glyphshow
6.362305 0.000000 m /zero glyphshow
12.724609 0.000000 m /zero glyphshow
19.086914 0.000000 m /zero glyphshow
grestore
gsave
/o {
gsave
newpath
translate
0.8 setlinewidth
1 setlinejoin
0 setlinecap
0 0 m
0 -3.5 l

gsave
0.000 setgray
fill
grestore
stroke
grestore
} bind def
203.721 38.016 o
grestore
gsave
191.001773 23.422250 translate
0.000000 rotate
0.000000 0.000000 m /two glyphshow
6.362305 0.000000 m /zero glyphshow
12.724609 0.000000 m /zero glyphshow
19.086914 0.000000 m /zero glyphshow
grestore
gsave
/o {
gsave
newpath
translate
0.8 setlinewidth
1 setlinejoin
0 setlinecap
0 0 m
0 -3.5 l

gsave
0.000 setgray
fill
grestore
stroke
grestore
} bind def
268.664 38.016 o
grestore
gsave
255.945671 23.422250 translate
0.000000 rotate
0.000000 0.000000 m /three glyphshow
6.362305 0.000000 m /zero glyphshow
12.724609 0.000000 m /zero glyphshow
19.086914 0.000000 m /zero glyphshow
grestore
gsave
/o {
gsave
newpath
translate
0.8 setlinewidth
1 setlinejoin
0 setlinecap
0 0 m
0 -3.5 l

gsave
0.000 setgray
fill
grestore
stroke
grestore
} bind def
333.608 38.016 o
grestore
gsave
320.889569 23.422250 translate
0.000000 rotate
0.000000 0.000000 m /four glyphshow
6.362305 0.000000 m /zero glyphshow
12.724609 0.000000 m /zero glyphshow
19.086914 0.000000 m /zero glyphshow
grestore
gsave
/o {
gsave
newpath
translate
0.8 setlinewidth
1 setlinejoin
0 setlinecap
0 0 m
0 -3.5 l

gsave
0.000 setgray
fill
grestore
stroke
grestore
} bind def
398.552 38.016 o
grestore
gsave
385.833467 23.422250 translate
0.000000 rotate
0.000000 0.000000 m /five glyphshow
6.362305 0.000000 m /zero glyphshow
12.724609 0.000000 m /zero glyphshow
19.086914 0.000000 m /zero glyphshow
grestore
/DejaVuSans findfont
14.000 scalefont
setfont
gsave
206.480312 6.703500 translate
0.000000 rotate
0.000000 0.000000 m /I glyphshow
4.128906 0.000000 m /t glyphshow
9.618164 0.000000 m /e glyphshow
18.231445 0.000000 m /r glyphshow
23.987305 0.000000 m /a glyphshow
32.566406 0.000000 m /t glyphshow
38.055664 0.000000 m /i glyphshow
41.945312 0.000000 m /o glyphshow
50.510742 0.000000 m /n glyphshow
grestore
gsave
/o {
gsave
newpath
translate
0.8 setlinewidth
1 setlinejoin
0 setlinecap
0 0 m
-3.5 0 l

gsave
0.000 setgray
fill
grestore
stroke
grestore
} bind def
57.6 48.2529 o
grestore
/DejaVuSans findfont
10.000 scalefont
setfont
gsave
35.865625 44.456022 translate
0.000000 rotate
0.000000 0.000000 m /minus glyphshow
8.378906 0.000000 m /one glyphshow
grestore
gsave
/o {
gsave
newpath
translate
0.8 setlinewidth
1 setlinejoin
0 setlinecap
0 0 m
-3.5 0 l

gsave
0.000 setgray
fill
grestore
stroke
grestore
} bind def
57.6 80.0106 o
grestore
gsave
44.240625 76.213748 translate
0.000000 rotate
0.000000 0.000000 m /zero glyphshow
grestore
gsave
/o {
gsave
newpath
translate
0.8 setlinewidth
1 setlinejoin
0 setlinecap
0 0 m
-3.5 0 l

gsave
0.000 setgray
fill
grestore
stroke
grestore
} bind def
57.6 111.768 o
grestore
gsave
44.240625 107.971473 translate
0.000000 rotate
0.000000 0.000000 m /one glyphshow
grestore
gsave
/o {
gsave
newpath
translate
0.8 setlinewidth
1 setlinejoin
0 setlinecap
0 0 m
-3.5 0 l

gsave
0.000 setgray
fill
grestore
stroke
grestore
} bind def
57.6 143.526 o
grestore
gsave
44.240625 139.729199 translate
0.000000 rotate
0.000000 0.000000 m /two glyphshow
grestore
gsave
/o {
gsave
newpath
translate
0.8 setlinewidth
1 setlinejoin
0 setlinecap
0 0 m
-3.5 0 l

gsave
0.000 setgray
fill
grestore
stroke
grestore
} bind def
57.6 175.284 o
grestore
gsave
44.240625 171.486925 translate
0.000000 rotate
0.000000 0.000000 m /three glyphshow
grestore
gsave
/o {
gsave
newpath
translate
0.8 setlinewidth
1 setlinejoin
0 setlinecap
0 0 m
-3.5 0 l

gsave
0.000 setgray
fill
grestore
stroke
grestore
} bind def
57.6 207.042 o
grestore
gsave
44.240625 203.244650 translate
0.000000 rotate
0.000000 0.000000 m /four glyphshow
grestore
gsave
/o {
gsave
newpath
translate
0.8 setlinewidth
1 setlinejoin
0 setlinecap
0 0 m
-3.5 0 l

gsave
0.000 setgray
fill
grestore
stroke
grestore
} bind def
57.6 238.799 o
grestore
gsave
44.240625 235.002376 translate
0.000000 rotate
0.000000 0.000000 m /five glyphshow
grestore
gsave
/o {
gsave
newpath
translate
0.8 setlinewidth
1 setlinejoin
0 setlinecap
0 0 m
-3.5 0 l

gsave
0.000 setgray
fill
grestore
stroke
grestore
} bind def
57.6 270.557 o
grestore
gsave
44.240625 266.760102 translate
0.000000 rotate
0.000000 0.000000 m /six glyphshow
grestore
gsave
/o {
gsave
newpath
translate
0.8 setlinewidth
1 setlinejoin
0 setlinecap
0 0 m
-3.5 0 l

gsave
0.000 setgray
fill
grestore
stroke
grestore
} bind def
57.6 302.315 o
grestore
gsave
44.240625 298.517827 translate
0.000000 rotate
0.000000 0.000000 m /seven glyphshow
grestore
gsave
28.865625 133.572000 translate
90.000000 rotate
/DejaVuSans-Oblique findfont
14.0 scalefont
setfont
0.000000 0.359375 moveto
/l glyphshow

3.889648 0.359375 moveto
/o glyphshow

12.455078 0.359375 moveto
/g glyphshow

21.341797 0.359375 moveto
/f glyphshow

/DejaVuSans findfont
9.8 scalefont
setfont
26.270508 -1.937500 moveto
/four glyphshow

/DejaVuSans findfont
14.0 scalefont
setfont
32.888379 0.359375 moveto
/parenleft glyphshow

/DejaVuSans-Oblique findfont
14.0 scalefont
setfont
38.350293 0.359375 moveto
/X glyphshow

/DejaVuSans-Oblique findfont
9.8 scalefont
setfont
47.941113 -1.937500 moveto
/b glyphshow

54.161816 -1.937500 moveto
/e glyphshow

60.191113 -1.937500 moveto
/s glyphshow

65.296875 -1.937500 moveto
/t glyphshow

/DejaVuSans findfont
14.0 scalefont
setfont
69.522168 0.359375 moveto
/parenright glyphshow


grestore
1.500 setlinewidth
2 setlinecap
0.122 0.467 0.706 setrgbcolor
gsave
357.1 266.1 57.6 38.02 clipbox
73.832727 291.685756 m
73.962615 291.383777 l
74.54711 289.467592 l
75.586213 285.990425 l
75.845988 285.039482 l
75.975876 284.611365 l
76.235651 283.445172 l
76.495427 282.258675 l
79.223071 270.947865 l
80.197229 265.781946 l
81.106444 262.690546 l
81.431163 260.768023 l
82.405322 254.993615 l
82.53521 254.224459 l
82.924873 251.331107 l
83.119705 250.7052 l
83.37948 249.230534 l
83.509368 248.934751 l
83.7042 248.073276 l
83.834088 247.7978 l
85.003078 241.434345 l
85.132966 241.05621 l
85.392741 239.443944 l
85.457685 239.222936 l
85.717461 237.656825 l
85.782404 237.545297 l
86.431843 233.121252 l
86.626675 232.052704 l
86.886451 230.926474 l
86.951395 230.71468 l
87.21117 228.858251 l
87.990497 224.268859 l
88.445104 222.438611 l
88.70488 221.181649 l
89.484207 216.273489 l
90.458365 212.541902 l
90.653197 210.580779 l
90.848029 209.483193 l
90.912972 209.364914 l
91.237692 206.888573 l
91.887131 203.701361 l
92.081963 201.56295 l
92.406682 200.209003 l
92.796345 198.428321 l
93.445784 195.747477 l
93.900392 192.602822 l
94.160167 191.806095 l
94.354999 191.156146 l
95.004438 188.981847 l
95.523989 186.310443 l
96.04354 184.950179 l
96.238372 183.364492 l
96.692979 181.360497 l
96.822867 181.026201 l
97.017699 179.845887 l
97.147587 179.420236 l
97.407362 178.669548 l
97.861969 177.623959 l
98.121745 176.866988 l
98.511408 175.475603 l
98.836128 174.132288 l
99.225791 172.451307 l
99.745343 171.323126 l
100.394782 169.911345 l
100.459725 169.836228 l
100.654557 169.166146 l
103.187369 164.764338 l
103.512089 164.420289 l
103.70692 163.836972 l
103.966696 163.477209 l
104.226471 162.8375 l
104.421303 162.653137 l
104.551191 162.466026 l
105.005798 161.450628 l
106.759283 159.658699 l
107.148947 159.354829 l
108.123105 158.448308 l
108.317937 157.842925 l
109.616815 156.660952 l
109.811647 156.429234 l
110.52603 155.755134 l
110.785805 155.54024 l
112.474347 154.122184 l
112.734122 153.769083 l
113.578393 153.023308 l
114.033 152.714152 l
115.072102 151.918419 l
115.331878 151.376154 l
115.916373 150.90208 l
116.176149 150.52279 l
116.241093 150.497 l
116.435924 149.994956 l
117.020419 149.623066 l
117.215251 149.192202 l
117.475027 149.020599 l
117.734802 148.763084 l
118.18941 148.372162 l
118.773905 147.925256 l
119.03368 147.543675 l
119.488287 147.218636 l
119.683119 147.060599 l
120.267614 146.688009 l
124.35908 144.309968 l
124.683799 144.088987 l
125.593014 143.353846 l
128.125826 141.601791 l
131.567852 138.963493 l
131.892572 138.784999 l
132.087404 138.574443 l
132.282235 138.451776 l
132.736843 138.112327 l
132.86673 137.920273 l
133.581113 137.455405 l
134.035721 137.221527 l
134.230552 137.03683 l
136.69842 135.275366 l
139.036401 133.803598 l
139.296176 133.428614 l
139.68584 133.117154 l
140.010559 132.824135 l
140.595054 132.520235 l
140.85483 132.273317 l
142.543371 130.841402 l
142.868091 130.608637 l
143.387642 129.901489 l
143.907193 129.367278 l
144.231913 129.092965 l
144.3618 128.968579 l
144.751464 128.721218 l
145.465847 128.197259 l
145.660678 127.916092 l
145.920454 127.814946 l
146.504949 127.305619 l
146.894612 127.026922 l
149.36248 124.680301 l
149.752144 124.439942 l
150.011919 124.253904 l
151.765405 122.989398 l
151.960236 122.878688 l
152.155068 122.676786 l
152.414844 122.538785 l
154.168329 121.512153 l
154.363161 121.185559 l
155.921814 119.758879 l
156.116646 119.35827 l
157.545412 118.369026 l
158.389682 117.624455 l
158.714402 117.450501 l
158.909233 117.285257 l
159.233953 117.029339 l
159.428785 116.814425 l
159.818448 116.345346 l
160.467887 115.841549 l
161.442046 115.129858 l
162.091484 114.837054 l
163.909914 113.163451 l
164.429465 112.551382 l
165.468567 111.644818 l
167.611716 110.04476 l
167.871491 109.937731 l
168.131267 109.49812 l
168.326099 109.26146 l
170.404303 108.157203 l
170.469247 108.146028 l
170.664079 107.95522 l
170.923855 107.747125 l
171.313518 107.541093 l
172.027901 107.192481 l
172.222733 106.767179 l
172.807228 106.251308 l
173.196891 105.661749 l
173.456667 105.449362 l
173.716442 105.236559 l
174.041162 104.947695 l
179.106786 101.684189 l
179.496449 101.457507 l
179.691281 101.278278 l
180.016 101.13435 l
180.275776 100.982188 l
180.730383 100.791118 l
181.18499 100.498279 l
181.50971 100.309686 l
182.353981 99.866862 l
182.548812 99.720768 l
183.393083 99.338876 l
184.432185 98.849899 l
185.211512 98.470367 l
185.601176 98.192063 l
186.770166 97.673681 l
187.029941 97.562058 l
187.419605 97.406067 l
187.67938 97.28838 l
188.0041 97.076881 l
188.84837 96.80063 l
189.108146 96.622264 l
190.601856 96.051042 l
191.056463 95.820645 l
191.316239 95.706408 l
191.705902 95.429196 l
192.745004 94.643253 l
193.264555 94.316595 l
193.654219 94.025054 l
194.17377 93.855391 l
194.433546 93.653913 l
195.277816 93.339871 l
195.66748 93.183083 l
196.576694 92.84731 l
198.070404 92.239601 l
198.979618 91.950535 l
199.17445 91.834088 l
199.49917 91.76713 l
199.629057 91.508287 l
200.733104 91.1679 l
203.136028 90.302502 l
203.460747 90.171003 l
204.434906 89.88422 l
205.019401 89.725925 l
205.409064 89.624539 l
205.928616 89.407945 l
206.902774 89.023773 l
207.227493 88.871643 l
207.617157 88.667708 l
207.941876 88.556121 l
208.461428 88.35915 l
208.851091 88.195702 l
211.383903 87.127849 l
211.903454 86.964243 l
212.228174 86.724524 l
212.877613 86.508646 l
213.072444 86.384318 l
214.176491 85.971844 l
214.631098 85.834988 l
215.020761 85.651805 l
215.345481 85.494824 l
216.579415 85.0358 l
216.904134 84.831118 l
217.553573 84.582852 l
217.878293 84.399643 l
218.787507 84.046339 l
219.436946 83.816 l
220.021441 83.6117 l
220.346161 83.504805 l
222.16459 83.007893 l
223.723244 82.520277 l
226.710663 81.370375 l
229.243475 80.615417 l
229.568194 80.401013 l
231.061904 79.928807 l
231.906175 79.697521 l
232.555614 79.478497 l
232.685501 79.275518 l
233.205053 79.073745 l
234.958538 78.270468 l
235.737865 78.097219 l
235.932696 77.918281 l
236.517191 77.752298 l
237.621238 77.552476 l
238.270677 77.235043 l
238.465508 77.058043 l
238.725284 77.014264 l
238.920116 76.875196 l
239.374723 76.717323 l
239.634499 76.606969 l
240.543713 76.310809 l
241.517872 75.814098 l
244.180571 75.004871 l
244.765066 74.873646 l
244.83001 74.843097 l
244.959898 74.671026 l
245.869113 74.461406 l
246.128888 74.30331 l
246.32372 74.203035 l
246.843271 74.06388 l
247.687542 73.919567 l
248.012261 73.825085 l
248.207093 73.726134 l
249.311139 73.425266 l
249.700803 73.334356 l
252.428446 72.765553 l
253.597437 72.358237 l
254.701483 72.141576 l
255.545754 71.968965 l
256.390024 71.828645 l
258.663061 71.40765 l
259.052724 71.366335 l
260.221714 71.242835 l
261.585536 70.988953 l
262.299919 70.817169 l
262.429807 70.456997 l
264.053404 70.247461 l
264.248236 70.191298 l
265.222394 70.05418 l
266.781048 69.886148 l
268.014982 69.755944 l
268.729365 69.646206 l
268.924196 69.487095 l
270.288018 69.37742 l
271.97656 69.25114 l
272.690943 69.169557 l
275.028923 68.987132 l
275.288698 68.929131 l
276.847352 68.765214 l
280.354323 68.519552 l
280.48421 68.112393 l
283.14691 67.901303 l
283.341742 67.188612 l
284.445788 67.069462 l
284.64062 66.934827 l
285.095227 66.8808 l
285.290059 66.697677 l
286.329161 66.59929 l
286.588937 66.553672 l
288.277478 66.414599 l
288.602198 66.400801 l
288.732085 66.155384 l
289.121749 66.141078 l
289.251637 66.022011 l
289.6413 65.905073 l
291.329841 65.738692 l
291.654561 65.60342 l
291.719505 65.601052 l
291.849392 65.398719 l
292.239056 65.310755 l
292.368944 65.145956 l
293.537934 65.04226 l
293.732765 64.982515 l
294.122429 64.963851 l
294.317261 64.759512 l
294.577036 64.729958 l
294.771868 64.61948 l
297.694343 64.354318 l
297.889175 64.260764 l
299.772548 64.139571 l
300.292099 64.032218 l
300.421987 63.817994 l
302.045584 63.704967 l
302.175472 63.571072 l
304.448509 63.404064 l
304.903116 63.257975 l
313.280879 62.515679 l
317.502232 62.392841 l
320.554595 62.172295 l
322.827632 62.107005 l
322.95752 61.418603 l
328.023144 61.273522 l
328.737526 61.091136 l
334.452589 60.941099 l
337.375065 60.922598 l
344.843613 60.82696 l
345.038445 60.735872 l
348.415527 60.660675 l
348.610359 60.588112 l
377.640282 60.204591 l
377.770169 59.874542 l
381.731747 59.841501 l
381.926579 59.75364 l
388.680744 59.684073 l
388.94052 59.531095 l
392.642322 59.43253 l
392.837154 59.378218 l
397.383226 59.277815 l
397.77289 59.250634 l
398.487273 59.247307 l
398.487273 59.247307 l
stroke
grestore
1.000 setlinewidth
0 setlinecap
gsave
357.1 266.1 57.6 38.02 clipbox
/o {
gsave
newpath
translate
1.0 setlinewidth
1 setlinejoin
0 setlinecap
0 -3 m
0.795609 -3 1.55874 -2.683901 2.12132 -2.12132 c
2.683901 -1.55874 3 -0.795609 3 0 c
3 0.795609 2.683901 1.55874 2.12132 2.12132 c
1.55874 2.683901 0.795609 3 0 3 c
-0.795609 3 -1.55874 2.683901 -2.12132 2.12132 c
-2.683901 1.55874 -3 0.795609 -3 0 c
-3 -0.795609 -2.683901 -1.55874 -2.12132 -2.12132 c
-1.55874 -2.683901 -0.795609 -3 0 -3 c
cl

gsave
0.122 0.467 0.706 setrgbcolor
fill
grestore
stroke
grestore
} bind def
73.8327 291.686 o
120.203 146.714 o
166.573 110.862 o
212.943 86.4098 o
259.312 71.3431 o
305.682 63.1956 o
352.052 60.5185 o
398.422 59.2473 o
grestore
1.500 setlinewidth
2 setlinecap
1.000 0.498 0.055 setrgbcolor
gsave
357.1 266.1 57.6 38.02 clipbox
73.832727 292.032 m
74.676998 287.782348 l
75.066661 285.584696 l
75.975876 280.761183 l
76.365539 278.62797 l
77.20981 273.29554 l
77.534529 270.213536 l
81.106444 241.716575 l
81.755883 235.693114 l
81.950715 234.117131 l
82.794985 227.799367 l
82.924873 227.439565 l
83.249592 225.012525 l
84.158807 219.177386 l
84.418583 217.75277 l
85.522629 210.667416 l
86.04218 206.909807 l
86.237012 203.350361 l
86.691619 200.373918 l
86.886451 199.392196 l
86.951395 199.220092 l
87.146226 197.540931 l
87.925553 192.61628 l
88.055441 191.181508 l
88.38016 189.997034 l
88.574992 188.668938 l
88.769824 188.033142 l
89.419263 185.299507 l
89.87387 182.942848 l
90.003758 182.556076 l
90.19859 181.298272 l
91.432524 177.692403 l
91.627355 176.792461 l
91.692299 176.705069 l
92.146906 174.567606 l
92.276794 174.313643 l
93.250953 171.708841 l
93.70556 169.777636 l
94.03028 169.206173 l
94.419943 168.055699 l
95.004438 166.440856 l
95.523989 165.275741 l
95.848709 164.619493 l
96.173428 163.893807 l
96.563092 163.195735 l
97.147587 162.045369 l
97.602194 161.213388 l
98.316577 159.955272 l
100.19995 157.091206 l
100.329838 156.931717 l
101.239052 155.516384 l
101.953435 154.797898 l
102.148267 154.547786 l
104.096584 152.829438 l
104.421303 152.513161 l
104.616135 152.143168 l
105.135686 151.557529 l
105.720181 151.115489 l
106.304676 150.645651 l
106.954115 150.284172 l
107.148947 150.034854 l
107.473666 149.834383 l
108.058161 149.415906 l
108.317937 149.318566 l
108.837488 148.896781 l
109.486927 148.44725 l
109.681759 148.133102 l
110.720861 147.561105 l
111.045581 147.34216 l
111.305356 147.196714 l
111.630076 146.948604 l
111.889851 146.800035 l
112.279515 146.437093 l
113.513449 145.534705 l
113.968056 145.26197 l
114.552551 144.63808 l
115.396822 144.098906 l
115.786485 143.785658 l
117.215251 142.988881 l
117.604914 142.761222 l
119.163568 141.651269 l
119.618175 141.100424 l
119.942895 140.80839 l
120.332558 140.50413 l
120.592334 140.187928 l
120.852109 140.002925 l
121.176829 139.773069 l
121.69638 139.358237 l
121.891212 139.112698 l
125.008519 135.871338 l
125.333238 135.668223 l
125.593014 135.416043 l
125.917733 135.109419 l
126.177509 134.820902 l
126.372341 134.558516 l
126.632116 134.347331 l
127.346499 133.749912 l
127.606275 133.469872 l
128.19077 132.99885 l
129.424704 131.473305 l
130.918414 129.82122 l
131.827628 128.539098 l
132.412123 127.981229 l
132.736843 127.583236 l
134.295496 125.789344 l
134.620216 125.500208 l
135.139767 124.919685 l
135.594374 124.443747 l
136.503589 123.472585 l
136.568533 123.444273 l
136.828308 123.036631 l
137.217972 122.680884 l
137.542691 122.398984 l
138.127186 122.084583 l
138.971457 121.475057 l
139.231232 121.258328 l
139.426064 121.085604 l
139.68584 120.76348 l
140.335279 120.22753 l
140.919774 119.865535 l
142.738203 118.329231 l
142.997979 118.038786 l
143.387642 117.748369 l
143.582474 117.629906 l
143.777305 117.352805 l
144.166969 117.014232 l
144.3618 116.849508 l
145.141127 116.246253 l
145.335959 115.976314 l
145.660678 115.71661 l
145.985398 115.277271 l
146.375061 114.825091 l
149.36248 113.062268 l
149.882032 112.76918 l
150.401583 112.552945 l
150.661358 112.294355 l
151.115966 112.037006 l
151.310797 111.939971 l
151.505629 111.780333 l
155.0126 109.184919 l
155.272375 109.068051 l
155.532151 108.847901 l
155.791926 108.623159 l
156.571253 108.089757 l
156.766085 107.986809 l
156.960917 107.810055 l
157.740243 107.143178 l
157.870131 106.604296 l
159.298897 105.624914 l
159.493729 105.173966 l
161.571933 103.82116 l
161.766765 103.572967 l
161.831709 103.517657 l
161.961597 103.03831 l
162.221372 102.906935 l
162.35126 102.583709 l
162.611036 102.462838 l
162.870811 102.134685 l
163.195531 101.945913 l
163.390362 101.788358 l
163.84497 101.275178 l
164.169689 101.0806 l
164.819128 100.716571 l
165.273735 100.483734 l
165.663399 100.251418 l
166.18295 100.05041 l
166.50767 99.816922 l
166.767445 99.635191 l
166.962277 99.480096 l
168.326099 98.654423 l
169.495089 98.094309 l
169.754864 97.776772 l
169.884752 97.711231 l
170.144528 97.31473 l
170.729023 97.038586 l
172.027901 96.268961 l
172.67734 96.007373 l
172.937115 95.875296 l
173.781386 95.317024 l
174.106106 95.201559 l
174.755545 94.494347 l
175.210152 94.300256 l
175.34004 94.220195 l
175.469927 94.020285 l
175.729703 93.90379 l
175.924535 93.761291 l
176.444086 93.519479 l
177.028581 93.127 l
177.288357 93.014495 l
177.742964 92.563615 l
178.002739 92.455053 l
178.262515 92.227977 l
178.84701 91.962276 l
179.106786 91.793544 l
179.366561 91.675467 l
179.886112 91.466981 l
181.444766 90.670081 l
182.418925 90.353388 l
182.743644 90.098264 l
183.328139 89.901858 l
183.522971 89.783871 l
183.782746 89.632179 l
184.17241 89.499988 l
184.691961 89.338551 l
184.886793 89.185607 l
185.01668 89.164278 l
185.211512 88.956292 l
185.471288 88.903924 l
185.601176 88.698506 l
185.731063 88.613913 l
185.925895 88.49602 l
186.445446 88.407518 l
186.705222 88.296469 l
187.484549 88.03463 l
187.874212 87.940087 l
188.133988 87.80396 l
189.432865 87.432473 l
189.627697 87.254707 l
190.147248 87.110762 l
190.601856 87.01593 l
193.654219 86.294056 l
194.17377 86.159624 l
194.433546 86.037815 l
195.212872 85.830866 l
195.407704 85.562697 l
195.472648 85.556346 l
195.66748 85.257459 l
195.862311 85.187673 l
196.057143 84.818034 l
196.641638 84.668328 l
196.83647 84.458719 l
197.161189 84.294485 l
197.420965 84.193188 l
198.265236 83.744009 l
198.589955 83.504464 l
199.109506 83.322006 l
199.304338 83.178184 l
199.953777 82.978501 l
200.148609 82.717329 l
202.291757 81.775126 l
202.746365 81.657588 l
202.876252 81.292525 l
203.200972 81.154471 l
203.590635 80.993042 l
203.785467 80.911082 l
204.434906 80.663143 l
204.629738 80.451676 l
205.019401 80.325595 l
205.279177 80.224935 l
205.798728 79.998667 l
206.318279 79.72041 l
206.513111 79.696835 l
206.707942 79.558104 l
209.045923 78.995698 l
209.17581 78.795746 l
210.344801 78.348135 l
210.734464 78.162093 l
211.318959 78.03437 l
211.83851 77.871427 l
212.16323 77.775825 l
212.423005 77.713101 l
212.682781 77.677815 l
212.877613 77.581504 l
216.319639 76.642377 l
216.449527 76.597739 l
216.709303 76.146024 l
217.488629 75.930489 l
217.748405 75.785787 l
218.203012 75.644608 l
218.462788 75.530617 l
218.65762 75.367313 l
219.436946 75.255861 l
220.67088 74.894597 l
220.9956 74.847675 l
221.255375 74.601516 l
221.969758 74.29038 l
222.294478 74.193197 l
222.749085 74.017123 l
223.33358 73.876628 l
223.528412 73.721426 l
224.242795 73.594222 l
224.632458 73.528908 l
225.411785 73.389694 l
226.126168 73.210099 l
226.320999 72.942376 l
227.035382 72.75485 l
227.360102 72.686304 l
228.009541 72.587271 l
228.204373 72.427028 l
228.918755 72.303288 l
229.892914 72.098113 l
230.802128 71.790265 l
231.906175 71.658953 l
232.360782 71.521427 l
233.724604 71.312583 l
234.049323 71.247693 l
234.763706 71.177891 l
234.958538 71.084064 l
235.672921 70.934169 l
235.99764 70.884705 l
237.621238 70.567967 l
237.816069 70.482922 l
238.075845 70.409934 l
239.764386 70.251506 l
240.024162 70.173763 l
242.946637 69.645428 l
243.076525 69.47196 l
244.700123 69.222563 l
245.544393 69.054126 l
246.713383 68.891478 l
247.103047 68.821573 l
248.142149 68.684714 l
248.272037 68.557504 l
248.856532 68.47248 l
249.116308 68.425173 l
249.960578 68.26157 l
250.15541 68.133547 l
253.857212 67.728649 l
254.896315 67.584311 l
255.221034 67.531746 l
256.974519 67.339001 l
257.299239 67.297916 l
258.533173 67.115359 l
263.014302 66.620867 l
263.209133 66.565659 l
264.378124 66.411072 l
264.962619 66.378984 l
271.716784 65.929623 l
272.106447 65.781158 l
272.301279 65.547338 l
273.600157 65.36919 l
273.730045 65.231951 l
274.704203 65.061562 l
275.158811 64.993179 l
276.197913 64.863263 l
277.496791 64.694529 l
277.82151 64.644261 l
279.769827 64.478787 l
280.159491 64.354877 l
280.289379 64.187717 l
280.743986 64.07195 l
281.912976 63.955978 l
282.107808 63.836432 l
283.406686 63.72879 l
283.731405 63.672091 l
284.3159 63.593584 l
284.445788 63.324424 l
285.290059 63.214159 l
285.48489 63.155484 l
287.108488 62.922737 l
290.095907 62.655837 l
290.290739 62.589959 l
293.537934 62.28596 l
296.590297 62.101558 l
296.720185 61.585236 l
299.447828 61.434482 l
299.707604 61.38816 l
301.720865 61.220845 l
301.915697 61.162054 l
302.30536 61.153559 l
302.435248 60.997688 l
304.448509 60.901651 l
304.708284 60.878487 l
304.838172 60.606867 l
306.721545 60.462979 l
307.825591 60.3834 l
309.514133 60.334342 l
309.64402 60.010897 l
310.163572 60.004095 l
310.358403 59.724627 l
311.072786 59.650508 l
311.267618 59.563088 l
311.527393 59.477007 l
311.722225 59.395369 l
312.046945 59.273767 l
312.241776 59.108927 l
313.47571 58.94048 l
313.605598 58.635296 l
313.995262 58.485551 l
315.683803 58.203271 l
315.943579 58.106697 l
316.398186 58.083112 l
316.593018 57.956814 l
317.242456 57.870876 l
319.255717 57.744943 l
319.385605 57.405053 l
319.710325 57.393392 l
319.840212 57.19392 l
322.243137 57.122042 l
322.373024 56.964748 l
324.12651 56.901469 l
324.256397 56.779736 l
326.009883 56.66069 l
326.204714 56.567923 l
326.724266 56.562226 l
326.919097 55.946955 l
331.530114 55.480534 l
331.660002 55.141968 l
333.868094 55.008318 l
334.582477 54.97574 l
344.259118 54.37018 l
347.181593 54.256658 l
347.311481 53.790507 l
349.064966 53.671853 l
349.259798 53.588212 l
351.143171 53.494349 l
351.597778 53.401607 l
352.571937 53.314313 l
352.831713 53.262953 l
353.611039 53.245194 l
354.844973 53.140265 l
355.039805 53.068549 l
357.897337 52.959792 l
358.092168 52.860498 l
359.196215 52.760551 l
359.45599 52.719093 l
361.988802 52.672078 l
362.11869 52.407665 l
362.638241 52.404814 l
362.768129 52.211238 l
364.78139 52.109096 l
365.430829 52.063354 l
367.054426 52.046125 l
367.184314 51.720099 l
367.963641 51.707903 l
368.093529 51.522996 l
371.016004 51.437141 l
371.210836 51.377876 l
372.314882 51.271619 l
373.743648 51.151873 l
376.925899 51.13023 l
377.12073 51.020923 l
389.265239 50.85373 l
389.525015 50.809065 l
390.044566 50.807608 l
390.174454 50.195754 l
398.487273 50.112 l
398.487273 50.112 l
stroke
grestore
1.000 setlinewidth
0 setlinejoin
0 setlinecap
gsave
357.1 266.1 57.6 38.02 clipbox
/o {
gsave
newpath
translate
1.0 setlinewidth
0 setlinejoin
0 setlinecap
-3 -3 m
3 -3 l
3 3 l
-3 3 l
cl

gsave
1.000 0.498 0.055 setrgbcolor
fill
grestore
stroke
grestore
} bind def
73.8327 292.032 o
120.203 140.661 o
166.573 99.7316 o
212.943 77.5616 o
259.312 67.0472 o
305.682 60.5686 o
352.052 53.3397 o
398.422 50.112 o
grestore
0.800 setlinewidth
2 setlinecap
[] 0 setdash
0.000 setgray
gsave
57.6 38.016 m
57.6 304.128 l
stroke
grestore
gsave
414.72 38.016 m
414.72 304.128 l
stroke
grestore
gsave
57.6 38.016 m
414.72 38.016 l
stroke
grestore
gsave
57.6 304.128 m
414.72 304.128 l
stroke
grestore
1.000 setlinewidth
0 setlinecap
0.800 setgray
gsave
348.72 265.456125 m
407.72 265.456125 l
409.053333 265.456125 409.72 266.122792 409.72 267.456125 c
409.72 297.128 l
409.72 298.461333 409.053333 299.128 407.72 299.128 c
348.72 299.128 l
347.386667 299.128 346.72 298.461333 346.72 297.128 c
346.72 267.456125 l
346.72 266.122792 347.386667 265.456125 348.72 265.456125 c
cl
gsave
1.000 setgray
fill
grestore
stroke
grestore
1.500 setlinewidth
1 setlinejoin
2 setlinecap
[] 0 setdash
0.122 0.467 0.706 setrgbcolor
gsave
350.72 291.03425 m
370.72 291.03425 l
stroke
grestore
1.000 setlinewidth
0 setlinecap
gsave
/o {
gsave
newpath
translate
1.0 setlinewidth
1 setlinejoin
0 setlinecap
0 -3 m
0.795609 -3 1.55874 -2.683901 2.12132 -2.12132 c
2.683901 -1.55874 3 -0.795609 3 0 c
3 0.795609 2.683901 1.55874 2.12132 2.12132 c
1.55874 2.683901 0.795609 3 0 3 c
-0.795609 3 -1.55874 2.683901 -2.12132 2.12132 c
-2.683901 1.55874 -3 0.795609 -3 0 c
-3 -0.795609 -2.683901 -1.55874 -2.12132 -2.12132 c
-1.55874 -2.683901 -0.795609 -3 0 -3 c
cl

gsave
0.122 0.467 0.706 setrgbcolor
fill
grestore
stroke
grestore
} bind def
360.72 291.034 o
grestore
0.000 setgray
gsave
378.720000 287.534250 translate
0.000000 rotate
/DejaVuSans-Oblique findfont
10.0 scalefont
setfont
0.000000 0.578125 moveto
/A glyphshow

6.840820 0.578125 moveto
/B glyphshow

13.701172 0.578125 moveto
/C glyphshow


grestore
1.500 setlinewidth
2 setlinecap
1.000 0.498 0.055 setrgbcolor
gsave
350.72 275.03425 m
370.72 275.03425 l
stroke
grestore
1.000 setlinewidth
0 setlinejoin
0 setlinecap
gsave
/o {
gsave
newpath
translate
1.0 setlinewidth
0 setlinejoin
0 setlinecap
-3 -3 m
3 -3 l
3 3 l
-3 3 l
cl

gsave
1.000 0.498 0.055 setrgbcolor
fill
grestore
stroke
grestore
} bind def
360.72 275.034 o
grestore
0.000 setgray
gsave
378.720000 271.534250 translate
0.000000 rotate
/DejaVuSans-Oblique findfont
10.0 scalefont
setfont
0.000000 0.856250 moveto
/A glyphshow

6.840820 0.856250 moveto
/B glyphshow

13.701172 0.856250 moveto
/C glyphshow

/DejaVuSans-Oblique findfont
7.0 scalefont
setfont
21.403646 4.684375 moveto
/d glyphshow


grestore

end
showpage
