%!PS-Adobe-3.0 EPSF-3.0
%%Title: plots/Rosenbrock1.eps
%%Creator: matplotlib version 2.2.2, http://matplotlib.org/
%%CreationDate: Sun Jul 29 16:40:55 2018
%%Orientation: portrait
%%BoundingBox: 75 223 536 568
%%EndComments
%%BeginProlog
/mpldict 9 dict def
mpldict begin
/m { moveto } bind def
/l { lineto } bind def
/r { rlineto } bind def
/c { curveto } bind def
/cl { closepath } bind def
/box {
m
1 index 0 r
0 exch r
neg 0 r
cl
} bind def
/clipbox {
box
clip
newpath
} bind def
%!PS-Adobe-3.0 Resource-Font
%%Title: DejaVu Sans
%%Copyright: Copyright (c) 2003 by Bitstream, Inc. All Rights Reserved. Copyright (c) 2006 by Tavmjong Bah. All Rights Reserved. DejaVu changes are in public domain 
%%Creator: Converted from TrueType to type 3 by PPR
25 dict begin
/_d{bind def}bind def
/_m{moveto}_d
/_l{lineto}_d
/_cl{closepath eofill}_d
/_c{curveto}_d
/_sc{7 -1 roll{setcachedevice}{pop pop pop pop pop pop}ifelse}_d
/_e{exec}_d
/FontName /DejaVuSans def
/PaintType 0 def
/FontMatrix[.001 0 0 .001 0 0]def
/FontBBox[-1021 -463 1793 1232]def
/FontType 3 def
/Encoding [ /parenleft /parenright /zero /one /two /three /four /five /six /I /a /e /i /n /o /r /t /minus ] def
/FontInfo 10 dict dup begin
/FamilyName (DejaVu Sans) def
/FullName (DejaVu Sans) def
/Notice (Copyright (c) 2003 by Bitstream, Inc. All Rights Reserved. Copyright (c) 2006 by Tavmjong Bah. All Rights Reserved. DejaVu changes are in public domain ) def
/Weight (Book) def
/Version (Version 2.35) def
/ItalicAngle 0.0 def
/isFixedPitch false def
/UnderlinePosition -130 def
/UnderlineThickness 90 def
end readonly def
/CharStrings 19 dict dup begin
/.notdef 0 def
/parenleft{390 0 86 -131 310 759 _sc
310 759 _m
266 683 234 609 213 536 _c
191 463 181 389 181 314 _c
181 238 191 164 213 91 _c
234 17 266 -56 310 -131 _c
232 -131 _l
183 -54 146 20 122 94 _c
98 168 86 241 86 314 _c
86 386 98 459 122 533 _c
146 607 182 682 232 759 _c
310 759 _l
_cl}_d
/parenright{390 0 80 -131 304 759 _sc
80 759 _m
158 759 _l
206 682 243 607 267 533 _c
291 459 304 386 304 314 _c
304 241 291 168 267 94 _c
243 20 206 -54 158 -131 _c
80 -131 _l
123 -56 155 17 177 91 _c
198 164 209 238 209 314 _c
209 389 198 463 177 536 _c
155 609 123 683 80 759 _c
_cl}_d
/zero{636 0 66 -13 570 742 _sc
318 664 _m
267 664 229 639 203 589 _c
177 539 165 464 165 364 _c
165 264 177 189 203 139 _c
229 89 267 64 318 64 _c
369 64 407 89 433 139 _c
458 189 471 264 471 364 _c
471 464 458 539 433 589 _c
407 639 369 664 318 664 _c
318 742 _m
399 742 461 709 505 645 _c
548 580 570 486 570 364 _c
570 241 548 147 505 83 _c
461 19 399 -13 318 -13 _c
236 -13 173 19 130 83 _c
87 147 66 241 66 364 _c
66 486 87 580 130 645 _c
173 709 236 742 318 742 _c
_cl}_d
/one{636 0 110 0 544 729 _sc
124 83 _m
285 83 _l
285 639 _l
110 604 _l
110 694 _l
284 729 _l
383 729 _l
383 83 _l
544 83 _l
544 0 _l
124 0 _l
124 83 _l
_cl}_d
/two{{636 0 73 0 536 742 _sc
192 83 _m
536 83 _l
536 0 _l
73 0 _l
73 83 _l
110 121 161 173 226 239 _c
290 304 331 346 348 365 _c
380 400 402 430 414 455 _c
426 479 433 504 433 528 _c
433 566 419 598 392 622 _c
365 646 330 659 286 659 _c
255 659 222 653 188 643 _c
154 632 117 616 78 594 _c
78 694 _l
118 710 155 722 189 730 _c
223 738 255 742 284 742 _c
}_e{359 742 419 723 464 685 _c
509 647 532 597 532 534 _c
532 504 526 475 515 449 _c
504 422 484 390 454 354 _c
446 344 420 317 376 272 _c
332 227 271 164 192 83 _c
_cl}_e}_d
/three{{636 0 76 -13 556 742 _sc
406 393 _m
453 383 490 362 516 330 _c
542 298 556 258 556 212 _c
556 140 531 84 482 45 _c
432 6 362 -13 271 -13 _c
240 -13 208 -10 176 -4 _c
144 1 110 10 76 22 _c
76 117 _l
103 101 133 89 166 81 _c
198 73 232 69 268 69 _c
330 69 377 81 409 105 _c
441 129 458 165 458 212 _c
458 254 443 288 413 312 _c
383 336 341 349 287 349 _c
}_e{202 349 _l
202 430 _l
291 430 _l
339 430 376 439 402 459 _c
428 478 441 506 441 543 _c
441 580 427 609 401 629 _c
374 649 336 659 287 659 _c
260 659 231 656 200 650 _c
169 644 135 635 98 623 _c
98 711 _l
135 721 170 729 203 734 _c
235 739 266 742 296 742 _c
370 742 429 725 473 691 _c
517 657 539 611 539 553 _c
539 513 527 479 504 451 _c
481 423 448 403 406 393 _c
_cl}_e}_d
/four{636 0 49 0 580 729 _sc
378 643 _m
129 254 _l
378 254 _l
378 643 _l
352 729 _m
476 729 _l
476 254 _l
580 254 _l
580 172 _l
476 172 _l
476 0 _l
378 0 _l
378 172 _l
49 172 _l
49 267 _l
352 729 _l
_cl}_d
/five{{636 0 77 -13 549 729 _sc
108 729 _m
495 729 _l
495 646 _l
198 646 _l
198 467 _l
212 472 227 476 241 478 _c
255 480 270 482 284 482 _c
365 482 429 459 477 415 _c
525 370 549 310 549 234 _c
549 155 524 94 475 51 _c
426 8 357 -13 269 -13 _c
238 -13 207 -10 175 -6 _c
143 -1 111 6 77 17 _c
77 116 _l
106 100 136 88 168 80 _c
199 72 232 69 267 69 _c
}_e{323 69 368 83 401 113 _c
433 143 450 183 450 234 _c
450 284 433 324 401 354 _c
368 384 323 399 267 399 _c
241 399 214 396 188 390 _c
162 384 135 375 108 363 _c
108 729 _l
_cl}_e}_d
/six{{636 0 70 -13 573 742 _sc
330 404 _m
286 404 251 388 225 358 _c
199 328 186 286 186 234 _c
186 181 199 139 225 109 _c
251 79 286 64 330 64 _c
374 64 409 79 435 109 _c
461 139 474 181 474 234 _c
474 286 461 328 435 358 _c
409 388 374 404 330 404 _c
526 713 _m
526 623 _l
501 635 476 644 451 650 _c
425 656 400 659 376 659 _c
310 659 260 637 226 593 _c
}_e{192 549 172 482 168 394 _c
187 422 211 444 240 459 _c
269 474 301 482 336 482 _c
409 482 467 459 509 415 _c
551 371 573 310 573 234 _c
573 159 550 99 506 54 _c
462 9 403 -13 330 -13 _c
246 -13 181 19 137 83 _c
92 147 70 241 70 364 _c
70 479 97 571 152 639 _c
206 707 280 742 372 742 _c
396 742 421 739 447 735 _c
472 730 498 723 526 713 _c
_cl}_e}_d
/I{295 0 98 0 197 729 _sc
98 729 _m
197 729 _l
197 0 _l
98 0 _l
98 729 _l
_cl}_d
/a{{613 0 60 -13 522 560 _sc
343 275 _m
270 275 220 266 192 250 _c
164 233 150 205 150 165 _c
150 133 160 107 181 89 _c
202 70 231 61 267 61 _c
317 61 357 78 387 114 _c
417 149 432 196 432 255 _c
432 275 _l
343 275 _l
522 312 _m
522 0 _l
432 0 _l
432 83 _l
411 49 385 25 355 10 _c
325 -5 287 -13 243 -13 _c
187 -13 142 2 109 33 _c
76 64 60 106 60 159 _c
}_e{60 220 80 266 122 298 _c
163 329 224 345 306 345 _c
432 345 _l
432 354 _l
432 395 418 427 391 450 _c
364 472 326 484 277 484 _c
245 484 215 480 185 472 _c
155 464 127 453 100 439 _c
100 522 _l
132 534 164 544 195 550 _c
226 556 256 560 286 560 _c
365 560 424 539 463 498 _c
502 457 522 395 522 312 _c
_cl}_e}_d
/e{{615 0 55 -13 562 560 _sc
562 296 _m
562 252 _l
149 252 _l
153 190 171 142 205 110 _c
238 78 284 62 344 62 _c
378 62 412 66 444 74 _c
476 82 509 95 541 113 _c
541 28 _l
509 14 476 3 442 -3 _c
408 -9 373 -13 339 -13 _c
251 -13 182 12 131 62 _c
80 112 55 181 55 268 _c
55 357 79 428 127 481 _c
175 533 241 560 323 560 _c
397 560 455 536 498 489 _c
}_e{540 441 562 377 562 296 _c
472 322 _m
471 371 457 410 431 440 _c
404 469 368 484 324 484 _c
274 484 234 469 204 441 _c
174 413 156 373 152 322 _c
472 322 _l
_cl}_e}_d
/i{278 0 94 0 184 760 _sc
94 547 _m
184 547 _l
184 0 _l
94 0 _l
94 547 _l
94 760 _m
184 760 _l
184 646 _l
94 646 _l
94 760 _l
_cl}_d
/n{634 0 91 0 549 560 _sc
549 330 _m
549 0 _l
459 0 _l
459 327 _l
459 379 448 417 428 443 _c
408 469 378 482 338 482 _c
289 482 251 466 223 435 _c
195 404 181 362 181 309 _c
181 0 _l
91 0 _l
91 547 _l
181 547 _l
181 462 _l
202 494 227 519 257 535 _c
286 551 320 560 358 560 _c
420 560 468 540 500 501 _c
532 462 549 405 549 330 _c
_cl}_d
/o{612 0 55 -13 557 560 _sc
306 484 _m
258 484 220 465 192 427 _c
164 389 150 338 150 273 _c
150 207 163 156 191 118 _c
219 80 257 62 306 62 _c
354 62 392 80 420 118 _c
448 156 462 207 462 273 _c
462 337 448 389 420 427 _c
392 465 354 484 306 484 _c
306 560 _m
384 560 445 534 490 484 _c
534 433 557 363 557 273 _c
557 183 534 113 490 63 _c
445 12 384 -13 306 -13 _c
227 -13 165 12 121 63 _c
77 113 55 183 55 273 _c
55 363 77 433 121 484 _c
165 534 227 560 306 560 _c
_cl}_d
/r{411 0 91 0 411 560 _sc
411 463 _m
401 469 390 473 378 476 _c
366 478 353 480 339 480 _c
288 480 249 463 222 430 _c
194 397 181 350 181 288 _c
181 0 _l
91 0 _l
91 547 _l
181 547 _l
181 462 _l
199 495 224 520 254 536 _c
284 552 321 560 365 560 _c
371 560 378 559 386 559 _c
393 558 401 557 411 555 _c
411 463 _l
_cl}_d
/t{392 0 27 0 368 702 _sc
183 702 _m
183 547 _l
368 547 _l
368 477 _l
183 477 _l
183 180 _l
183 135 189 106 201 94 _c
213 81 238 75 276 75 _c
368 75 _l
368 0 _l
276 0 _l
206 0 158 13 132 39 _c
106 65 93 112 93 180 _c
93 477 _l
27 477 _l
27 547 _l
93 547 _l
93 702 _l
183 702 _l
_cl}_d
/minus{838 0 106 272 732 355 _sc
106 355 _m
732 355 _l
732 272 _l
106 272 _l
106 355 _l
_cl}_d
end readonly def

/BuildGlyph
 {exch begin
 CharStrings exch
 2 copy known not{pop /.notdef}if
 true 3 1 roll get exec
 end}_d

/BuildChar {
 1 index /Encoding get exch get
 1 index /BuildGlyph get exec
}_d

FontName currentdict end definefont pop
%!PS-Adobe-3.0 Resource-Font
%%Title: DejaVu Sans Oblique
%%Copyright: Copyright (c) 2003 by Bitstream, Inc. All Rights Reserved. Copyright (c) 2006 by Tavmjong Bah. All Rights Reserved. DejaVu changes are in public domain 
%%Creator: Converted from TrueType to type 3 by PPR
25 dict begin
/_d{bind def}bind def
/_m{moveto}_d
/_l{lineto}_d
/_cl{closepath eofill}_d
/_c{curveto}_d
/_sc{7 -1 roll{setcachedevice}{pop pop pop pop pop pop}ifelse}_d
/_e{exec}_d
/FontName /DejaVuSans-Oblique def
/PaintType 0 def
/FontMatrix[.001 0 0 .001 0 0]def
/FontBBox[-1016 -350 1659 1068]def
/FontType 3 def
/Encoding [ /A /B /C /X /b /d /e /f /g /l /o /s /t ] def
/FontInfo 10 dict dup begin
/FamilyName (DejaVu Sans) def
/FullName (DejaVu Sans Oblique) def
/Notice (Copyright (c) 2003 by Bitstream, Inc. All Rights Reserved. Copyright (c) 2006 by Tavmjong Bah. All Rights Reserved. DejaVu changes are in public domain ) def
/Weight (Oblique) def
/Version (Version 2.35) def
/ItalicAngle -11.0 def
/isFixedPitch false def
/UnderlinePosition -130 def
/UnderlineThickness 90 def
end readonly def
/CharStrings 14 dict dup begin
/.notdef 0 def
/A{684 0 -52 0 615 729 _sc
368 729 _m
480 729 _l
615 0 _l
512 0 _l
482 187 _l
154 187 _l
51 0 _l
-52 0 _l
368 729 _l
404 632 _m
199 269 _l
467 269 _l
404 632 _l
_cl}_d
/B{{686 0 27 0 625 729 _sc
169 729 _m
421 729 _l
489 729 540 716 574 691 _c
608 665 625 627 625 576 _c
625 529 610 489 581 455 _c
552 421 514 400 467 393 _c
507 383 537 366 557 340 _c
577 314 588 280 588 238 _c
588 164 560 106 506 64 _c
452 21 378 0 284 0 _c
27 0 _l
169 729 _l
193 348 _m
141 81 _l
300 81 _l
359 81 405 94 437 122 _c
469 149 486 188 486 238 _c
}_e{486 276 475 303 454 321 _c
432 339 398 348 351 348 _c
193 348 _l
251 648 _m
208 428 _l
355 428 _l
407 428 448 439 478 462 _c
507 485 522 517 522 557 _c
522 588 512 611 492 626 _c
472 640 440 648 397 648 _c
251 648 _l
_cl}_e}_d
/C{{698 0 42 -13 695 742 _sc
695 673 _m
675 569 _l
643 600 610 623 575 639 _c
540 654 502 662 462 662 _c
406 662 357 648 315 622 _c
273 595 236 554 206 500 _c
186 464 171 427 161 388 _c
151 349 146 310 146 270 _c
146 203 163 152 197 118 _c
231 83 281 66 347 66 _c
392 66 435 73 477 87 _c
519 101 559 123 599 153 _c
576 36 _l
537 19 498 7 458 -1 _c
}_e{418 -9 379 -13 340 -13 _c
246 -13 173 12 121 62 _c
68 112 42 183 42 274 _c
42 332 52 389 72 445 _c
92 501 120 552 158 598 _c
198 647 243 683 294 707 _c
345 730 404 742 472 742 _c
514 742 553 736 590 725 _c
627 713 662 696 695 673 _c
_cl}_e}_d
/X{685 0 -42 0 703 729 _sc
137 729 _m
237 729 _l
362 466 _l
588 729 _l
703 729 _l
403 381 _l
584 0 _l
485 0 _l
338 307 _l
72 0 _l
-42 0 _l
298 392 _l
137 729 _l
_cl}_d
/b{{635 0 36 -13 587 760 _sc
495 334 _m
495 381 484 418 462 445 _c
440 471 411 485 373 485 _c
345 485 319 478 295 464 _c
271 450 250 431 232 406 _c
213 378 198 347 187 311 _c
176 275 171 240 171 205 _c
171 160 181 125 203 99 _c
224 73 253 61 291 61 _c
319 61 345 67 369 81 _c
393 94 415 113 433 139 _c
451 165 466 196 478 232 _c
489 268 495 302 495 334 _c
216 464 _m
}_e{238 494 265 517 299 534 _c
332 551 367 560 404 560 _c
460 560 504 541 537 503 _c
570 465 587 414 587 350 _c
587 297 577 246 558 197 _c
538 147 511 103 475 65 _c
451 39 424 20 394 7 _c
363 -6 331 -13 298 -13 _c
262 -13 232 -5 206 11 _c
180 27 158 51 142 83 _c
126 0 _l
36 0 _l
184 760 _l
274 760 _l
216 464 _l
_cl}_e}_d
/d{{635 0 46 -13 639 760 _sc
418 82 _m
394 50 365 27 332 11 _c
299 -5 263 -13 223 -13 _c
168 -13 125 5 93 42 _c
61 79 46 130 46 195 _c
46 249 55 300 75 349 _c
94 398 122 442 158 481 _c
182 507 209 526 239 540 _c
269 553 301 560 335 560 _c
370 560 401 551 428 534 _c
454 517 475 493 490 462 _c
549 760 _l
639 760 _l
491 0 _l
401 0 _l
418 82 _l
139 211 _m
}_e{139 163 149 126 171 100 _c
192 74 222 61 260 61 _c
288 61 314 67 338 81 _c
362 95 383 115 401 141 _c
420 168 435 200 446 236 _c
457 272 463 307 463 342 _c
463 387 452 422 431 448 _c
409 473 380 486 343 486 _c
314 486 287 479 263 466 _c
239 452 218 433 201 408 _c
182 381 167 350 156 314 _c
144 278 139 243 139 211 _c
_cl}_e}_d
/e{{615 0 46 -13 571 560 _sc
481 322 _m
481 327 482 332 483 338 _c
483 344 484 349 484 355 _c
484 395 472 426 449 449 _c
425 472 394 484 354 484 _c
309 484 270 469 236 441 _c
202 413 176 373 158 322 _c
481 322 _l
559 252 _m
141 252 _l
139 239 137 229 137 222 _c
136 215 136 209 136 204 _c
136 158 150 123 178 99 _c
206 74 245 62 296 62 _c
334 62 371 66 406 75 _c
}_e{441 83 474 96 504 114 _c
487 25 _l
454 11 420 2 386 -4 _c
352 -10 317 -13 282 -13 _c
206 -13 147 5 107 41 _c
66 77 46 128 46 195 _c
46 251 56 304 76 353 _c
96 402 126 446 166 485 _c
191 509 221 527 256 540 _c
291 553 328 560 368 560 _c
430 560 479 541 516 504 _c
552 467 571 417 571 355 _c
571 340 570 324 568 307 _c
566 289 563 271 559 252 _c
_cl}_e}_d
/f{352 0 68 0 478 760 _sc
478 760 _m
464 685 _l
378 685 _l
345 685 321 678 307 665 _c
292 652 281 629 274 595 _c
264 547 _l
412 547 _l
399 477 _l
251 477 _l
158 0 _l
68 0 _l
161 477 _l
75 477 _l
88 547 _l
174 547 _l
181 585 _l
193 649 215 695 246 721 _c
277 747 326 760 393 760 _c
478 760 _l
_cl}_d
/g{{635 0 32 -207 596 560 _sc
596 547 _m
503 68 _l
485 -24 450 -92 400 -138 _c
349 -184 281 -207 196 -207 _c
164 -207 134 -204 107 -200 _c
80 -195 55 -188 32 -178 _c
49 -91 _l
71 -105 94 -115 119 -122 _c
143 -129 170 -133 198 -133 _c
255 -133 302 -117 339 -86 _c
375 -55 399 -11 411 47 _c
419 88 _l
393 59 364 37 331 22 _c
298 7 262 0 224 0 _c
168 0 125 18 93 55 _c
}_e{61 91 46 142 46 206 _c
46 256 55 306 75 354 _c
94 402 121 445 156 483 _c
178 507 205 526 236 540 _c
267 553 299 560 333 560 _c
369 560 401 551 429 534 _c
456 517 476 493 490 462 _c
506 547 _l
596 547 _l
461 346 _m
461 390 450 425 429 449 _c
408 473 379 485 341 485 _c
317 485 294 480 273 471 _c
251 461 233 448 218 431 _c
193 403 174 370 160 332 _c
}_e{146 294 139 255 139 215 _c
139 169 149 135 170 111 _c
191 87 221 75 261 75 _c
318 75 366 100 404 152 _c
442 204 461 268 461 346 _c
_cl}_e}_d
/l{278 0 35 0 273 760 _sc
183 760 _m
273 760 _l
125 0 _l
35 0 _l
183 760 _l
_cl}_d
/o{{612 0 46 -13 566 560 _sc
254 -13 _m
190 -13 139 6 102 45 _c
64 84 46 138 46 207 _c
46 247 52 287 65 328 _c
77 369 94 404 115 432 _c
147 476 183 508 223 529 _c
263 549 308 560 358 560 _c
420 560 470 540 508 502 _c
546 463 566 412 566 350 _c
566 306 559 263 547 220 _c
534 177 517 142 497 114 _c
465 70 429 37 389 17 _c
349 -3 304 -13 254 -13 _c
139 210 _m
}_e{139 160 149 123 170 99 _c
190 74 222 62 264 62 _c
324 62 373 88 413 141 _c
453 193 473 260 473 341 _c
473 388 462 424 441 448 _c
420 472 389 484 348 484 _c
314 484 283 476 257 460 _c
231 444 207 420 187 388 _c
171 364 159 336 151 305 _c
143 274 139 242 139 210 _c
_cl}_e}_d
/s{{521 0 11 -13 500 560 _sc
500 531 _m
483 446 _l
459 458 433 468 407 475 _c
381 481 354 485 326 485 _c
278 485 241 477 214 461 _c
187 445 174 423 174 395 _c
174 363 205 338 269 321 _c
273 319 277 318 279 318 _c
308 309 _l
368 292 408 274 428 256 _c
448 238 458 213 458 182 _c
458 124 435 77 389 41 _c
343 5 282 -13 208 -13 _c
179 -13 149 -10 117 -5 _c
}_e{85 0 49 8 11 20 _c
29 113 _l
61 95 94 82 126 74 _c
158 65 188 61 218 61 _c
262 61 297 70 325 89 _c
352 108 366 132 366 161 _c
366 192 330 217 258 237 _c
249 239 _l
218 247 _l
172 259 138 274 117 294 _c
96 314 86 339 86 370 _c
86 428 107 475 151 509 _c
195 543 254 560 330 560 _c
360 560 389 557 417 552 _c
445 547 472 540 500 531 _c
_cl}_e}_d
/t{{392 0 64 0 423 702 _sc
423 547 _m
409 477 _l
230 477 _l
172 180 _l
170 169 168 160 167 152 _c
166 144 166 139 166 135 _c
166 114 172 99 185 89 _c
197 79 217 75 245 75 _c
336 75 _l
321 0 _l
235 0 _l
181 0 141 10 115 31 _c
89 52 76 84 76 126 _c
76 133 76 141 77 150 _c
78 159 80 169 82 180 _c
140 477 _l
64 477 _l
78 547 _l
153 547 _l
183 702 _l
}_e{273 702 _l
243 547 _l
423 547 _l
_cl}_e}_d
end readonly def

/BuildGlyph
 {exch begin
 CharStrings exch
 2 copy known not{pop /.notdef}if
 true 3 1 roll get exec
 end}_d

/BuildChar {
 1 index /Encoding get exch get
 1 index /BuildGlyph get exec
}_d

FontName currentdict end definefont pop
end
%%EndProlog
mpldict begin
75.6 223.2 translate
460.8 345.6 0 0 clipbox
gsave
0 0 m
460.8 0 l
460.8 345.6 l
0 345.6 l
cl
1.000 setgray
fill
grestore
gsave
57.6 38.016 m
414.72 38.016 l
414.72 304.128 l
57.6 304.128 l
cl
1.000 setgray
fill
grestore
0.800 setlinewidth
1 setlinejoin
0 setlinecap
[] 0 setdash
0.000 setgray
gsave
/o {
gsave
newpath
translate
0.8 setlinewidth
1 setlinejoin
0 setlinecap
0 0 m
0 -3.5 l

gsave
0.000 setgray
fill
grestore
stroke
grestore
} bind def
73.8327 38.016 o
grestore
/DejaVuSans findfont
10.000 scalefont
setfont
gsave
70.653040 23.422250 translate
0.000000 rotate
0.000000 0.000000 m /zero glyphshow
grestore
gsave
/o {
gsave
newpath
translate
0.8 setlinewidth
1 setlinejoin
0 setlinecap
0 0 m
0 -3.5 l

gsave
0.000 setgray
fill
grestore
stroke
grestore
} bind def
138.777 38.016 o
grestore
gsave
126.057875 23.422250 translate
0.000000 rotate
0.000000 0.000000 m /one glyphshow
6.362305 0.000000 m /zero glyphshow
12.724609 0.000000 m /zero glyphshow
19.086914 0.000000 m /zero glyphshow
grestore
gsave
/o {
gsave
newpath
translate
0.8 setlinewidth
1 setlinejoin
0 setlinecap
0 0 m
0 -3.5 l

gsave
0.000 setgray
fill
grestore
stroke
grestore
} bind def
203.721 38.016 o
grestore
gsave
191.001773 23.422250 translate
0.000000 rotate
0.000000 0.000000 m /two glyphshow
6.362305 0.000000 m /zero glyphshow
12.724609 0.000000 m /zero glyphshow
19.086914 0.000000 m /zero glyphshow
grestore
gsave
/o {
gsave
newpath
translate
0.8 setlinewidth
1 setlinejoin
0 setlinecap
0 0 m
0 -3.5 l

gsave
0.000 setgray
fill
grestore
stroke
grestore
} bind def
268.664 38.016 o
grestore
gsave
255.945671 23.422250 translate
0.000000 rotate
0.000000 0.000000 m /three glyphshow
6.362305 0.000000 m /zero glyphshow
12.724609 0.000000 m /zero glyphshow
19.086914 0.000000 m /zero glyphshow
grestore
gsave
/o {
gsave
newpath
translate
0.8 setlinewidth
1 setlinejoin
0 setlinecap
0 0 m
0 -3.5 l

gsave
0.000 setgray
fill
grestore
stroke
grestore
} bind def
333.608 38.016 o
grestore
gsave
320.889569 23.422250 translate
0.000000 rotate
0.000000 0.000000 m /four glyphshow
6.362305 0.000000 m /zero glyphshow
12.724609 0.000000 m /zero glyphshow
19.086914 0.000000 m /zero glyphshow
grestore
gsave
/o {
gsave
newpath
translate
0.8 setlinewidth
1 setlinejoin
0 setlinecap
0 0 m
0 -3.5 l

gsave
0.000 setgray
fill
grestore
stroke
grestore
} bind def
398.552 38.016 o
grestore
gsave
385.833467 23.422250 translate
0.000000 rotate
0.000000 0.000000 m /five glyphshow
6.362305 0.000000 m /zero glyphshow
12.724609 0.000000 m /zero glyphshow
19.086914 0.000000 m /zero glyphshow
grestore
/DejaVuSans findfont
14.000 scalefont
setfont
gsave
206.480312 6.703500 translate
0.000000 rotate
0.000000 0.000000 m /I glyphshow
4.128906 0.000000 m /t glyphshow
9.618164 0.000000 m /e glyphshow
18.231445 0.000000 m /r glyphshow
23.987305 0.000000 m /a glyphshow
32.566406 0.000000 m /t glyphshow
38.055664 0.000000 m /i glyphshow
41.945312 0.000000 m /o glyphshow
50.510742 0.000000 m /n glyphshow
grestore
gsave
/o {
gsave
newpath
translate
0.8 setlinewidth
1 setlinejoin
0 setlinecap
0 0 m
-3.5 0 l

gsave
0.000 setgray
fill
grestore
stroke
grestore
} bind def
57.6 53.2593 o
grestore
/DejaVuSans findfont
10.000 scalefont
setfont
gsave
35.865625 49.462425 translate
0.000000 rotate
0.000000 0.000000 m /minus glyphshow
8.378906 0.000000 m /one glyphshow
grestore
gsave
/o {
gsave
newpath
translate
0.8 setlinewidth
1 setlinejoin
0 setlinecap
0 0 m
-3.5 0 l

gsave
0.000 setgray
fill
grestore
stroke
grestore
} bind def
57.6 86.0081 o
grestore
gsave
44.240625 82.211237 translate
0.000000 rotate
0.000000 0.000000 m /zero glyphshow
grestore
gsave
/o {
gsave
newpath
translate
0.8 setlinewidth
1 setlinejoin
0 setlinecap
0 0 m
-3.5 0 l

gsave
0.000 setgray
fill
grestore
stroke
grestore
} bind def
57.6 118.757 o
grestore
gsave
44.240625 114.960048 translate
0.000000 rotate
0.000000 0.000000 m /one glyphshow
grestore
gsave
/o {
gsave
newpath
translate
0.8 setlinewidth
1 setlinejoin
0 setlinecap
0 0 m
-3.5 0 l

gsave
0.000 setgray
fill
grestore
stroke
grestore
} bind def
57.6 151.506 o
grestore
gsave
44.240625 147.708859 translate
0.000000 rotate
0.000000 0.000000 m /two glyphshow
grestore
gsave
/o {
gsave
newpath
translate
0.8 setlinewidth
1 setlinejoin
0 setlinecap
0 0 m
-3.5 0 l

gsave
0.000 setgray
fill
grestore
stroke
grestore
} bind def
57.6 184.255 o
grestore
gsave
44.240625 180.457670 translate
0.000000 rotate
0.000000 0.000000 m /three glyphshow
grestore
gsave
/o {
gsave
newpath
translate
0.8 setlinewidth
1 setlinejoin
0 setlinecap
0 0 m
-3.5 0 l

gsave
0.000 setgray
fill
grestore
stroke
grestore
} bind def
57.6 217.003 o
grestore
gsave
44.240625 213.206481 translate
0.000000 rotate
0.000000 0.000000 m /four glyphshow
grestore
gsave
/o {
gsave
newpath
translate
0.8 setlinewidth
1 setlinejoin
0 setlinecap
0 0 m
-3.5 0 l

gsave
0.000 setgray
fill
grestore
stroke
grestore
} bind def
57.6 249.752 o
grestore
gsave
44.240625 245.955292 translate
0.000000 rotate
0.000000 0.000000 m /five glyphshow
grestore
gsave
/o {
gsave
newpath
translate
0.8 setlinewidth
1 setlinejoin
0 setlinecap
0 0 m
-3.5 0 l

gsave
0.000 setgray
fill
grestore
stroke
grestore
} bind def
57.6 282.501 o
grestore
gsave
44.240625 278.704103 translate
0.000000 rotate
0.000000 0.000000 m /six glyphshow
grestore
gsave
28.865625 133.572000 translate
90.000000 rotate
/DejaVuSans-Oblique findfont
14.0 scalefont
setfont
0.000000 0.359375 moveto
/l glyphshow

3.889648 0.359375 moveto
/o glyphshow

12.455078 0.359375 moveto
/g glyphshow

21.341797 0.359375 moveto
/f glyphshow

/DejaVuSans findfont
9.8 scalefont
setfont
26.270508 -1.937500 moveto
/four glyphshow

/DejaVuSans findfont
14.0 scalefont
setfont
32.888379 0.359375 moveto
/parenleft glyphshow

/DejaVuSans-Oblique findfont
14.0 scalefont
setfont
38.350293 0.359375 moveto
/X glyphshow

/DejaVuSans-Oblique findfont
9.8 scalefont
setfont
47.941113 -1.937500 moveto
/b glyphshow

54.161816 -1.937500 moveto
/e glyphshow

60.191113 -1.937500 moveto
/s glyphshow

65.296875 -1.937500 moveto
/t glyphshow

/DejaVuSans findfont
14.0 scalefont
setfont
69.522168 0.359375 moveto
/parenright glyphshow


grestore
1.500 setlinewidth
2 setlinecap
0.122 0.467 0.706 setrgbcolor
gsave
357.1 266.1 57.6 38.02 clipbox
73.832727 291.551887 m
75.261493 278.282784 l
77.339698 252.97927 l
77.599473 248.362303 l
78.638576 236.867461 l
79.352959 226.220936 l
79.417902 226.033158 l
79.482846 225.496389 l
79.807566 219.302043 l
79.87251 218.932039 l
80.457005 210.798142 l
80.521949 210.373777 l
80.976556 201.131158 l
81.301276 197.626704 l
81.496107 195.050132 l
81.625995 194.126465 l
82.015658 190.698012 l
82.080602 190.570222 l
82.340378 188.052482 l
82.470266 187.333356 l
82.730041 185.170069 l
82.924873 184.034467 l
83.184649 181.392807 l
83.963975 177.390471 l
84.158807 174.895097 l
84.418583 173.704894 l
84.678358 172.647759 l
84.808246 172.209214 l
85.132966 170.576072 l
85.262853 170.249305 l
85.587573 169.073004 l
85.717461 167.336425 l
85.847348 166.923534 l
85.977236 164.549256 l
86.172068 163.956124 l
86.561731 162.015611 l
87.21117 160.260085 l
87.470946 159.669691 l
87.730721 159.106061 l
87.925553 158.123071 l
88.769824 156.88471 l
88.964655 156.691735 l
89.419263 155.796965 l
89.679038 155.368935 l
89.938814 154.728756 l
90.19859 154.366792 l
90.848029 153.581498 l
91.302636 153.131505 l
91.822187 152.705295 l
92.21185 152.459367 l
93.380841 151.236114 l
93.510728 150.077202 l
93.575672 150.020639 l
93.770504 149.525925 l
93.900392 149.479274 l
94.354999 148.426972 l
94.614775 148.209928 l
94.809606 147.973813 l
95.004438 147.811154 l
95.19927 147.529033 l
95.329157 147.435439 l
95.459045 147.178014 l
95.588933 147.049849 l
95.783765 146.526089 l
95.913653 146.341201 l
96.36826 144.868444 l
96.563092 144.262607 l
96.757923 144.109919 l
96.952755 143.734673 l
97.212531 143.440329 l
97.472306 143.190796 l
97.53725 143.117326 l
97.797026 142.423393 l
98.446465 141.423413 l
98.70624 141.109979 l
98.771184 141.084118 l
99.160847 140.408561 l
99.225791 140.390154 l
99.420623 140.047466 l
99.615455 139.74052 l
100.070062 138.656776 l
100.135006 138.621352 l
100.394782 137.943965 l
100.914333 137.161683 l
101.239052 136.442543 l
101.628716 135.588107 l
102.213211 134.446563 l
102.343098 134.234818 l
102.732762 133.57975 l
102.927594 133.354332 l
103.577032 131.206278 l
105.070742 127.731972 l
105.20063 127.443984 l
105.395462 127.049049 l
105.720181 126.717776 l
106.044901 126.070673 l
106.174788 125.961264 l
106.69434 124.866676 l
108.058161 121.991216 l
108.252993 121.231193 l
108.317937 121.163331 l
108.577713 120.589488 l
110.266254 118.254969 l
110.461086 117.779318 l
110.850749 117.354581 l
111.175469 116.909024 l
111.305356 116.550185 l
111.565132 115.834334 l
111.759964 115.666369 l
112.019739 114.762734 l
113.188729 113.122604 l
113.318617 113.033518 l
114.877271 110.500637 l
115.072102 110.071958 l
115.591654 109.183113 l
115.786485 108.722947 l
115.981317 108.436243 l
116.500868 107.578385 l
117.669858 104.994969 l
117.994578 104.70802 l
118.579073 104.103885 l
119.163568 103.488309 l
119.423344 102.975496 l
121.436604 101.286483 l
122.605595 100.485203 l
122.800426 100.282391 l
123.19009 100.077355 l
126.502228 97.60398 l
126.891892 97.454535 l
127.346499 97.036722 l
127.671219 96.881197 l
127.995938 96.548119 l
128.255714 96.346355 l
128.515489 96.06262 l
129.164928 95.379141 l
129.684479 95.102089 l
130.074143 94.824674 l
130.593694 94.390357 l
133.061562 91.763182 l
133.256394 91.614718 l
133.646057 91.20013 l
133.775945 91.142605 l
134.035721 90.878517 l
134.490328 90.565766 l
135.009879 90.255624 l
135.204711 90.07287 l
135.399542 89.930209 l
135.919094 89.305012 l
136.503589 88.94963 l
136.69842 88.685984 l
136.828308 88.626562 l
137.02314 88.467544 l
137.217972 88.29263 l
137.737523 87.772623 l
137.802467 87.766457 l
137.997298 87.501382 l
138.19213 87.360087 l
138.581793 86.876117 l
138.776625 86.76922 l
139.555952 86.132244 l
139.750784 86.051498 l
139.945615 85.871655 l
140.335279 85.655691 l
140.465166 84.890906 l
140.984718 84.510179 l
141.179549 84.372153 l
143.19281 82.840899 l
143.387642 82.742025 l
143.647417 82.575282 l
143.972137 82.322161 l
144.166969 82.191126 l
144.621576 81.908384 l
144.881352 81.744276 l
145.271015 81.295017 l
145.595734 81.04438 l
145.85551 80.83049 l
146.115286 80.695109 l
146.310117 80.462503 l
147.154388 79.878229 l
147.933715 79.480576 l
148.972817 78.66077 l
149.946976 78.096112 l
150.141807 77.906767 l
150.401583 77.790433 l
150.791246 77.574392 l
152.220012 76.713832 l
152.804507 76.502441 l
152.999339 76.375703 l
153.843609 76.077533 l
154.103385 75.991393 l
154.298217 75.687262 l
154.882712 75.552219 l
155.662039 75.29507 l
155.85687 75.192527 l
156.701141 74.865463 l
157.090804 74.624648 l
157.740243 74.491537 l
158.714402 74.219029 l
159.104065 73.867563 l
160.402943 73.366486 l
160.662719 73.265382 l
161.896653 72.93625 l
162.156428 72.697731 l
163.909914 72.025947 l
164.68924 71.796871 l
164.819128 71.574985 l
165.273735 71.462633 l
166.247894 71.063157 l
166.637557 70.604946 l
166.897333 70.484916 l
167.741604 70.312761 l
168.196211 70.147802 l
168.910594 69.898688 l
169.040482 69.623749 l
169.884752 69.456033 l
170.534191 69.244582 l
170.793967 69.083778 l
171.573294 68.887769 l
171.833069 68.759489 l
172.222733 68.678222 l
172.67734 68.478215 l
176.314198 67.984667 l
177.158469 67.800731 l
177.3533 67.591081 l
177.937796 67.364943 l
178.132627 67.248765 l
178.717122 67.116569 l
178.84701 66.823384 l
179.106786 66.729934 l
179.691281 66.631901 l
180.925215 66.503734 l
181.120047 66.423534 l
182.159149 66.319568 l
183.458027 66.137842 l
183.912634 66.058338 l
185.471288 65.873947 l
186.055783 65.7927 l
188.328819 65.632491 l
188.523651 65.542721 l
188.84837 65.53426 l
188.978258 65.05699 l
189.238034 64.988497 l
189.432865 64.887598 l
190.471968 64.730754 l
190.731743 64.570198 l
191.770846 64.290374 l
193.849051 64.165986 l
194.303658 64.121515 l
196.251975 64.019648 l
196.51175 63.975251 l
196.966358 63.923331 l
197.161189 63.818175 l
198.525011 63.717982 l
198.719843 63.659172 l
202.551533 63.512652 l
202.876252 63.465144 l
209.370642 63.355308 l
209.565474 63.276211 l
210.344801 63.158454 l
211.513791 63.110735 l
213.137388 63.049274 l
213.33222 62.974384 l
215.800088 62.86478 l
217.488629 62.81077 l
224.82729 62.721997 l
225.022122 62.614041 l
227.684821 62.554455 l
227.944597 62.456215 l
229.113587 62.273226 l
229.373363 62.076554 l
230.737185 61.937571 l
230.99696 61.895732 l
232.49067 61.800472 l
232.685501 61.631184 l
233.919436 61.556001 l
234.374043 61.413356 l
235.802809 61.361139 l
235.99764 61.274506 l
239.959218 61.164386 l
246.908215 60.89919 l
253.402605 60.7993 l
253.597437 60.744723 l
261.195873 60.645403 l
261.32576 60.526447 l
261.520592 60.468677 l
261.715424 60.3444 l
262.170031 60.203352 l
262.624638 60.10261 l
263.274077 60.090614 l
264.053404 60.005024 l
264.378124 59.939555 l
267.170711 59.85351 l
267.365543 59.790709 l
268.079926 59.688207 l
268.534533 59.617226 l
271.65184 59.608766 l
271.781728 58.400667 l
278.730725 58.290327 l
282.627359 58.28543 l
282.757247 57.937422 l
288.667141 57.829587 l
288.926917 57.775768 l
290.680402 57.617423 l
293.018383 57.553422 l
293.213214 57.500017 l
294.317261 57.414959 l
294.512092 57.344562 l
295.616139 57.281275 l
295.81097 57.193452 l
297.369624 57.090389 l
299.96738 57.055206 l
301.720865 56.945206 l
304.64334 56.74924 l
304.838172 56.675882 l
308.539974 56.566531 l
313.540654 56.477122 l
313.670542 54.666954 l
314.384925 54.562629 l
314.644701 54.477974 l
315.034364 54.394587 l
315.229196 54.33942 l
315.748747 54.236008 l
316.333242 54.140552 l
317.242456 54.036652 l
317.437288 53.969236 l
318.541334 53.879736 l
319.12583 53.789665 l
319.450549 53.754102 l
321.009203 53.635129 l
325.425388 53.264009 l
326.269658 53.208729 l
326.46449 53.145519 l
332.309441 53.011661 l
332.504272 52.906889 l
334.387646 52.811269 l
334.582477 52.764015 l
339.583157 52.662391 l
340.62226 52.593202 l
341.79125 52.485137 l
343.090128 52.298733 l
345.233276 52.20977 l
345.493052 52.162988 l
348.805191 52.059056 l
349.45463 52.001326 l
357.767449 51.795569 l
357.897337 51.641109 l
359.650822 51.552611 l
359.975541 51.438637 l
361.79397 51.228798 l
362.11869 51.202896 l
362.248578 51.081704 l
362.443409 51.080205 l
362.573297 50.93582 l
365.95038 50.812173 l
366.340043 50.786208 l
371.600499 50.657081 l
371.990162 50.631634 l
373.418928 50.617613 l
384.329503 50.512064 l
385.10883 50.320561 l
390.888837 50.26064 l
391.083668 50.199604 l
398.487273 50.112 l
398.487273 50.112 l
stroke
grestore
1.000 setlinewidth
0 setlinecap
gsave
357.1 266.1 57.6 38.02 clipbox
/o {
gsave
newpath
translate
1.0 setlinewidth
1 setlinejoin
0 setlinecap
0 -3 m
0.795609 -3 1.55874 -2.683901 2.12132 -2.12132 c
2.683901 -1.55874 3 -0.795609 3 0 c
3 0.795609 2.683901 1.55874 2.12132 2.12132 c
1.55874 2.683901 0.795609 3 0 3 c
-0.795609 3 -1.55874 2.683901 -2.12132 2.12132 c
-2.683901 1.55874 -3 0.795609 -3 0 c
-3 -0.795609 -2.683901 -1.55874 -2.12132 -2.12132 c
-1.55874 -2.683901 -0.795609 -3 0 -3 c
cl

gsave
0.122 0.467 0.706 setrgbcolor
fill
grestore
stroke
grestore
} bind def
73.8327 291.552 o
120.203 102.242 o
166.573 70.6756 o
212.943 63.05 o
259.312 60.6481 o
305.682 56.6167 o
352.052 51.9256 o
398.422 50.112 o
grestore
1.500 setlinewidth
2 setlinecap
1.000 0.498 0.055 setrgbcolor
gsave
357.1 266.1 57.6 38.02 clipbox
73.832727 292.032 m
74.092503 288.712075 l
75.781044 261.190724 l
76.170708 252.317923 l
76.300595 249.887827 l
76.495427 246.740421 l
76.690259 243.278023 l
77.404642 230.196107 l
77.924193 223.67775 l
79.158127 205.42146 l
79.223071 204.666958 l
79.417902 200.11199 l
80.521949 186.024911 l
81.301276 181.437661 l
81.496107 179.050284 l
83.963975 165.711274 l
84.938134 162.412711 l
85.327797 161.238259 l
85.977236 158.814343 l
86.172068 157.646105 l
88.574992 151.02294 l
88.639936 150.960636 l
88.899712 150.366454 l
89.029599 150.177632 l
89.419263 149.134739 l
89.87387 148.206836 l
92.601514 143.058875 l
93.121065 141.441082 l
93.380841 140.803195 l
94.484887 137.529765 l
94.87455 136.808758 l
95.394101 135.400687 l
96.108484 133.79349 l
96.238372 133.445513 l
96.563092 132.594953 l
96.822867 132.021937 l
97.212531 130.894455 l
97.732082 129.662246 l
97.991857 128.884567 l
98.121745 128.682814 l
98.381521 128.043074 l
98.641296 127.753709 l
98.901072 127.234949 l
98.966016 127.17992 l
99.615455 125.359953 l
99.87523 124.881345 l
101.109164 121.646329 l
101.239052 121.51081 l
101.433884 120.917565 l
101.693659 120.284698 l
101.953435 119.436839 l
102.148267 118.845593 l
102.343098 118.519496 l
103.057481 116.676094 l
103.317257 116.357723 l
103.641976 115.638668 l
104.03164 115.113873 l
104.291415 114.498516 l
104.421303 114.287516 l
104.87591 113.187539 l
105.070742 112.699698 l
105.330518 111.980343 l
105.525349 111.505673 l
106.304676 109.377082 l
107.084003 107.952362 l
107.213891 107.77417 l
107.408722 107.371876 l
107.473666 107.338175 l
107.798386 106.735983 l
107.86333 106.69574 l
108.188049 105.835812 l
110.461086 102.261054 l
111.045581 101.500595 l
111.565132 100.350015 l
112.019739 99.874698 l
112.279515 99.295731 l
113.188729 97.787074 l
113.578393 97.17353 l
113.968056 96.701067 l
114.35772 95.927611 l
114.617495 95.682565 l
114.812327 95.418721 l
116.306036 93.56274 l
116.500868 93.36435 l
116.760644 93.208849 l
117.669858 92.046787 l
118.059522 91.672654 l
118.254353 91.453502 l
118.644017 91.253275 l
118.838848 91.063182 l
119.3584 90.530959 l
119.618175 90.205594 l
120.267614 89.69274 l
121.176829 88.666762 l
121.436604 88.492076 l
121.891212 88.235375 l
123.255034 87.317923 l
123.514809 87.130754 l
123.644697 86.822008 l
124.164248 86.475961 l
124.488968 86.269706 l
124.943575 85.9453 l
125.138407 85.679897 l
125.398182 85.403211 l
125.463126 85.377331 l
125.722902 84.998462 l
125.917733 84.881969 l
126.762004 84.224506 l
126.956836 84.122476 l
127.216611 83.940896 l
127.281555 83.922559 l
127.476387 83.600855 l
128.060882 83.084892 l
128.450545 82.878158 l
128.905153 82.389912 l
129.489648 82.194336 l
129.684479 81.97566 l
130.723582 81.212434 l
130.918414 81.076304 l
131.243133 80.769613 l
131.373021 80.246613 l
131.437965 80.17549 l
131.632796 79.808392 l
131.957516 79.599773 l
132.347179 79.376748 l
134.555272 78.169632 l
134.944935 78.026077 l
135.204711 77.751352 l
135.52943 77.673044 l
135.724262 77.543191 l
135.789206 77.529654 l
135.919094 77.334999 l
136.373701 77.104846 l
137.282915 76.648144 l
137.412803 76.26827 l
137.802467 75.964878 l
138.127186 75.836812 l
138.386962 75.533492 l
138.581793 75.412377 l
138.906513 75.312228 l
139.491008 75.073942 l
139.750784 74.825348 l
140.140447 74.709239 l
140.595054 74.577299 l
141.049662 74.413117 l
141.244493 74.25518 l
141.699101 74.056316 l
141.893932 73.846935 l
142.413483 73.671727 l
142.803147 73.334219 l
142.933035 72.915969 l
143.51753 72.678936 l
143.842249 72.553679 l
144.816408 72.372236 l
145.206071 72.213726 l
145.85551 72.087965 l
146.634837 71.706291 l
147.998659 71.426648 l
148.128546 71.212946 l
148.323378 71.132444 l
148.51821 70.969881 l
149.102705 70.743805 l
149.297537 70.237532 l
149.6872 70.165932 l
149.817088 69.788414 l
150.076863 69.693601 l
150.336639 69.616422 l
150.726302 69.507965 l
150.921134 69.379949 l
151.895293 69.131708 l
152.02518 68.926128 l
152.284956 68.806811 l
152.739563 68.697818 l
153.064283 68.510208 l
153.324058 68.309578 l
154.038441 68.187771 l
154.168329 67.900739 l
154.557992 67.800805 l
154.882712 67.730847 l
155.0126 67.540117 l
155.597095 67.406522 l
155.726982 67.379148 l
155.85687 66.149062 l
156.246534 66.092972 l
156.441365 65.976769 l
158.000019 65.484285 l
158.129907 65.170366 l
158.454626 65.061854 l
158.779346 64.7753 l
159.104065 64.647287 l
159.298897 64.571753 l
160.337999 64.393668 l
160.532831 64.20325 l
161.442046 64.064941 l
162.870811 63.727888 l
163.195531 63.652195 l
163.455306 63.597935 l
166.053062 63.212862 l
166.247894 63.088158 l
166.897333 62.987363 l
167.157109 62.929665 l
168.910594 62.797443 l
170.858911 62.507648 l
170.988798 62.238132 l
173.131947 62.045818 l
173.976218 61.978232 l
175.924535 61.851305 l
176.054423 61.69451 l
177.742964 61.548683 l
178.652178 61.379561 l
180.730383 61.248246 l
181.899373 61.109122 l
182.224093 61.081204 l
192.809948 60.616948 l
195.147928 60.497427 l
196.122087 60.47354 l
196.381863 60.448263 l
196.51175 60.268853 l
196.966358 60.244315 l
201.707262 60.124194 l
201.902094 60.053218 l
203.850411 59.990821 l
204.045243 59.917847 l
209.955137 59.823164 l
210.279857 59.798037 l
219.307059 59.670487 l
219.761666 59.648226 l
224.372683 59.536465 l
232.425726 59.416211 l
232.815389 59.394606 l
236.192472 59.381732 l
236.32236 58.564868 l
238.725284 58.177974 l
238.855172 58.059599 l
239.569555 57.959582 l
240.024162 57.886506 l
243.790908 57.650537 l
246.128888 57.552882 l
246.518552 57.523355 l
248.077205 57.474786 l
248.272037 57.395385 l
251.714064 57.357741 l
251.843951 57.191704 l
256.000361 57.073762 l
256.779688 57.062197 l
263.533853 56.957201 l
263.728685 56.872477 l
285.225115 56.762446 l
286.199273 56.753941 l
296.005802 56.62264 l
296.850073 56.54308 l
297.044904 56.444907 l
298.668502 56.318465 l
299.123109 56.291857 l
301.461089 56.221232 l
301.655921 56.145173 l
302.695023 56.101857 l
302.824911 55.975433 l
306.461769 55.753228 l
309.319301 55.64562 l
309.773908 55.638111 l
309.903796 55.445939 l
312.566496 55.334967 l
318.606278 55.309237 l
318.736166 55.094585 l
321.983361 54.993998 l
322.113249 54.821158 l
324.646061 54.738988 l
324.840893 54.644635 l
328.867414 54.53594 l
331.205395 54.504209 l
342.96024 54.438033 l
343.155072 54.374496 l
348.675303 54.264184 l
348.870135 54.211673 l
362.053746 54.133862 l
362.248578 54.048912 l
365.430829 54.016703 l
365.62566 53.919594 l
398.487273 53.83467 l
398.487273 53.83467 l
stroke
grestore
1.000 setlinewidth
0 setlinejoin
0 setlinecap
gsave
357.1 266.1 57.6 38.02 clipbox
/o {
gsave
newpath
translate
1.0 setlinewidth
0 setlinejoin
0 setlinecap
-3 -3 m
3 -3 l
3 3 l
-3 3 l
cl

gsave
1.000 0.498 0.055 setrgbcolor
fill
grestore
stroke
grestore
} bind def
73.8327 292.032 o
120.203 89.7288 o
166.573 63.0539 o
212.943 59.7817 o
259.312 57.0487 o
305.682 55.7737 o
352.052 54.1916 o
398.422 53.8347 o
grestore
0.800 setlinewidth
2 setlinecap
[] 0 setdash
0.000 setgray
gsave
57.6 38.016 m
57.6 304.128 l
stroke
grestore
gsave
414.72 38.016 m
414.72 304.128 l
stroke
grestore
gsave
57.6 38.016 m
414.72 38.016 l
stroke
grestore
gsave
57.6 304.128 m
414.72 304.128 l
stroke
grestore
1.000 setlinewidth
0 setlinecap
0.800 setgray
gsave
348.72 265.456125 m
407.72 265.456125 l
409.053333 265.456125 409.72 266.122792 409.72 267.456125 c
409.72 297.128 l
409.72 298.461333 409.053333 299.128 407.72 299.128 c
348.72 299.128 l
347.386667 299.128 346.72 298.461333 346.72 297.128 c
346.72 267.456125 l
346.72 266.122792 347.386667 265.456125 348.72 265.456125 c
cl
gsave
1.000 setgray
fill
grestore
stroke
grestore
1.500 setlinewidth
1 setlinejoin
2 setlinecap
[] 0 setdash
0.122 0.467 0.706 setrgbcolor
gsave
350.72 291.03425 m
370.72 291.03425 l
stroke
grestore
1.000 setlinewidth
0 setlinecap
gsave
/o {
gsave
newpath
translate
1.0 setlinewidth
1 setlinejoin
0 setlinecap
0 -3 m
0.795609 -3 1.55874 -2.683901 2.12132 -2.12132 c
2.683901 -1.55874 3 -0.795609 3 0 c
3 0.795609 2.683901 1.55874 2.12132 2.12132 c
1.55874 2.683901 0.795609 3 0 3 c
-0.795609 3 -1.55874 2.683901 -2.12132 2.12132 c
-2.683901 1.55874 -3 0.795609 -3 0 c
-3 -0.795609 -2.683901 -1.55874 -2.12132 -2.12132 c
-1.55874 -2.683901 -0.795609 -3 0 -3 c
cl

gsave
0.122 0.467 0.706 setrgbcolor
fill
grestore
stroke
grestore
} bind def
360.72 291.034 o
grestore
0.000 setgray
gsave
378.720000 287.534250 translate
0.000000 rotate
/DejaVuSans-Oblique findfont
10.0 scalefont
setfont
0.000000 0.578125 moveto
/A glyphshow

6.840820 0.578125 moveto
/B glyphshow

13.701172 0.578125 moveto
/C glyphshow


grestore
1.500 setlinewidth
2 setlinecap
1.000 0.498 0.055 setrgbcolor
gsave
350.72 275.03425 m
370.72 275.03425 l
stroke
grestore
1.000 setlinewidth
0 setlinejoin
0 setlinecap
gsave
/o {
gsave
newpath
translate
1.0 setlinewidth
0 setlinejoin
0 setlinecap
-3 -3 m
3 -3 l
3 3 l
-3 3 l
cl

gsave
1.000 0.498 0.055 setrgbcolor
fill
grestore
stroke
grestore
} bind def
360.72 275.034 o
grestore
0.000 setgray
gsave
378.720000 271.534250 translate
0.000000 rotate
/DejaVuSans-Oblique findfont
10.0 scalefont
setfont
0.000000 0.856250 moveto
/A glyphshow

6.840820 0.856250 moveto
/B glyphshow

13.701172 0.856250 moveto
/C glyphshow

/DejaVuSans-Oblique findfont
7.0 scalefont
setfont
21.403646 4.684375 moveto
/d glyphshow


grestore

end
showpage
