%!PS-Adobe-3.0 EPSF-3.0
%%Title: plots/Rosenbrock0.eps
%%Creator: matplotlib version 2.2.2, http://matplotlib.org/
%%CreationDate: Sun Jul 29 15:46:11 2018
%%Orientation: portrait
%%BoundingBox: 75 223 536 568
%%EndComments
%%BeginProlog
/mpldict 9 dict def
mpldict begin
/m { moveto } bind def
/l { lineto } bind def
/r { rlineto } bind def
/c { curveto } bind def
/cl { closepath } bind def
/box {
m
1 index 0 r
0 exch r
neg 0 r
cl
} bind def
/clipbox {
box
clip
newpath
} bind def
%!PS-Adobe-3.0 Resource-Font
%%Title: DejaVu Sans
%%Copyright: Copyright (c) 2003 by Bitstream, Inc. All Rights Reserved. Copyright (c) 2006 by Tavmjong Bah. All Rights Reserved. DejaVu changes are in public domain 
%%Creator: Converted from TrueType to type 3 by PPR
25 dict begin
/_d{bind def}bind def
/_m{moveto}_d
/_l{lineto}_d
/_cl{closepath eofill}_d
/_c{curveto}_d
/_sc{7 -1 roll{setcachedevice}{pop pop pop pop pop pop}ifelse}_d
/_e{exec}_d
/FontName /DejaVuSans def
/PaintType 0 def
/FontMatrix[.001 0 0 .001 0 0]def
/FontBBox[-1021 -463 1793 1232]def
/FontType 3 def
/Encoding [ /parenleft /parenright /zero /one /two /three /four /five /I /a /e /i /n /o /r /t /minus ] def
/FontInfo 10 dict dup begin
/FamilyName (DejaVu Sans) def
/FullName (DejaVu Sans) def
/Notice (Copyright (c) 2003 by Bitstream, Inc. All Rights Reserved. Copyright (c) 2006 by Tavmjong Bah. All Rights Reserved. DejaVu changes are in public domain ) def
/Weight (Book) def
/Version (Version 2.35) def
/ItalicAngle 0.0 def
/isFixedPitch false def
/UnderlinePosition -130 def
/UnderlineThickness 90 def
end readonly def
/CharStrings 18 dict dup begin
/.notdef 0 def
/parenleft{390 0 86 -131 310 759 _sc
310 759 _m
266 683 234 609 213 536 _c
191 463 181 389 181 314 _c
181 238 191 164 213 91 _c
234 17 266 -56 310 -131 _c
232 -131 _l
183 -54 146 20 122 94 _c
98 168 86 241 86 314 _c
86 386 98 459 122 533 _c
146 607 182 682 232 759 _c
310 759 _l
_cl}_d
/parenright{390 0 80 -131 304 759 _sc
80 759 _m
158 759 _l
206 682 243 607 267 533 _c
291 459 304 386 304 314 _c
304 241 291 168 267 94 _c
243 20 206 -54 158 -131 _c
80 -131 _l
123 -56 155 17 177 91 _c
198 164 209 238 209 314 _c
209 389 198 463 177 536 _c
155 609 123 683 80 759 _c
_cl}_d
/zero{636 0 66 -13 570 742 _sc
318 664 _m
267 664 229 639 203 589 _c
177 539 165 464 165 364 _c
165 264 177 189 203 139 _c
229 89 267 64 318 64 _c
369 64 407 89 433 139 _c
458 189 471 264 471 364 _c
471 464 458 539 433 589 _c
407 639 369 664 318 664 _c
318 742 _m
399 742 461 709 505 645 _c
548 580 570 486 570 364 _c
570 241 548 147 505 83 _c
461 19 399 -13 318 -13 _c
236 -13 173 19 130 83 _c
87 147 66 241 66 364 _c
66 486 87 580 130 645 _c
173 709 236 742 318 742 _c
_cl}_d
/one{636 0 110 0 544 729 _sc
124 83 _m
285 83 _l
285 639 _l
110 604 _l
110 694 _l
284 729 _l
383 729 _l
383 83 _l
544 83 _l
544 0 _l
124 0 _l
124 83 _l
_cl}_d
/two{{636 0 73 0 536 742 _sc
192 83 _m
536 83 _l
536 0 _l
73 0 _l
73 83 _l
110 121 161 173 226 239 _c
290 304 331 346 348 365 _c
380 400 402 430 414 455 _c
426 479 433 504 433 528 _c
433 566 419 598 392 622 _c
365 646 330 659 286 659 _c
255 659 222 653 188 643 _c
154 632 117 616 78 594 _c
78 694 _l
118 710 155 722 189 730 _c
223 738 255 742 284 742 _c
}_e{359 742 419 723 464 685 _c
509 647 532 597 532 534 _c
532 504 526 475 515 449 _c
504 422 484 390 454 354 _c
446 344 420 317 376 272 _c
332 227 271 164 192 83 _c
_cl}_e}_d
/three{{636 0 76 -13 556 742 _sc
406 393 _m
453 383 490 362 516 330 _c
542 298 556 258 556 212 _c
556 140 531 84 482 45 _c
432 6 362 -13 271 -13 _c
240 -13 208 -10 176 -4 _c
144 1 110 10 76 22 _c
76 117 _l
103 101 133 89 166 81 _c
198 73 232 69 268 69 _c
330 69 377 81 409 105 _c
441 129 458 165 458 212 _c
458 254 443 288 413 312 _c
383 336 341 349 287 349 _c
}_e{202 349 _l
202 430 _l
291 430 _l
339 430 376 439 402 459 _c
428 478 441 506 441 543 _c
441 580 427 609 401 629 _c
374 649 336 659 287 659 _c
260 659 231 656 200 650 _c
169 644 135 635 98 623 _c
98 711 _l
135 721 170 729 203 734 _c
235 739 266 742 296 742 _c
370 742 429 725 473 691 _c
517 657 539 611 539 553 _c
539 513 527 479 504 451 _c
481 423 448 403 406 393 _c
_cl}_e}_d
/four{636 0 49 0 580 729 _sc
378 643 _m
129 254 _l
378 254 _l
378 643 _l
352 729 _m
476 729 _l
476 254 _l
580 254 _l
580 172 _l
476 172 _l
476 0 _l
378 0 _l
378 172 _l
49 172 _l
49 267 _l
352 729 _l
_cl}_d
/five{{636 0 77 -13 549 729 _sc
108 729 _m
495 729 _l
495 646 _l
198 646 _l
198 467 _l
212 472 227 476 241 478 _c
255 480 270 482 284 482 _c
365 482 429 459 477 415 _c
525 370 549 310 549 234 _c
549 155 524 94 475 51 _c
426 8 357 -13 269 -13 _c
238 -13 207 -10 175 -6 _c
143 -1 111 6 77 17 _c
77 116 _l
106 100 136 88 168 80 _c
199 72 232 69 267 69 _c
}_e{323 69 368 83 401 113 _c
433 143 450 183 450 234 _c
450 284 433 324 401 354 _c
368 384 323 399 267 399 _c
241 399 214 396 188 390 _c
162 384 135 375 108 363 _c
108 729 _l
_cl}_e}_d
/I{295 0 98 0 197 729 _sc
98 729 _m
197 729 _l
197 0 _l
98 0 _l
98 729 _l
_cl}_d
/a{{613 0 60 -13 522 560 _sc
343 275 _m
270 275 220 266 192 250 _c
164 233 150 205 150 165 _c
150 133 160 107 181 89 _c
202 70 231 61 267 61 _c
317 61 357 78 387 114 _c
417 149 432 196 432 255 _c
432 275 _l
343 275 _l
522 312 _m
522 0 _l
432 0 _l
432 83 _l
411 49 385 25 355 10 _c
325 -5 287 -13 243 -13 _c
187 -13 142 2 109 33 _c
76 64 60 106 60 159 _c
}_e{60 220 80 266 122 298 _c
163 329 224 345 306 345 _c
432 345 _l
432 354 _l
432 395 418 427 391 450 _c
364 472 326 484 277 484 _c
245 484 215 480 185 472 _c
155 464 127 453 100 439 _c
100 522 _l
132 534 164 544 195 550 _c
226 556 256 560 286 560 _c
365 560 424 539 463 498 _c
502 457 522 395 522 312 _c
_cl}_e}_d
/e{{615 0 55 -13 562 560 _sc
562 296 _m
562 252 _l
149 252 _l
153 190 171 142 205 110 _c
238 78 284 62 344 62 _c
378 62 412 66 444 74 _c
476 82 509 95 541 113 _c
541 28 _l
509 14 476 3 442 -3 _c
408 -9 373 -13 339 -13 _c
251 -13 182 12 131 62 _c
80 112 55 181 55 268 _c
55 357 79 428 127 481 _c
175 533 241 560 323 560 _c
397 560 455 536 498 489 _c
}_e{540 441 562 377 562 296 _c
472 322 _m
471 371 457 410 431 440 _c
404 469 368 484 324 484 _c
274 484 234 469 204 441 _c
174 413 156 373 152 322 _c
472 322 _l
_cl}_e}_d
/i{278 0 94 0 184 760 _sc
94 547 _m
184 547 _l
184 0 _l
94 0 _l
94 547 _l
94 760 _m
184 760 _l
184 646 _l
94 646 _l
94 760 _l
_cl}_d
/n{634 0 91 0 549 560 _sc
549 330 _m
549 0 _l
459 0 _l
459 327 _l
459 379 448 417 428 443 _c
408 469 378 482 338 482 _c
289 482 251 466 223 435 _c
195 404 181 362 181 309 _c
181 0 _l
91 0 _l
91 547 _l
181 547 _l
181 462 _l
202 494 227 519 257 535 _c
286 551 320 560 358 560 _c
420 560 468 540 500 501 _c
532 462 549 405 549 330 _c
_cl}_d
/o{612 0 55 -13 557 560 _sc
306 484 _m
258 484 220 465 192 427 _c
164 389 150 338 150 273 _c
150 207 163 156 191 118 _c
219 80 257 62 306 62 _c
354 62 392 80 420 118 _c
448 156 462 207 462 273 _c
462 337 448 389 420 427 _c
392 465 354 484 306 484 _c
306 560 _m
384 560 445 534 490 484 _c
534 433 557 363 557 273 _c
557 183 534 113 490 63 _c
445 12 384 -13 306 -13 _c
227 -13 165 12 121 63 _c
77 113 55 183 55 273 _c
55 363 77 433 121 484 _c
165 534 227 560 306 560 _c
_cl}_d
/r{411 0 91 0 411 560 _sc
411 463 _m
401 469 390 473 378 476 _c
366 478 353 480 339 480 _c
288 480 249 463 222 430 _c
194 397 181 350 181 288 _c
181 0 _l
91 0 _l
91 547 _l
181 547 _l
181 462 _l
199 495 224 520 254 536 _c
284 552 321 560 365 560 _c
371 560 378 559 386 559 _c
393 558 401 557 411 555 _c
411 463 _l
_cl}_d
/t{392 0 27 0 368 702 _sc
183 702 _m
183 547 _l
368 547 _l
368 477 _l
183 477 _l
183 180 _l
183 135 189 106 201 94 _c
213 81 238 75 276 75 _c
368 75 _l
368 0 _l
276 0 _l
206 0 158 13 132 39 _c
106 65 93 112 93 180 _c
93 477 _l
27 477 _l
27 547 _l
93 547 _l
93 702 _l
183 702 _l
_cl}_d
/minus{838 0 106 272 732 355 _sc
106 355 _m
732 355 _l
732 272 _l
106 272 _l
106 355 _l
_cl}_d
end readonly def

/BuildGlyph
 {exch begin
 CharStrings exch
 2 copy known not{pop /.notdef}if
 true 3 1 roll get exec
 end}_d

/BuildChar {
 1 index /Encoding get exch get
 1 index /BuildGlyph get exec
}_d

FontName currentdict end definefont pop
%!PS-Adobe-3.0 Resource-Font
%%Title: DejaVu Sans Oblique
%%Copyright: Copyright (c) 2003 by Bitstream, Inc. All Rights Reserved. Copyright (c) 2006 by Tavmjong Bah. All Rights Reserved. DejaVu changes are in public domain 
%%Creator: Converted from TrueType to type 3 by PPR
25 dict begin
/_d{bind def}bind def
/_m{moveto}_d
/_l{lineto}_d
/_cl{closepath eofill}_d
/_c{curveto}_d
/_sc{7 -1 roll{setcachedevice}{pop pop pop pop pop pop}ifelse}_d
/_e{exec}_d
/FontName /DejaVuSans-Oblique def
/PaintType 0 def
/FontMatrix[.001 0 0 .001 0 0]def
/FontBBox[-1016 -350 1659 1068]def
/FontType 3 def
/Encoding [ /A /B /C /X /b /d /e /f /g /l /o /s /t ] def
/FontInfo 10 dict dup begin
/FamilyName (DejaVu Sans) def
/FullName (DejaVu Sans Oblique) def
/Notice (Copyright (c) 2003 by Bitstream, Inc. All Rights Reserved. Copyright (c) 2006 by Tavmjong Bah. All Rights Reserved. DejaVu changes are in public domain ) def
/Weight (Oblique) def
/Version (Version 2.35) def
/ItalicAngle -11.0 def
/isFixedPitch false def
/UnderlinePosition -130 def
/UnderlineThickness 90 def
end readonly def
/CharStrings 14 dict dup begin
/.notdef 0 def
/A{684 0 -52 0 615 729 _sc
368 729 _m
480 729 _l
615 0 _l
512 0 _l
482 187 _l
154 187 _l
51 0 _l
-52 0 _l
368 729 _l
404 632 _m
199 269 _l
467 269 _l
404 632 _l
_cl}_d
/B{{686 0 27 0 625 729 _sc
169 729 _m
421 729 _l
489 729 540 716 574 691 _c
608 665 625 627 625 576 _c
625 529 610 489 581 455 _c
552 421 514 400 467 393 _c
507 383 537 366 557 340 _c
577 314 588 280 588 238 _c
588 164 560 106 506 64 _c
452 21 378 0 284 0 _c
27 0 _l
169 729 _l
193 348 _m
141 81 _l
300 81 _l
359 81 405 94 437 122 _c
469 149 486 188 486 238 _c
}_e{486 276 475 303 454 321 _c
432 339 398 348 351 348 _c
193 348 _l
251 648 _m
208 428 _l
355 428 _l
407 428 448 439 478 462 _c
507 485 522 517 522 557 _c
522 588 512 611 492 626 _c
472 640 440 648 397 648 _c
251 648 _l
_cl}_e}_d
/C{{698 0 42 -13 695 742 _sc
695 673 _m
675 569 _l
643 600 610 623 575 639 _c
540 654 502 662 462 662 _c
406 662 357 648 315 622 _c
273 595 236 554 206 500 _c
186 464 171 427 161 388 _c
151 349 146 310 146 270 _c
146 203 163 152 197 118 _c
231 83 281 66 347 66 _c
392 66 435 73 477 87 _c
519 101 559 123 599 153 _c
576 36 _l
537 19 498 7 458 -1 _c
}_e{418 -9 379 -13 340 -13 _c
246 -13 173 12 121 62 _c
68 112 42 183 42 274 _c
42 332 52 389 72 445 _c
92 501 120 552 158 598 _c
198 647 243 683 294 707 _c
345 730 404 742 472 742 _c
514 742 553 736 590 725 _c
627 713 662 696 695 673 _c
_cl}_e}_d
/X{685 0 -42 0 703 729 _sc
137 729 _m
237 729 _l
362 466 _l
588 729 _l
703 729 _l
403 381 _l
584 0 _l
485 0 _l
338 307 _l
72 0 _l
-42 0 _l
298 392 _l
137 729 _l
_cl}_d
/b{{635 0 36 -13 587 760 _sc
495 334 _m
495 381 484 418 462 445 _c
440 471 411 485 373 485 _c
345 485 319 478 295 464 _c
271 450 250 431 232 406 _c
213 378 198 347 187 311 _c
176 275 171 240 171 205 _c
171 160 181 125 203 99 _c
224 73 253 61 291 61 _c
319 61 345 67 369 81 _c
393 94 415 113 433 139 _c
451 165 466 196 478 232 _c
489 268 495 302 495 334 _c
216 464 _m
}_e{238 494 265 517 299 534 _c
332 551 367 560 404 560 _c
460 560 504 541 537 503 _c
570 465 587 414 587 350 _c
587 297 577 246 558 197 _c
538 147 511 103 475 65 _c
451 39 424 20 394 7 _c
363 -6 331 -13 298 -13 _c
262 -13 232 -5 206 11 _c
180 27 158 51 142 83 _c
126 0 _l
36 0 _l
184 760 _l
274 760 _l
216 464 _l
_cl}_e}_d
/d{{635 0 46 -13 639 760 _sc
418 82 _m
394 50 365 27 332 11 _c
299 -5 263 -13 223 -13 _c
168 -13 125 5 93 42 _c
61 79 46 130 46 195 _c
46 249 55 300 75 349 _c
94 398 122 442 158 481 _c
182 507 209 526 239 540 _c
269 553 301 560 335 560 _c
370 560 401 551 428 534 _c
454 517 475 493 490 462 _c
549 760 _l
639 760 _l
491 0 _l
401 0 _l
418 82 _l
139 211 _m
}_e{139 163 149 126 171 100 _c
192 74 222 61 260 61 _c
288 61 314 67 338 81 _c
362 95 383 115 401 141 _c
420 168 435 200 446 236 _c
457 272 463 307 463 342 _c
463 387 452 422 431 448 _c
409 473 380 486 343 486 _c
314 486 287 479 263 466 _c
239 452 218 433 201 408 _c
182 381 167 350 156 314 _c
144 278 139 243 139 211 _c
_cl}_e}_d
/e{{615 0 46 -13 571 560 _sc
481 322 _m
481 327 482 332 483 338 _c
483 344 484 349 484 355 _c
484 395 472 426 449 449 _c
425 472 394 484 354 484 _c
309 484 270 469 236 441 _c
202 413 176 373 158 322 _c
481 322 _l
559 252 _m
141 252 _l
139 239 137 229 137 222 _c
136 215 136 209 136 204 _c
136 158 150 123 178 99 _c
206 74 245 62 296 62 _c
334 62 371 66 406 75 _c
}_e{441 83 474 96 504 114 _c
487 25 _l
454 11 420 2 386 -4 _c
352 -10 317 -13 282 -13 _c
206 -13 147 5 107 41 _c
66 77 46 128 46 195 _c
46 251 56 304 76 353 _c
96 402 126 446 166 485 _c
191 509 221 527 256 540 _c
291 553 328 560 368 560 _c
430 560 479 541 516 504 _c
552 467 571 417 571 355 _c
571 340 570 324 568 307 _c
566 289 563 271 559 252 _c
_cl}_e}_d
/f{352 0 68 0 478 760 _sc
478 760 _m
464 685 _l
378 685 _l
345 685 321 678 307 665 _c
292 652 281 629 274 595 _c
264 547 _l
412 547 _l
399 477 _l
251 477 _l
158 0 _l
68 0 _l
161 477 _l
75 477 _l
88 547 _l
174 547 _l
181 585 _l
193 649 215 695 246 721 _c
277 747 326 760 393 760 _c
478 760 _l
_cl}_d
/g{{635 0 32 -207 596 560 _sc
596 547 _m
503 68 _l
485 -24 450 -92 400 -138 _c
349 -184 281 -207 196 -207 _c
164 -207 134 -204 107 -200 _c
80 -195 55 -188 32 -178 _c
49 -91 _l
71 -105 94 -115 119 -122 _c
143 -129 170 -133 198 -133 _c
255 -133 302 -117 339 -86 _c
375 -55 399 -11 411 47 _c
419 88 _l
393 59 364 37 331 22 _c
298 7 262 0 224 0 _c
168 0 125 18 93 55 _c
}_e{61 91 46 142 46 206 _c
46 256 55 306 75 354 _c
94 402 121 445 156 483 _c
178 507 205 526 236 540 _c
267 553 299 560 333 560 _c
369 560 401 551 429 534 _c
456 517 476 493 490 462 _c
506 547 _l
596 547 _l
461 346 _m
461 390 450 425 429 449 _c
408 473 379 485 341 485 _c
317 485 294 480 273 471 _c
251 461 233 448 218 431 _c
193 403 174 370 160 332 _c
}_e{146 294 139 255 139 215 _c
139 169 149 135 170 111 _c
191 87 221 75 261 75 _c
318 75 366 100 404 152 _c
442 204 461 268 461 346 _c
_cl}_e}_d
/l{278 0 35 0 273 760 _sc
183 760 _m
273 760 _l
125 0 _l
35 0 _l
183 760 _l
_cl}_d
/o{{612 0 46 -13 566 560 _sc
254 -13 _m
190 -13 139 6 102 45 _c
64 84 46 138 46 207 _c
46 247 52 287 65 328 _c
77 369 94 404 115 432 _c
147 476 183 508 223 529 _c
263 549 308 560 358 560 _c
420 560 470 540 508 502 _c
546 463 566 412 566 350 _c
566 306 559 263 547 220 _c
534 177 517 142 497 114 _c
465 70 429 37 389 17 _c
349 -3 304 -13 254 -13 _c
139 210 _m
}_e{139 160 149 123 170 99 _c
190 74 222 62 264 62 _c
324 62 373 88 413 141 _c
453 193 473 260 473 341 _c
473 388 462 424 441 448 _c
420 472 389 484 348 484 _c
314 484 283 476 257 460 _c
231 444 207 420 187 388 _c
171 364 159 336 151 305 _c
143 274 139 242 139 210 _c
_cl}_e}_d
/s{{521 0 11 -13 500 560 _sc
500 531 _m
483 446 _l
459 458 433 468 407 475 _c
381 481 354 485 326 485 _c
278 485 241 477 214 461 _c
187 445 174 423 174 395 _c
174 363 205 338 269 321 _c
273 319 277 318 279 318 _c
308 309 _l
368 292 408 274 428 256 _c
448 238 458 213 458 182 _c
458 124 435 77 389 41 _c
343 5 282 -13 208 -13 _c
179 -13 149 -10 117 -5 _c
}_e{85 0 49 8 11 20 _c
29 113 _l
61 95 94 82 126 74 _c
158 65 188 61 218 61 _c
262 61 297 70 325 89 _c
352 108 366 132 366 161 _c
366 192 330 217 258 237 _c
249 239 _l
218 247 _l
172 259 138 274 117 294 _c
96 314 86 339 86 370 _c
86 428 107 475 151 509 _c
195 543 254 560 330 560 _c
360 560 389 557 417 552 _c
445 547 472 540 500 531 _c
_cl}_e}_d
/t{{392 0 64 0 423 702 _sc
423 547 _m
409 477 _l
230 477 _l
172 180 _l
170 169 168 160 167 152 _c
166 144 166 139 166 135 _c
166 114 172 99 185 89 _c
197 79 217 75 245 75 _c
336 75 _l
321 0 _l
235 0 _l
181 0 141 10 115 31 _c
89 52 76 84 76 126 _c
76 133 76 141 77 150 _c
78 159 80 169 82 180 _c
140 477 _l
64 477 _l
78 547 _l
153 547 _l
183 702 _l
}_e{273 702 _l
243 547 _l
423 547 _l
_cl}_e}_d
end readonly def

/BuildGlyph
 {exch begin
 CharStrings exch
 2 copy known not{pop /.notdef}if
 true 3 1 roll get exec
 end}_d

/BuildChar {
 1 index /Encoding get exch get
 1 index /BuildGlyph get exec
}_d

FontName currentdict end definefont pop
end
%%EndProlog
mpldict begin
75.6 223.2 translate
460.8 345.6 0 0 clipbox
gsave
0 0 m
460.8 0 l
460.8 345.6 l
0 345.6 l
cl
1.000 setgray
fill
grestore
gsave
57.6 38.016 m
414.72 38.016 l
414.72 304.128 l
57.6 304.128 l
cl
1.000 setgray
fill
grestore
0.800 setlinewidth
1 setlinejoin
0 setlinecap
[] 0 setdash
0.000 setgray
gsave
/o {
gsave
newpath
translate
0.8 setlinewidth
1 setlinejoin
0 setlinecap
0 0 m
0 -3.5 l

gsave
0.000 setgray
fill
grestore
stroke
grestore
} bind def
73.8327 38.016 o
grestore
/DejaVuSans findfont
10.000 scalefont
setfont
gsave
70.653040 23.422250 translate
0.000000 rotate
0.000000 0.000000 m /zero glyphshow
grestore
gsave
/o {
gsave
newpath
translate
0.8 setlinewidth
1 setlinejoin
0 setlinecap
0 0 m
0 -3.5 l

gsave
0.000 setgray
fill
grestore
stroke
grestore
} bind def
138.777 38.016 o
grestore
gsave
126.057875 23.422250 translate
0.000000 rotate
0.000000 0.000000 m /one glyphshow
6.362305 0.000000 m /zero glyphshow
12.724609 0.000000 m /zero glyphshow
19.086914 0.000000 m /zero glyphshow
grestore
gsave
/o {
gsave
newpath
translate
0.8 setlinewidth
1 setlinejoin
0 setlinecap
0 0 m
0 -3.5 l

gsave
0.000 setgray
fill
grestore
stroke
grestore
} bind def
203.721 38.016 o
grestore
gsave
191.001773 23.422250 translate
0.000000 rotate
0.000000 0.000000 m /two glyphshow
6.362305 0.000000 m /zero glyphshow
12.724609 0.000000 m /zero glyphshow
19.086914 0.000000 m /zero glyphshow
grestore
gsave
/o {
gsave
newpath
translate
0.8 setlinewidth
1 setlinejoin
0 setlinecap
0 0 m
0 -3.5 l

gsave
0.000 setgray
fill
grestore
stroke
grestore
} bind def
268.664 38.016 o
grestore
gsave
255.945671 23.422250 translate
0.000000 rotate
0.000000 0.000000 m /three glyphshow
6.362305 0.000000 m /zero glyphshow
12.724609 0.000000 m /zero glyphshow
19.086914 0.000000 m /zero glyphshow
grestore
gsave
/o {
gsave
newpath
translate
0.8 setlinewidth
1 setlinejoin
0 setlinecap
0 0 m
0 -3.5 l

gsave
0.000 setgray
fill
grestore
stroke
grestore
} bind def
333.608 38.016 o
grestore
gsave
320.889569 23.422250 translate
0.000000 rotate
0.000000 0.000000 m /four glyphshow
6.362305 0.000000 m /zero glyphshow
12.724609 0.000000 m /zero glyphshow
19.086914 0.000000 m /zero glyphshow
grestore
gsave
/o {
gsave
newpath
translate
0.8 setlinewidth
1 setlinejoin
0 setlinecap
0 0 m
0 -3.5 l

gsave
0.000 setgray
fill
grestore
stroke
grestore
} bind def
398.552 38.016 o
grestore
gsave
385.833467 23.422250 translate
0.000000 rotate
0.000000 0.000000 m /five glyphshow
6.362305 0.000000 m /zero glyphshow
12.724609 0.000000 m /zero glyphshow
19.086914 0.000000 m /zero glyphshow
grestore
/DejaVuSans findfont
14.000 scalefont
setfont
gsave
206.480312 6.703500 translate
0.000000 rotate
0.000000 0.000000 m /I glyphshow
4.128906 0.000000 m /t glyphshow
9.618164 0.000000 m /e glyphshow
18.231445 0.000000 m /r glyphshow
23.987305 0.000000 m /a glyphshow
32.566406 0.000000 m /t glyphshow
38.055664 0.000000 m /i glyphshow
41.945312 0.000000 m /o glyphshow
50.510742 0.000000 m /n glyphshow
grestore
gsave
/o {
gsave
newpath
translate
0.8 setlinewidth
1 setlinejoin
0 setlinecap
0 0 m
-3.5 0 l

gsave
0.000 setgray
fill
grestore
stroke
grestore
} bind def
57.6 71.7782 o
grestore
/DejaVuSans findfont
10.000 scalefont
setfont
gsave
35.865625 67.981296 translate
0.000000 rotate
0.000000 0.000000 m /minus glyphshow
8.378906 0.000000 m /one glyphshow
grestore
gsave
/o {
gsave
newpath
translate
0.8 setlinewidth
1 setlinejoin
0 setlinecap
0 0 m
-3.5 0 l

gsave
0.000 setgray
fill
grestore
stroke
grestore
} bind def
57.6 106.933 o
grestore
gsave
44.240625 103.136244 translate
0.000000 rotate
0.000000 0.000000 m /zero glyphshow
grestore
gsave
/o {
gsave
newpath
translate
0.8 setlinewidth
1 setlinejoin
0 setlinecap
0 0 m
-3.5 0 l

gsave
0.000 setgray
fill
grestore
stroke
grestore
} bind def
57.6 142.088 o
grestore
gsave
44.240625 138.291192 translate
0.000000 rotate
0.000000 0.000000 m /one glyphshow
grestore
gsave
/o {
gsave
newpath
translate
0.8 setlinewidth
1 setlinejoin
0 setlinecap
0 0 m
-3.5 0 l

gsave
0.000 setgray
fill
grestore
stroke
grestore
} bind def
57.6 177.243 o
grestore
gsave
44.240625 173.446140 translate
0.000000 rotate
0.000000 0.000000 m /two glyphshow
grestore
gsave
/o {
gsave
newpath
translate
0.8 setlinewidth
1 setlinejoin
0 setlinecap
0 0 m
-3.5 0 l

gsave
0.000 setgray
fill
grestore
stroke
grestore
} bind def
57.6 212.398 o
grestore
gsave
44.240625 208.601088 translate
0.000000 rotate
0.000000 0.000000 m /three glyphshow
grestore
gsave
/o {
gsave
newpath
translate
0.8 setlinewidth
1 setlinejoin
0 setlinecap
0 0 m
-3.5 0 l

gsave
0.000 setgray
fill
grestore
stroke
grestore
} bind def
57.6 247.553 o
grestore
gsave
44.240625 243.756036 translate
0.000000 rotate
0.000000 0.000000 m /four glyphshow
grestore
gsave
/o {
gsave
newpath
translate
0.8 setlinewidth
1 setlinejoin
0 setlinecap
0 0 m
-3.5 0 l

gsave
0.000 setgray
fill
grestore
stroke
grestore
} bind def
57.6 282.708 o
grestore
gsave
44.240625 278.910984 translate
0.000000 rotate
0.000000 0.000000 m /five glyphshow
grestore
gsave
28.865625 133.572000 translate
90.000000 rotate
/DejaVuSans-Oblique findfont
14.0 scalefont
setfont
0.000000 0.359375 moveto
/l glyphshow

3.889648 0.359375 moveto
/o glyphshow

12.455078 0.359375 moveto
/g glyphshow

21.341797 0.359375 moveto
/f glyphshow

/DejaVuSans findfont
9.8 scalefont
setfont
26.270508 -1.937500 moveto
/four glyphshow

/DejaVuSans findfont
14.0 scalefont
setfont
32.888379 0.359375 moveto
/parenleft glyphshow

/DejaVuSans-Oblique findfont
14.0 scalefont
setfont
38.350293 0.359375 moveto
/X glyphshow

/DejaVuSans-Oblique findfont
9.8 scalefont
setfont
47.941113 -1.937500 moveto
/b glyphshow

54.161816 -1.937500 moveto
/e glyphshow

60.191113 -1.937500 moveto
/s glyphshow

65.296875 -1.937500 moveto
/t glyphshow

/DejaVuSans findfont
14.0 scalefont
setfont
69.522168 0.359375 moveto
/parenright glyphshow


grestore
1.500 setlinewidth
2 setlinecap
0.122 0.467 0.706 setrgbcolor
gsave
357.1 266.1 57.6 38.02 clipbox
73.832727 292.032 m
75.326437 220.173231 l
75.391381 219.06796 l
75.586213 209.278229 l
75.651156 208.414588 l
75.910932 195.110343 l
76.105764 189.305073 l
76.300595 185.904647 l
76.560371 182.746015 l
77.079922 177.919315 l
77.599473 169.580519 l
77.924193 165.684812 l
78.638576 160.701492 l
79.158127 157.11374 l
79.482846 154.247056 l
79.677678 153.188732 l
80.262173 148.16564 l
80.392061 147.684096 l
81.950715 135.801264 l
82.21049 134.589668 l
82.470266 133.641216 l
82.665097 132.056963 l
82.859929 130.339326 l
83.314536 128.416765 l
83.574312 127.429103 l
83.769144 126.600489 l
84.093863 125.680609 l
84.288695 124.676649 l
84.54847 123.705506 l
85.522629 121.125339 l
85.717461 120.475413 l
85.977236 119.932814 l
86.3669 119.201184 l
86.626675 118.884789 l
86.951395 118.455636 l
87.21117 118.10856 l
87.600834 117.355465 l
87.730721 117.222489 l
88.055441 116.539101 l
88.639936 115.257289 l
88.899712 114.420502 l
89.289375 113.495725 l
89.354319 113.460205 l
89.484207 112.872592 l
89.614094 112.752139 l
90.523309 111.008378 l
90.653197 110.83345 l
91.302636 110.025867 l
91.562411 109.655148 l
91.757243 109.409435 l
91.822187 109.359022 l
92.017019 108.825233 l
92.471626 108.322122 l
92.601514 107.887985 l
92.666458 107.850113 l
92.926233 107.350205 l
93.056121 107.302675 l
93.445784 106.558782 l
93.900392 106.018622 l
93.965336 106.00703 l
94.225111 105.689981 l
94.484887 105.476758 l
95.329157 104.826365 l
95.523989 104.151778 l
95.653877 104.101793 l
95.913653 103.316528 l
96.238372 103.107577 l
96.498148 103.045965 l
96.757923 102.772073 l
96.887811 101.863344 l
97.53725 101.49817 l
97.797026 101.251836 l
97.926913 101.14012 l
98.121745 100.872873 l
98.446465 100.609568 l
98.511408 100.572004 l
98.641296 100.298679 l
99.355679 99.792607 l
99.87523 99.418951 l
100.914333 98.854763 l
101.109164 98.737617 l
101.174108 98.686409 l
101.303996 98.180398 l
101.36894 98.175215 l
101.498828 97.828205 l
101.628716 97.582389 l
101.823547 97.345431 l
102.148267 97.200193 l
102.667818 96.983098 l
103.641976 96.696488 l
103.966696 96.596291 l
104.161528 96.491546 l
104.551191 96.422699 l
104.681079 96.009617 l
105.070742 95.905173 l
105.395462 95.486451 l
105.655237 95.427481 l
105.915013 95.278224 l
106.239732 95.229304 l
107.019059 95.084 l
107.213891 95.045987 l
107.408722 94.705916 l
108.317937 94.611247 l
109.03232 94.503255 l
110.461086 94.407712 l
110.720861 94.314562 l
110.980637 94.245399 l
111.630076 94.174906 l
112.149627 93.751472 l
112.279515 93.725481 l
112.474347 93.55937 l
112.928954 93.464796 l
113.188729 93.339664 l
113.448505 93.281715 l
114.552551 93.145319 l
117.734802 93.031895 l
117.929634 92.926387 l
121.176829 92.819671 l
121.371661 92.751208 l
122.150987 92.679827 l
122.410763 92.630005 l
122.735482 92.556042 l
122.930314 92.467086 l
123.19009 92.359366 l
123.644697 92.274001 l
124.099304 92.256239 l
124.294136 92.11977 l
124.813687 92.088195 l
125.398182 92.082229 l
125.593014 91.695329 l
125.657958 91.671925 l
125.787846 91.322599 l
125.917733 91.315453 l
126.047621 90.546553 l
126.242453 90.436353 l
126.502228 90.330296 l
127.02178 89.353031 l
127.216611 89.300093 l
127.346499 89.006134 l
127.541331 88.926806 l
127.995938 88.783884 l
128.060882 88.783884 l
128.255714 88.575386 l
128.580433 88.501906 l
128.970097 88.195894 l
129.164928 88.116346 l
129.684479 87.882067 l
130.788526 87.786547 l
131.308077 87.604421 l
131.437965 87.549277 l
131.632796 87.355193 l
131.892572 87.305018 l
132.02246 86.85275 l
132.087404 86.852673 l
132.282235 86.577162 l
132.671899 86.518938 l
132.801787 86.282273 l
133.19145 86.127946 l
133.386282 85.941954 l
133.581113 85.825351 l
133.711001 85.785082 l
133.970777 84.901966 l
134.230552 84.866993 l
134.36044 84.208148 l
135.269655 84.104952 l
135.52943 84.042829 l
135.724262 83.889345 l
136.048981 83.836631 l
136.308757 83.557192 l
136.373701 83.554782 l
136.503589 83.313804 l
137.412803 83.195714 l
137.607635 83.121083 l
140.789886 83.029146 l
141.049662 82.987522 l
141.764044 82.883468 l
142.997979 82.731076 l
147.998659 82.643943 l
148.323378 82.43349 l
148.842929 82.339326 l
149.297537 82.231744 l
149.492368 82.145198 l
149.622256 81.832295 l
152.609675 81.149077 l
154.947656 81.044013 l
155.077544 80.5693 l
155.207431 80.568655 l
155.402263 80.30369 l
156.831029 80.205927 l
157.090804 80.169891 l
157.220692 79.919055 l
157.545412 79.868241 l
158.064963 79.78811 l
159.169009 79.74974 l
159.363841 78.982373 l
159.623616 78.835486 l
159.753504 78.775539 l
159.948336 78.424055 l
160.01328 78.400015 l
160.143168 77.810098 l
160.792607 77.743874 l
162.611036 77.639324 l
163.974858 77.269586 l
165.988118 77.17378 l
166.247894 77.142581 l
166.767445 77.053538 l
166.832389 76.955638 l
166.962277 76.499425 l
167.157109 76.499425 l
167.286996 76.323614 l
167.416884 76.308915 l
167.546772 75.751299 l
167.611716 75.751299 l
167.741604 75.487698 l
167.871491 75.48737 l
168.001379 75.267438 l
168.780706 75.164882 l
169.170369 75.137416 l
169.884752 75.069619 l
170.079584 74.798921 l
172.157789 74.696983 l
172.547452 74.675053 l
175.34004 74.602226 l
175.469927 74.467304 l
175.664759 74.395606 l
175.794647 74.137701 l
175.924535 74.130684 l
176.18431 73.624581 l
177.418244 73.454921 l
179.301617 73.404229 l
179.496449 73.32111 l
180.016 73.180941 l
180.795327 72.860203 l
180.990159 72.612379 l
181.18499 72.472728 l
182.483868 72.166611 l
182.613756 71.887762 l
182.938476 71.838013 l
183.068363 71.709767 l
183.198251 71.703054 l
183.393083 71.544849 l
183.717802 71.502267 l
183.912634 71.311642 l
184.237354 71.242383 l
184.367241 70.959536 l
185.081624 70.706582 l
185.796007 70.624673 l
185.990839 70.526205 l
189.497809 70.415145 l
197.031302 70.200996 l
197.226133 70.139063 l
203.200972 70.036841 l
203.915355 70.026191 l
208.656259 69.962896 l
208.851091 69.897938 l
210.214913 69.820407 l
210.409744 69.773102 l
210.66952 69.771991 l
210.864352 69.644957 l
215.020761 69.538318 l
216.059864 69.51933 l
217.293798 69.431668 l
217.423685 69.31205 l
224.307739 69.035143 l
224.82729 69.004469 l
225.022122 68.922459 l
226.515831 68.82408 l
226.775607 68.783181 l
229.373363 68.661635 l
229.763026 68.543849 l
232.750445 68.449062 l
232.945277 68.385417 l
235.543033 68.285638 l
235.737865 68.202882 l
235.802809 68.202882 l
235.99764 68.057304 l
236.776967 68.048444 l
236.906855 67.534696 l
243.466189 67.479528 l
243.66102 67.404041 l
243.98574 67.404041 l
244.115627 67.199008 l
244.570235 67.122321 l
244.700123 66.84358 l
244.959898 66.748813 l
245.089786 66.640465 l
245.479449 66.619688 l
245.674281 66.382113 l
246.973159 66.331988 l
247.167991 66.267015 l
247.297878 66.266999 l
247.427766 65.758826 l
247.752486 65.729028 l
253.467549 65.612367 l
256.584856 65.513436 l
257.883734 65.350609 l
259.702163 65.24846 l
259.896995 65.134288 l
261.32576 65.084872 l
261.455648 64.011552 l
262.364863 63.997188 l
262.494751 63.795867 l
263.14419 63.680612 l
263.339021 63.597502 l
263.468909 63.597502 l
263.598797 63.448942 l
264.31318 63.382486 l
264.508011 63.308196 l
265.677002 63.268459 l
266.001721 62.959061 l
268.079926 62.799955 l
268.274757 62.726232 l
268.859253 62.702971 l
269.573635 62.668396 l
269.703523 62.475384 l
271.392065 62.373665 l
271.65184 62.327561 l
274.509372 62.303434 l
274.639259 62.192353 l
274.899035 62.191527 l
275.028923 62.072993 l
284.3159 61.803779 l
284.445788 61.663756 l
285.614778 61.663672 l
285.744666 61.523774 l
287.757927 61.423785 l
287.952759 61.194964 l
289.446468 61.092125 l
290.160851 61.081196 l
292.498831 61.036485 l
292.563775 61.036485 l
292.758607 60.843371 l
299.772548 60.738498 l
299.96738 60.671342 l
301.201314 60.562825 l
301.98064 60.548008 l
303.409406 60.529435 l
303.539294 60.379035 l
304.318621 60.278588 l
305.942218 60.08935 l
316.073466 60.082438 l
316.203354 59.737782 l
317.242456 59.703909 l
317.437288 59.547422 l
317.762008 59.517655 l
319.905156 59.327985 l
320.099988 59.278093 l
323.80179 59.171138 l
324.061566 59.113335 l
324.711005 59.078397 l
324.905836 58.998021 l
325.165612 58.912322 l
325.815051 58.852335 l
326.009883 58.772585 l
327.178873 58.622005 l
327.438648 58.557913 l
329.322021 58.4492 l
329.581797 58.408507 l
331.78989 58.281364 l
332.179553 58.258454 l
336.79057 58.170924 l
336.920458 58.016143 l
338.219336 57.925924 l
338.479111 57.88541 l
341.46653 57.786507 l
341.726306 57.744703 l
345.233276 57.639856 l
345.752828 57.577923 l
359.45599 57.508241 l
359.650822 56.9754 l
359.975541 56.876804 l
360.170373 56.718054 l
360.365205 56.718054 l
360.560036 56.508183 l
360.819812 56.508183 l
360.9497 56.354371 l
361.534195 56.247988 l
362.962961 56.180309 l
363.222736 56.112893 l
363.352624 55.98596 l
364.78139 55.876834 l
366.080268 55.854571 l
378.61444 55.809488 l
378.809272 55.741551 l
378.939159 55.733109 l
379.133991 55.513983 l
379.653542 55.420683 l
380.367925 55.240515 l
380.692645 55.206775 l
380.887476 55.127412 l
389.525015 55.03749 l
389.719847 54.97104 l
389.849734 54.97104 l
389.979622 54.854183 l
390.758949 54.836518 l
390.888837 54.711772 l
393.291761 54.606686 l
394.200975 54.597609 l
398.487273 54.591312 l
398.487273 54.591312 l
stroke
grestore
1.000 setlinewidth
0 setlinecap
gsave
357.1 266.1 57.6 38.02 clipbox
/o {
gsave
newpath
translate
1.0 setlinewidth
1 setlinejoin
0 setlinecap
0 -3 m
0.795609 -3 1.55874 -2.683901 2.12132 -2.12132 c
2.683901 -1.55874 3 -0.795609 3 0 c
3 0.795609 2.683901 1.55874 2.12132 2.12132 c
1.55874 2.683901 0.795609 3 0 3 c
-0.795609 3 -1.55874 2.683901 -2.12132 2.12132 c
-2.683901 1.55874 -3 0.795609 -3 0 c
-3 -0.795609 -2.683901 -1.55874 -2.12132 -2.12132 c
-1.55874 -2.683901 -0.795609 -3 0 -3 c
cl

gsave
0.122 0.467 0.706 setrgbcolor
fill
grestore
stroke
grestore
} bind def
73.8327 292.032 o
120.203 92.8315 o
166.573 77.1305 o
212.943 69.6334 o
259.312 65.2495 o
305.682 60.1189 o
352.052 57.5316 o
398.422 54.5913 o
grestore
1.500 setlinewidth
2 setlinecap
1.000 0.498 0.055 setrgbcolor
gsave
357.1 266.1 57.6 38.02 clipbox
73.832727 291.798379 m
74.676998 235.73854 l
75.131605 214.908511 l
75.326437 206.28569 l
75.521269 199.641485 l
76.04082 185.754108 l
76.365539 179.912175 l
76.690259 174.005902 l
78.3788 159.032879 l
78.573632 158.055289 l
79.093183 152.374999 l
79.352959 151.150932 l
80.002398 143.403953 l
80.327117 140.907145 l
80.586893 138.380914 l
83.054761 122.384781 l
83.184649 121.867254 l
83.7042 118.758438 l
83.769144 118.638308 l
83.963975 116.996714 l
84.938134 113.607029 l
85.068022 112.663126 l
85.197909 112.375276 l
85.392741 111.779672 l
85.847348 111.024397 l
86.431843 109.116635 l
86.691619 108.762849 l
86.951395 108.063778 l
87.081282 107.872936 l
87.21117 106.375629 l
87.600834 105.256129 l
87.795665 104.791387 l
87.990497 104.099559 l
88.185329 103.770484 l
88.510048 102.92011 l
88.769824 102.381115 l
89.029599 101.637253 l
89.159487 101.475723 l
89.354319 100.781568 l
89.614094 100.426826 l
89.743982 100.27752 l
89.808926 100.215445 l
90.068702 99.573988 l
90.133646 99.55165 l
90.328477 98.964332 l
90.458365 98.880592 l
90.653197 98.500285 l
90.977916 98.218997 l
91.36758 96.522709 l
92.53657 95.268555 l
92.731402 94.997299 l
92.926233 94.948926 l
93.056121 94.702905 l
93.250953 94.664422 l
93.380841 93.849084 l
93.445784 93.838691 l
93.835448 92.821975 l
94.03028 92.701002 l
95.848709 91.005271 l
95.978596 90.972074 l
96.108484 90.49965 l
96.303316 90.418817 l
96.498148 90.320906 l
97.147587 90.162979 l
97.342418 89.873964 l
97.667138 89.753985 l
98.381521 89.58203 l
98.446465 89.342932 l
98.641296 88.225486 l
98.70624 88.225365 l
98.901072 88.042872 l
99.680399 87.909082 l
99.810286 87.635155 l
100.524669 87.533357 l
100.654557 87.286722 l
101.303996 87.113531 l
101.433884 86.728273 l
103.057481 86.101908 l
103.187369 83.778174 l
103.901752 83.475891 l
104.096584 83.199615 l
104.486247 83.087441 l
105.005798 82.970616 l
105.20063 82.80994 l
105.590293 82.705962 l
105.850069 82.614701 l
106.304676 82.571939 l
106.499508 82.462589 l
106.824227 82.447061 l
106.954115 81.699201 l
107.148947 81.64008 l
107.473666 81.534114 l
107.668498 81.442182 l
108.447825 81.250128 l
108.642657 81.147206 l
108.837488 81.140608 l
108.967376 80.617401 l
109.162208 80.529364 l
109.357039 80.254845 l
109.616815 79.935659 l
109.876591 79.796436 l
110.461086 79.567515 l
111.889851 79.461682 l
112.149627 79.401689 l
113.188729 79.291804 l
113.318617 79.268341 l
113.448505 79.141386 l
115.007159 79.027592 l
115.396822 78.949925 l
115.52671 78.377777 l
115.721541 78.274038 l
115.981317 78.086386 l
116.176149 77.967369 l
116.306036 77.952313 l
116.500868 77.75899 l
116.565812 77.750198 l
116.6957 77.46751 l
117.669858 77.274697 l
117.86469 77.21248 l
118.514129 77.093821 l
118.708961 76.998912 l
119.3584 76.884125 l
119.488287 76.692228 l
120.072783 76.584098 l
120.722222 76.410517 l
120.852109 76.159352 l
121.046941 76.04468 l
121.436604 75.959036 l
122.086043 75.882133 l
122.345819 75.81018 l
123.125146 75.71934 l
123.384921 75.636324 l
123.904473 75.552786 l
124.229192 75.517644 l
124.748743 75.411855 l
124.878631 75.224031 l
124.943575 75.223129 l
125.138407 75.009842 l
125.657958 74.75483 l
125.852789 74.584949 l
127.995938 74.472677 l
128.515489 74.372648 l
128.775265 74.313798 l
129.164928 74.242845 l
129.814367 74.182101 l
130.009199 74.103157 l
131.69774 73.965688 l
131.827628 73.641697 l
132.347179 73.551464 l
134.620216 73.346846 l
135.464486 73.054623 l
136.828308 72.951164 l
137.477747 72.893176 l
142.413483 72.81662 l
142.608315 72.712625 l
143.907193 72.470813 l
144.426744 71.762759 l
144.68652 71.761364 l
144.816408 71.486124 l
145.206071 71.319722 l
145.400903 71.2042 l
145.660678 71.145882 l
145.790566 70.191142 l
146.440005 70.039181 l
146.764725 69.978607 l
147.608995 69.848467 l
148.258434 69.767569 l
148.453266 69.125483 l
148.713042 69.067486 l
148.777985 69.067486 l
148.907873 68.953056 l
149.622256 68.886841 l
149.817088 68.772187 l
150.531471 68.71487 l
150.791246 68.48575 l
151.18091 68.291472 l
151.245854 68.265403 l
151.375741 67.925535 l
151.700461 67.91817 l
151.830349 67.77878 l
152.02518 67.754042 l
152.155068 67.455406 l
152.869451 67.359943 l
153.324058 67.178555 l
153.453946 66.962529 l
155.662039 66.734365 l
155.85687 66.665824 l
157.02586 66.579148 l
157.415524 66.175089 l
158.324738 66.044919 l
158.454626 65.829419 l
158.779346 65.745233 l
159.039121 65.574766 l
159.493729 65.465833 l
159.558672 65.463626 l
159.753504 65.32273 l
160.85755 65.257485 l
161.052382 65.161978 l
161.377102 65.144592 l
161.701821 64.672733 l
161.896653 64.615998 l
162.611036 64.503795 l
163.065643 64.388994 l
164.169689 64.317753 l
164.299577 64.152957 l
164.624296 64.069294 l
164.819128 63.972639 l
165.923174 63.959234 l
173.84633 63.861301 l
174.041162 63.548152 l
174.365881 63.453444 l
174.560713 63.379502 l
175.145208 63.376071 l
175.275096 62.827211 l
176.18431 62.790427 l
177.223413 62.691505 l
177.3533 62.42616 l
178.392403 62.416028 l
179.236674 62.307227 l
179.691281 62.216099 l
180.795327 62.130555 l
180.925215 61.668647 l
182.029261 61.569714 l
182.353981 61.489493 l
182.873532 61.48823 l
183.00342 61.366509 l
184.691961 61.337524 l
184.821849 61.180714 l
194.303658 61.080923 l
194.888153 60.982465 l
199.888833 60.876699 l
200.34344 60.858206 l
202.746365 60.773254 l
203.00614 60.739345 l
207.16255 60.62899 l
209.110867 60.441111 l
209.695362 60.420426 l
210.734464 60.294978 l
211.059183 60.244444 l
213.721883 60.13439 l
213.916715 60.076824 l
215.020761 60.05314 l
218.008181 60.034162 l
218.138068 59.774012 l
227.230214 59.739805 l
227.425046 59.641212 l
241.387984 59.563489 l
241.517872 59.277031 l
243.596076 59.203838 l
243.790908 59.139455 l
245.024842 59.052677 l
245.219674 58.895708 l
247.232935 58.85532 l
247.362822 58.51453 l
248.98642 58.443798 l
249.181252 58.370935 l
252.49339 58.342756 l
252.688222 58.246721 l
265.222394 58.15204 l
265.417226 58.030663 l
269.443748 57.945137 l
269.638579 57.899285 l
272.755886 57.836597 l
272.950718 57.745278 l
275.48353 57.655525 l
275.678362 57.607926 l
277.951398 57.605701 l
278.081286 57.405295 l
281.328481 57.27503 l
281.458369 57.066703 l
283.47163 56.972178 l
283.861293 56.946716 l
284.900395 56.855447 l
285.095227 56.808669 l
285.614778 56.805053 l
285.744666 56.649188 l
286.653881 56.625295 l
287.173432 56.544913 l
287.628039 56.342769 l
290.290739 56.33755 l
290.420627 56.222227 l
292.239056 56.222227 l
292.368944 55.55576 l
295.161531 55.450113 l
295.291419 55.211934 l
299.123109 55.054219 l
314.319981 54.930932 l
314.839532 54.839385 l
319.385605 54.757775 l
319.580437 54.710752 l
333.478431 54.609862 l
333.608319 53.952442 l
338.544055 53.926514 l
338.673943 53.808607 l
343.934399 53.723341 l
344.064286 53.599984 l
346.142491 53.591902 l
346.272379 53.471939 l
350.104069 53.423789 l
350.233957 52.966544 l
351.857554 52.952667 l
351.987442 52.359414 l
353.546095 52.311667 l
353.740927 52.247274 l
354.260478 52.231043 l
377.510394 52.122184 l
377.770169 52.079168 l
378.094889 51.986038 l
378.549496 51.955023 l
383.874896 51.799371 l
388.485912 51.705259 l
388.6158 50.817734 l
389.265239 50.817551 l
389.395127 50.675174 l
392.642322 50.604281 l
392.77221 50.39583 l
394.265919 50.354424 l
394.460751 50.264095 l
396.214236 50.205767 l
396.409068 50.129996 l
398.487273 50.112 l
398.487273 50.112 l
stroke
grestore
1.000 setlinewidth
0 setlinejoin
0 setlinecap
gsave
357.1 266.1 57.6 38.02 clipbox
/o {
gsave
newpath
translate
1.0 setlinewidth
0 setlinejoin
0 setlinecap
-3 -3 m
3 -3 l
3 3 l
-3 3 l
cl

gsave
1.000 0.498 0.055 setrgbcolor
fill
grestore
stroke
grestore
} bind def
73.8327 291.798 o
120.203 76.5588 o
166.573 63.9058 o
212.943 60.1496 o
259.312 58.244 o
305.682 54.998 o
352.052 52.3594 o
398.422 50.112 o
grestore
0.800 setlinewidth
2 setlinecap
[] 0 setdash
0.000 setgray
gsave
57.6 38.016 m
57.6 304.128 l
stroke
grestore
gsave
414.72 38.016 m
414.72 304.128 l
stroke
grestore
gsave
57.6 38.016 m
414.72 38.016 l
stroke
grestore
gsave
57.6 304.128 m
414.72 304.128 l
stroke
grestore
1.000 setlinewidth
0 setlinecap
0.800 setgray
gsave
348.72 265.456125 m
407.72 265.456125 l
409.053333 265.456125 409.72 266.122792 409.72 267.456125 c
409.72 297.128 l
409.72 298.461333 409.053333 299.128 407.72 299.128 c
348.72 299.128 l
347.386667 299.128 346.72 298.461333 346.72 297.128 c
346.72 267.456125 l
346.72 266.122792 347.386667 265.456125 348.72 265.456125 c
cl
gsave
1.000 setgray
fill
grestore
stroke
grestore
1.500 setlinewidth
1 setlinejoin
2 setlinecap
[] 0 setdash
0.122 0.467 0.706 setrgbcolor
gsave
350.72 291.03425 m
370.72 291.03425 l
stroke
grestore
1.000 setlinewidth
0 setlinecap
gsave
/o {
gsave
newpath
translate
1.0 setlinewidth
1 setlinejoin
0 setlinecap
0 -3 m
0.795609 -3 1.55874 -2.683901 2.12132 -2.12132 c
2.683901 -1.55874 3 -0.795609 3 0 c
3 0.795609 2.683901 1.55874 2.12132 2.12132 c
1.55874 2.683901 0.795609 3 0 3 c
-0.795609 3 -1.55874 2.683901 -2.12132 2.12132 c
-2.683901 1.55874 -3 0.795609 -3 0 c
-3 -0.795609 -2.683901 -1.55874 -2.12132 -2.12132 c
-1.55874 -2.683901 -0.795609 -3 0 -3 c
cl

gsave
0.122 0.467 0.706 setrgbcolor
fill
grestore
stroke
grestore
} bind def
360.72 291.034 o
grestore
0.000 setgray
gsave
378.720000 287.534250 translate
0.000000 rotate
/DejaVuSans-Oblique findfont
10.0 scalefont
setfont
0.000000 0.578125 moveto
/A glyphshow

6.840820 0.578125 moveto
/B glyphshow

13.701172 0.578125 moveto
/C glyphshow


grestore
1.500 setlinewidth
2 setlinecap
1.000 0.498 0.055 setrgbcolor
gsave
350.72 275.03425 m
370.72 275.03425 l
stroke
grestore
1.000 setlinewidth
0 setlinejoin
0 setlinecap
gsave
/o {
gsave
newpath
translate
1.0 setlinewidth
0 setlinejoin
0 setlinecap
-3 -3 m
3 -3 l
3 3 l
-3 3 l
cl

gsave
1.000 0.498 0.055 setrgbcolor
fill
grestore
stroke
grestore
} bind def
360.72 275.034 o
grestore
0.000 setgray
gsave
378.720000 271.534250 translate
0.000000 rotate
/DejaVuSans-Oblique findfont
10.0 scalefont
setfont
0.000000 0.856250 moveto
/A glyphshow

6.840820 0.856250 moveto
/B glyphshow

13.701172 0.856250 moveto
/C glyphshow

/DejaVuSans-Oblique findfont
7.0 scalefont
setfont
21.403646 4.684375 moveto
/d glyphshow


grestore

end
showpage
