%!PS-Adobe-3.0 EPSF-3.0
%%Title: plots/Schwefel2.eps
%%Creator: matplotlib version 2.2.2, http://matplotlib.org/
%%CreationDate: Mon Jul 30 08:30:13 2018
%%Orientation: portrait
%%BoundingBox: 75 223 536 568
%%EndComments
%%BeginProlog
/mpldict 9 dict def
mpldict begin
/m { moveto } bind def
/l { lineto } bind def
/r { rlineto } bind def
/c { curveto } bind def
/cl { closepath } bind def
/box {
m
1 index 0 r
0 exch r
neg 0 r
cl
} bind def
/clipbox {
box
clip
newpath
} bind def
%!PS-Adobe-3.0 Resource-Font
%%Title: DejaVu Sans
%%Copyright: Copyright (c) 2003 by Bitstream, Inc. All Rights Reserved. Copyright (c) 2006 by Tavmjong Bah. All Rights Reserved. DejaVu changes are in public domain 
%%Creator: Converted from TrueType to type 3 by PPR
25 dict begin
/_d{bind def}bind def
/_m{moveto}_d
/_l{lineto}_d
/_cl{closepath eofill}_d
/_c{curveto}_d
/_sc{7 -1 roll{setcachedevice}{pop pop pop pop pop pop}ifelse}_d
/_e{exec}_d
/FontName /DejaVuSans def
/PaintType 0 def
/FontMatrix[.001 0 0 .001 0 0]def
/FontBBox[-1021 -463 1793 1232]def
/FontType 3 def
/Encoding [ /parenleft /parenright /period /zero /one /two /three /four /five /I /a /e /i /n /o /r /t ] def
/FontInfo 10 dict dup begin
/FamilyName (DejaVu Sans) def
/FullName (DejaVu Sans) def
/Notice (Copyright (c) 2003 by Bitstream, Inc. All Rights Reserved. Copyright (c) 2006 by Tavmjong Bah. All Rights Reserved. DejaVu changes are in public domain ) def
/Weight (Book) def
/Version (Version 2.35) def
/ItalicAngle 0.0 def
/isFixedPitch false def
/UnderlinePosition -130 def
/UnderlineThickness 90 def
end readonly def
/CharStrings 18 dict dup begin
/.notdef 0 def
/parenleft{390 0 86 -131 310 759 _sc
310 759 _m
266 683 234 609 213 536 _c
191 463 181 389 181 314 _c
181 238 191 164 213 91 _c
234 17 266 -56 310 -131 _c
232 -131 _l
183 -54 146 20 122 94 _c
98 168 86 241 86 314 _c
86 386 98 459 122 533 _c
146 607 182 682 232 759 _c
310 759 _l
_cl}_d
/parenright{390 0 80 -131 304 759 _sc
80 759 _m
158 759 _l
206 682 243 607 267 533 _c
291 459 304 386 304 314 _c
304 241 291 168 267 94 _c
243 20 206 -54 158 -131 _c
80 -131 _l
123 -56 155 17 177 91 _c
198 164 209 238 209 314 _c
209 389 198 463 177 536 _c
155 609 123 683 80 759 _c
_cl}_d
/period{318 0 107 0 210 124 _sc
107 124 _m
210 124 _l
210 0 _l
107 0 _l
107 124 _l
_cl}_d
/zero{636 0 66 -13 570 742 _sc
318 664 _m
267 664 229 639 203 589 _c
177 539 165 464 165 364 _c
165 264 177 189 203 139 _c
229 89 267 64 318 64 _c
369 64 407 89 433 139 _c
458 189 471 264 471 364 _c
471 464 458 539 433 589 _c
407 639 369 664 318 664 _c
318 742 _m
399 742 461 709 505 645 _c
548 580 570 486 570 364 _c
570 241 548 147 505 83 _c
461 19 399 -13 318 -13 _c
236 -13 173 19 130 83 _c
87 147 66 241 66 364 _c
66 486 87 580 130 645 _c
173 709 236 742 318 742 _c
_cl}_d
/one{636 0 110 0 544 729 _sc
124 83 _m
285 83 _l
285 639 _l
110 604 _l
110 694 _l
284 729 _l
383 729 _l
383 83 _l
544 83 _l
544 0 _l
124 0 _l
124 83 _l
_cl}_d
/two{{636 0 73 0 536 742 _sc
192 83 _m
536 83 _l
536 0 _l
73 0 _l
73 83 _l
110 121 161 173 226 239 _c
290 304 331 346 348 365 _c
380 400 402 430 414 455 _c
426 479 433 504 433 528 _c
433 566 419 598 392 622 _c
365 646 330 659 286 659 _c
255 659 222 653 188 643 _c
154 632 117 616 78 594 _c
78 694 _l
118 710 155 722 189 730 _c
223 738 255 742 284 742 _c
}_e{359 742 419 723 464 685 _c
509 647 532 597 532 534 _c
532 504 526 475 515 449 _c
504 422 484 390 454 354 _c
446 344 420 317 376 272 _c
332 227 271 164 192 83 _c
_cl}_e}_d
/three{{636 0 76 -13 556 742 _sc
406 393 _m
453 383 490 362 516 330 _c
542 298 556 258 556 212 _c
556 140 531 84 482 45 _c
432 6 362 -13 271 -13 _c
240 -13 208 -10 176 -4 _c
144 1 110 10 76 22 _c
76 117 _l
103 101 133 89 166 81 _c
198 73 232 69 268 69 _c
330 69 377 81 409 105 _c
441 129 458 165 458 212 _c
458 254 443 288 413 312 _c
383 336 341 349 287 349 _c
}_e{202 349 _l
202 430 _l
291 430 _l
339 430 376 439 402 459 _c
428 478 441 506 441 543 _c
441 580 427 609 401 629 _c
374 649 336 659 287 659 _c
260 659 231 656 200 650 _c
169 644 135 635 98 623 _c
98 711 _l
135 721 170 729 203 734 _c
235 739 266 742 296 742 _c
370 742 429 725 473 691 _c
517 657 539 611 539 553 _c
539 513 527 479 504 451 _c
481 423 448 403 406 393 _c
_cl}_e}_d
/four{636 0 49 0 580 729 _sc
378 643 _m
129 254 _l
378 254 _l
378 643 _l
352 729 _m
476 729 _l
476 254 _l
580 254 _l
580 172 _l
476 172 _l
476 0 _l
378 0 _l
378 172 _l
49 172 _l
49 267 _l
352 729 _l
_cl}_d
/five{{636 0 77 -13 549 729 _sc
108 729 _m
495 729 _l
495 646 _l
198 646 _l
198 467 _l
212 472 227 476 241 478 _c
255 480 270 482 284 482 _c
365 482 429 459 477 415 _c
525 370 549 310 549 234 _c
549 155 524 94 475 51 _c
426 8 357 -13 269 -13 _c
238 -13 207 -10 175 -6 _c
143 -1 111 6 77 17 _c
77 116 _l
106 100 136 88 168 80 _c
199 72 232 69 267 69 _c
}_e{323 69 368 83 401 113 _c
433 143 450 183 450 234 _c
450 284 433 324 401 354 _c
368 384 323 399 267 399 _c
241 399 214 396 188 390 _c
162 384 135 375 108 363 _c
108 729 _l
_cl}_e}_d
/I{295 0 98 0 197 729 _sc
98 729 _m
197 729 _l
197 0 _l
98 0 _l
98 729 _l
_cl}_d
/a{{613 0 60 -13 522 560 _sc
343 275 _m
270 275 220 266 192 250 _c
164 233 150 205 150 165 _c
150 133 160 107 181 89 _c
202 70 231 61 267 61 _c
317 61 357 78 387 114 _c
417 149 432 196 432 255 _c
432 275 _l
343 275 _l
522 312 _m
522 0 _l
432 0 _l
432 83 _l
411 49 385 25 355 10 _c
325 -5 287 -13 243 -13 _c
187 -13 142 2 109 33 _c
76 64 60 106 60 159 _c
}_e{60 220 80 266 122 298 _c
163 329 224 345 306 345 _c
432 345 _l
432 354 _l
432 395 418 427 391 450 _c
364 472 326 484 277 484 _c
245 484 215 480 185 472 _c
155 464 127 453 100 439 _c
100 522 _l
132 534 164 544 195 550 _c
226 556 256 560 286 560 _c
365 560 424 539 463 498 _c
502 457 522 395 522 312 _c
_cl}_e}_d
/e{{615 0 55 -13 562 560 _sc
562 296 _m
562 252 _l
149 252 _l
153 190 171 142 205 110 _c
238 78 284 62 344 62 _c
378 62 412 66 444 74 _c
476 82 509 95 541 113 _c
541 28 _l
509 14 476 3 442 -3 _c
408 -9 373 -13 339 -13 _c
251 -13 182 12 131 62 _c
80 112 55 181 55 268 _c
55 357 79 428 127 481 _c
175 533 241 560 323 560 _c
397 560 455 536 498 489 _c
}_e{540 441 562 377 562 296 _c
472 322 _m
471 371 457 410 431 440 _c
404 469 368 484 324 484 _c
274 484 234 469 204 441 _c
174 413 156 373 152 322 _c
472 322 _l
_cl}_e}_d
/i{278 0 94 0 184 760 _sc
94 547 _m
184 547 _l
184 0 _l
94 0 _l
94 547 _l
94 760 _m
184 760 _l
184 646 _l
94 646 _l
94 760 _l
_cl}_d
/n{634 0 91 0 549 560 _sc
549 330 _m
549 0 _l
459 0 _l
459 327 _l
459 379 448 417 428 443 _c
408 469 378 482 338 482 _c
289 482 251 466 223 435 _c
195 404 181 362 181 309 _c
181 0 _l
91 0 _l
91 547 _l
181 547 _l
181 462 _l
202 494 227 519 257 535 _c
286 551 320 560 358 560 _c
420 560 468 540 500 501 _c
532 462 549 405 549 330 _c
_cl}_d
/o{612 0 55 -13 557 560 _sc
306 484 _m
258 484 220 465 192 427 _c
164 389 150 338 150 273 _c
150 207 163 156 191 118 _c
219 80 257 62 306 62 _c
354 62 392 80 420 118 _c
448 156 462 207 462 273 _c
462 337 448 389 420 427 _c
392 465 354 484 306 484 _c
306 560 _m
384 560 445 534 490 484 _c
534 433 557 363 557 273 _c
557 183 534 113 490 63 _c
445 12 384 -13 306 -13 _c
227 -13 165 12 121 63 _c
77 113 55 183 55 273 _c
55 363 77 433 121 484 _c
165 534 227 560 306 560 _c
_cl}_d
/r{411 0 91 0 411 560 _sc
411 463 _m
401 469 390 473 378 476 _c
366 478 353 480 339 480 _c
288 480 249 463 222 430 _c
194 397 181 350 181 288 _c
181 0 _l
91 0 _l
91 547 _l
181 547 _l
181 462 _l
199 495 224 520 254 536 _c
284 552 321 560 365 560 _c
371 560 378 559 386 559 _c
393 558 401 557 411 555 _c
411 463 _l
_cl}_d
/t{392 0 27 0 368 702 _sc
183 702 _m
183 547 _l
368 547 _l
368 477 _l
183 477 _l
183 180 _l
183 135 189 106 201 94 _c
213 81 238 75 276 75 _c
368 75 _l
368 0 _l
276 0 _l
206 0 158 13 132 39 _c
106 65 93 112 93 180 _c
93 477 _l
27 477 _l
27 547 _l
93 547 _l
93 702 _l
183 702 _l
_cl}_d
end readonly def

/BuildGlyph
 {exch begin
 CharStrings exch
 2 copy known not{pop /.notdef}if
 true 3 1 roll get exec
 end}_d

/BuildChar {
 1 index /Encoding get exch get
 1 index /BuildGlyph get exec
}_d

FontName currentdict end definefont pop
%!PS-Adobe-3.0 Resource-Font
%%Title: DejaVu Sans Oblique
%%Copyright: Copyright (c) 2003 by Bitstream, Inc. All Rights Reserved. Copyright (c) 2006 by Tavmjong Bah. All Rights Reserved. DejaVu changes are in public domain 
%%Creator: Converted from TrueType to type 3 by PPR
25 dict begin
/_d{bind def}bind def
/_m{moveto}_d
/_l{lineto}_d
/_cl{closepath eofill}_d
/_c{curveto}_d
/_sc{7 -1 roll{setcachedevice}{pop pop pop pop pop pop}ifelse}_d
/_e{exec}_d
/FontName /DejaVuSans-Oblique def
/PaintType 0 def
/FontMatrix[.001 0 0 .001 0 0]def
/FontBBox[-1016 -350 1659 1068]def
/FontType 3 def
/Encoding [ /A /B /C /X /b /d /e /f /g /l /o /s /t ] def
/FontInfo 10 dict dup begin
/FamilyName (DejaVu Sans) def
/FullName (DejaVu Sans Oblique) def
/Notice (Copyright (c) 2003 by Bitstream, Inc. All Rights Reserved. Copyright (c) 2006 by Tavmjong Bah. All Rights Reserved. DejaVu changes are in public domain ) def
/Weight (Oblique) def
/Version (Version 2.35) def
/ItalicAngle -11.0 def
/isFixedPitch false def
/UnderlinePosition -130 def
/UnderlineThickness 90 def
end readonly def
/CharStrings 14 dict dup begin
/.notdef 0 def
/A{684 0 -52 0 615 729 _sc
368 729 _m
480 729 _l
615 0 _l
512 0 _l
482 187 _l
154 187 _l
51 0 _l
-52 0 _l
368 729 _l
404 632 _m
199 269 _l
467 269 _l
404 632 _l
_cl}_d
/B{{686 0 27 0 625 729 _sc
169 729 _m
421 729 _l
489 729 540 716 574 691 _c
608 665 625 627 625 576 _c
625 529 610 489 581 455 _c
552 421 514 400 467 393 _c
507 383 537 366 557 340 _c
577 314 588 280 588 238 _c
588 164 560 106 506 64 _c
452 21 378 0 284 0 _c
27 0 _l
169 729 _l
193 348 _m
141 81 _l
300 81 _l
359 81 405 94 437 122 _c
469 149 486 188 486 238 _c
}_e{486 276 475 303 454 321 _c
432 339 398 348 351 348 _c
193 348 _l
251 648 _m
208 428 _l
355 428 _l
407 428 448 439 478 462 _c
507 485 522 517 522 557 _c
522 588 512 611 492 626 _c
472 640 440 648 397 648 _c
251 648 _l
_cl}_e}_d
/C{{698 0 42 -13 695 742 _sc
695 673 _m
675 569 _l
643 600 610 623 575 639 _c
540 654 502 662 462 662 _c
406 662 357 648 315 622 _c
273 595 236 554 206 500 _c
186 464 171 427 161 388 _c
151 349 146 310 146 270 _c
146 203 163 152 197 118 _c
231 83 281 66 347 66 _c
392 66 435 73 477 87 _c
519 101 559 123 599 153 _c
576 36 _l
537 19 498 7 458 -1 _c
}_e{418 -9 379 -13 340 -13 _c
246 -13 173 12 121 62 _c
68 112 42 183 42 274 _c
42 332 52 389 72 445 _c
92 501 120 552 158 598 _c
198 647 243 683 294 707 _c
345 730 404 742 472 742 _c
514 742 553 736 590 725 _c
627 713 662 696 695 673 _c
_cl}_e}_d
/X{685 0 -42 0 703 729 _sc
137 729 _m
237 729 _l
362 466 _l
588 729 _l
703 729 _l
403 381 _l
584 0 _l
485 0 _l
338 307 _l
72 0 _l
-42 0 _l
298 392 _l
137 729 _l
_cl}_d
/b{{635 0 36 -13 587 760 _sc
495 334 _m
495 381 484 418 462 445 _c
440 471 411 485 373 485 _c
345 485 319 478 295 464 _c
271 450 250 431 232 406 _c
213 378 198 347 187 311 _c
176 275 171 240 171 205 _c
171 160 181 125 203 99 _c
224 73 253 61 291 61 _c
319 61 345 67 369 81 _c
393 94 415 113 433 139 _c
451 165 466 196 478 232 _c
489 268 495 302 495 334 _c
216 464 _m
}_e{238 494 265 517 299 534 _c
332 551 367 560 404 560 _c
460 560 504 541 537 503 _c
570 465 587 414 587 350 _c
587 297 577 246 558 197 _c
538 147 511 103 475 65 _c
451 39 424 20 394 7 _c
363 -6 331 -13 298 -13 _c
262 -13 232 -5 206 11 _c
180 27 158 51 142 83 _c
126 0 _l
36 0 _l
184 760 _l
274 760 _l
216 464 _l
_cl}_e}_d
/d{{635 0 46 -13 639 760 _sc
418 82 _m
394 50 365 27 332 11 _c
299 -5 263 -13 223 -13 _c
168 -13 125 5 93 42 _c
61 79 46 130 46 195 _c
46 249 55 300 75 349 _c
94 398 122 442 158 481 _c
182 507 209 526 239 540 _c
269 553 301 560 335 560 _c
370 560 401 551 428 534 _c
454 517 475 493 490 462 _c
549 760 _l
639 760 _l
491 0 _l
401 0 _l
418 82 _l
139 211 _m
}_e{139 163 149 126 171 100 _c
192 74 222 61 260 61 _c
288 61 314 67 338 81 _c
362 95 383 115 401 141 _c
420 168 435 200 446 236 _c
457 272 463 307 463 342 _c
463 387 452 422 431 448 _c
409 473 380 486 343 486 _c
314 486 287 479 263 466 _c
239 452 218 433 201 408 _c
182 381 167 350 156 314 _c
144 278 139 243 139 211 _c
_cl}_e}_d
/e{{615 0 46 -13 571 560 _sc
481 322 _m
481 327 482 332 483 338 _c
483 344 484 349 484 355 _c
484 395 472 426 449 449 _c
425 472 394 484 354 484 _c
309 484 270 469 236 441 _c
202 413 176 373 158 322 _c
481 322 _l
559 252 _m
141 252 _l
139 239 137 229 137 222 _c
136 215 136 209 136 204 _c
136 158 150 123 178 99 _c
206 74 245 62 296 62 _c
334 62 371 66 406 75 _c
}_e{441 83 474 96 504 114 _c
487 25 _l
454 11 420 2 386 -4 _c
352 -10 317 -13 282 -13 _c
206 -13 147 5 107 41 _c
66 77 46 128 46 195 _c
46 251 56 304 76 353 _c
96 402 126 446 166 485 _c
191 509 221 527 256 540 _c
291 553 328 560 368 560 _c
430 560 479 541 516 504 _c
552 467 571 417 571 355 _c
571 340 570 324 568 307 _c
566 289 563 271 559 252 _c
_cl}_e}_d
/f{352 0 68 0 478 760 _sc
478 760 _m
464 685 _l
378 685 _l
345 685 321 678 307 665 _c
292 652 281 629 274 595 _c
264 547 _l
412 547 _l
399 477 _l
251 477 _l
158 0 _l
68 0 _l
161 477 _l
75 477 _l
88 547 _l
174 547 _l
181 585 _l
193 649 215 695 246 721 _c
277 747 326 760 393 760 _c
478 760 _l
_cl}_d
/g{{635 0 32 -207 596 560 _sc
596 547 _m
503 68 _l
485 -24 450 -92 400 -138 _c
349 -184 281 -207 196 -207 _c
164 -207 134 -204 107 -200 _c
80 -195 55 -188 32 -178 _c
49 -91 _l
71 -105 94 -115 119 -122 _c
143 -129 170 -133 198 -133 _c
255 -133 302 -117 339 -86 _c
375 -55 399 -11 411 47 _c
419 88 _l
393 59 364 37 331 22 _c
298 7 262 0 224 0 _c
168 0 125 18 93 55 _c
}_e{61 91 46 142 46 206 _c
46 256 55 306 75 354 _c
94 402 121 445 156 483 _c
178 507 205 526 236 540 _c
267 553 299 560 333 560 _c
369 560 401 551 429 534 _c
456 517 476 493 490 462 _c
506 547 _l
596 547 _l
461 346 _m
461 390 450 425 429 449 _c
408 473 379 485 341 485 _c
317 485 294 480 273 471 _c
251 461 233 448 218 431 _c
193 403 174 370 160 332 _c
}_e{146 294 139 255 139 215 _c
139 169 149 135 170 111 _c
191 87 221 75 261 75 _c
318 75 366 100 404 152 _c
442 204 461 268 461 346 _c
_cl}_e}_d
/l{278 0 35 0 273 760 _sc
183 760 _m
273 760 _l
125 0 _l
35 0 _l
183 760 _l
_cl}_d
/o{{612 0 46 -13 566 560 _sc
254 -13 _m
190 -13 139 6 102 45 _c
64 84 46 138 46 207 _c
46 247 52 287 65 328 _c
77 369 94 404 115 432 _c
147 476 183 508 223 529 _c
263 549 308 560 358 560 _c
420 560 470 540 508 502 _c
546 463 566 412 566 350 _c
566 306 559 263 547 220 _c
534 177 517 142 497 114 _c
465 70 429 37 389 17 _c
349 -3 304 -13 254 -13 _c
139 210 _m
}_e{139 160 149 123 170 99 _c
190 74 222 62 264 62 _c
324 62 373 88 413 141 _c
453 193 473 260 473 341 _c
473 388 462 424 441 448 _c
420 472 389 484 348 484 _c
314 484 283 476 257 460 _c
231 444 207 420 187 388 _c
171 364 159 336 151 305 _c
143 274 139 242 139 210 _c
_cl}_e}_d
/s{{521 0 11 -13 500 560 _sc
500 531 _m
483 446 _l
459 458 433 468 407 475 _c
381 481 354 485 326 485 _c
278 485 241 477 214 461 _c
187 445 174 423 174 395 _c
174 363 205 338 269 321 _c
273 319 277 318 279 318 _c
308 309 _l
368 292 408 274 428 256 _c
448 238 458 213 458 182 _c
458 124 435 77 389 41 _c
343 5 282 -13 208 -13 _c
179 -13 149 -10 117 -5 _c
}_e{85 0 49 8 11 20 _c
29 113 _l
61 95 94 82 126 74 _c
158 65 188 61 218 61 _c
262 61 297 70 325 89 _c
352 108 366 132 366 161 _c
366 192 330 217 258 237 _c
249 239 _l
218 247 _l
172 259 138 274 117 294 _c
96 314 86 339 86 370 _c
86 428 107 475 151 509 _c
195 543 254 560 330 560 _c
360 560 389 557 417 552 _c
445 547 472 540 500 531 _c
_cl}_e}_d
/t{{392 0 64 0 423 702 _sc
423 547 _m
409 477 _l
230 477 _l
172 180 _l
170 169 168 160 167 152 _c
166 144 166 139 166 135 _c
166 114 172 99 185 89 _c
197 79 217 75 245 75 _c
336 75 _l
321 0 _l
235 0 _l
181 0 141 10 115 31 _c
89 52 76 84 76 126 _c
76 133 76 141 77 150 _c
78 159 80 169 82 180 _c
140 477 _l
64 477 _l
78 547 _l
153 547 _l
183 702 _l
}_e{273 702 _l
243 547 _l
423 547 _l
_cl}_e}_d
end readonly def

/BuildGlyph
 {exch begin
 CharStrings exch
 2 copy known not{pop /.notdef}if
 true 3 1 roll get exec
 end}_d

/BuildChar {
 1 index /Encoding get exch get
 1 index /BuildGlyph get exec
}_d

FontName currentdict end definefont pop
end
%%EndProlog
mpldict begin
75.6 223.2 translate
460.8 345.6 0 0 clipbox
gsave
0 0 m
460.8 0 l
460.8 345.6 l
0 345.6 l
cl
1.000 setgray
fill
grestore
gsave
57.6 38.016 m
414.72 38.016 l
414.72 304.128 l
57.6 304.128 l
cl
1.000 setgray
fill
grestore
0.800 setlinewidth
1 setlinejoin
0 setlinecap
[] 0 setdash
0.000 setgray
gsave
/o {
gsave
newpath
translate
0.8 setlinewidth
1 setlinejoin
0 setlinecap
0 0 m
0 -3.5 l

gsave
0.000 setgray
fill
grestore
stroke
grestore
} bind def
73.8327 38.016 o
grestore
/DejaVuSans findfont
10.000 scalefont
setfont
gsave
70.653040 23.422250 translate
0.000000 rotate
0.000000 0.000000 m /zero glyphshow
grestore
gsave
/o {
gsave
newpath
translate
0.8 setlinewidth
1 setlinejoin
0 setlinecap
0 0 m
0 -3.5 l

gsave
0.000 setgray
fill
grestore
stroke
grestore
} bind def
138.777 38.016 o
grestore
gsave
126.057875 23.422250 translate
0.000000 rotate
0.000000 0.000000 m /one glyphshow
6.362305 0.000000 m /zero glyphshow
12.724609 0.000000 m /zero glyphshow
19.086914 0.000000 m /zero glyphshow
grestore
gsave
/o {
gsave
newpath
translate
0.8 setlinewidth
1 setlinejoin
0 setlinecap
0 0 m
0 -3.5 l

gsave
0.000 setgray
fill
grestore
stroke
grestore
} bind def
203.721 38.016 o
grestore
gsave
191.001773 23.422250 translate
0.000000 rotate
0.000000 0.000000 m /two glyphshow
6.362305 0.000000 m /zero glyphshow
12.724609 0.000000 m /zero glyphshow
19.086914 0.000000 m /zero glyphshow
grestore
gsave
/o {
gsave
newpath
translate
0.8 setlinewidth
1 setlinejoin
0 setlinecap
0 0 m
0 -3.5 l

gsave
0.000 setgray
fill
grestore
stroke
grestore
} bind def
268.664 38.016 o
grestore
gsave
255.945671 23.422250 translate
0.000000 rotate
0.000000 0.000000 m /three glyphshow
6.362305 0.000000 m /zero glyphshow
12.724609 0.000000 m /zero glyphshow
19.086914 0.000000 m /zero glyphshow
grestore
gsave
/o {
gsave
newpath
translate
0.8 setlinewidth
1 setlinejoin
0 setlinecap
0 0 m
0 -3.5 l

gsave
0.000 setgray
fill
grestore
stroke
grestore
} bind def
333.608 38.016 o
grestore
gsave
320.889569 23.422250 translate
0.000000 rotate
0.000000 0.000000 m /four glyphshow
6.362305 0.000000 m /zero glyphshow
12.724609 0.000000 m /zero glyphshow
19.086914 0.000000 m /zero glyphshow
grestore
gsave
/o {
gsave
newpath
translate
0.8 setlinewidth
1 setlinejoin
0 setlinecap
0 0 m
0 -3.5 l

gsave
0.000 setgray
fill
grestore
stroke
grestore
} bind def
398.552 38.016 o
grestore
gsave
385.833467 23.422250 translate
0.000000 rotate
0.000000 0.000000 m /five glyphshow
6.362305 0.000000 m /zero glyphshow
12.724609 0.000000 m /zero glyphshow
19.086914 0.000000 m /zero glyphshow
grestore
/DejaVuSans findfont
14.000 scalefont
setfont
gsave
206.480312 6.703500 translate
0.000000 rotate
0.000000 0.000000 m /I glyphshow
4.128906 0.000000 m /t glyphshow
9.618164 0.000000 m /e glyphshow
18.231445 0.000000 m /r glyphshow
23.987305 0.000000 m /a glyphshow
32.566406 0.000000 m /t glyphshow
38.055664 0.000000 m /i glyphshow
41.945312 0.000000 m /o glyphshow
50.510742 0.000000 m /n glyphshow
grestore
gsave
/o {
gsave
newpath
translate
0.8 setlinewidth
1 setlinejoin
0 setlinecap
0 0 m
-3.5 0 l

gsave
0.000 setgray
fill
grestore
stroke
grestore
} bind def
57.6 56.187 o
grestore
/DejaVuSans findfont
10.000 scalefont
setfont
gsave
34.693750 52.390149 translate
0.000000 rotate
0.000000 0.000000 m /two glyphshow
6.362305 0.000000 m /period glyphshow
9.541016 0.000000 m /zero glyphshow
grestore
gsave
/o {
gsave
newpath
translate
0.8 setlinewidth
1 setlinejoin
0 setlinecap
0 0 m
-3.5 0 l

gsave
0.000 setgray
fill
grestore
stroke
grestore
} bind def
57.6 106.443 o
grestore
gsave
34.693750 102.645667 translate
0.000000 rotate
0.000000 0.000000 m /two glyphshow
6.362305 0.000000 m /period glyphshow
9.541016 0.000000 m /five glyphshow
grestore
gsave
/o {
gsave
newpath
translate
0.8 setlinewidth
1 setlinejoin
0 setlinecap
0 0 m
-3.5 0 l

gsave
0.000 setgray
fill
grestore
stroke
grestore
} bind def
57.6 156.698 o
grestore
gsave
34.693750 152.901185 translate
0.000000 rotate
0.000000 0.000000 m /three glyphshow
6.362305 0.000000 m /period glyphshow
9.541016 0.000000 m /zero glyphshow
grestore
gsave
/o {
gsave
newpath
translate
0.8 setlinewidth
1 setlinejoin
0 setlinecap
0 0 m
-3.5 0 l

gsave
0.000 setgray
fill
grestore
stroke
grestore
} bind def
57.6 206.954 o
grestore
gsave
34.693750 203.156702 translate
0.000000 rotate
0.000000 0.000000 m /three glyphshow
6.362305 0.000000 m /period glyphshow
9.541016 0.000000 m /five glyphshow
grestore
gsave
/o {
gsave
newpath
translate
0.8 setlinewidth
1 setlinejoin
0 setlinecap
0 0 m
-3.5 0 l

gsave
0.000 setgray
fill
grestore
stroke
grestore
} bind def
57.6 257.209 o
grestore
gsave
34.693750 253.412220 translate
0.000000 rotate
0.000000 0.000000 m /four glyphshow
6.362305 0.000000 m /period glyphshow
9.541016 0.000000 m /zero glyphshow
grestore
gsave
27.693750 133.572000 translate
90.000000 rotate
/DejaVuSans-Oblique findfont
14.0 scalefont
setfont
0.000000 0.359375 moveto
/l glyphshow

3.889648 0.359375 moveto
/o glyphshow

12.455078 0.359375 moveto
/g glyphshow

21.341797 0.359375 moveto
/f glyphshow

/DejaVuSans findfont
9.8 scalefont
setfont
26.270508 -1.937500 moveto
/five glyphshow

/DejaVuSans findfont
14.0 scalefont
setfont
32.888379 0.359375 moveto
/parenleft glyphshow

/DejaVuSans-Oblique findfont
14.0 scalefont
setfont
38.350293 0.359375 moveto
/X glyphshow

/DejaVuSans-Oblique findfont
9.8 scalefont
setfont
47.941113 -1.937500 moveto
/b glyphshow

54.161816 -1.937500 moveto
/e glyphshow

60.191113 -1.937500 moveto
/s glyphshow

65.296875 -1.937500 moveto
/t glyphshow

/DejaVuSans findfont
14.0 scalefont
setfont
69.522168 0.359375 moveto
/parenright glyphshow


grestore
1.500 setlinewidth
2 setlinecap
0.122 0.467 0.706 setrgbcolor
gsave
357.1 266.1 57.6 38.02 clipbox
73.832727 292.032 m
75.7161 282.993748 l
76.755203 278.705234 l
77.339698 276.54244 l
78.119025 274.061364 l
78.508688 272.8935 l
79.87251 268.785681 l
80.132285 267.983549 l
80.457005 267.24436 l
80.846668 266.03831 l
82.924873 261.186165 l
85.782404 255.313803 l
90.068702 247.391018 l
90.19859 247.270003 l
95.588933 238.876754 l
95.718821 238.784989 l
96.108484 238.050768 l
96.36826 237.820261 l
98.901072 234.060097 l
98.966016 234.03086 l
99.290735 233.495153 l
99.485567 233.293846 l
100.070062 232.451929 l
100.394782 231.906863 l
101.04422 231.142899 l
101.36894 230.843785 l
101.693659 230.436689 l
101.953435 230.097958 l
102.408042 229.578402 l
102.602874 229.397877 l
102.992537 229.023387 l
103.252313 228.638277 l
103.512089 228.438776 l
104.421303 227.364343 l
104.616135 226.928879 l
105.265574 226.12608 l
105.525349 225.775517 l
105.850069 225.367553 l
106.044901 225.100031 l
106.304676 224.750145 l
106.434564 224.620382 l
106.629396 224.404004 l
106.889171 224.109218 l
107.278835 223.650049 l
107.53861 223.34469 l
108.382881 222.515424 l
108.642657 222.326161 l
109.357039 221.672288 l
109.681759 221.203219 l
110.006478 220.709679 l
110.655917 220.070358 l
110.915693 219.699255 l
111.175469 219.439933 l
111.630076 218.883915 l
111.889851 218.574349 l
112.53929 217.670356 l
113.253673 217.069367 l
117.734802 212.517737 l
118.059522 212.305951 l
121.306717 209.536457 l
121.761324 208.932461 l
122.215931 208.62036 l
122.475707 208.299944 l
122.540651 208.278408 l
122.735482 208.005404 l
123.319977 207.55932 l
123.969416 206.956146 l
124.164248 206.782764 l
124.683799 206.366779 l
124.943575 206.259055 l
127.541331 204.265236 l
127.671219 204.162846 l
127.86605 203.934169 l
128.125826 203.75072 l
128.385601 203.472198 l
128.515489 203.444169 l
128.710321 203.252256 l
128.840209 203.214806 l
129.03504 202.911713 l
129.749423 202.453486 l
130.009199 202.159242 l
130.333918 201.89503 l
130.658638 201.709203 l
132.671899 200.015067 l
132.931674 199.657914 l
133.386282 199.365639 l
133.516169 199.259657 l
134.165608 198.954134 l
134.68516 198.720297 l
134.944935 198.435976 l
135.139767 198.237275 l
135.594374 197.919895 l
135.919094 197.696665 l
136.828308 197.173039 l
137.02314 196.913816 l
138.19213 196.331179 l
138.451906 196.164514 l
138.646737 196.074161 l
138.841569 195.927253 l
139.036401 195.84542 l
139.296176 195.665507 l
139.426064 195.582944 l
139.68584 195.307859 l
139.815728 195.200821 l
140.335279 194.837726 l
140.53011 194.716649 l
140.984718 194.411179 l
141.374381 194.204377 l
142.34854 193.509394 l
143.062922 193.003393 l
143.322698 192.882493 l
143.842249 192.415426 l
144.037081 192.189208 l
144.491688 191.969981 l
144.68652 191.887369 l
145.465847 191.492131 l
145.85551 191.257699 l
146.310117 191.152791 l
146.829668 190.816043 l
147.089444 190.694705 l
148.19349 190.098777 l
148.51821 189.96136 l
149.102705 189.605966 l
149.297537 189.526474 l
149.752144 189.240155 l
150.206751 189.068984 l
150.661358 188.83076 l
150.85619 188.642056 l
151.115966 188.461243 l
152.02518 188.060458 l
152.3499 187.735873 l
152.544731 187.602009 l
153.453946 186.868282 l
153.843609 186.636492 l
154.428105 186.458118 l
154.68788 186.145667 l
154.817768 185.960714 l
155.142487 185.828894 l
155.532151 185.588104 l
156.051702 185.3577 l
156.571253 185.097346 l
156.701141 185.077454 l
156.895973 184.880306 l
157.415524 184.358195 l
158.000019 184.123253 l
158.194851 183.936649 l
158.584514 183.75509 l
158.779346 183.633309 l
159.68856 183.106793 l
159.883392 182.787862 l
160.337999 182.567205 l
160.532831 182.508342 l
160.727663 182.400476 l
161.117326 182.259547 l
161.442046 182.21038 l
161.636877 182.071898 l
161.961597 181.968592 l
162.286316 181.768824 l
162.546092 181.664027 l
162.870811 181.477657 l
163.325419 181.381588 l
164.039801 180.752656 l
164.234633 180.632143 l
164.559353 180.459764 l
166.442726 179.576561 l
166.702501 179.408805 l
167.027221 179.281094 l
167.286996 179.10602 l
167.611716 179.027433 l
168.066323 178.717902 l
169.170369 178.239762 l
169.365201 177.96262 l
169.560033 177.861137 l
169.754864 177.76182 l
170.209472 177.636588 l
174.365881 175.011525 l
175.01532 174.491287 l
175.924535 173.86429 l
176.18431 173.522751 l
177.807908 172.640721 l
178.002739 172.443793 l
178.327459 172.240563 l
179.756225 171.523193 l
180.275776 171.433044 l
180.470608 171.323977 l
181.444766 170.785439 l
181.639598 170.618599 l
182.094205 170.522367 l
182.289037 170.425231 l
182.6787 170.328569 l
183.587915 169.662667 l
183.782746 169.436741 l
183.912634 169.325652 l
184.367241 169.095393 l
184.562073 168.99273 l
184.886793 168.826669 l
185.081624 168.725858 l
185.536232 168.360209 l
185.796007 168.352871 l
185.990839 168.17687 l
186.575334 168.084306 l
186.770166 168.021308 l
187.159829 167.981254 l
187.419605 167.74295 l
187.874212 167.61592 l
188.133988 167.482197 l
188.328819 167.375065 l
188.588595 167.071292 l
189.043202 166.979826 l
189.497809 166.588562 l
190.082304 166.452233 l
190.731743 166.162519 l
190.926575 166.092629 l
191.381182 165.864504 l
191.51107 165.674165 l
191.83579 165.635216 l
191.965677 165.471391 l
192.095565 165.398061 l
192.290397 165.275767 l
193.524331 164.820895 l
194.238714 164.303938 l
194.433546 164.270547 l
194.693321 164.097066 l
195.082985 163.928612 l
195.472648 163.522432 l
195.862311 163.247183 l
196.057143 163.228996 l
196.187031 163.101381 l
196.446806 163.046566 l
196.901414 162.585239 l
197.356021 162.474247 l
198.070404 162.17958 l
198.265236 161.731412 l
198.589955 161.611983 l
198.654899 161.611939 l
198.914675 161.282061 l
199.304338 161.138337 l
200.018721 160.933114 l
200.278496 160.630095 l
200.603216 160.567212 l
200.862992 160.473735 l
201.967038 159.887372 l
202.486589 159.268587 l
203.460747 158.812647 l
203.655579 158.559763 l
203.850411 158.541452 l
204.045243 158.445069 l
204.17513 158.345342 l
204.629738 158.045383 l
204.759625 157.820261 l
205.474008 157.538155 l
205.733784 157.297855 l
206.967718 156.826223 l
207.16255 156.717734 l
207.292437 156.62996 l
207.487269 156.427557 l
207.811989 156.402692 l
208.00682 156.085134 l
208.266596 155.93666 l
208.591315 155.767254 l
208.786147 155.587281 l
210.66952 154.659946 l
211.124127 154.499952 l
213.786827 153.470362 l
214.566154 153.254308 l
214.760986 153.119751 l
214.82593 153.088798 l
215.020761 152.799782 l
215.215593 152.739388 l
215.345481 152.633382 l
215.605256 152.36169 l
215.735144 152.324534 l
215.99492 152.188869 l
216.189751 152.079833 l
216.514471 151.909661 l
217.034022 151.787814 l
217.16391 151.673237 l
217.878293 151.560684 l
218.267956 151.468769 l
218.592676 151.391899 l
218.852451 151.318316 l
219.242115 151.187442 l
219.372002 150.969488 l
220.151329 150.81859 l
220.281217 150.5953 l
220.865712 150.523212 l
221.060544 150.431795 l
221.709983 150.162747 l
221.774927 150.16263 l
221.969758 149.866587 l
222.16459 149.769804 l
222.878973 149.378545 l
223.073805 149.354482 l
223.463468 148.945852 l
223.593356 148.813397 l
223.853131 148.575743 l
223.918075 148.575684 l
224.112907 148.290789 l
224.242795 148.171056 l
224.50257 147.887251 l
224.632458 147.876536 l
224.762346 147.636969 l
225.087065 147.570743 l
225.281897 147.354303 l
225.346841 147.354295 l
225.606617 147.071338 l
225.931336 146.881758 l
226.515831 146.792959 l
226.710663 146.727871 l
227.035382 146.647929 l
227.425046 146.129981 l
228.074485 145.405602 l
228.33426 145.073563 l
228.594036 145.019797 l
228.788868 144.915935 l
229.243475 144.754221 l
229.50325 144.568885 l
229.633138 144.559751 l
229.892914 144.03095 l
230.087746 143.962167 l
230.477409 143.74414 l
230.737185 143.711746 l
230.867072 143.467549 l
231.061904 143.375555 l
231.191792 143.218482 l
231.451567 143.101799 l
231.776287 142.796302 l
231.906175 142.779814 l
232.230894 142.170183 l
232.555614 142.090716 l
232.750445 141.985132 l
232.945277 141.9277 l
233.464828 141.245404 l
233.594716 141.185039 l
233.789548 141.045038 l
233.984379 141.030868 l
234.309099 140.65258 l
235.15337 140.480635 l
236.062584 139.878627 l
236.387304 139.840004 l
236.517191 139.661008 l
236.647079 139.601615 l
236.841911 139.453096 l
237.49135 139.364168 l
237.686182 139.218288 l
237.816069 139.209871 l
238.075845 138.862119 l
238.400564 138.642377 l
238.790228 138.432938 l
238.920116 138.331212 l
239.114947 138.109752 l
240.738545 137.827929 l
241.647759 137.623297 l
241.842591 137.453876 l
241.972479 137.447385 l
242.232254 137.141154 l
242.297198 137.109946 l
242.49203 136.892927 l
242.686862 136.810841 l
243.401245 136.691457 l
245.15473 136.293746 l
245.284618 136.112758 l
245.349562 136.112758 l
245.544393 135.819527 l
245.739225 135.78208 l
245.869113 135.502124 l
246.778327 135.41255 l
247.167991 135.374191 l
248.531813 135.273808 l
249.051364 135.19147 l
249.181252 135.044348 l
249.376083 135.035303 l
249.570915 134.863397 l
249.895634 134.858681 l
250.025522 134.689679 l
250.15541 134.583063 l
250.610017 134.359732 l
250.869793 134.324813 l
251.064625 134.060218 l
251.3244 134.051209 l
251.454288 133.897552 l
251.584176 133.896563 l
251.843951 133.609759 l
252.49339 133.521491 l
252.753166 132.852906 l
253.207773 132.769825 l
253.402605 132.764847 l
253.532493 132.621097 l
253.792268 132.576501 l
254.311819 132.061118 l
254.376763 132.060952 l
254.636539 131.792519 l
255.091146 131.705069 l
255.415866 131.514769 l
255.675641 131.499054 l
255.870473 131.34538 l
256.065305 131.338865 l
256.260136 131.003761 l
256.6498 130.934036 l
256.779688 130.79001 l
257.234295 130.678534 l
257.623958 130.566739 l
257.883734 130.495737 l
258.013622 130.492279 l
258.208453 130.139754 l
258.598117 130.049281 l
258.922836 129.991401 l
259.442387 129.959347 l
259.637219 129.854804 l
260.15677 129.810381 l
260.286658 129.644341 l
260.936097 129.565144 l
261.065985 129.382217 l
261.975199 129.381236 l
262.105087 129.213548 l
263.403965 129.149645 l
263.533853 128.955831 l
264.508011 128.731888 l
264.962619 128.680776 l
265.15745 128.598153 l
265.48217 128.520267 l
265.741945 128.484634 l
266.196553 128.43287 l
266.456328 128.133152 l
267.430487 128.129318 l
267.560375 128.019203 l
269.378804 127.920057 l
269.573635 127.715264 l
270.158131 127.606266 l
272.106447 127.449757 l
272.236335 127.326646 l
272.366223 127.326645 l
272.496111 127.146549 l
272.561055 127.146544 l
272.690943 127.009366 l
274.379484 126.94921 l
274.574316 126.860275 l
275.353642 126.777067 l
275.48353 126.58903 l
276.327801 126.583139 l
276.457689 126.450578 l
276.522633 126.450578 l
276.65252 126.308037 l
277.756567 126.208247 l
278.081286 125.740543 l
279.250276 125.728441 l
279.445108 125.629187 l
280.029603 125.584475 l
280.159491 125.302943 l
280.354323 125.215052 l
280.679042 125.13532 l
281.393425 125.124898 l
281.588257 124.858094 l
282.757247 124.854448 l
282.887135 124.696209 l
283.276798 124.637427 l
283.47163 124.577043 l
284.186012 124.518818 l
284.3159 124.394371 l
284.445788 124.394371 l
284.575676 124.257872 l
285.549834 124.174792 l
285.744666 124.121742 l
291.005122 124.013414 l
291.199953 123.795584 l
291.394785 123.795584 l
291.524673 123.677256 l
300.81165 123.576703 l
301.006482 123.529464 l
379.78343 123.529464 l
379.913318 123.392252 l
382.251298 123.360414 l
382.381186 123.138041 l
389.265239 123.03063 l
389.849734 123.017934 l
398.487273 122.980761 l
398.487273 122.980761 l
stroke
grestore
1.000 setlinewidth
0 setlinecap
gsave
357.1 266.1 57.6 38.02 clipbox
/o {
gsave
newpath
translate
1.0 setlinewidth
1 setlinejoin
0 setlinecap
0 -3 m
0.795609 -3 1.55874 -2.683901 2.12132 -2.12132 c
2.683901 -1.55874 3 -0.795609 3 0 c
3 0.795609 2.683901 1.55874 2.12132 2.12132 c
1.55874 2.683901 0.795609 3 0 3 c
-0.795609 3 -1.55874 2.683901 -2.12132 2.12132 c
-2.683901 1.55874 -3 0.795609 -3 0 c
-3 -0.795609 -2.683901 -1.55874 -2.12132 -2.12132 c
-1.55874 -2.683901 -0.795609 -3 0 -3 c
cl

gsave
0.122 0.467 0.706 setrgbcolor
fill
grestore
stroke
grestore
} bind def
73.8327 292.032 o
120.203 210.509 o
166.573 179.458 o
212.943 153.71 o
259.312 129.984 o
305.682 123.529 o
352.052 123.529 o
398.422 122.981 o
grestore
1.500 setlinewidth
2 setlinecap
1.000 0.498 0.055 setrgbcolor
gsave
357.1 266.1 57.6 38.02 clipbox
73.832727 291.784384 m
75.586213 283.205176 l
77.534529 275.212647 l
77.729361 274.548741 l
78.248912 272.635179 l
78.768464 270.902241 l
79.158127 269.585192 l
79.54779 268.204524 l
80.067341 266.449359 l
80.586893 264.953337 l
81.431163 262.228784 l
81.690939 261.523948 l
82.080602 260.324135 l
82.859929 257.794591 l
83.37948 256.547378 l
83.834088 255.401112 l
85.132966 251.898807 l
85.522629 250.841603 l
86.691619 247.986038 l
87.600834 245.847185 l
88.38016 244.063296 l
89.029599 242.583643 l
89.938814 240.48053 l
90.328477 239.45577 l
90.588253 238.969969 l
90.912972 238.188437 l
91.107804 237.635567 l
95.134326 228.441892 l
95.329157 228.187899 l
95.913653 226.975174 l
96.238372 226.423526 l
97.53725 223.959987 l
98.836128 221.098422 l
99.03096 220.778021 l
99.485567 219.803567 l
99.680399 219.26001 l
100.070062 218.628983 l
100.394782 217.836009 l
100.784445 217.314763 l
103.187369 213.072874 l
104.291415 210.761929 l
104.551191 210.429648 l
105.070742 209.217704 l
105.330518 208.683991 l
106.824227 206.348917 l
107.278835 205.191353 l
107.668498 204.365738 l
108.837488 201.907499 l
109.162208 201.282006 l
110.980637 198.578839 l
111.110525 198.32523 l
111.69502 197.422002 l
111.954795 197.066139 l
113.058842 195.424393 l
113.838168 194.455605 l
114.292776 193.815139 l
114.422663 193.718518 l
114.682439 193.397876 l
115.461766 192.60178 l
115.786485 192.056518 l
115.916373 192.018641 l
116.111205 191.823834 l
116.37098 191.615089 l
116.6957 191.210732 l
117.085363 190.850613 l
117.345139 190.474366 l
117.799746 189.795595 l
118.449185 189.208659 l
120.267614 187.198693 l
120.592334 186.795382 l
121.956156 185.352962 l
122.475707 184.824112 l
122.670538 184.458737 l
122.800426 184.403894 l
122.995258 184.301192 l
124.03436 183.375589 l
124.294136 183.052374 l
124.748743 182.709531 l
125.333238 182.029267 l
125.52807 181.676623 l
125.787846 181.51439 l
126.307397 181.089614 l
126.437285 180.891275 l
126.632116 180.624958 l
127.281555 180.158334 l
127.671219 179.412905 l
127.801106 179.332544 l
128.125826 179.002889 l
128.320658 178.900615 l
128.905153 178.379986 l
129.099984 178.213043 l
129.619536 177.756394 l
129.684479 177.722451 l
129.879311 177.452761 l
130.204031 177.186566 l
131.178189 176.370051 l
132.02246 175.39767 l
132.347179 175.29142 l
132.606955 174.830483 l
133.516169 173.7249 l
133.646057 173.577628 l
133.905833 173.432545 l
136.243813 171.375831 l
136.568533 171.023661 l
136.69842 170.87907 l
137.153028 170.46595 l
137.347859 170.322821 l
137.607635 170.050254 l
137.672579 170.050162 l
137.867411 169.863124 l
138.062242 169.748857 l
138.257074 169.695534 l
138.451906 169.368835 l
138.776625 169.264203 l
138.971457 169.150394 l
139.231232 169.07748 l
139.491008 168.75836 l
140.919774 167.614872 l
141.114605 167.536439 l
141.374381 167.412218 l
142.283596 166.93867 l
142.413483 166.801886 l
142.543371 166.610066 l
143.387642 166.135116 l
143.582474 165.986975 l
143.907193 165.690284 l
144.037081 165.586387 l
144.881352 164.913884 l
145.011239 164.797584 l
145.271015 164.552348 l
145.920454 164.107923 l
146.18023 163.762566 l
146.375061 163.69725 l
146.699781 163.390042 l
147.803827 162.608864 l
148.648098 161.421098 l
148.777985 161.415623 l
149.167649 160.784528 l
149.427424 160.65121 l
149.817088 160.422016 l
150.076863 160.39694 l
150.336639 159.893315 l
150.596415 159.848941 l
150.85619 159.538196 l
151.051022 159.384824 l
151.310797 159.148835 l
151.570573 159.000042 l
151.765405 158.895014 l
152.220012 158.779455 l
152.609675 158.179308 l
153.648778 156.720527 l
153.778666 156.550664 l
153.843609 156.550613 l
154.038441 156.273567 l
154.363161 156.136933 l
155.142487 155.819756 l
155.532151 155.297813 l
155.921814 154.875966 l
156.18159 154.489932 l
156.571253 154.379729 l
156.766085 154.235158 l
157.02586 154.157909 l
157.35058 153.676609 l
157.480468 153.554641 l
157.935075 153.304981 l
158.324738 153.164422 l
158.84429 152.769432 l
158.974177 152.762163 l
159.233953 152.51464 l
160.792607 151.448658 l
161.636877 150.480404 l
161.831709 150.147095 l
164.039801 148.203745 l
164.234633 147.794947 l
164.494409 147.71049 l
164.754184 147.203729 l
165.143848 146.834996 l
165.338679 146.654017 l
165.663399 146.582528 l
165.858231 146.479847 l
166.312838 146.412263 l
166.50767 146.238775 l
166.702501 146.13325 l
166.897333 145.606272 l
166.962277 145.578765 l
167.222052 145.198562 l
167.416884 145.105347 l
167.481828 145.049852 l
167.611716 144.713649 l
168.001379 144.601562 l
168.196211 144.47696 l
168.326099 144.362423 l
168.455986 144.360126 l
168.780706 143.892749 l
169.040482 143.842528 l
169.235313 143.747736 l
169.819808 143.512666 l
170.01464 143.113374 l
170.274416 142.711588 l
170.469247 142.68654 l
171.18363 141.671428 l
171.378462 141.619571 l
171.638237 141.207193 l
171.833069 141.168048 l
172.222733 140.69663 l
172.35262 140.230378 l
172.612396 140.144287 l
172.807228 140.067588 l
173.911274 139.785937 l
174.235993 139.264222 l
174.495769 139.182263 l
174.625657 138.897563 l
174.690601 138.897447 l
174.885432 138.525846 l
175.469927 138.330737 l
175.729703 137.878892 l
175.794647 137.87889 l
176.054423 137.522561 l
176.379142 137.464168 l
176.703861 137.070141 l
177.028581 136.977509 l
177.223413 136.922242 l
177.548132 136.882306 l
177.742964 136.65656 l
177.937796 136.58049 l
178.327459 136.473146 l
178.522291 136.275217 l
178.717122 135.910998 l
178.911954 135.906416 l
179.17173 135.563445 l
179.691281 135.446819 l
180.080944 135.197277 l
180.535551 135.117967 l
180.730383 135.045701 l
180.925215 134.994992 l
181.055103 134.994991 l
181.18499 134.855536 l
181.314878 134.816611 l
181.50971 134.430901 l
181.639598 134.429359 l
181.834429 134.26635 l
182.094205 134.215933 l
182.289037 133.934557 l
182.418925 133.895428 l
182.613756 133.775032 l
182.873532 133.717518 l
183.068363 133.627141 l
183.263195 133.490041 l
183.782746 133.413081 l
183.912634 133.27808 l
184.237354 133.171378 l
184.367241 132.873001 l
184.821849 132.73962 l
185.01668 132.515143 l
185.211512 132.515058 l
185.406344 132.294923 l
185.471288 132.294923 l
185.666119 132.009735 l
185.925895 131.928628 l
187.094885 131.218788 l
187.549492 130.619956 l
187.67938 130.520525 l
187.939156 130.298818 l
188.263875 130.252068 l
188.523651 129.971704 l
188.653539 129.964088 l
188.84837 129.642041 l
188.913314 129.641607 l
189.238034 129.191553 l
189.367922 129.188079 l
189.497809 128.927091 l
189.562753 128.918551 l
189.692641 128.790863 l
189.757585 128.790862 l
189.887473 128.586881 l
189.952417 128.575992 l
190.147248 128.147917 l
190.34208 128.093983 l
190.6668 126.905268 l
190.861631 126.576068 l
191.056463 126.517187 l
191.576014 125.739733 l
191.640958 125.738291 l
191.83579 125.611246 l
192.68006 125.41645 l
192.939836 125.400455 l
193.264555 124.698887 l
193.524331 124.675053 l
193.654219 124.462932 l
194.043882 124.338656 l
194.433546 124.068571 l
194.628377 124.05269 l
194.823209 123.570769 l
194.888153 123.569252 l
195.147928 123.233706 l
196.446806 123.059604 l
196.576694 122.796016 l
196.901414 122.731859 l
197.096245 122.531324 l
197.291077 122.452608 l
197.420965 122.301143 l
198.460067 122.192231 l
199.044562 121.776844 l
199.434226 121.768309 l
199.564114 121.277847 l
200.66816 121.204616 l
200.798048 120.996239 l
200.862992 120.987607 l
200.992879 120.826973 l
201.447487 120.824245 l
201.577374 120.664358 l
201.83715 120.600881 l
201.967038 120.371415 l
202.096926 120.341105 l
202.291757 120.019448 l
202.421645 119.999855 l
202.551533 119.758996 l
202.616477 119.75231 l
202.746365 119.566509 l
202.876252 119.549674 l
203.00614 119.354681 l
203.136028 119.352823 l
203.265916 119.183372 l
203.33086 119.18325 l
203.590635 118.828185 l
203.915355 118.723376 l
204.045243 118.694184 l
204.17513 118.387445 l
204.369962 118.387418 l
204.564794 118.12497 l
204.954457 118.095722 l
205.214233 117.988286 l
205.474008 117.917868 l
205.863672 117.534649 l
206.188391 117.486448 l
206.383223 116.900229 l
206.513111 116.899601 l
206.707942 115.976414 l
206.83783 115.939026 l
206.967718 115.622584 l
207.227493 115.495859 l
207.422325 115.021839 l
207.617157 115.01289 l
207.876932 114.573126 l
208.00682 114.571738 l
208.201652 114.341557 l
208.266596 114.294332 l
208.396484 114.09887 l
208.461428 114.073135 l
208.721203 113.749428 l
208.851091 113.652739 l
208.980979 113.421167 l
209.110867 113.343196 l
209.305698 113.057579 l
209.435586 112.794898 l
210.020081 112.705747 l
210.279857 112.667525 l
210.66952 112.564519 l
211.448847 112.158782 l
211.903454 112.063013 l
211.968398 111.979835 l
212.098286 111.696294 l
212.682781 111.599423 l
212.812669 111.286344 l
212.942557 111.286344 l
213.072444 111.071078 l
213.851771 111.046545 l
213.981659 110.751763 l
215.085705 110.671981 l
215.280537 110.60736 l
215.735144 110.504974 l
215.865032 110.4984 l
215.99492 110.245466 l
217.098966 110.203479 l
217.228854 109.903182 l
217.488629 109.869453 l
218.397844 109.749285 l
218.592676 109.35386 l
218.65762 109.353856 l
218.917395 108.944427 l
220.476049 108.875328 l
220.540993 108.817874 l
220.67088 108.606034 l
220.9956 108.597059 l
221.125488 108.383567 l
221.580095 108.279147 l
221.839871 108.26998 l
221.969758 107.955458 l
223.918075 107.89894 l
224.047963 107.749014 l
227.425046 107.696175 l
227.554934 107.56159 l
255.545754 107.556614 l
255.675641 107.341502 l
257.429127 107.271764 l
257.623958 107.205218 l
259.3125 107.192265 l
263.14419 107.190283 l
263.274077 107.02369 l
263.858572 106.949783 l
263.98846 106.630127 l
267.495431 106.524855 l
267.625319 106.197339 l
271.716784 106.191298 l
271.846672 105.95102 l
276.132969 105.697502 l
276.327801 105.594877 l
278.470949 105.530677 l
278.600837 105.244228 l
279.055445 105.167678 l
279.31522 105.166092 l
279.510052 104.871339 l
279.704884 104.870256 l
280.029603 104.410257 l
280.419266 104.327104 l
280.679042 104.085804 l
280.80893 103.819819 l
281.328481 103.818465 l
281.458369 103.550549 l
281.848032 103.546659 l
282.042864 103.404888 l
282.692303 103.393628 l
282.822191 103.274406 l
282.887135 103.27326 l
283.017022 103.149594 l
283.276798 103.10204 l
283.406686 102.979023 l
283.47163 102.978997 l
283.601517 102.772684 l
283.666461 102.772662 l
283.796349 102.65246 l
284.3159 102.650413 l
284.445788 102.484643 l
285.095227 102.465272 l
285.225115 102.296928 l
285.290059 102.296922 l
285.48489 101.881803 l
286.134329 101.810722 l
286.264217 101.451204 l
288.732085 101.315432 l
288.861973 100.69771 l
289.836132 100.590195 l
290.030963 99.970185 l
290.095907 99.969982 l
290.290739 99.538486 l
290.81029 99.433421 l
291.719505 99.377374 l
291.849392 99.010255 l
292.628719 98.954372 l
292.758607 98.567796 l
293.14827 98.498487 l
293.537934 97.483473 l
293.992541 97.425498 l
294.122429 97.010984 l
294.447148 97.00058 l
294.577036 96.769316 l
294.64198 96.769306 l
294.771868 96.359971 l
295.096587 96.292015 l
295.226475 96.004687 l
295.616139 95.967011 l
295.746026 95.841463 l
297.174792 95.733022 l
297.30468 95.351484 l
297.369624 95.350767 l
297.499512 94.983175 l
298.019063 94.978507 l
298.148951 94.651755 l
298.408726 94.570428 l
298.538614 93.967321 l
298.733446 93.90718 l
298.863333 93.550928 l
299.188053 93.550806 l
299.382885 92.944037 l
299.772548 92.943475 l
299.902436 92.832244 l
300.162211 92.7639 l
300.421987 92.52912 l
301.590977 92.475377 l
301.850753 92.000051 l
302.565136 91.887301 l
303.279518 91.861226 l
303.409406 91.591729 l
303.604238 91.591698 l
303.734126 91.275978 l
304.058845 91.275969 l
304.448509 90.797309 l
304.578396 90.712108 l
304.773228 90.581235 l
304.838172 90.581234 l
304.96806 90.462408 l
305.942218 90.376828 l
306.072106 90.105783 l
306.13705 90.105782 l
306.266938 89.725474 l
306.396826 89.724212 l
306.591657 89.337565 l
306.981321 89.325232 l
307.176152 89.042707 l
307.565816 88.93244 l
307.825591 87.828417 l
308.215255 87.813868 l
308.669862 86.984504 l
309.124469 86.862532 l
309.254357 86.499658 l
309.96874 86.484017 l
310.098628 85.96107 l
310.553235 85.913676 l
310.683123 85.531641 l
310.942898 85.5303 l
311.13773 84.587708 l
311.397506 84.565352 l
311.657281 83.773808 l
311.982001 83.612308 l
312.176832 82.668422 l
312.501552 82.667872 l
312.63144 82.327376 l
312.891215 82.264036 l
313.021103 81.704244 l
313.086047 81.681628 l
313.280879 80.962431 l
313.47571 80.948067 l
313.605598 80.710551 l
313.670542 80.710551 l
313.865374 79.696332 l
314.774588 79.685172 l
314.904476 79.337617 l
315.488971 79.327164 l
315.618859 79.101572 l
316.398186 79.100219 l
316.528074 78.887026 l
317.3074 78.802333 l
317.437288 78.391285 l
318.411447 78.334635 l
318.541334 77.707622 l
319.775269 77.706095 l
319.9701 77.03858 l
320.619539 77.031275 l
320.749427 76.404117 l
322.048305 76.402862 l
322.373024 75.701918 l
322.827632 75.682618 l
323.152351 74.92866 l
323.217295 74.928659 l
323.347183 74.699226 l
323.866734 74.657683 l
323.996622 74.451185 l
324.12651 74.432886 l
324.321341 74.151998 l
325.685163 74.140641 l
325.815051 73.759836 l
326.13977 73.753467 l
326.269658 73.464368 l
326.399546 73.46436 l
326.594378 72.648377 l
326.854153 71.967974 l
326.984041 71.817085 l
327.698424 71.80375 l
327.893256 71.083113 l
327.9582 71.083088 l
328.088087 70.253623 l
328.477751 70.230451 l
328.607639 70.100914 l
329.322021 70.044653 l
329.451909 69.475396 l
330.036404 69.374797 l
330.166292 68.6962 l
330.685843 68.659199 l
330.815731 67.924399 l
331.010563 67.918889 l
331.140451 67.714481 l
332.244497 67.590555 l
332.374385 66.995915 l
332.439329 66.995914 l
332.569216 66.77808 l
333.348543 66.745617 l
333.478431 66.537552 l
333.608319 66.537269 l
333.738207 65.941806 l
333.80315 65.941749 l
333.933038 65.743559 l
333.997982 65.743438 l
334.12787 65.301354 l
334.192814 65.301354 l
334.322702 64.923509 l
336.335962 64.821753 l
336.46585 64.622537 l
337.310121 64.621421 l
337.440009 64.402368 l
338.089448 64.311894 l
338.349223 64.279118 l
338.479111 63.756942 l
340.232596 63.755752 l
340.362484 63.323413 l
340.946979 63.306071 l
341.141811 62.335563 l
341.596418 62.316672 l
341.726306 61.468281 l
341.856194 61.468281 l
341.986082 61.054429 l
342.310801 61.044924 l
342.440689 60.636635 l
342.830352 60.599359 l
343.025184 60.508341 l
343.739567 60.414341 l
343.869455 59.47585 l
344.064286 59.45308 l
344.194174 58.468905 l
345.882715 58.402302 l
346.077547 57.71424 l
347.246537 57.714238 l
347.376425 57.240778 l
347.895976 57.240778 l
348.025864 56.936656 l
354.000703 56.866274 l
354.13059 56.58079 l
354.195534 56.58079 l
354.325422 56.345378 l
354.520254 56.345378 l
354.715086 55.63862 l
354.974861 55.638589 l
355.104749 55.189983 l
356.078907 55.119165 l
356.338683 53.701289 l
359.326102 53.677139 l
359.45599 53.039134 l
360.495092 53.039053 l
360.62498 52.0606 l
361.079588 52.005136 l
361.209475 51.401989 l
373.418928 51.27558 l
397.44817 51.27558 l
397.578058 50.112 l
398.487273 50.112 l
398.487273 50.112 l
stroke
grestore
1.000 setlinewidth
0 setlinejoin
0 setlinecap
gsave
357.1 266.1 57.6 38.02 clipbox
/o {
gsave
newpath
translate
1.0 setlinewidth
0 setlinejoin
0 setlinecap
-3 -3 m
3 -3 l
3 3 l
-3 3 l
cl

gsave
1.000 0.498 0.055 setrgbcolor
fill
grestore
stroke
grestore
} bind def
73.8327 291.784 o
120.203 187.253 o
166.573 146.238 o
212.943 111.286 o
259.312 107.192 o
305.682 90.456 o
352.052 56.8663 o
398.422 50.112 o
grestore
0.800 setlinewidth
2 setlinecap
[] 0 setdash
0.000 setgray
gsave
57.6 38.016 m
57.6 304.128 l
stroke
grestore
gsave
414.72 38.016 m
414.72 304.128 l
stroke
grestore
gsave
57.6 38.016 m
414.72 38.016 l
stroke
grestore
gsave
57.6 304.128 m
414.72 304.128 l
stroke
grestore
1.000 setlinewidth
0 setlinecap
0.800 setgray
gsave
348.72 265.456125 m
407.72 265.456125 l
409.053333 265.456125 409.72 266.122792 409.72 267.456125 c
409.72 297.128 l
409.72 298.461333 409.053333 299.128 407.72 299.128 c
348.72 299.128 l
347.386667 299.128 346.72 298.461333 346.72 297.128 c
346.72 267.456125 l
346.72 266.122792 347.386667 265.456125 348.72 265.456125 c
cl
gsave
1.000 setgray
fill
grestore
stroke
grestore
1.500 setlinewidth
1 setlinejoin
2 setlinecap
[] 0 setdash
0.122 0.467 0.706 setrgbcolor
gsave
350.72 291.03425 m
370.72 291.03425 l
stroke
grestore
1.000 setlinewidth
0 setlinecap
gsave
/o {
gsave
newpath
translate
1.0 setlinewidth
1 setlinejoin
0 setlinecap
0 -3 m
0.795609 -3 1.55874 -2.683901 2.12132 -2.12132 c
2.683901 -1.55874 3 -0.795609 3 0 c
3 0.795609 2.683901 1.55874 2.12132 2.12132 c
1.55874 2.683901 0.795609 3 0 3 c
-0.795609 3 -1.55874 2.683901 -2.12132 2.12132 c
-2.683901 1.55874 -3 0.795609 -3 0 c
-3 -0.795609 -2.683901 -1.55874 -2.12132 -2.12132 c
-1.55874 -2.683901 -0.795609 -3 0 -3 c
cl

gsave
0.122 0.467 0.706 setrgbcolor
fill
grestore
stroke
grestore
} bind def
360.72 291.034 o
grestore
0.000 setgray
gsave
378.720000 287.534250 translate
0.000000 rotate
/DejaVuSans-Oblique findfont
10.0 scalefont
setfont
0.000000 0.578125 moveto
/A glyphshow

6.840820 0.578125 moveto
/B glyphshow

13.701172 0.578125 moveto
/C glyphshow


grestore
1.500 setlinewidth
2 setlinecap
1.000 0.498 0.055 setrgbcolor
gsave
350.72 275.03425 m
370.72 275.03425 l
stroke
grestore
1.000 setlinewidth
0 setlinejoin
0 setlinecap
gsave
/o {
gsave
newpath
translate
1.0 setlinewidth
0 setlinejoin
0 setlinecap
-3 -3 m
3 -3 l
3 3 l
-3 3 l
cl

gsave
1.000 0.498 0.055 setrgbcolor
fill
grestore
stroke
grestore
} bind def
360.72 275.034 o
grestore
0.000 setgray
gsave
378.720000 271.534250 translate
0.000000 rotate
/DejaVuSans-Oblique findfont
10.0 scalefont
setfont
0.000000 0.856250 moveto
/A glyphshow

6.840820 0.856250 moveto
/B glyphshow

13.701172 0.856250 moveto
/C glyphshow

/DejaVuSans-Oblique findfont
7.0 scalefont
setfont
21.403646 4.684375 moveto
/d glyphshow


grestore

end
showpage
