%!PS-Adobe-3.0 EPSF-3.0
%%Title: plots/Schwefel1.eps
%%Creator: matplotlib version 2.2.2, http://matplotlib.org/
%%CreationDate: Sun Jul 29 16:55:52 2018
%%Orientation: portrait
%%BoundingBox: 75 223 536 568
%%EndComments
%%BeginProlog
/mpldict 9 dict def
mpldict begin
/m { moveto } bind def
/l { lineto } bind def
/r { rlineto } bind def
/c { curveto } bind def
/cl { closepath } bind def
/box {
m
1 index 0 r
0 exch r
neg 0 r
cl
} bind def
/clipbox {
box
clip
newpath
} bind def
%!PS-Adobe-3.0 Resource-Font
%%Title: DejaVu Sans
%%Copyright: Copyright (c) 2003 by Bitstream, Inc. All Rights Reserved. Copyright (c) 2006 by Tavmjong Bah. All Rights Reserved. DejaVu changes are in public domain 
%%Creator: Converted from TrueType to type 3 by PPR
25 dict begin
/_d{bind def}bind def
/_m{moveto}_d
/_l{lineto}_d
/_cl{closepath eofill}_d
/_c{curveto}_d
/_sc{7 -1 roll{setcachedevice}{pop pop pop pop pop pop}ifelse}_d
/_e{exec}_d
/FontName /DejaVuSans def
/PaintType 0 def
/FontMatrix[.001 0 0 .001 0 0]def
/FontBBox[-1021 -463 1793 1232]def
/FontType 3 def
/Encoding [ /parenleft /parenright /zero /one /two /three /four /five /I /a /e /i /n /o /r /t /minus ] def
/FontInfo 10 dict dup begin
/FamilyName (DejaVu Sans) def
/FullName (DejaVu Sans) def
/Notice (Copyright (c) 2003 by Bitstream, Inc. All Rights Reserved. Copyright (c) 2006 by Tavmjong Bah. All Rights Reserved. DejaVu changes are in public domain ) def
/Weight (Book) def
/Version (Version 2.35) def
/ItalicAngle 0.0 def
/isFixedPitch false def
/UnderlinePosition -130 def
/UnderlineThickness 90 def
end readonly def
/CharStrings 18 dict dup begin
/.notdef 0 def
/parenleft{390 0 86 -131 310 759 _sc
310 759 _m
266 683 234 609 213 536 _c
191 463 181 389 181 314 _c
181 238 191 164 213 91 _c
234 17 266 -56 310 -131 _c
232 -131 _l
183 -54 146 20 122 94 _c
98 168 86 241 86 314 _c
86 386 98 459 122 533 _c
146 607 182 682 232 759 _c
310 759 _l
_cl}_d
/parenright{390 0 80 -131 304 759 _sc
80 759 _m
158 759 _l
206 682 243 607 267 533 _c
291 459 304 386 304 314 _c
304 241 291 168 267 94 _c
243 20 206 -54 158 -131 _c
80 -131 _l
123 -56 155 17 177 91 _c
198 164 209 238 209 314 _c
209 389 198 463 177 536 _c
155 609 123 683 80 759 _c
_cl}_d
/zero{636 0 66 -13 570 742 _sc
318 664 _m
267 664 229 639 203 589 _c
177 539 165 464 165 364 _c
165 264 177 189 203 139 _c
229 89 267 64 318 64 _c
369 64 407 89 433 139 _c
458 189 471 264 471 364 _c
471 464 458 539 433 589 _c
407 639 369 664 318 664 _c
318 742 _m
399 742 461 709 505 645 _c
548 580 570 486 570 364 _c
570 241 548 147 505 83 _c
461 19 399 -13 318 -13 _c
236 -13 173 19 130 83 _c
87 147 66 241 66 364 _c
66 486 87 580 130 645 _c
173 709 236 742 318 742 _c
_cl}_d
/one{636 0 110 0 544 729 _sc
124 83 _m
285 83 _l
285 639 _l
110 604 _l
110 694 _l
284 729 _l
383 729 _l
383 83 _l
544 83 _l
544 0 _l
124 0 _l
124 83 _l
_cl}_d
/two{{636 0 73 0 536 742 _sc
192 83 _m
536 83 _l
536 0 _l
73 0 _l
73 83 _l
110 121 161 173 226 239 _c
290 304 331 346 348 365 _c
380 400 402 430 414 455 _c
426 479 433 504 433 528 _c
433 566 419 598 392 622 _c
365 646 330 659 286 659 _c
255 659 222 653 188 643 _c
154 632 117 616 78 594 _c
78 694 _l
118 710 155 722 189 730 _c
223 738 255 742 284 742 _c
}_e{359 742 419 723 464 685 _c
509 647 532 597 532 534 _c
532 504 526 475 515 449 _c
504 422 484 390 454 354 _c
446 344 420 317 376 272 _c
332 227 271 164 192 83 _c
_cl}_e}_d
/three{{636 0 76 -13 556 742 _sc
406 393 _m
453 383 490 362 516 330 _c
542 298 556 258 556 212 _c
556 140 531 84 482 45 _c
432 6 362 -13 271 -13 _c
240 -13 208 -10 176 -4 _c
144 1 110 10 76 22 _c
76 117 _l
103 101 133 89 166 81 _c
198 73 232 69 268 69 _c
330 69 377 81 409 105 _c
441 129 458 165 458 212 _c
458 254 443 288 413 312 _c
383 336 341 349 287 349 _c
}_e{202 349 _l
202 430 _l
291 430 _l
339 430 376 439 402 459 _c
428 478 441 506 441 543 _c
441 580 427 609 401 629 _c
374 649 336 659 287 659 _c
260 659 231 656 200 650 _c
169 644 135 635 98 623 _c
98 711 _l
135 721 170 729 203 734 _c
235 739 266 742 296 742 _c
370 742 429 725 473 691 _c
517 657 539 611 539 553 _c
539 513 527 479 504 451 _c
481 423 448 403 406 393 _c
_cl}_e}_d
/four{636 0 49 0 580 729 _sc
378 643 _m
129 254 _l
378 254 _l
378 643 _l
352 729 _m
476 729 _l
476 254 _l
580 254 _l
580 172 _l
476 172 _l
476 0 _l
378 0 _l
378 172 _l
49 172 _l
49 267 _l
352 729 _l
_cl}_d
/five{{636 0 77 -13 549 729 _sc
108 729 _m
495 729 _l
495 646 _l
198 646 _l
198 467 _l
212 472 227 476 241 478 _c
255 480 270 482 284 482 _c
365 482 429 459 477 415 _c
525 370 549 310 549 234 _c
549 155 524 94 475 51 _c
426 8 357 -13 269 -13 _c
238 -13 207 -10 175 -6 _c
143 -1 111 6 77 17 _c
77 116 _l
106 100 136 88 168 80 _c
199 72 232 69 267 69 _c
}_e{323 69 368 83 401 113 _c
433 143 450 183 450 234 _c
450 284 433 324 401 354 _c
368 384 323 399 267 399 _c
241 399 214 396 188 390 _c
162 384 135 375 108 363 _c
108 729 _l
_cl}_e}_d
/I{295 0 98 0 197 729 _sc
98 729 _m
197 729 _l
197 0 _l
98 0 _l
98 729 _l
_cl}_d
/a{{613 0 60 -13 522 560 _sc
343 275 _m
270 275 220 266 192 250 _c
164 233 150 205 150 165 _c
150 133 160 107 181 89 _c
202 70 231 61 267 61 _c
317 61 357 78 387 114 _c
417 149 432 196 432 255 _c
432 275 _l
343 275 _l
522 312 _m
522 0 _l
432 0 _l
432 83 _l
411 49 385 25 355 10 _c
325 -5 287 -13 243 -13 _c
187 -13 142 2 109 33 _c
76 64 60 106 60 159 _c
}_e{60 220 80 266 122 298 _c
163 329 224 345 306 345 _c
432 345 _l
432 354 _l
432 395 418 427 391 450 _c
364 472 326 484 277 484 _c
245 484 215 480 185 472 _c
155 464 127 453 100 439 _c
100 522 _l
132 534 164 544 195 550 _c
226 556 256 560 286 560 _c
365 560 424 539 463 498 _c
502 457 522 395 522 312 _c
_cl}_e}_d
/e{{615 0 55 -13 562 560 _sc
562 296 _m
562 252 _l
149 252 _l
153 190 171 142 205 110 _c
238 78 284 62 344 62 _c
378 62 412 66 444 74 _c
476 82 509 95 541 113 _c
541 28 _l
509 14 476 3 442 -3 _c
408 -9 373 -13 339 -13 _c
251 -13 182 12 131 62 _c
80 112 55 181 55 268 _c
55 357 79 428 127 481 _c
175 533 241 560 323 560 _c
397 560 455 536 498 489 _c
}_e{540 441 562 377 562 296 _c
472 322 _m
471 371 457 410 431 440 _c
404 469 368 484 324 484 _c
274 484 234 469 204 441 _c
174 413 156 373 152 322 _c
472 322 _l
_cl}_e}_d
/i{278 0 94 0 184 760 _sc
94 547 _m
184 547 _l
184 0 _l
94 0 _l
94 547 _l
94 760 _m
184 760 _l
184 646 _l
94 646 _l
94 760 _l
_cl}_d
/n{634 0 91 0 549 560 _sc
549 330 _m
549 0 _l
459 0 _l
459 327 _l
459 379 448 417 428 443 _c
408 469 378 482 338 482 _c
289 482 251 466 223 435 _c
195 404 181 362 181 309 _c
181 0 _l
91 0 _l
91 547 _l
181 547 _l
181 462 _l
202 494 227 519 257 535 _c
286 551 320 560 358 560 _c
420 560 468 540 500 501 _c
532 462 549 405 549 330 _c
_cl}_d
/o{612 0 55 -13 557 560 _sc
306 484 _m
258 484 220 465 192 427 _c
164 389 150 338 150 273 _c
150 207 163 156 191 118 _c
219 80 257 62 306 62 _c
354 62 392 80 420 118 _c
448 156 462 207 462 273 _c
462 337 448 389 420 427 _c
392 465 354 484 306 484 _c
306 560 _m
384 560 445 534 490 484 _c
534 433 557 363 557 273 _c
557 183 534 113 490 63 _c
445 12 384 -13 306 -13 _c
227 -13 165 12 121 63 _c
77 113 55 183 55 273 _c
55 363 77 433 121 484 _c
165 534 227 560 306 560 _c
_cl}_d
/r{411 0 91 0 411 560 _sc
411 463 _m
401 469 390 473 378 476 _c
366 478 353 480 339 480 _c
288 480 249 463 222 430 _c
194 397 181 350 181 288 _c
181 0 _l
91 0 _l
91 547 _l
181 547 _l
181 462 _l
199 495 224 520 254 536 _c
284 552 321 560 365 560 _c
371 560 378 559 386 559 _c
393 558 401 557 411 555 _c
411 463 _l
_cl}_d
/t{392 0 27 0 368 702 _sc
183 702 _m
183 547 _l
368 547 _l
368 477 _l
183 477 _l
183 180 _l
183 135 189 106 201 94 _c
213 81 238 75 276 75 _c
368 75 _l
368 0 _l
276 0 _l
206 0 158 13 132 39 _c
106 65 93 112 93 180 _c
93 477 _l
27 477 _l
27 547 _l
93 547 _l
93 702 _l
183 702 _l
_cl}_d
/minus{838 0 106 272 732 355 _sc
106 355 _m
732 355 _l
732 272 _l
106 272 _l
106 355 _l
_cl}_d
end readonly def

/BuildGlyph
 {exch begin
 CharStrings exch
 2 copy known not{pop /.notdef}if
 true 3 1 roll get exec
 end}_d

/BuildChar {
 1 index /Encoding get exch get
 1 index /BuildGlyph get exec
}_d

FontName currentdict end definefont pop
%!PS-Adobe-3.0 Resource-Font
%%Title: DejaVu Sans Oblique
%%Copyright: Copyright (c) 2003 by Bitstream, Inc. All Rights Reserved. Copyright (c) 2006 by Tavmjong Bah. All Rights Reserved. DejaVu changes are in public domain 
%%Creator: Converted from TrueType to type 3 by PPR
25 dict begin
/_d{bind def}bind def
/_m{moveto}_d
/_l{lineto}_d
/_cl{closepath eofill}_d
/_c{curveto}_d
/_sc{7 -1 roll{setcachedevice}{pop pop pop pop pop pop}ifelse}_d
/_e{exec}_d
/FontName /DejaVuSans-Oblique def
/PaintType 0 def
/FontMatrix[.001 0 0 .001 0 0]def
/FontBBox[-1016 -350 1659 1068]def
/FontType 3 def
/Encoding [ /A /B /C /X /b /d /e /f /g /l /o /s /t ] def
/FontInfo 10 dict dup begin
/FamilyName (DejaVu Sans) def
/FullName (DejaVu Sans Oblique) def
/Notice (Copyright (c) 2003 by Bitstream, Inc. All Rights Reserved. Copyright (c) 2006 by Tavmjong Bah. All Rights Reserved. DejaVu changes are in public domain ) def
/Weight (Oblique) def
/Version (Version 2.35) def
/ItalicAngle -11.0 def
/isFixedPitch false def
/UnderlinePosition -130 def
/UnderlineThickness 90 def
end readonly def
/CharStrings 14 dict dup begin
/.notdef 0 def
/A{684 0 -52 0 615 729 _sc
368 729 _m
480 729 _l
615 0 _l
512 0 _l
482 187 _l
154 187 _l
51 0 _l
-52 0 _l
368 729 _l
404 632 _m
199 269 _l
467 269 _l
404 632 _l
_cl}_d
/B{{686 0 27 0 625 729 _sc
169 729 _m
421 729 _l
489 729 540 716 574 691 _c
608 665 625 627 625 576 _c
625 529 610 489 581 455 _c
552 421 514 400 467 393 _c
507 383 537 366 557 340 _c
577 314 588 280 588 238 _c
588 164 560 106 506 64 _c
452 21 378 0 284 0 _c
27 0 _l
169 729 _l
193 348 _m
141 81 _l
300 81 _l
359 81 405 94 437 122 _c
469 149 486 188 486 238 _c
}_e{486 276 475 303 454 321 _c
432 339 398 348 351 348 _c
193 348 _l
251 648 _m
208 428 _l
355 428 _l
407 428 448 439 478 462 _c
507 485 522 517 522 557 _c
522 588 512 611 492 626 _c
472 640 440 648 397 648 _c
251 648 _l
_cl}_e}_d
/C{{698 0 42 -13 695 742 _sc
695 673 _m
675 569 _l
643 600 610 623 575 639 _c
540 654 502 662 462 662 _c
406 662 357 648 315 622 _c
273 595 236 554 206 500 _c
186 464 171 427 161 388 _c
151 349 146 310 146 270 _c
146 203 163 152 197 118 _c
231 83 281 66 347 66 _c
392 66 435 73 477 87 _c
519 101 559 123 599 153 _c
576 36 _l
537 19 498 7 458 -1 _c
}_e{418 -9 379 -13 340 -13 _c
246 -13 173 12 121 62 _c
68 112 42 183 42 274 _c
42 332 52 389 72 445 _c
92 501 120 552 158 598 _c
198 647 243 683 294 707 _c
345 730 404 742 472 742 _c
514 742 553 736 590 725 _c
627 713 662 696 695 673 _c
_cl}_e}_d
/X{685 0 -42 0 703 729 _sc
137 729 _m
237 729 _l
362 466 _l
588 729 _l
703 729 _l
403 381 _l
584 0 _l
485 0 _l
338 307 _l
72 0 _l
-42 0 _l
298 392 _l
137 729 _l
_cl}_d
/b{{635 0 36 -13 587 760 _sc
495 334 _m
495 381 484 418 462 445 _c
440 471 411 485 373 485 _c
345 485 319 478 295 464 _c
271 450 250 431 232 406 _c
213 378 198 347 187 311 _c
176 275 171 240 171 205 _c
171 160 181 125 203 99 _c
224 73 253 61 291 61 _c
319 61 345 67 369 81 _c
393 94 415 113 433 139 _c
451 165 466 196 478 232 _c
489 268 495 302 495 334 _c
216 464 _m
}_e{238 494 265 517 299 534 _c
332 551 367 560 404 560 _c
460 560 504 541 537 503 _c
570 465 587 414 587 350 _c
587 297 577 246 558 197 _c
538 147 511 103 475 65 _c
451 39 424 20 394 7 _c
363 -6 331 -13 298 -13 _c
262 -13 232 -5 206 11 _c
180 27 158 51 142 83 _c
126 0 _l
36 0 _l
184 760 _l
274 760 _l
216 464 _l
_cl}_e}_d
/d{{635 0 46 -13 639 760 _sc
418 82 _m
394 50 365 27 332 11 _c
299 -5 263 -13 223 -13 _c
168 -13 125 5 93 42 _c
61 79 46 130 46 195 _c
46 249 55 300 75 349 _c
94 398 122 442 158 481 _c
182 507 209 526 239 540 _c
269 553 301 560 335 560 _c
370 560 401 551 428 534 _c
454 517 475 493 490 462 _c
549 760 _l
639 760 _l
491 0 _l
401 0 _l
418 82 _l
139 211 _m
}_e{139 163 149 126 171 100 _c
192 74 222 61 260 61 _c
288 61 314 67 338 81 _c
362 95 383 115 401 141 _c
420 168 435 200 446 236 _c
457 272 463 307 463 342 _c
463 387 452 422 431 448 _c
409 473 380 486 343 486 _c
314 486 287 479 263 466 _c
239 452 218 433 201 408 _c
182 381 167 350 156 314 _c
144 278 139 243 139 211 _c
_cl}_e}_d
/e{{615 0 46 -13 571 560 _sc
481 322 _m
481 327 482 332 483 338 _c
483 344 484 349 484 355 _c
484 395 472 426 449 449 _c
425 472 394 484 354 484 _c
309 484 270 469 236 441 _c
202 413 176 373 158 322 _c
481 322 _l
559 252 _m
141 252 _l
139 239 137 229 137 222 _c
136 215 136 209 136 204 _c
136 158 150 123 178 99 _c
206 74 245 62 296 62 _c
334 62 371 66 406 75 _c
}_e{441 83 474 96 504 114 _c
487 25 _l
454 11 420 2 386 -4 _c
352 -10 317 -13 282 -13 _c
206 -13 147 5 107 41 _c
66 77 46 128 46 195 _c
46 251 56 304 76 353 _c
96 402 126 446 166 485 _c
191 509 221 527 256 540 _c
291 553 328 560 368 560 _c
430 560 479 541 516 504 _c
552 467 571 417 571 355 _c
571 340 570 324 568 307 _c
566 289 563 271 559 252 _c
_cl}_e}_d
/f{352 0 68 0 478 760 _sc
478 760 _m
464 685 _l
378 685 _l
345 685 321 678 307 665 _c
292 652 281 629 274 595 _c
264 547 _l
412 547 _l
399 477 _l
251 477 _l
158 0 _l
68 0 _l
161 477 _l
75 477 _l
88 547 _l
174 547 _l
181 585 _l
193 649 215 695 246 721 _c
277 747 326 760 393 760 _c
478 760 _l
_cl}_d
/g{{635 0 32 -207 596 560 _sc
596 547 _m
503 68 _l
485 -24 450 -92 400 -138 _c
349 -184 281 -207 196 -207 _c
164 -207 134 -204 107 -200 _c
80 -195 55 -188 32 -178 _c
49 -91 _l
71 -105 94 -115 119 -122 _c
143 -129 170 -133 198 -133 _c
255 -133 302 -117 339 -86 _c
375 -55 399 -11 411 47 _c
419 88 _l
393 59 364 37 331 22 _c
298 7 262 0 224 0 _c
168 0 125 18 93 55 _c
}_e{61 91 46 142 46 206 _c
46 256 55 306 75 354 _c
94 402 121 445 156 483 _c
178 507 205 526 236 540 _c
267 553 299 560 333 560 _c
369 560 401 551 429 534 _c
456 517 476 493 490 462 _c
506 547 _l
596 547 _l
461 346 _m
461 390 450 425 429 449 _c
408 473 379 485 341 485 _c
317 485 294 480 273 471 _c
251 461 233 448 218 431 _c
193 403 174 370 160 332 _c
}_e{146 294 139 255 139 215 _c
139 169 149 135 170 111 _c
191 87 221 75 261 75 _c
318 75 366 100 404 152 _c
442 204 461 268 461 346 _c
_cl}_e}_d
/l{278 0 35 0 273 760 _sc
183 760 _m
273 760 _l
125 0 _l
35 0 _l
183 760 _l
_cl}_d
/o{{612 0 46 -13 566 560 _sc
254 -13 _m
190 -13 139 6 102 45 _c
64 84 46 138 46 207 _c
46 247 52 287 65 328 _c
77 369 94 404 115 432 _c
147 476 183 508 223 529 _c
263 549 308 560 358 560 _c
420 560 470 540 508 502 _c
546 463 566 412 566 350 _c
566 306 559 263 547 220 _c
534 177 517 142 497 114 _c
465 70 429 37 389 17 _c
349 -3 304 -13 254 -13 _c
139 210 _m
}_e{139 160 149 123 170 99 _c
190 74 222 62 264 62 _c
324 62 373 88 413 141 _c
453 193 473 260 473 341 _c
473 388 462 424 441 448 _c
420 472 389 484 348 484 _c
314 484 283 476 257 460 _c
231 444 207 420 187 388 _c
171 364 159 336 151 305 _c
143 274 139 242 139 210 _c
_cl}_e}_d
/s{{521 0 11 -13 500 560 _sc
500 531 _m
483 446 _l
459 458 433 468 407 475 _c
381 481 354 485 326 485 _c
278 485 241 477 214 461 _c
187 445 174 423 174 395 _c
174 363 205 338 269 321 _c
273 319 277 318 279 318 _c
308 309 _l
368 292 408 274 428 256 _c
448 238 458 213 458 182 _c
458 124 435 77 389 41 _c
343 5 282 -13 208 -13 _c
179 -13 149 -10 117 -5 _c
}_e{85 0 49 8 11 20 _c
29 113 _l
61 95 94 82 126 74 _c
158 65 188 61 218 61 _c
262 61 297 70 325 89 _c
352 108 366 132 366 161 _c
366 192 330 217 258 237 _c
249 239 _l
218 247 _l
172 259 138 274 117 294 _c
96 314 86 339 86 370 _c
86 428 107 475 151 509 _c
195 543 254 560 330 560 _c
360 560 389 557 417 552 _c
445 547 472 540 500 531 _c
_cl}_e}_d
/t{{392 0 64 0 423 702 _sc
423 547 _m
409 477 _l
230 477 _l
172 180 _l
170 169 168 160 167 152 _c
166 144 166 139 166 135 _c
166 114 172 99 185 89 _c
197 79 217 75 245 75 _c
336 75 _l
321 0 _l
235 0 _l
181 0 141 10 115 31 _c
89 52 76 84 76 126 _c
76 133 76 141 77 150 _c
78 159 80 169 82 180 _c
140 477 _l
64 477 _l
78 547 _l
153 547 _l
183 702 _l
}_e{273 702 _l
243 547 _l
423 547 _l
_cl}_e}_d
end readonly def

/BuildGlyph
 {exch begin
 CharStrings exch
 2 copy known not{pop /.notdef}if
 true 3 1 roll get exec
 end}_d

/BuildChar {
 1 index /Encoding get exch get
 1 index /BuildGlyph get exec
}_d

FontName currentdict end definefont pop
end
%%EndProlog
mpldict begin
75.6 223.2 translate
460.8 345.6 0 0 clipbox
gsave
0 0 m
460.8 0 l
460.8 345.6 l
0 345.6 l
cl
1.000 setgray
fill
grestore
gsave
57.6 38.016 m
414.72 38.016 l
414.72 304.128 l
57.6 304.128 l
cl
1.000 setgray
fill
grestore
0.800 setlinewidth
1 setlinejoin
0 setlinecap
[] 0 setdash
0.000 setgray
gsave
/o {
gsave
newpath
translate
0.8 setlinewidth
1 setlinejoin
0 setlinecap
0 0 m
0 -3.5 l

gsave
0.000 setgray
fill
grestore
stroke
grestore
} bind def
73.8327 38.016 o
grestore
/DejaVuSans findfont
10.000 scalefont
setfont
gsave
70.653040 23.422250 translate
0.000000 rotate
0.000000 0.000000 m /zero glyphshow
grestore
gsave
/o {
gsave
newpath
translate
0.8 setlinewidth
1 setlinejoin
0 setlinecap
0 0 m
0 -3.5 l

gsave
0.000 setgray
fill
grestore
stroke
grestore
} bind def
138.777 38.016 o
grestore
gsave
126.057875 23.422250 translate
0.000000 rotate
0.000000 0.000000 m /one glyphshow
6.362305 0.000000 m /zero glyphshow
12.724609 0.000000 m /zero glyphshow
19.086914 0.000000 m /zero glyphshow
grestore
gsave
/o {
gsave
newpath
translate
0.8 setlinewidth
1 setlinejoin
0 setlinecap
0 0 m
0 -3.5 l

gsave
0.000 setgray
fill
grestore
stroke
grestore
} bind def
203.721 38.016 o
grestore
gsave
191.001773 23.422250 translate
0.000000 rotate
0.000000 0.000000 m /two glyphshow
6.362305 0.000000 m /zero glyphshow
12.724609 0.000000 m /zero glyphshow
19.086914 0.000000 m /zero glyphshow
grestore
gsave
/o {
gsave
newpath
translate
0.8 setlinewidth
1 setlinejoin
0 setlinecap
0 0 m
0 -3.5 l

gsave
0.000 setgray
fill
grestore
stroke
grestore
} bind def
268.664 38.016 o
grestore
gsave
255.945671 23.422250 translate
0.000000 rotate
0.000000 0.000000 m /three glyphshow
6.362305 0.000000 m /zero glyphshow
12.724609 0.000000 m /zero glyphshow
19.086914 0.000000 m /zero glyphshow
grestore
gsave
/o {
gsave
newpath
translate
0.8 setlinewidth
1 setlinejoin
0 setlinecap
0 0 m
0 -3.5 l

gsave
0.000 setgray
fill
grestore
stroke
grestore
} bind def
333.608 38.016 o
grestore
gsave
320.889569 23.422250 translate
0.000000 rotate
0.000000 0.000000 m /four glyphshow
6.362305 0.000000 m /zero glyphshow
12.724609 0.000000 m /zero glyphshow
19.086914 0.000000 m /zero glyphshow
grestore
gsave
/o {
gsave
newpath
translate
0.8 setlinewidth
1 setlinejoin
0 setlinecap
0 0 m
0 -3.5 l

gsave
0.000 setgray
fill
grestore
stroke
grestore
} bind def
398.552 38.016 o
grestore
gsave
385.833467 23.422250 translate
0.000000 rotate
0.000000 0.000000 m /five glyphshow
6.362305 0.000000 m /zero glyphshow
12.724609 0.000000 m /zero glyphshow
19.086914 0.000000 m /zero glyphshow
grestore
/DejaVuSans findfont
14.000 scalefont
setfont
gsave
206.480312 6.703500 translate
0.000000 rotate
0.000000 0.000000 m /I glyphshow
4.128906 0.000000 m /t glyphshow
9.618164 0.000000 m /e glyphshow
18.231445 0.000000 m /r glyphshow
23.987305 0.000000 m /a glyphshow
32.566406 0.000000 m /t glyphshow
38.055664 0.000000 m /i glyphshow
41.945312 0.000000 m /o glyphshow
50.510742 0.000000 m /n glyphshow
grestore
gsave
/o {
gsave
newpath
translate
0.8 setlinewidth
1 setlinejoin
0 setlinecap
0 0 m
-3.5 0 l

gsave
0.000 setgray
fill
grestore
stroke
grestore
} bind def
57.6 71.1763 o
grestore
/DejaVuSans findfont
10.000 scalefont
setfont
gsave
35.865625 67.379392 translate
0.000000 rotate
0.000000 0.000000 m /minus glyphshow
8.378906 0.000000 m /four glyphshow
grestore
gsave
/o {
gsave
newpath
translate
0.8 setlinewidth
1 setlinejoin
0 setlinecap
0 0 m
-3.5 0 l

gsave
0.000 setgray
fill
grestore
stroke
grestore
} bind def
57.6 126.206 o
grestore
gsave
35.865625 122.408690 translate
0.000000 rotate
0.000000 0.000000 m /minus glyphshow
8.378906 0.000000 m /two glyphshow
grestore
gsave
/o {
gsave
newpath
translate
0.8 setlinewidth
1 setlinejoin
0 setlinecap
0 0 m
-3.5 0 l

gsave
0.000 setgray
fill
grestore
stroke
grestore
} bind def
57.6 181.235 o
grestore
gsave
44.240625 177.437989 translate
0.000000 rotate
0.000000 0.000000 m /zero glyphshow
grestore
gsave
/o {
gsave
newpath
translate
0.8 setlinewidth
1 setlinejoin
0 setlinecap
0 0 m
-3.5 0 l

gsave
0.000 setgray
fill
grestore
stroke
grestore
} bind def
57.6 236.264 o
grestore
gsave
44.240625 232.467287 translate
0.000000 rotate
0.000000 0.000000 m /two glyphshow
grestore
gsave
/o {
gsave
newpath
translate
0.8 setlinewidth
1 setlinejoin
0 setlinecap
0 0 m
-3.5 0 l

gsave
0.000 setgray
fill
grestore
stroke
grestore
} bind def
57.6 291.293 o
grestore
gsave
44.240625 287.496585 translate
0.000000 rotate
0.000000 0.000000 m /four glyphshow
grestore
gsave
28.865625 133.572000 translate
90.000000 rotate
/DejaVuSans-Oblique findfont
14.0 scalefont
setfont
0.000000 0.359375 moveto
/l glyphshow

3.889648 0.359375 moveto
/o glyphshow

12.455078 0.359375 moveto
/g glyphshow

21.341797 0.359375 moveto
/f glyphshow

/DejaVuSans findfont
9.8 scalefont
setfont
26.270508 -1.937500 moveto
/five glyphshow

/DejaVuSans findfont
14.0 scalefont
setfont
32.888379 0.359375 moveto
/parenleft glyphshow

/DejaVuSans-Oblique findfont
14.0 scalefont
setfont
38.350293 0.359375 moveto
/X glyphshow

/DejaVuSans-Oblique findfont
9.8 scalefont
setfont
47.941113 -1.937500 moveto
/b glyphshow

54.161816 -1.937500 moveto
/e glyphshow

60.191113 -1.937500 moveto
/s glyphshow

65.296875 -1.937500 moveto
/t glyphshow

/DejaVuSans findfont
14.0 scalefont
setfont
69.522168 0.359375 moveto
/parenright glyphshow


grestore
1.500 setlinewidth
2 setlinecap
0.122 0.467 0.706 setrgbcolor
gsave
357.1 266.1 57.6 38.02 clipbox
73.832727 292.032 m
74.482166 289.925278 l
75.975876 286.660133 l
76.365539 285.95561 l
76.690259 285.436955 l
79.093183 282.38405 l
79.352959 282.115031 l
79.87251 281.545869 l
80.197229 281.200074 l
80.71678 280.694348 l
81.431163 280.120132 l
81.690939 279.848651 l
82.080602 279.554741 l
87.276114 274.907527 l
88.769824 273.616629 l
91.497467 271.711331 l
91.757243 271.573542 l
92.21185 271.261565 l
92.601514 271.05991 l
93.640616 270.417205 l
93.900392 270.169699 l
94.744662 269.667855 l
94.939494 269.526948 l
95.264214 269.402126 l
96.822867 268.502712 l
97.53725 267.991868 l
97.926913 267.810407 l
98.121745 267.688974 l
99.745343 266.767104 l
99.87523 266.657941 l
103.641976 264.841774 l
103.836808 264.754506 l
104.226471 264.497088 l
104.616135 264.376516 l
109.746703 262.45406 l
110.071422 262.144583 l
110.461086 261.87501 l
111.175469 261.691754 l
111.565132 261.578025 l
111.954795 261.469359 l
112.149627 261.286077 l
112.604234 261.161593 l
113.058842 261.098382 l
113.448505 261.002369 l
113.708281 260.829007 l
114.35772 260.68811 l
114.812327 260.544884 l
115.20199 260.321187 l
115.721541 260.211272 l
116.500868 260.001821 l
116.825588 259.885151 l
117.280195 259.72647 l
117.86469 259.587065 l
118.579073 259.279479 l
118.838848 259.182596 l
119.813007 258.988483 l
120.267614 258.822936 l
122.021099 258.217292 l
122.280875 258.127969 l
122.670538 258.048186 l
122.930314 257.974117 l
123.644697 257.756357 l
123.839529 257.580174 l
124.813687 257.111495 l
125.008519 256.998372 l
125.657958 256.535608 l
126.502228 256.301071 l
127.02178 256.251507 l
127.411443 255.922197 l
127.930994 255.828647 l
128.840209 255.642947 l
129.489648 255.435114 l
129.684479 255.34348 l
129.879311 255.192331 l
130.009199 255.125013 l
130.204031 255.013919 l
130.463806 254.964333 l
130.723582 254.802085 l
130.983357 254.742264 l
131.437965 254.634829 l
131.69774 254.526519 l
133.711001 253.870415 l
134.100664 253.787997 l
134.36044 253.612625 l
134.944935 253.514973 l
135.139767 253.372761 l
135.789206 253.277418 l
136.048981 253.152515 l
136.243813 253.124824 l
136.503589 252.889967 l
136.69842 252.829755 l
137.217972 252.429769 l
137.542691 252.35934 l
137.802467 252.225769 l
138.322018 252.101247 l
138.451906 251.892476 l
138.841569 251.763917 l
141.439325 250.589992 l
141.634157 250.357061 l
143.257754 249.972343 l
143.387642 249.848592 l
143.51753 249.832232 l
143.777305 249.622417 l
144.166969 249.534551 l
144.3618 249.456377 l
145.076183 249.34584 l
145.790566 249.102594 l
146.440005 248.993051 l
147.803827 248.849243 l
148.063603 248.606113 l
148.323378 248.545709 l
148.51821 248.471391 l
148.972817 248.360617 l
149.6872 248.19566 l
149.817088 247.997991 l
150.271695 247.896892 l
150.986078 247.62973 l
151.505629 247.523308 l
151.700461 247.454746 l
152.3499 247.300596 l
152.479788 247.122703 l
152.999339 247.055572 l
153.19417 246.858861 l
153.389002 246.753991 l
153.583834 246.5498 l
154.168329 246.451045 l
156.960917 245.473336 l
157.675299 245.366189 l
157.935075 245.125657 l
159.104065 245.022567 l
159.298897 244.962295 l
160.01328 244.863755 l
160.143168 244.714324 l
160.337999 244.650918 l
160.467887 244.645691 l
160.597775 244.500577 l
161.442046 244.372936 l
162.156428 244.347161 l
162.286316 244.203472 l
162.481148 244.124589 l
162.67598 244.065365 l
163.000699 243.973848 l
163.52025 243.684125 l
163.84497 243.634796 l
164.039801 243.56547 l
164.299577 243.460823 l
165.208792 243.114149 l
165.403623 243.027715 l
165.468567 243.027715 l
165.663399 242.771496 l
166.247894 242.721229 l
166.442726 242.478705 l
167.286996 242.239028 l
167.546772 242.007675 l
168.391043 241.986055 l
168.650818 241.50658 l
168.780706 241.505796 l
168.910594 241.32575 l
170.793967 241.217365 l
170.923855 241.080996 l
171.118686 241.079095 l
171.248574 240.942082 l
171.378462 240.916054 l
171.50835 240.745802 l
172.417564 240.680762 l
172.547452 240.560522 l
172.872172 240.548568 l
173.067003 240.35841 l
173.326779 240.298099 l
173.456667 240.294198 l
173.586554 240.088479 l
175.275096 239.876849 l
175.469927 239.68732 l
175.989479 239.611752 l
176.249254 239.274317 l
176.833749 239.252403 l
177.158469 238.926314 l
177.613076 238.774471 l
177.742964 238.53451 l
178.717122 238.43755 l
178.84701 238.218448 l
179.496449 238.133301 l
181.055103 237.967239 l
181.18499 237.719311 l
182.548812 237.691596 l
182.743644 237.550192 l
184.302298 237.472948 l
184.432185 237.31649 l
185.406344 237.235095 l
185.471288 237.192204 l
185.601176 236.99085 l
222.554253 236.84862 l
222.749085 236.751227 l
225.541673 236.647476 l
225.67156 236.491794 l
235.932696 236.412613 l
236.062584 236.197791 l
238.140789 236.096198 l
238.270677 235.967649 l
239.894274 235.860169 l
241.258096 235.7371 l
245.15473 235.734718 l
245.284618 235.455881 l
251.389344 235.416881 l
251.519232 235.150463 l
251.908895 235.150461 l
252.038783 234.921665 l
252.363503 234.920244 l
252.49339 234.800873 l
255.221034 234.715285 l
255.350922 234.528395 l
256.000361 234.526774 l
256.130249 234.395628 l
258.533173 234.38654 l
258.663061 234.085309 l
259.117668 234.085267 l
259.3125 233.799518 l
259.767107 233.720944 l
260.026882 233.497539 l
260.871153 233.386608 l
261.195873 233.374075 l
261.32576 233.245701 l
262.170031 233.230789 l
262.299919 232.964687 l
263.663741 232.963846 l
263.793629 232.64576 l
266.196553 232.549797 l
266.391384 232.485391 l
266.456328 232.485391 l
266.586216 232.223755 l
268.729365 232.126633 l
269.443748 231.976153 l
270.742626 231.865855 l
271.586896 231.856684 l
272.171391 231.851005 l
272.301279 231.555353 l
272.755886 231.555258 l
272.885774 231.205225 l
275.873194 231.115415 l
276.068025 231.051875 l
276.197913 231.051874 l
276.392745 230.433845 l
276.717464 230.433844 l
276.847352 230.187972 l
278.860613 230.136097 l
278.990501 230.027888 l
279.704884 229.920325 l
283.276798 229.692773 l
283.536573 228.90448 l
284.510732 228.876099 l
284.64062 228.497151 l
285.355003 228.421369 l
285.549834 228.364444 l
290.940178 228.086849 l
291.070066 227.828976 l
291.654561 227.828976 l
291.784449 227.651244 l
292.498831 227.650805 l
292.628719 227.213232 l
294.447148 227.144884 l
294.64198 227.078552 l
294.771868 227.061575 l
294.901756 226.598637 l
296.13569 226.513527 l
296.330521 226.450943 l
299.772548 226.373879 l
299.902436 226.014298 l
300.227155 226.001867 l
300.357043 225.789864 l
363.872175 225.773275 l
364.002063 225.554315 l
364.391726 225.51379 l
364.586558 225.074012 l
366.924538 225.072127 l
367.054426 224.335663 l
374.977582 224.327172 l
375.107469 223.788546 l
375.627021 223.690945 l
375.756908 223.532176 l
381.861635 223.52893 l
381.991523 222.965615 l
383.355345 222.965615 l
383.550176 221.815439 l
398.487273 221.745241 l
398.487273 221.745241 l
stroke
grestore
1.000 setlinewidth
0 setlinecap
gsave
357.1 266.1 57.6 38.02 clipbox
/o {
gsave
newpath
translate
1.0 setlinewidth
1 setlinejoin
0 setlinecap
0 -3 m
0.795609 -3 1.55874 -2.683901 2.12132 -2.12132 c
2.683901 -1.55874 3 -0.795609 3 0 c
3 0.795609 2.683901 1.55874 2.12132 2.12132 c
1.55874 2.683901 0.795609 3 0 3 c
-0.795609 3 -1.55874 2.683901 -2.12132 2.12132 c
-2.683901 1.55874 -3 0.795609 -3 0 c
-3 -0.795609 -2.683901 -1.55874 -2.12132 -2.12132 c
-1.55874 -2.683901 -0.795609 -3 0 -3 c
cl

gsave
0.122 0.467 0.706 setrgbcolor
fill
grestore
stroke
grestore
} bind def
73.8327 292.032 o
120.203 258.831 o
166.573 242.427 o
212.943 236.991 o
259.312 233.8 o
305.682 225.774 o
352.052 225.773 o
398.422 221.745 o
grestore
1.500 setlinewidth
2 setlinecap
1.000 0.498 0.055 setrgbcolor
gsave
357.1 266.1 57.6 38.02 clipbox
73.832727 291.909441 m
74.417222 290.289712 l
75.001717 288.647967 l
75.651156 287.313736 l
76.495427 285.615441 l
77.014978 284.628204 l
78.443744 282.262413 l
78.963295 281.684586 l
79.54779 280.89203 l
82.53521 276.852824 l
87.276114 270.975285 l
87.730721 270.542619 l
88.769824 269.297195 l
92.276794 266.086722 l
92.341738 266.0698 l
92.601514 265.743244 l
92.796345 265.563748 l
92.991177 265.452295 l
93.510728 265.085021 l
94.225111 264.712104 l
94.87455 264.095175 l
95.19927 263.840642 l
95.588933 263.444064 l
95.978596 263.261955 l
96.498148 262.811297 l
97.407362 262.269915 l
98.251633 261.619839 l
98.966016 261.317324 l
99.160847 261.147414 l
99.87523 260.553793 l
100.070062 260.325954 l
100.784445 260.032017 l
100.914333 259.940851 l
101.36894 259.505435 l
101.628716 259.395477 l
104.940854 257.382553 l
105.330518 256.85137 l
105.655237 256.651431 l
106.304676 256.367947 l
106.434564 256.316515 l
106.824227 256.003435 l
107.019059 255.921057 l
107.213891 255.78132 l
108.123105 255.176202 l
108.447825 254.8657 l
109.03232 254.609438 l
109.486927 254.411338 l
109.681759 254.168084 l
110.331198 253.895997 l
110.52603 253.803856 l
110.785805 253.719309 l
111.3703 253.132372 l
112.53929 252.663293 l
112.799066 252.541781 l
113.058842 252.356984 l
113.188729 252.225685 l
113.513449 251.960798 l
113.773224 251.871036 l
114.422663 251.536683 l
114.552551 251.513074 l
114.682439 251.358619 l
114.942215 251.279155 l
115.137046 251.144888 l
115.396822 251.039931 l
115.591654 250.963314 l
116.306036 250.637663 l
116.500868 250.57616 l
116.825588 250.36185 l
117.020419 250.356554 l
117.215251 250.07839 l
117.734802 249.970036 l
117.86469 249.947783 l
118.059522 249.706441 l
118.319297 249.46396 l
118.903792 249.348473 l
119.098624 249.205934 l
119.3584 249.014934 l
119.748063 248.529903 l
120.20267 248.443824 l
120.52739 248.155535 l
120.787165 248.036046 l
120.981997 247.745229 l
121.176829 247.644702 l
121.371661 247.538131 l
121.761324 247.436143 l
122.150987 247.36268 l
122.345819 247.292179 l
122.670538 247.043311 l
122.800426 247.042938 l
122.930314 246.868379 l
123.060202 246.857054 l
123.319977 246.562056 l
123.774585 246.461071 l
124.35908 246.318616 l
124.618855 246.31692 l
124.813687 246.174288 l
124.943575 246.090914 l
125.463126 245.636976 l
126.632116 245.376638 l
127.541331 244.714718 l
127.736163 244.707961 l
127.86605 244.573998 l
127.930994 244.573434 l
128.125826 244.36821 l
129.294816 244.087067 l
129.424704 243.93392 l
129.489648 243.92498 l
129.619536 243.783558 l
129.879311 243.770569 l
130.074143 243.512957 l
130.788526 243.408484 l
130.85347 243.400761 l
131.113245 242.705095 l
132.282235 241.948067 l
132.996618 241.838765 l
133.19145 241.754667 l
133.386282 241.754658 l
133.516169 241.589242 l
133.711001 241.509119 l
133.970777 241.168601 l
134.100664 241.116457 l
134.295496 240.999165 l
135.204711 240.731108 l
135.334599 240.577337 l
135.464486 240.576923 l
135.659318 240.317981 l
135.984038 240.292397 l
136.113925 240.081841 l
136.373701 240.03453 l
136.503589 240.033632 l
136.69842 239.787216 l
136.828308 239.785407 l
136.958196 239.611482 l
137.412803 239.53366 l
137.737523 239.435382 l
137.932354 239.435293 l
138.062242 239.280214 l
139.750784 239.226235 l
139.880671 239.076262 l
140.205391 239.067013 l
140.400223 238.763305 l
141.049662 238.760518 l
141.179549 238.617474 l
141.699101 238.614432 l
141.828988 238.487764 l
141.893932 238.487764 l
142.02382 238.364884 l
142.673259 238.274062 l
142.868091 238.022561 l
143.062922 237.934831 l
143.647417 237.920559 l
143.777305 237.71203 l
145.725622 237.638496 l
145.85551 237.522528 l
146.440005 237.522521 l
146.569893 237.275104 l
147.219332 237.213114 l
147.608995 236.873945 l
148.258434 236.868145 l
148.388322 236.721992 l
148.648098 236.709899 l
148.777985 236.530454 l
151.245854 236.455145 l
151.375741 236.32947 l
151.700461 236.32947 l
151.830349 236.191279 l
151.895293 236.191146 l
152.02518 235.993285 l
152.674619 235.916272 l
153.064283 235.651741 l
167.936435 235.554941 l
168.066323 235.262912 l
173.456667 235.26173 l
173.586554 234.987448 l
174.625657 234.891986 l
174.820488 234.82668 l
175.859591 234.796273 l
175.989479 234.665329 l
176.054423 234.665262 l
176.249254 234.08988 l
176.444086 234.089796 l
176.573974 233.826162 l
177.807908 233.715003 l
177.872852 233.713807 l
178.132627 233.364376 l
178.327459 233.3641 l
178.457347 233.005284 l
178.652178 232.954888 l
178.84701 232.80654 l
178.911954 232.80654 l
179.106786 232.057034 l
179.431505 232.021258 l
179.626337 232.020584 l
179.756225 231.688851 l
180.145888 231.588883 l
180.600495 231.454877 l
181.120047 231.349914 l
181.314878 231.240973 l
182.6787 231.223957 l
182.808588 230.759681 l
184.886793 230.690937 l
185.01668 230.30096 l
186.185671 230.225471 l
186.315558 230.082747 l
186.51039 230.082738 l
186.640278 229.653732 l
187.094885 229.6534 l
187.224773 229.233119 l
187.419605 229.187638 l
187.614436 229.093068 l
187.744324 228.956378 l
187.874212 228.956159 l
188.0041 228.60238 l
188.133988 228.602379 l
188.393763 227.862784 l
188.913314 227.859121 l
189.043202 227.710572 l
189.887473 227.683585 l
190.017361 227.359422 l
192.485229 227.262473 l
192.809948 226.964905 l
193.524331 226.860624 l
193.654219 226.322746 l
194.303658 226.270766 l
194.49849 225.599544 l
194.628377 225.108051 l
194.693321 225.107405 l
194.823209 224.533422 l
194.888153 224.533143 l
195.018041 224.398216 l
195.212872 224.398024 l
195.34276 224.009398 l
195.862311 223.958316 l
195.992199 223.824424 l
196.057143 223.82344 l
196.187031 223.63939 l
196.901414 223.549808 l
197.031302 223.326922 l
197.161189 223.326798 l
197.356021 222.697036 l
197.615797 222.694258 l
197.745684 222.032502 l
198.00546 222.032493 l
198.135348 221.731023 l
198.460067 221.72663 l
198.589955 221.315566 l
198.654899 221.315564 l
198.784787 221.04578 l
198.849731 221.045778 l
198.979618 220.924046 l
199.109506 220.454852 l
199.629057 220.430302 l
200.083665 220.418084 l
200.213553 219.302375 l
203.590635 219.225117 l
203.720523 218.26463 l
203.980299 218.2645 l
204.110186 217.984786 l
204.824569 217.982848 l
204.954457 217.798368 l
205.34412 217.798366 l
205.474008 217.274996 l
205.538952 217.274996 l
205.928616 215.053933 l
206.318279 215.042055 l
206.513111 213.458433 l
206.642998 213.458433 l
206.83783 213.313258 l
208.136708 213.241423 l
208.266596 211.786708 l
208.33154 211.785623 l
208.461428 211.293767 l
208.786147 211.293753 l
208.916035 211.127677 l
209.305698 211.11763 l
209.50053 211.013556 l
210.799408 211.012933 l
210.929296 209.245566 l
211.059183 209.245566 l
211.189071 207.337286 l
211.383903 207.337286 l
211.513791 206.389775 l
211.708622 206.350217 l
211.83851 205.333188 l
244.635179 205.231229 l
245.219674 205.217546 l
249.181252 205.217193 l
249.311139 204.396292 l
249.960578 204.395973 l
250.090466 203.021037 l
251.454288 203.017007 l
251.584176 202.829265 l
253.077885 202.829264 l
253.207773 201.060817 l
253.467549 201.03622 l
253.597437 200.693525 l
257.559014 200.637281 l
257.688902 195.340078 l
258.468229 195.339572 l
258.598117 193.412623 l
258.922836 193.41221 l
259.052724 193.170872 l
260.416546 193.117126 l
260.611378 191.693301 l
263.793629 191.601421 l
263.98846 191.554737 l
266.781048 191.551074 l
313.930318 191.540096 l
314.060205 161.508907 l
316.46313 161.508264 l
316.722905 121.861924 l
317.437288 121.822105 l
317.567176 114.340811 l
318.411447 114.3408 l
318.541334 110.242879 l
318.80111 110.242879 l
318.930998 109.2665 l
319.060886 105.133281 l
319.190773 105.13328 l
319.320661 94.856377 l
319.775269 94.816418 l
319.905156 79.41466 l
321.074146 79.310064 l
321.46381 79.28022 l
325.100668 79.232586 l
325.230556 77.04235 l
334.582477 76.945568 l
334.777309 76.894035 l
336.46585 76.784787 l
337.440009 76.769419 l
341.79125 76.763493 l
341.921138 76.1635 l
342.310801 76.162302 l
342.440689 73.116369 l
343.090128 73.079297 l
343.155072 72.994808 l
343.28496 61.081727 l
343.349903 61.081727 l
343.674623 60.243859 l
343.739567 60.243858 l
343.869455 57.943819 l
344.518894 57.941598 l
344.648781 55.735701 l
344.843613 55.672002 l
344.973501 54.576213 l
346.532154 54.569813 l
346.662042 54.426764 l
352.182274 54.33317 l
352.312161 52.459275 l
352.896656 52.45923 l
353.026544 51.936554 l
353.416208 51.935277 l
353.546095 51.79501 l
353.611039 51.79501 l
353.740927 50.890514 l
355.429468 50.844984 l
355.559356 50.68 l
357.832393 50.584619 l
357.96228 50.375269 l
363.547456 50.290834 l
363.742287 50.199674 l
398.487273 50.112 l
398.487273 50.112 l
stroke
grestore
1.000 setlinewidth
0 setlinejoin
0 setlinecap
gsave
357.1 266.1 57.6 38.02 clipbox
/o {
gsave
newpath
translate
1.0 setlinewidth
0 setlinejoin
0 setlinecap
-3 -3 m
3 -3 l
3 3 l
-3 3 l
cl

gsave
1.000 0.498 0.055 setrgbcolor
fill
grestore
stroke
grestore
} bind def
73.8327 291.909 o
120.203 248.444 o
166.573 235.557 o
212.943 205.329 o
259.312 193.125 o
305.682 191.54 o
352.052 54.3332 o
398.422 50.112 o
grestore
0.800 setlinewidth
2 setlinecap
[] 0 setdash
0.000 setgray
gsave
57.6 38.016 m
57.6 304.128 l
stroke
grestore
gsave
414.72 38.016 m
414.72 304.128 l
stroke
grestore
gsave
57.6 38.016 m
414.72 38.016 l
stroke
grestore
gsave
57.6 304.128 m
414.72 304.128 l
stroke
grestore
1.000 setlinewidth
0 setlinecap
0.800 setgray
gsave
348.72 265.456125 m
407.72 265.456125 l
409.053333 265.456125 409.72 266.122792 409.72 267.456125 c
409.72 297.128 l
409.72 298.461333 409.053333 299.128 407.72 299.128 c
348.72 299.128 l
347.386667 299.128 346.72 298.461333 346.72 297.128 c
346.72 267.456125 l
346.72 266.122792 347.386667 265.456125 348.72 265.456125 c
cl
gsave
1.000 setgray
fill
grestore
stroke
grestore
1.500 setlinewidth
1 setlinejoin
2 setlinecap
[] 0 setdash
0.122 0.467 0.706 setrgbcolor
gsave
350.72 291.03425 m
370.72 291.03425 l
stroke
grestore
1.000 setlinewidth
0 setlinecap
gsave
/o {
gsave
newpath
translate
1.0 setlinewidth
1 setlinejoin
0 setlinecap
0 -3 m
0.795609 -3 1.55874 -2.683901 2.12132 -2.12132 c
2.683901 -1.55874 3 -0.795609 3 0 c
3 0.795609 2.683901 1.55874 2.12132 2.12132 c
1.55874 2.683901 0.795609 3 0 3 c
-0.795609 3 -1.55874 2.683901 -2.12132 2.12132 c
-2.683901 1.55874 -3 0.795609 -3 0 c
-3 -0.795609 -2.683901 -1.55874 -2.12132 -2.12132 c
-1.55874 -2.683901 -0.795609 -3 0 -3 c
cl

gsave
0.122 0.467 0.706 setrgbcolor
fill
grestore
stroke
grestore
} bind def
360.72 291.034 o
grestore
0.000 setgray
gsave
378.720000 287.534250 translate
0.000000 rotate
/DejaVuSans-Oblique findfont
10.0 scalefont
setfont
0.000000 0.578125 moveto
/A glyphshow

6.840820 0.578125 moveto
/B glyphshow

13.701172 0.578125 moveto
/C glyphshow


grestore
1.500 setlinewidth
2 setlinecap
1.000 0.498 0.055 setrgbcolor
gsave
350.72 275.03425 m
370.72 275.03425 l
stroke
grestore
1.000 setlinewidth
0 setlinejoin
0 setlinecap
gsave
/o {
gsave
newpath
translate
1.0 setlinewidth
0 setlinejoin
0 setlinecap
-3 -3 m
3 -3 l
3 3 l
-3 3 l
cl

gsave
1.000 0.498 0.055 setrgbcolor
fill
grestore
stroke
grestore
} bind def
360.72 275.034 o
grestore
0.000 setgray
gsave
378.720000 271.534250 translate
0.000000 rotate
/DejaVuSans-Oblique findfont
10.0 scalefont
setfont
0.000000 0.856250 moveto
/A glyphshow

6.840820 0.856250 moveto
/B glyphshow

13.701172 0.856250 moveto
/C glyphshow

/DejaVuSans-Oblique findfont
7.0 scalefont
setfont
21.403646 4.684375 moveto
/d glyphshow


grestore

end
showpage
