%!PS-Adobe-3.0 EPSF-3.0
%%Title: plots/Sum Of Square1.eps
%%Creator: matplotlib version 2.2.2, http://matplotlib.org/
%%CreationDate: Sun Jul 29 17:00:45 2018
%%Orientation: portrait
%%BoundingBox: 75 223 536 568
%%EndComments
%%BeginProlog
/mpldict 9 dict def
mpldict begin
/m { moveto } bind def
/l { lineto } bind def
/r { rlineto } bind def
/c { curveto } bind def
/cl { closepath } bind def
/box {
m
1 index 0 r
0 exch r
neg 0 r
cl
} bind def
/clipbox {
box
clip
newpath
} bind def
%!PS-Adobe-3.0 Resource-Font
%%Title: DejaVu Sans
%%Copyright: Copyright (c) 2003 by Bitstream, Inc. All Rights Reserved. Copyright (c) 2006 by Tavmjong Bah. All Rights Reserved. DejaVu changes are in public domain 
%%Creator: Converted from TrueType to type 3 by PPR
25 dict begin
/_d{bind def}bind def
/_m{moveto}_d
/_l{lineto}_d
/_cl{closepath eofill}_d
/_c{curveto}_d
/_sc{7 -1 roll{setcachedevice}{pop pop pop pop pop pop}ifelse}_d
/_e{exec}_d
/FontName /DejaVuSans def
/PaintType 0 def
/FontMatrix[.001 0 0 .001 0 0]def
/FontBBox[-1021 -463 1793 1232]def
/FontType 3 def
/Encoding [ /parenleft /parenright /zero /one /two /three /four /five /six /I /a /e /i /n /o /r /t /minus ] def
/FontInfo 10 dict dup begin
/FamilyName (DejaVu Sans) def
/FullName (DejaVu Sans) def
/Notice (Copyright (c) 2003 by Bitstream, Inc. All Rights Reserved. Copyright (c) 2006 by Tavmjong Bah. All Rights Reserved. DejaVu changes are in public domain ) def
/Weight (Book) def
/Version (Version 2.35) def
/ItalicAngle 0.0 def
/isFixedPitch false def
/UnderlinePosition -130 def
/UnderlineThickness 90 def
end readonly def
/CharStrings 19 dict dup begin
/.notdef 0 def
/parenleft{390 0 86 -131 310 759 _sc
310 759 _m
266 683 234 609 213 536 _c
191 463 181 389 181 314 _c
181 238 191 164 213 91 _c
234 17 266 -56 310 -131 _c
232 -131 _l
183 -54 146 20 122 94 _c
98 168 86 241 86 314 _c
86 386 98 459 122 533 _c
146 607 182 682 232 759 _c
310 759 _l
_cl}_d
/parenright{390 0 80 -131 304 759 _sc
80 759 _m
158 759 _l
206 682 243 607 267 533 _c
291 459 304 386 304 314 _c
304 241 291 168 267 94 _c
243 20 206 -54 158 -131 _c
80 -131 _l
123 -56 155 17 177 91 _c
198 164 209 238 209 314 _c
209 389 198 463 177 536 _c
155 609 123 683 80 759 _c
_cl}_d
/zero{636 0 66 -13 570 742 _sc
318 664 _m
267 664 229 639 203 589 _c
177 539 165 464 165 364 _c
165 264 177 189 203 139 _c
229 89 267 64 318 64 _c
369 64 407 89 433 139 _c
458 189 471 264 471 364 _c
471 464 458 539 433 589 _c
407 639 369 664 318 664 _c
318 742 _m
399 742 461 709 505 645 _c
548 580 570 486 570 364 _c
570 241 548 147 505 83 _c
461 19 399 -13 318 -13 _c
236 -13 173 19 130 83 _c
87 147 66 241 66 364 _c
66 486 87 580 130 645 _c
173 709 236 742 318 742 _c
_cl}_d
/one{636 0 110 0 544 729 _sc
124 83 _m
285 83 _l
285 639 _l
110 604 _l
110 694 _l
284 729 _l
383 729 _l
383 83 _l
544 83 _l
544 0 _l
124 0 _l
124 83 _l
_cl}_d
/two{{636 0 73 0 536 742 _sc
192 83 _m
536 83 _l
536 0 _l
73 0 _l
73 83 _l
110 121 161 173 226 239 _c
290 304 331 346 348 365 _c
380 400 402 430 414 455 _c
426 479 433 504 433 528 _c
433 566 419 598 392 622 _c
365 646 330 659 286 659 _c
255 659 222 653 188 643 _c
154 632 117 616 78 594 _c
78 694 _l
118 710 155 722 189 730 _c
223 738 255 742 284 742 _c
}_e{359 742 419 723 464 685 _c
509 647 532 597 532 534 _c
532 504 526 475 515 449 _c
504 422 484 390 454 354 _c
446 344 420 317 376 272 _c
332 227 271 164 192 83 _c
_cl}_e}_d
/three{{636 0 76 -13 556 742 _sc
406 393 _m
453 383 490 362 516 330 _c
542 298 556 258 556 212 _c
556 140 531 84 482 45 _c
432 6 362 -13 271 -13 _c
240 -13 208 -10 176 -4 _c
144 1 110 10 76 22 _c
76 117 _l
103 101 133 89 166 81 _c
198 73 232 69 268 69 _c
330 69 377 81 409 105 _c
441 129 458 165 458 212 _c
458 254 443 288 413 312 _c
383 336 341 349 287 349 _c
}_e{202 349 _l
202 430 _l
291 430 _l
339 430 376 439 402 459 _c
428 478 441 506 441 543 _c
441 580 427 609 401 629 _c
374 649 336 659 287 659 _c
260 659 231 656 200 650 _c
169 644 135 635 98 623 _c
98 711 _l
135 721 170 729 203 734 _c
235 739 266 742 296 742 _c
370 742 429 725 473 691 _c
517 657 539 611 539 553 _c
539 513 527 479 504 451 _c
481 423 448 403 406 393 _c
_cl}_e}_d
/four{636 0 49 0 580 729 _sc
378 643 _m
129 254 _l
378 254 _l
378 643 _l
352 729 _m
476 729 _l
476 254 _l
580 254 _l
580 172 _l
476 172 _l
476 0 _l
378 0 _l
378 172 _l
49 172 _l
49 267 _l
352 729 _l
_cl}_d
/five{{636 0 77 -13 549 729 _sc
108 729 _m
495 729 _l
495 646 _l
198 646 _l
198 467 _l
212 472 227 476 241 478 _c
255 480 270 482 284 482 _c
365 482 429 459 477 415 _c
525 370 549 310 549 234 _c
549 155 524 94 475 51 _c
426 8 357 -13 269 -13 _c
238 -13 207 -10 175 -6 _c
143 -1 111 6 77 17 _c
77 116 _l
106 100 136 88 168 80 _c
199 72 232 69 267 69 _c
}_e{323 69 368 83 401 113 _c
433 143 450 183 450 234 _c
450 284 433 324 401 354 _c
368 384 323 399 267 399 _c
241 399 214 396 188 390 _c
162 384 135 375 108 363 _c
108 729 _l
_cl}_e}_d
/six{{636 0 70 -13 573 742 _sc
330 404 _m
286 404 251 388 225 358 _c
199 328 186 286 186 234 _c
186 181 199 139 225 109 _c
251 79 286 64 330 64 _c
374 64 409 79 435 109 _c
461 139 474 181 474 234 _c
474 286 461 328 435 358 _c
409 388 374 404 330 404 _c
526 713 _m
526 623 _l
501 635 476 644 451 650 _c
425 656 400 659 376 659 _c
310 659 260 637 226 593 _c
}_e{192 549 172 482 168 394 _c
187 422 211 444 240 459 _c
269 474 301 482 336 482 _c
409 482 467 459 509 415 _c
551 371 573 310 573 234 _c
573 159 550 99 506 54 _c
462 9 403 -13 330 -13 _c
246 -13 181 19 137 83 _c
92 147 70 241 70 364 _c
70 479 97 571 152 639 _c
206 707 280 742 372 742 _c
396 742 421 739 447 735 _c
472 730 498 723 526 713 _c
_cl}_e}_d
/I{295 0 98 0 197 729 _sc
98 729 _m
197 729 _l
197 0 _l
98 0 _l
98 729 _l
_cl}_d
/a{{613 0 60 -13 522 560 _sc
343 275 _m
270 275 220 266 192 250 _c
164 233 150 205 150 165 _c
150 133 160 107 181 89 _c
202 70 231 61 267 61 _c
317 61 357 78 387 114 _c
417 149 432 196 432 255 _c
432 275 _l
343 275 _l
522 312 _m
522 0 _l
432 0 _l
432 83 _l
411 49 385 25 355 10 _c
325 -5 287 -13 243 -13 _c
187 -13 142 2 109 33 _c
76 64 60 106 60 159 _c
}_e{60 220 80 266 122 298 _c
163 329 224 345 306 345 _c
432 345 _l
432 354 _l
432 395 418 427 391 450 _c
364 472 326 484 277 484 _c
245 484 215 480 185 472 _c
155 464 127 453 100 439 _c
100 522 _l
132 534 164 544 195 550 _c
226 556 256 560 286 560 _c
365 560 424 539 463 498 _c
502 457 522 395 522 312 _c
_cl}_e}_d
/e{{615 0 55 -13 562 560 _sc
562 296 _m
562 252 _l
149 252 _l
153 190 171 142 205 110 _c
238 78 284 62 344 62 _c
378 62 412 66 444 74 _c
476 82 509 95 541 113 _c
541 28 _l
509 14 476 3 442 -3 _c
408 -9 373 -13 339 -13 _c
251 -13 182 12 131 62 _c
80 112 55 181 55 268 _c
55 357 79 428 127 481 _c
175 533 241 560 323 560 _c
397 560 455 536 498 489 _c
}_e{540 441 562 377 562 296 _c
472 322 _m
471 371 457 410 431 440 _c
404 469 368 484 324 484 _c
274 484 234 469 204 441 _c
174 413 156 373 152 322 _c
472 322 _l
_cl}_e}_d
/i{278 0 94 0 184 760 _sc
94 547 _m
184 547 _l
184 0 _l
94 0 _l
94 547 _l
94 760 _m
184 760 _l
184 646 _l
94 646 _l
94 760 _l
_cl}_d
/n{634 0 91 0 549 560 _sc
549 330 _m
549 0 _l
459 0 _l
459 327 _l
459 379 448 417 428 443 _c
408 469 378 482 338 482 _c
289 482 251 466 223 435 _c
195 404 181 362 181 309 _c
181 0 _l
91 0 _l
91 547 _l
181 547 _l
181 462 _l
202 494 227 519 257 535 _c
286 551 320 560 358 560 _c
420 560 468 540 500 501 _c
532 462 549 405 549 330 _c
_cl}_d
/o{612 0 55 -13 557 560 _sc
306 484 _m
258 484 220 465 192 427 _c
164 389 150 338 150 273 _c
150 207 163 156 191 118 _c
219 80 257 62 306 62 _c
354 62 392 80 420 118 _c
448 156 462 207 462 273 _c
462 337 448 389 420 427 _c
392 465 354 484 306 484 _c
306 560 _m
384 560 445 534 490 484 _c
534 433 557 363 557 273 _c
557 183 534 113 490 63 _c
445 12 384 -13 306 -13 _c
227 -13 165 12 121 63 _c
77 113 55 183 55 273 _c
55 363 77 433 121 484 _c
165 534 227 560 306 560 _c
_cl}_d
/r{411 0 91 0 411 560 _sc
411 463 _m
401 469 390 473 378 476 _c
366 478 353 480 339 480 _c
288 480 249 463 222 430 _c
194 397 181 350 181 288 _c
181 0 _l
91 0 _l
91 547 _l
181 547 _l
181 462 _l
199 495 224 520 254 536 _c
284 552 321 560 365 560 _c
371 560 378 559 386 559 _c
393 558 401 557 411 555 _c
411 463 _l
_cl}_d
/t{392 0 27 0 368 702 _sc
183 702 _m
183 547 _l
368 547 _l
368 477 _l
183 477 _l
183 180 _l
183 135 189 106 201 94 _c
213 81 238 75 276 75 _c
368 75 _l
368 0 _l
276 0 _l
206 0 158 13 132 39 _c
106 65 93 112 93 180 _c
93 477 _l
27 477 _l
27 547 _l
93 547 _l
93 702 _l
183 702 _l
_cl}_d
/minus{838 0 106 272 732 355 _sc
106 355 _m
732 355 _l
732 272 _l
106 272 _l
106 355 _l
_cl}_d
end readonly def

/BuildGlyph
 {exch begin
 CharStrings exch
 2 copy known not{pop /.notdef}if
 true 3 1 roll get exec
 end}_d

/BuildChar {
 1 index /Encoding get exch get
 1 index /BuildGlyph get exec
}_d

FontName currentdict end definefont pop
%!PS-Adobe-3.0 Resource-Font
%%Title: DejaVu Sans Oblique
%%Copyright: Copyright (c) 2003 by Bitstream, Inc. All Rights Reserved. Copyright (c) 2006 by Tavmjong Bah. All Rights Reserved. DejaVu changes are in public domain 
%%Creator: Converted from TrueType to type 3 by PPR
25 dict begin
/_d{bind def}bind def
/_m{moveto}_d
/_l{lineto}_d
/_cl{closepath eofill}_d
/_c{curveto}_d
/_sc{7 -1 roll{setcachedevice}{pop pop pop pop pop pop}ifelse}_d
/_e{exec}_d
/FontName /DejaVuSans-Oblique def
/PaintType 0 def
/FontMatrix[.001 0 0 .001 0 0]def
/FontBBox[-1016 -350 1659 1068]def
/FontType 3 def
/Encoding [ /A /B /C /X /b /d /e /f /g /l /o /s /t ] def
/FontInfo 10 dict dup begin
/FamilyName (DejaVu Sans) def
/FullName (DejaVu Sans Oblique) def
/Notice (Copyright (c) 2003 by Bitstream, Inc. All Rights Reserved. Copyright (c) 2006 by Tavmjong Bah. All Rights Reserved. DejaVu changes are in public domain ) def
/Weight (Oblique) def
/Version (Version 2.35) def
/ItalicAngle -11.0 def
/isFixedPitch false def
/UnderlinePosition -130 def
/UnderlineThickness 90 def
end readonly def
/CharStrings 14 dict dup begin
/.notdef 0 def
/A{684 0 -52 0 615 729 _sc
368 729 _m
480 729 _l
615 0 _l
512 0 _l
482 187 _l
154 187 _l
51 0 _l
-52 0 _l
368 729 _l
404 632 _m
199 269 _l
467 269 _l
404 632 _l
_cl}_d
/B{{686 0 27 0 625 729 _sc
169 729 _m
421 729 _l
489 729 540 716 574 691 _c
608 665 625 627 625 576 _c
625 529 610 489 581 455 _c
552 421 514 400 467 393 _c
507 383 537 366 557 340 _c
577 314 588 280 588 238 _c
588 164 560 106 506 64 _c
452 21 378 0 284 0 _c
27 0 _l
169 729 _l
193 348 _m
141 81 _l
300 81 _l
359 81 405 94 437 122 _c
469 149 486 188 486 238 _c
}_e{486 276 475 303 454 321 _c
432 339 398 348 351 348 _c
193 348 _l
251 648 _m
208 428 _l
355 428 _l
407 428 448 439 478 462 _c
507 485 522 517 522 557 _c
522 588 512 611 492 626 _c
472 640 440 648 397 648 _c
251 648 _l
_cl}_e}_d
/C{{698 0 42 -13 695 742 _sc
695 673 _m
675 569 _l
643 600 610 623 575 639 _c
540 654 502 662 462 662 _c
406 662 357 648 315 622 _c
273 595 236 554 206 500 _c
186 464 171 427 161 388 _c
151 349 146 310 146 270 _c
146 203 163 152 197 118 _c
231 83 281 66 347 66 _c
392 66 435 73 477 87 _c
519 101 559 123 599 153 _c
576 36 _l
537 19 498 7 458 -1 _c
}_e{418 -9 379 -13 340 -13 _c
246 -13 173 12 121 62 _c
68 112 42 183 42 274 _c
42 332 52 389 72 445 _c
92 501 120 552 158 598 _c
198 647 243 683 294 707 _c
345 730 404 742 472 742 _c
514 742 553 736 590 725 _c
627 713 662 696 695 673 _c
_cl}_e}_d
/X{685 0 -42 0 703 729 _sc
137 729 _m
237 729 _l
362 466 _l
588 729 _l
703 729 _l
403 381 _l
584 0 _l
485 0 _l
338 307 _l
72 0 _l
-42 0 _l
298 392 _l
137 729 _l
_cl}_d
/b{{635 0 36 -13 587 760 _sc
495 334 _m
495 381 484 418 462 445 _c
440 471 411 485 373 485 _c
345 485 319 478 295 464 _c
271 450 250 431 232 406 _c
213 378 198 347 187 311 _c
176 275 171 240 171 205 _c
171 160 181 125 203 99 _c
224 73 253 61 291 61 _c
319 61 345 67 369 81 _c
393 94 415 113 433 139 _c
451 165 466 196 478 232 _c
489 268 495 302 495 334 _c
216 464 _m
}_e{238 494 265 517 299 534 _c
332 551 367 560 404 560 _c
460 560 504 541 537 503 _c
570 465 587 414 587 350 _c
587 297 577 246 558 197 _c
538 147 511 103 475 65 _c
451 39 424 20 394 7 _c
363 -6 331 -13 298 -13 _c
262 -13 232 -5 206 11 _c
180 27 158 51 142 83 _c
126 0 _l
36 0 _l
184 760 _l
274 760 _l
216 464 _l
_cl}_e}_d
/d{{635 0 46 -13 639 760 _sc
418 82 _m
394 50 365 27 332 11 _c
299 -5 263 -13 223 -13 _c
168 -13 125 5 93 42 _c
61 79 46 130 46 195 _c
46 249 55 300 75 349 _c
94 398 122 442 158 481 _c
182 507 209 526 239 540 _c
269 553 301 560 335 560 _c
370 560 401 551 428 534 _c
454 517 475 493 490 462 _c
549 760 _l
639 760 _l
491 0 _l
401 0 _l
418 82 _l
139 211 _m
}_e{139 163 149 126 171 100 _c
192 74 222 61 260 61 _c
288 61 314 67 338 81 _c
362 95 383 115 401 141 _c
420 168 435 200 446 236 _c
457 272 463 307 463 342 _c
463 387 452 422 431 448 _c
409 473 380 486 343 486 _c
314 486 287 479 263 466 _c
239 452 218 433 201 408 _c
182 381 167 350 156 314 _c
144 278 139 243 139 211 _c
_cl}_e}_d
/e{{615 0 46 -13 571 560 _sc
481 322 _m
481 327 482 332 483 338 _c
483 344 484 349 484 355 _c
484 395 472 426 449 449 _c
425 472 394 484 354 484 _c
309 484 270 469 236 441 _c
202 413 176 373 158 322 _c
481 322 _l
559 252 _m
141 252 _l
139 239 137 229 137 222 _c
136 215 136 209 136 204 _c
136 158 150 123 178 99 _c
206 74 245 62 296 62 _c
334 62 371 66 406 75 _c
}_e{441 83 474 96 504 114 _c
487 25 _l
454 11 420 2 386 -4 _c
352 -10 317 -13 282 -13 _c
206 -13 147 5 107 41 _c
66 77 46 128 46 195 _c
46 251 56 304 76 353 _c
96 402 126 446 166 485 _c
191 509 221 527 256 540 _c
291 553 328 560 368 560 _c
430 560 479 541 516 504 _c
552 467 571 417 571 355 _c
571 340 570 324 568 307 _c
566 289 563 271 559 252 _c
_cl}_e}_d
/f{352 0 68 0 478 760 _sc
478 760 _m
464 685 _l
378 685 _l
345 685 321 678 307 665 _c
292 652 281 629 274 595 _c
264 547 _l
412 547 _l
399 477 _l
251 477 _l
158 0 _l
68 0 _l
161 477 _l
75 477 _l
88 547 _l
174 547 _l
181 585 _l
193 649 215 695 246 721 _c
277 747 326 760 393 760 _c
478 760 _l
_cl}_d
/g{{635 0 32 -207 596 560 _sc
596 547 _m
503 68 _l
485 -24 450 -92 400 -138 _c
349 -184 281 -207 196 -207 _c
164 -207 134 -204 107 -200 _c
80 -195 55 -188 32 -178 _c
49 -91 _l
71 -105 94 -115 119 -122 _c
143 -129 170 -133 198 -133 _c
255 -133 302 -117 339 -86 _c
375 -55 399 -11 411 47 _c
419 88 _l
393 59 364 37 331 22 _c
298 7 262 0 224 0 _c
168 0 125 18 93 55 _c
}_e{61 91 46 142 46 206 _c
46 256 55 306 75 354 _c
94 402 121 445 156 483 _c
178 507 205 526 236 540 _c
267 553 299 560 333 560 _c
369 560 401 551 429 534 _c
456 517 476 493 490 462 _c
506 547 _l
596 547 _l
461 346 _m
461 390 450 425 429 449 _c
408 473 379 485 341 485 _c
317 485 294 480 273 471 _c
251 461 233 448 218 431 _c
193 403 174 370 160 332 _c
}_e{146 294 139 255 139 215 _c
139 169 149 135 170 111 _c
191 87 221 75 261 75 _c
318 75 366 100 404 152 _c
442 204 461 268 461 346 _c
_cl}_e}_d
/l{278 0 35 0 273 760 _sc
183 760 _m
273 760 _l
125 0 _l
35 0 _l
183 760 _l
_cl}_d
/o{{612 0 46 -13 566 560 _sc
254 -13 _m
190 -13 139 6 102 45 _c
64 84 46 138 46 207 _c
46 247 52 287 65 328 _c
77 369 94 404 115 432 _c
147 476 183 508 223 529 _c
263 549 308 560 358 560 _c
420 560 470 540 508 502 _c
546 463 566 412 566 350 _c
566 306 559 263 547 220 _c
534 177 517 142 497 114 _c
465 70 429 37 389 17 _c
349 -3 304 -13 254 -13 _c
139 210 _m
}_e{139 160 149 123 170 99 _c
190 74 222 62 264 62 _c
324 62 373 88 413 141 _c
453 193 473 260 473 341 _c
473 388 462 424 441 448 _c
420 472 389 484 348 484 _c
314 484 283 476 257 460 _c
231 444 207 420 187 388 _c
171 364 159 336 151 305 _c
143 274 139 242 139 210 _c
_cl}_e}_d
/s{{521 0 11 -13 500 560 _sc
500 531 _m
483 446 _l
459 458 433 468 407 475 _c
381 481 354 485 326 485 _c
278 485 241 477 214 461 _c
187 445 174 423 174 395 _c
174 363 205 338 269 321 _c
273 319 277 318 279 318 _c
308 309 _l
368 292 408 274 428 256 _c
448 238 458 213 458 182 _c
458 124 435 77 389 41 _c
343 5 282 -13 208 -13 _c
179 -13 149 -10 117 -5 _c
}_e{85 0 49 8 11 20 _c
29 113 _l
61 95 94 82 126 74 _c
158 65 188 61 218 61 _c
262 61 297 70 325 89 _c
352 108 366 132 366 161 _c
366 192 330 217 258 237 _c
249 239 _l
218 247 _l
172 259 138 274 117 294 _c
96 314 86 339 86 370 _c
86 428 107 475 151 509 _c
195 543 254 560 330 560 _c
360 560 389 557 417 552 _c
445 547 472 540 500 531 _c
_cl}_e}_d
/t{{392 0 64 0 423 702 _sc
423 547 _m
409 477 _l
230 477 _l
172 180 _l
170 169 168 160 167 152 _c
166 144 166 139 166 135 _c
166 114 172 99 185 89 _c
197 79 217 75 245 75 _c
336 75 _l
321 0 _l
235 0 _l
181 0 141 10 115 31 _c
89 52 76 84 76 126 _c
76 133 76 141 77 150 _c
78 159 80 169 82 180 _c
140 477 _l
64 477 _l
78 547 _l
153 547 _l
183 702 _l
}_e{273 702 _l
243 547 _l
423 547 _l
_cl}_e}_d
end readonly def

/BuildGlyph
 {exch begin
 CharStrings exch
 2 copy known not{pop /.notdef}if
 true 3 1 roll get exec
 end}_d

/BuildChar {
 1 index /Encoding get exch get
 1 index /BuildGlyph get exec
}_d

FontName currentdict end definefont pop
end
%%EndProlog
mpldict begin
75.6 223.2 translate
460.8 345.6 0 0 clipbox
gsave
0 0 m
460.8 0 l
460.8 345.6 l
0 345.6 l
cl
1.000 setgray
fill
grestore
gsave
57.6 38.016 m
414.72 38.016 l
414.72 304.128 l
57.6 304.128 l
cl
1.000 setgray
fill
grestore
0.800 setlinewidth
1 setlinejoin
0 setlinecap
[] 0 setdash
0.000 setgray
gsave
/o {
gsave
newpath
translate
0.8 setlinewidth
1 setlinejoin
0 setlinecap
0 0 m
0 -3.5 l

gsave
0.000 setgray
fill
grestore
stroke
grestore
} bind def
73.8327 38.016 o
grestore
/DejaVuSans findfont
10.000 scalefont
setfont
gsave
70.653040 23.422250 translate
0.000000 rotate
0.000000 0.000000 m /zero glyphshow
grestore
gsave
/o {
gsave
newpath
translate
0.8 setlinewidth
1 setlinejoin
0 setlinecap
0 0 m
0 -3.5 l

gsave
0.000 setgray
fill
grestore
stroke
grestore
} bind def
138.777 38.016 o
grestore
gsave
126.057875 23.422250 translate
0.000000 rotate
0.000000 0.000000 m /one glyphshow
6.362305 0.000000 m /zero glyphshow
12.724609 0.000000 m /zero glyphshow
19.086914 0.000000 m /zero glyphshow
grestore
gsave
/o {
gsave
newpath
translate
0.8 setlinewidth
1 setlinejoin
0 setlinecap
0 0 m
0 -3.5 l

gsave
0.000 setgray
fill
grestore
stroke
grestore
} bind def
203.721 38.016 o
grestore
gsave
191.001773 23.422250 translate
0.000000 rotate
0.000000 0.000000 m /two glyphshow
6.362305 0.000000 m /zero glyphshow
12.724609 0.000000 m /zero glyphshow
19.086914 0.000000 m /zero glyphshow
grestore
gsave
/o {
gsave
newpath
translate
0.8 setlinewidth
1 setlinejoin
0 setlinecap
0 0 m
0 -3.5 l

gsave
0.000 setgray
fill
grestore
stroke
grestore
} bind def
268.664 38.016 o
grestore
gsave
255.945671 23.422250 translate
0.000000 rotate
0.000000 0.000000 m /three glyphshow
6.362305 0.000000 m /zero glyphshow
12.724609 0.000000 m /zero glyphshow
19.086914 0.000000 m /zero glyphshow
grestore
gsave
/o {
gsave
newpath
translate
0.8 setlinewidth
1 setlinejoin
0 setlinecap
0 0 m
0 -3.5 l

gsave
0.000 setgray
fill
grestore
stroke
grestore
} bind def
333.608 38.016 o
grestore
gsave
320.889569 23.422250 translate
0.000000 rotate
0.000000 0.000000 m /four glyphshow
6.362305 0.000000 m /zero glyphshow
12.724609 0.000000 m /zero glyphshow
19.086914 0.000000 m /zero glyphshow
grestore
gsave
/o {
gsave
newpath
translate
0.8 setlinewidth
1 setlinejoin
0 setlinecap
0 0 m
0 -3.5 l

gsave
0.000 setgray
fill
grestore
stroke
grestore
} bind def
398.552 38.016 o
grestore
gsave
385.833467 23.422250 translate
0.000000 rotate
0.000000 0.000000 m /five glyphshow
6.362305 0.000000 m /zero glyphshow
12.724609 0.000000 m /zero glyphshow
19.086914 0.000000 m /zero glyphshow
grestore
/DejaVuSans findfont
14.000 scalefont
setfont
gsave
206.480312 6.703500 translate
0.000000 rotate
0.000000 0.000000 m /I glyphshow
4.128906 0.000000 m /t glyphshow
9.618164 0.000000 m /e glyphshow
18.231445 0.000000 m /r glyphshow
23.987305 0.000000 m /a glyphshow
32.566406 0.000000 m /t glyphshow
38.055664 0.000000 m /i glyphshow
41.945312 0.000000 m /o glyphshow
50.510742 0.000000 m /n glyphshow
grestore
gsave
/o {
gsave
newpath
translate
0.8 setlinewidth
1 setlinejoin
0 setlinecap
0 0 m
-3.5 0 l

gsave
0.000 setgray
fill
grestore
stroke
grestore
} bind def
57.6 50.7167 o
grestore
/DejaVuSans findfont
10.000 scalefont
setfont
gsave
29.506250 46.919826 translate
0.000000 rotate
0.000000 0.000000 m /minus glyphshow
8.378906 0.000000 m /one glyphshow
14.741211 0.000000 m /five glyphshow
grestore
gsave
/o {
gsave
newpath
translate
0.8 setlinewidth
1 setlinejoin
0 setlinecap
0 0 m
-3.5 0 l

gsave
0.000 setgray
fill
grestore
stroke
grestore
} bind def
57.6 108.135 o
grestore
gsave
29.506250 104.338548 translate
0.000000 rotate
0.000000 0.000000 m /minus glyphshow
8.378906 0.000000 m /one glyphshow
14.741211 0.000000 m /zero glyphshow
grestore
gsave
/o {
gsave
newpath
translate
0.8 setlinewidth
1 setlinejoin
0 setlinecap
0 0 m
-3.5 0 l

gsave
0.000 setgray
fill
grestore
stroke
grestore
} bind def
57.6 165.554 o
grestore
gsave
35.865625 161.757271 translate
0.000000 rotate
0.000000 0.000000 m /minus glyphshow
8.378906 0.000000 m /five glyphshow
grestore
gsave
/o {
gsave
newpath
translate
0.8 setlinewidth
1 setlinejoin
0 setlinecap
0 0 m
-3.5 0 l

gsave
0.000 setgray
fill
grestore
stroke
grestore
} bind def
57.6 222.973 o
grestore
gsave
44.240625 219.175993 translate
0.000000 rotate
0.000000 0.000000 m /zero glyphshow
grestore
gsave
/o {
gsave
newpath
translate
0.8 setlinewidth
1 setlinejoin
0 setlinecap
0 0 m
-3.5 0 l

gsave
0.000 setgray
fill
grestore
stroke
grestore
} bind def
57.6 280.392 o
grestore
gsave
44.240625 276.594716 translate
0.000000 rotate
0.000000 0.000000 m /five glyphshow
grestore
gsave
22.506250 133.572000 translate
90.000000 rotate
/DejaVuSans-Oblique findfont
14.0 scalefont
setfont
0.000000 0.359375 moveto
/l glyphshow

3.889648 0.359375 moveto
/o glyphshow

12.455078 0.359375 moveto
/g glyphshow

21.341797 0.359375 moveto
/f glyphshow

/DejaVuSans findfont
9.8 scalefont
setfont
26.270508 -1.937500 moveto
/six glyphshow

/DejaVuSans findfont
14.0 scalefont
setfont
32.888379 0.359375 moveto
/parenleft glyphshow

/DejaVuSans-Oblique findfont
14.0 scalefont
setfont
38.350293 0.359375 moveto
/X glyphshow

/DejaVuSans-Oblique findfont
9.8 scalefont
setfont
47.941113 -1.937500 moveto
/b glyphshow

54.161816 -1.937500 moveto
/e glyphshow

60.191113 -1.937500 moveto
/s glyphshow

65.296875 -1.937500 moveto
/t glyphshow

/DejaVuSans findfont
14.0 scalefont
setfont
69.522168 0.359375 moveto
/parenright glyphshow


grestore
1.500 setlinewidth
2 setlinecap
0.122 0.467 0.706 setrgbcolor
gsave
357.1 266.1 57.6 38.02 clipbox
73.832727 291.977181 m
74.806886 289.865845 l
75.456325 288.375867 l
76.04082 286.963331 l
76.430483 285.82144 l
76.690259 285.344255 l
77.144866 283.864234 l
77.274754 283.504632 l
79.612734 275.578349 l
81.950715 265.757948 l
82.145546 264.703682 l
82.730041 262.167196 l
82.859929 261.687222 l
83.314536 260.317992 l
83.509368 259.803848 l
83.899031 256.762321 l
84.678358 254.255137 l
84.808246 252.451331 l
84.87319 252.359361 l
85.068022 250.839846 l
85.262853 250.043006 l
85.392741 249.626949 l
86.237012 246.366923 l
86.3669 245.3322 l
86.561731 244.889096 l
86.756563 243.756199 l
86.886451 243.609818 l
87.146226 243.153799 l
87.276114 240.85147 l
87.53589 240.026899 l
87.665778 239.650432 l
87.795665 238.725745 l
87.990497 238.247464 l
88.120385 237.782309 l
88.250273 235.39104 l
88.574992 234.408277 l
89.159487 231.816571 l
89.484207 231.279054 l
89.614094 230.817453 l
89.743982 229.002899 l
90.003758 228.447307 l
90.19859 228.097874 l
90.393421 227.828592 l
90.523309 227.156999 l
90.848029 226.891033 l
91.04286 226.538816 l
91.172748 226.496953 l
92.146906 223.855419 l
92.471626 223.675895 l
92.601514 223.622871 l
92.991177 222.773761 l
93.121065 222.287927 l
93.640616 222.058439 l
94.290055 221.752497 l
94.354999 221.738739 l
95.329157 219.838764 l
95.523989 219.68023 l
95.783765 219.532939 l
96.108484 217.444398 l
96.238372 217.369751 l
96.498148 216.659324 l
96.628035 216.49748 l
96.757923 215.02215 l
97.017699 214.874129 l
97.147587 213.796858 l
97.472306 213.609995 l
97.602194 213.564451 l
97.797026 213.342313 l
98.056801 213.203573 l
98.186689 211.367523 l
98.251633 211.360375 l
98.836128 210.212367 l
98.901072 210.194214 l
99.095904 209.043951 l
99.225791 208.544227 l
99.355679 208.431825 l
99.550511 207.7426 l
100.459725 206.060943 l
100.524669 206.05416 l
100.784445 205.572567 l
100.979277 205.454759 l
101.303996 204.794427 l
101.563772 204.730407 l
101.758603 204.328766 l
102.148267 204.152839 l
102.472986 203.055774 l
102.53793 203.029161 l
102.732762 202.345289 l
102.797706 202.327983 l
102.927594 201.545086 l
102.992537 201.525828 l
103.382201 200.602053 l
103.641976 199.767367 l
104.03164 199.564829 l
104.291415 198.924599 l
104.486247 198.829067 l
104.616135 198.361576 l
104.681079 198.351963 l
104.810967 197.807956 l
105.20063 197.548348 l
105.395462 196.752411 l
105.525349 196.722428 l
105.720181 196.497359 l
106.174788 196.332064 l
106.499508 196.164785 l
106.629396 195.420818 l
106.759283 195.396457 l
107.148947 194.614107 l
107.343779 194.030396 l
107.473666 192.272837 l
107.603554 192.212347 l
107.798386 191.055908 l
107.993218 191.002885 l
108.317937 190.072422 l
108.577713 189.874746 l
108.7076 189.602229 l
108.902432 189.294555 l
109.03232 189.05488 l
109.551871 188.281043 l
109.811647 187.228707 l
110.006478 187.073044 l
110.590973 186.352824 l
110.785805 185.904747 l
111.500188 184.913491 l
111.565132 184.904362 l
111.759964 184.739906 l
111.889851 183.45051 l
112.279515 183.051908 l
112.344459 183.025155 l
112.474347 182.457553 l
112.734122 182.311627 l
112.86401 182.050028 l
113.448505 181.577532 l
113.838168 180.240941 l
114.162888 179.333383 l
114.422663 179.032602 l
114.552551 178.778056 l
114.942215 178.492886 l
115.137046 178.269094 l
115.266934 178.234039 l
115.461766 177.873176 l
115.52671 177.858383 l
115.656598 176.725966 l
116.046261 175.925665 l
116.241093 175.823514 l
116.37098 175.437217 l
116.760644 175.160478 l
117.085363 174.674626 l
117.410083 174.47704 l
117.604914 174.400698 l
117.734802 173.629021 l
117.86469 173.368136 l
118.254353 171.840398 l
118.449185 171.782737 l
118.644017 171.597683 l
118.773905 171.580292 l
118.968736 171.145695 l
119.03368 171.114252 l
119.228512 170.82885 l
119.293456 170.807373 l
119.423344 170.458376 l
119.683119 170.295874 l
119.748063 170.254906 l
119.942895 169.820715 l
120.332558 169.564617 l
120.462446 168.345451 l
120.852109 168.090593 l
121.111885 168.013805 l
121.371661 167.848226 l
121.761324 167.563218 l
121.956156 166.939908 l
122.021099 166.935648 l
122.410763 165.588384 l
122.86537 165.339156 l
123.125146 165.222712 l
123.384921 162.426233 l
123.579753 162.050081 l
123.904473 161.942005 l
124.03436 161.678277 l
124.229192 161.608884 l
124.294136 161.422468 l
124.424024 158.100386 l
124.618855 158.014622 l
124.878631 157.260307 l
124.943575 157.204248 l
125.138407 155.283738 l
125.398182 155.018678 l
125.52807 154.702355 l
125.982677 154.422606 l
126.242453 153.903218 l
126.826948 151.949656 l
127.086724 151.705271 l
127.541331 150.441178 l
127.671219 150.235327 l
127.86605 149.87743 l
127.995938 149.769242 l
128.580433 149.365921 l
128.775265 148.430104 l
129.03504 148.231099 l
129.229872 147.740052 l
129.424704 147.503214 l
129.554592 146.428696 l
130.009199 145.924392 l
130.139087 145.126373 l
130.658638 144.518677 l
130.85347 143.716259 l
131.113245 143.299925 l
131.308077 143.066789 l
131.373021 143.05216 l
131.632796 142.627269 l
131.957516 142.471141 l
132.152348 141.656503 l
132.347179 141.544797 l
132.736843 140.135225 l
132.996618 138.76026 l
133.19145 138.609521 l
133.516169 138.132463 l
133.840889 137.954932 l
134.425384 136.431114 l
134.620216 136.345431 l
134.879991 136.038325 l
135.009879 135.961844 l
135.204711 135.51216 l
135.399542 135.279552 l
135.52943 135.227231 l
135.594374 134.998584 l
135.85415 133.094412 l
136.113925 132.660634 l
136.243813 132.072388 l
136.568533 131.859451 l
136.633477 131.755776 l
136.763364 130.012701 l
137.217972 129.707433 l
137.737523 128.881109 l
137.867411 128.74505 l
138.062242 127.916253 l
138.257074 127.769756 l
138.841569 127.153574 l
138.971457 126.017081 l
139.036401 125.98317 l
139.36112 125.308489 l
139.555952 123.770964 l
140.010559 123.20761 l
140.205391 123.022208 l
140.400223 122.442637 l
140.53011 122.322672 l
140.85483 121.594783 l
141.179549 120.839129 l
141.374381 119.840852 l
141.699101 119.522222 l
141.958876 117.992187 l
142.088764 117.920728 l
142.283596 117.138817 l
143.322698 115.896509 l
143.582474 114.732779 l
144.037081 113.594344 l
144.296856 113.377882 l
144.426744 112.671402 l
144.556632 111.828764 l
144.68652 111.802266 l
145.595734 109.450855 l
145.790566 108.76826 l
145.985398 108.575029 l
146.245173 107.532648 l
146.440005 107.276746 l
146.504949 107.265535 l
146.634837 106.959254 l
146.699781 106.938214 l
146.894612 106.349066 l
147.0245 106.273995 l
147.219332 105.671709 l
147.284276 105.653913 l
147.738883 104.858396 l
147.803827 104.810781 l
147.998659 104.075484 l
148.19349 103.643337 l
148.583154 103.27489 l
148.713042 103.039689 l
148.842929 101.891709 l
148.972817 101.565336 l
149.167649 100.347002 l
149.297537 100.206227 l
149.622256 99.459224 l
149.817088 99.254773 l
150.076863 98.588556 l
150.336639 98.407238 l
150.466527 98.34382 l
150.921134 97.272227 l
151.115966 97.095355 l
151.18091 97.055927 l
151.375741 96.311824 l
151.570573 96.19509 l
151.635517 96.163716 l
151.765405 95.814586 l
151.895293 95.767747 l
152.090124 95.487384 l
152.155068 95.452569 l
152.3499 95.015136 l
152.544731 94.781901 l
153.064283 93.456566 l
153.19417 93.3577 l
153.389002 92.891174 l
153.51889 92.693583 l
153.648778 90.188116 l
153.778666 90.068 l
154.103385 89.164766 l
154.557992 88.859841 l
154.817768 88.443771 l
154.947656 86.588493 l
155.142487 86.059199 l
155.207431 85.982354 l
155.337319 84.926536 l
155.402263 84.882359 l
155.662039 84.442918 l
155.85687 84.200427 l
156.18159 84.105979 l
156.376421 83.582512 l
156.766085 83.3109 l
157.02586 82.640803 l
157.415524 82.444739 l
157.480468 82.40395 l
157.675299 80.903196 l
157.870131 80.727232 l
158.000019 80.109123 l
158.389682 79.938886 l
158.51957 78.474879 l
158.584514 78.380674 l
158.779346 77.656737 l
159.493729 77.143405 l
159.623616 74.927349 l
159.68856 74.901762 l
159.948336 74.315825 l
160.208111 74.214468 l
160.532831 73.184279 l
160.792607 73.084173 l
161.052382 72.471056 l
161.766765 71.406823 l
161.896653 71.367694 l
161.961597 71.236588 l
162.091484 68.690588 l
162.286316 68.475721 l
162.416204 67.402518 l
162.546092 67.364562 l
163.000699 66.522661 l
163.130587 66.492446 l
163.260475 65.970303 l
163.455306 65.875059 l
163.650138 65.5434 l
164.494409 65.045369 l
164.624296 64.261998 l
164.819128 63.965287 l
165.663399 63.043468 l
165.858231 62.450853 l
166.18295 61.702186 l
166.312838 60.962598 l
166.767445 60.886369 l
167.092165 60.56197 l
167.222052 60.396319 l
167.286996 60.377562 l
167.481828 60.131251 l
167.611716 60.070048 l
167.936435 59.27544 l
168.001379 59.264997 l
168.066323 59.130558 l
168.196211 58.584905 l
168.391043 58.197273 l
168.52093 57.826382 l
168.780706 57.723095 l
169.235313 57.564409 l
169.430145 57.487844 l
169.689921 57.375615 l
170.858911 57.146423 l
171.768125 57.046866 l
172.092845 56.99298 l
249.895634 56.91153 l
250.090466 56.838866 l
251.714064 56.735503 l
252.038783 56.672184 l
253.467549 56.639233 l
253.597437 56.23841 l
255.870473 56.1485 l
256.065305 56.056551 l
256.714744 55.627097 l
257.299239 55.544892 l
257.559014 55.493297 l
258.013622 55.419589 l
258.273397 55.376269 l
258.663061 55.304555 l
258.792948 55.038856 l
259.182612 54.946735 l
259.3125 54.798516 l
259.702163 54.713754 l
260.221714 54.565481 l
260.351602 54.555536 l
260.48149 54.36259 l
260.611378 54.356998 l
260.806209 54.143175 l
261.32576 54.039063 l
262.040143 54.007754 l
262.624638 53.908626 l
263.014302 53.886686 l
264.31318 53.814905 l
264.443068 53.655546 l
346.79193 53.548667 l
347.766088 53.459602 l
348.545415 53.351575 l
349.12991 53.331915 l
350.818452 53.228776 l
351.078227 53.213613 l
351.273059 52.890807 l
351.532835 52.810891 l
353.221376 52.710487 l
353.481152 52.613874 l
357.312841 52.506837 l
357.702505 52.443125 l
358.222056 52.422436 l
358.481832 52.369917 l
358.676663 52.279839 l
359.520934 52.191617 l
359.715766 52.125803 l
398.487273 52.038903 l
398.487273 52.038903 l
stroke
grestore
1.000 setlinewidth
0 setlinecap
gsave
357.1 266.1 57.6 38.02 clipbox
/o {
gsave
newpath
translate
1.0 setlinewidth
1 setlinejoin
0 setlinecap
0 -3 m
0.795609 -3 1.55874 -2.683901 2.12132 -2.12132 c
2.683901 -1.55874 3 -0.795609 3 0 c
3 0.795609 2.683901 1.55874 2.12132 2.12132 c
1.55874 2.683901 0.795609 3 0 3 c
-0.795609 3 -1.55874 2.683901 -2.12132 2.12132 c
-2.683901 1.55874 -3 0.795609 -3 0 c
-3 -0.795609 -2.683901 -1.55874 -2.12132 -2.12132 c
-1.55874 -2.683901 -0.795609 -3 0 -3 c
cl

gsave
0.122 0.467 0.706 setrgbcolor
fill
grestore
stroke
grestore
} bind def
73.8327 291.977 o
120.203 169.623 o
166.573 60.9141 o
212.943 56.9741 o
259.312 54.7985 o
305.682 53.607 o
352.052 52.7861 o
398.422 52.0389 o
grestore
1.500 setlinewidth
2 setlinecap
1.000 0.498 0.055 setrgbcolor
gsave
357.1 266.1 57.6 38.02 clipbox
73.832727 292.032 m
75.456325 287.295136 l
77.859249 277.916852 l
78.70352 273.263733 l
79.612734 268.699514 l
80.521949 264.193325 l
80.71678 262.410521 l
81.106444 260.948088 l
81.690939 257.154314 l
82.21049 254.691621 l
82.405322 253.846388 l
83.314536 247.890356 l
83.509368 247.316127 l
83.899031 244.751266 l
84.353639 242.209982 l
84.483527 241.931305 l
85.068022 239.773215 l
85.392741 237.197497 l
85.522629 236.75941 l
85.717461 235.029019 l
86.237012 232.947721 l
86.301956 232.764513 l
86.626675 230.443768 l
86.886451 229.61247 l
87.146226 228.303767 l
87.925553 224.965404 l
88.055441 224.796364 l
88.250273 224.374648 l
88.574992 223.79913 l
88.769824 223.18332 l
88.834768 223.117149 l
89.029599 222.76705 l
89.419263 221.921935 l
89.549151 221.756082 l
90.19859 219.089372 l
90.718141 218.122039 l
90.848029 217.588551 l
90.977916 217.405041 l
91.36758 216.836864 l
91.627355 215.941344 l
91.822187 214.727024 l
92.341738 213.87817 l
92.731402 212.053426 l
92.796345 211.906713 l
92.991177 211.155298 l
93.380841 210.432578 l
93.575672 210.236972 l
93.965336 209.318666 l
94.160167 209.032449 l
94.354999 208.672785 l
94.679718 208.244858 l
94.939494 207.976696 l
95.069382 207.908822 l
95.329157 207.590076 l
95.459045 207.461496 l
95.588933 207.308765 l
95.653877 206.716408 l
95.783765 204.45949 l
95.848709 204.38049 l
96.04354 203.551959 l
96.108484 203.517277 l
96.433204 202.722406 l
96.498148 202.691845 l
96.692979 202.272404 l
97.017699 201.788388 l
97.212531 200.885055 l
97.277474 200.855338 l
97.667138 199.685121 l
97.861969 198.200777 l
98.186689 196.913336 l
98.446465 196.242074 l
98.511408 196.156447 l
98.70624 195.496102 l
98.771184 195.389292 l
99.095904 193.969999 l
99.160847 193.944359 l
99.355679 193.681138 l
99.615455 193.310081 l
99.680399 193.178246 l
99.87523 192.275094 l
100.19995 191.325893 l
100.329838 191.182216 l
100.979277 188.979874 l
101.303996 188.041728 l
101.498828 187.779811 l
101.563772 187.721295 l
101.758603 187.017522 l
101.888491 186.800334 l
102.53793 183.917689 l
102.797706 182.534834 l
103.057481 180.955393 l
103.187369 180.633107 l
103.317257 179.886427 l
103.447145 179.340407 l
103.577032 179.19246 l
103.771864 178.783662 l
105.005798 175.181171 l
105.070742 175.029119 l
105.265574 174.367967 l
105.330518 174.254974 l
105.525349 173.451084 l
105.785125 173.059908 l
105.915013 172.304389 l
106.629396 170.345824 l
106.759283 169.556669 l
106.824227 169.516697 l
106.954115 169.035467 l
107.148947 167.195963 l
107.278835 166.767141 l
107.473666 165.822152 l
107.928274 164.891459 l
108.123105 164.032091 l
108.188049 163.993781 l
108.577713 162.616011 l
108.7076 162.256401 l
109.227152 160.691538 l
109.421983 160.127018 l
110.006478 158.277332 l
110.20131 157.287716 l
110.461086 156.599518 l
110.720861 155.617455 l
111.110525 154.605526 l
111.240412 153.386 l
111.630076 152.385966 l
111.759964 151.893636 l
111.824908 151.852644 l
112.019739 150.179345 l
112.084683 150.084101 l
112.279515 149.077441 l
112.409403 148.858168 l
112.604234 148.483681 l
112.799066 147.358627 l
113.513449 145.77496 l
113.903112 143.656122 l
114.162888 142.821575 l
114.682439 139.827868 l
115.137046 138.813776 l
115.461766 137.385603 l
115.721541 136.974143 l
116.306036 134.858274 l
116.890532 132.229841 l
116.955475 132.155242 l
117.410083 130.800163 l
117.604914 130.377127 l
118.124466 127.708375 l
118.18941 127.617315 l
118.384241 126.748039 l
118.708961 125.868052 l
118.903792 123.997479 l
119.163568 123.198119 l
119.618175 120.651648 l
119.683119 120.639125 l
120.332558 118.098572 l
120.722222 116.912174 l
121.111885 114.863387 l
121.566492 113.684782 l
121.826268 112.482737 l
121.956156 112.32534 l
123.125146 107.659042 l
123.514809 106.002975 l
123.774585 104.456708 l
123.904473 104.206154 l
124.099304 103.87742 l
124.943575 101.308393 l
125.20335 99.971894 l
125.398182 99.654569 l
125.593014 97.908565 l
125.657958 97.740963 l
125.852789 96.743035 l
126.307397 95.563739 l
126.502228 94.800875 l
126.567172 94.755778 l
126.632116 94.459905 l
126.762004 92.408033 l
126.891892 92.131447 l
127.086724 91.528825 l
127.151667 91.422532 l
127.346499 90.077394 l
127.541331 89.716677 l
127.671219 89.267703 l
127.930994 88.723438 l
127.995938 88.686753 l
128.125826 87.829361 l
128.255714 87.698626 l
128.580433 86.305322 l
128.645377 86.261162 l
128.840209 85.631879 l
129.03504 85.035415 l
129.164928 84.915114 l
129.424704 84.097148 l
129.619536 83.795722 l
129.879311 82.625578 l
130.139087 82.412089 l
130.52875 79.985215 l
130.658638 79.764456 l
130.723582 79.648699 l
130.85347 78.805251 l
130.918414 78.773939 l
131.373021 77.109913 l
131.437965 76.792655 l
131.567852 74.858801 l
131.632796 74.83471 l
131.827628 74.052964 l
132.152348 73.62329 l
132.347179 72.138575 l
132.542011 71.807566 l
132.801787 71.340071 l
133.061562 70.524065 l
133.256394 70.331284 l
133.451226 69.391527 l
134.230552 65.931475 l
134.36044 65.811084 l
134.555272 62.31961 l
134.750103 62.075789 l
134.879991 61.954183 l
135.009879 61.211736 l
135.204711 60.59842 l
135.399542 60.260759 l
135.789206 59.594574 l
136.048981 58.701711 l
136.243813 58.452711 l
136.763364 57.287981 l
136.893252 56.36337 l
137.02314 56.273406 l
137.217972 55.866662 l
137.282915 55.757717 l
137.412803 54.855193 l
137.737523 54.321073 l
137.802467 54.28742 l
137.932354 53.998459 l
138.127186 53.893834 l
138.51685 53.520086 l
139.231232 52.812717 l
140.010559 52.532548 l
141.244493 52.427748 l
141.634157 52.40631 l
196.316919 52.32092 l
196.51175 52.145142 l
197.940516 52.073972 l
198.460067 52.068832 l
198.589955 51.900643 l
199.888833 51.636889 l
200.408384 51.546946 l
200.733104 51.504213 l
202.291757 51.364633 l
202.551533 51.301587 l
203.785467 51.198285 l
204.045243 50.987191 l
205.993559 50.826323 l
260.351602 50.724885 l
260.806209 50.669911 l
263.468909 50.597922 l
263.728685 50.55031 l
267.950038 50.455618 l
268.274757 50.42748 l
327.568536 50.338503 l
327.893256 50.31395 l
332.504272 50.205205 l
332.95888 50.188554 l
398.487273 50.112 l
398.487273 50.112 l
stroke
grestore
1.000 setlinewidth
0 setlinejoin
0 setlinecap
gsave
357.1 266.1 57.6 38.02 clipbox
/o {
gsave
newpath
translate
1.0 setlinewidth
0 setlinejoin
0 setlinecap
-3 -3 m
3 -3 l
3 3 l
-3 3 l
cl

gsave
1.000 0.498 0.055 setrgbcolor
fill
grestore
stroke
grestore
} bind def
73.8327 292.032 o
120.203 118.48 o
166.573 52.4063 o
212.943 50.8263 o
259.312 50.7774 o
305.682 50.4214 o
352.052 50.1577 o
398.422 50.112 o
grestore
0.800 setlinewidth
2 setlinecap
[] 0 setdash
0.000 setgray
gsave
57.6 38.016 m
57.6 304.128 l
stroke
grestore
gsave
414.72 38.016 m
414.72 304.128 l
stroke
grestore
gsave
57.6 38.016 m
414.72 38.016 l
stroke
grestore
gsave
57.6 304.128 m
414.72 304.128 l
stroke
grestore
1.000 setlinewidth
0 setlinecap
0.800 setgray
gsave
348.72 265.456125 m
407.72 265.456125 l
409.053333 265.456125 409.72 266.122792 409.72 267.456125 c
409.72 297.128 l
409.72 298.461333 409.053333 299.128 407.72 299.128 c
348.72 299.128 l
347.386667 299.128 346.72 298.461333 346.72 297.128 c
346.72 267.456125 l
346.72 266.122792 347.386667 265.456125 348.72 265.456125 c
cl
gsave
1.000 setgray
fill
grestore
stroke
grestore
1.500 setlinewidth
1 setlinejoin
2 setlinecap
[] 0 setdash
0.122 0.467 0.706 setrgbcolor
gsave
350.72 291.03425 m
370.72 291.03425 l
stroke
grestore
1.000 setlinewidth
0 setlinecap
gsave
/o {
gsave
newpath
translate
1.0 setlinewidth
1 setlinejoin
0 setlinecap
0 -3 m
0.795609 -3 1.55874 -2.683901 2.12132 -2.12132 c
2.683901 -1.55874 3 -0.795609 3 0 c
3 0.795609 2.683901 1.55874 2.12132 2.12132 c
1.55874 2.683901 0.795609 3 0 3 c
-0.795609 3 -1.55874 2.683901 -2.12132 2.12132 c
-2.683901 1.55874 -3 0.795609 -3 0 c
-3 -0.795609 -2.683901 -1.55874 -2.12132 -2.12132 c
-1.55874 -2.683901 -0.795609 -3 0 -3 c
cl

gsave
0.122 0.467 0.706 setrgbcolor
fill
grestore
stroke
grestore
} bind def
360.72 291.034 o
grestore
0.000 setgray
gsave
378.720000 287.534250 translate
0.000000 rotate
/DejaVuSans-Oblique findfont
10.0 scalefont
setfont
0.000000 0.578125 moveto
/A glyphshow

6.840820 0.578125 moveto
/B glyphshow

13.701172 0.578125 moveto
/C glyphshow


grestore
1.500 setlinewidth
2 setlinecap
1.000 0.498 0.055 setrgbcolor
gsave
350.72 275.03425 m
370.72 275.03425 l
stroke
grestore
1.000 setlinewidth
0 setlinejoin
0 setlinecap
gsave
/o {
gsave
newpath
translate
1.0 setlinewidth
0 setlinejoin
0 setlinecap
-3 -3 m
3 -3 l
3 3 l
-3 3 l
cl

gsave
1.000 0.498 0.055 setrgbcolor
fill
grestore
stroke
grestore
} bind def
360.72 275.034 o
grestore
0.000 setgray
gsave
378.720000 271.534250 translate
0.000000 rotate
/DejaVuSans-Oblique findfont
10.0 scalefont
setfont
0.000000 0.856250 moveto
/A glyphshow

6.840820 0.856250 moveto
/B glyphshow

13.701172 0.856250 moveto
/C glyphshow

/DejaVuSans-Oblique findfont
7.0 scalefont
setfont
21.403646 4.684375 moveto
/d glyphshow


grestore

end
showpage
