%!PS-Adobe-3.0 EPSF-3.0
%%Title: plots/Sum Of Square2.eps
%%Creator: matplotlib version 2.2.2, http://matplotlib.org/
%%CreationDate: Mon Jul 30 08:38:58 2018
%%Orientation: portrait
%%BoundingBox: 75 223 536 568
%%EndComments
%%BeginProlog
/mpldict 9 dict def
mpldict begin
/m { moveto } bind def
/l { lineto } bind def
/r { rlineto } bind def
/c { curveto } bind def
/cl { closepath } bind def
/box {
m
1 index 0 r
0 exch r
neg 0 r
cl
} bind def
/clipbox {
box
clip
newpath
} bind def
%!PS-Adobe-3.0 Resource-Font
%%Title: DejaVu Sans
%%Copyright: Copyright (c) 2003 by Bitstream, Inc. All Rights Reserved. Copyright (c) 2006 by Tavmjong Bah. All Rights Reserved. DejaVu changes are in public domain 
%%Creator: Converted from TrueType to type 3 by PPR
25 dict begin
/_d{bind def}bind def
/_m{moveto}_d
/_l{lineto}_d
/_cl{closepath eofill}_d
/_c{curveto}_d
/_sc{7 -1 roll{setcachedevice}{pop pop pop pop pop pop}ifelse}_d
/_e{exec}_d
/FontName /DejaVuSans def
/PaintType 0 def
/FontMatrix[.001 0 0 .001 0 0]def
/FontBBox[-1021 -463 1793 1232]def
/FontType 3 def
/Encoding [ /parenleft /parenright /zero /one /two /three /four /five /six /I /a /e /i /n /o /r /t /minus ] def
/FontInfo 10 dict dup begin
/FamilyName (DejaVu Sans) def
/FullName (DejaVu Sans) def
/Notice (Copyright (c) 2003 by Bitstream, Inc. All Rights Reserved. Copyright (c) 2006 by Tavmjong Bah. All Rights Reserved. DejaVu changes are in public domain ) def
/Weight (Book) def
/Version (Version 2.35) def
/ItalicAngle 0.0 def
/isFixedPitch false def
/UnderlinePosition -130 def
/UnderlineThickness 90 def
end readonly def
/CharStrings 19 dict dup begin
/.notdef 0 def
/parenleft{390 0 86 -131 310 759 _sc
310 759 _m
266 683 234 609 213 536 _c
191 463 181 389 181 314 _c
181 238 191 164 213 91 _c
234 17 266 -56 310 -131 _c
232 -131 _l
183 -54 146 20 122 94 _c
98 168 86 241 86 314 _c
86 386 98 459 122 533 _c
146 607 182 682 232 759 _c
310 759 _l
_cl}_d
/parenright{390 0 80 -131 304 759 _sc
80 759 _m
158 759 _l
206 682 243 607 267 533 _c
291 459 304 386 304 314 _c
304 241 291 168 267 94 _c
243 20 206 -54 158 -131 _c
80 -131 _l
123 -56 155 17 177 91 _c
198 164 209 238 209 314 _c
209 389 198 463 177 536 _c
155 609 123 683 80 759 _c
_cl}_d
/zero{636 0 66 -13 570 742 _sc
318 664 _m
267 664 229 639 203 589 _c
177 539 165 464 165 364 _c
165 264 177 189 203 139 _c
229 89 267 64 318 64 _c
369 64 407 89 433 139 _c
458 189 471 264 471 364 _c
471 464 458 539 433 589 _c
407 639 369 664 318 664 _c
318 742 _m
399 742 461 709 505 645 _c
548 580 570 486 570 364 _c
570 241 548 147 505 83 _c
461 19 399 -13 318 -13 _c
236 -13 173 19 130 83 _c
87 147 66 241 66 364 _c
66 486 87 580 130 645 _c
173 709 236 742 318 742 _c
_cl}_d
/one{636 0 110 0 544 729 _sc
124 83 _m
285 83 _l
285 639 _l
110 604 _l
110 694 _l
284 729 _l
383 729 _l
383 83 _l
544 83 _l
544 0 _l
124 0 _l
124 83 _l
_cl}_d
/two{{636 0 73 0 536 742 _sc
192 83 _m
536 83 _l
536 0 _l
73 0 _l
73 83 _l
110 121 161 173 226 239 _c
290 304 331 346 348 365 _c
380 400 402 430 414 455 _c
426 479 433 504 433 528 _c
433 566 419 598 392 622 _c
365 646 330 659 286 659 _c
255 659 222 653 188 643 _c
154 632 117 616 78 594 _c
78 694 _l
118 710 155 722 189 730 _c
223 738 255 742 284 742 _c
}_e{359 742 419 723 464 685 _c
509 647 532 597 532 534 _c
532 504 526 475 515 449 _c
504 422 484 390 454 354 _c
446 344 420 317 376 272 _c
332 227 271 164 192 83 _c
_cl}_e}_d
/three{{636 0 76 -13 556 742 _sc
406 393 _m
453 383 490 362 516 330 _c
542 298 556 258 556 212 _c
556 140 531 84 482 45 _c
432 6 362 -13 271 -13 _c
240 -13 208 -10 176 -4 _c
144 1 110 10 76 22 _c
76 117 _l
103 101 133 89 166 81 _c
198 73 232 69 268 69 _c
330 69 377 81 409 105 _c
441 129 458 165 458 212 _c
458 254 443 288 413 312 _c
383 336 341 349 287 349 _c
}_e{202 349 _l
202 430 _l
291 430 _l
339 430 376 439 402 459 _c
428 478 441 506 441 543 _c
441 580 427 609 401 629 _c
374 649 336 659 287 659 _c
260 659 231 656 200 650 _c
169 644 135 635 98 623 _c
98 711 _l
135 721 170 729 203 734 _c
235 739 266 742 296 742 _c
370 742 429 725 473 691 _c
517 657 539 611 539 553 _c
539 513 527 479 504 451 _c
481 423 448 403 406 393 _c
_cl}_e}_d
/four{636 0 49 0 580 729 _sc
378 643 _m
129 254 _l
378 254 _l
378 643 _l
352 729 _m
476 729 _l
476 254 _l
580 254 _l
580 172 _l
476 172 _l
476 0 _l
378 0 _l
378 172 _l
49 172 _l
49 267 _l
352 729 _l
_cl}_d
/five{{636 0 77 -13 549 729 _sc
108 729 _m
495 729 _l
495 646 _l
198 646 _l
198 467 _l
212 472 227 476 241 478 _c
255 480 270 482 284 482 _c
365 482 429 459 477 415 _c
525 370 549 310 549 234 _c
549 155 524 94 475 51 _c
426 8 357 -13 269 -13 _c
238 -13 207 -10 175 -6 _c
143 -1 111 6 77 17 _c
77 116 _l
106 100 136 88 168 80 _c
199 72 232 69 267 69 _c
}_e{323 69 368 83 401 113 _c
433 143 450 183 450 234 _c
450 284 433 324 401 354 _c
368 384 323 399 267 399 _c
241 399 214 396 188 390 _c
162 384 135 375 108 363 _c
108 729 _l
_cl}_e}_d
/six{{636 0 70 -13 573 742 _sc
330 404 _m
286 404 251 388 225 358 _c
199 328 186 286 186 234 _c
186 181 199 139 225 109 _c
251 79 286 64 330 64 _c
374 64 409 79 435 109 _c
461 139 474 181 474 234 _c
474 286 461 328 435 358 _c
409 388 374 404 330 404 _c
526 713 _m
526 623 _l
501 635 476 644 451 650 _c
425 656 400 659 376 659 _c
310 659 260 637 226 593 _c
}_e{192 549 172 482 168 394 _c
187 422 211 444 240 459 _c
269 474 301 482 336 482 _c
409 482 467 459 509 415 _c
551 371 573 310 573 234 _c
573 159 550 99 506 54 _c
462 9 403 -13 330 -13 _c
246 -13 181 19 137 83 _c
92 147 70 241 70 364 _c
70 479 97 571 152 639 _c
206 707 280 742 372 742 _c
396 742 421 739 447 735 _c
472 730 498 723 526 713 _c
_cl}_e}_d
/I{295 0 98 0 197 729 _sc
98 729 _m
197 729 _l
197 0 _l
98 0 _l
98 729 _l
_cl}_d
/a{{613 0 60 -13 522 560 _sc
343 275 _m
270 275 220 266 192 250 _c
164 233 150 205 150 165 _c
150 133 160 107 181 89 _c
202 70 231 61 267 61 _c
317 61 357 78 387 114 _c
417 149 432 196 432 255 _c
432 275 _l
343 275 _l
522 312 _m
522 0 _l
432 0 _l
432 83 _l
411 49 385 25 355 10 _c
325 -5 287 -13 243 -13 _c
187 -13 142 2 109 33 _c
76 64 60 106 60 159 _c
}_e{60 220 80 266 122 298 _c
163 329 224 345 306 345 _c
432 345 _l
432 354 _l
432 395 418 427 391 450 _c
364 472 326 484 277 484 _c
245 484 215 480 185 472 _c
155 464 127 453 100 439 _c
100 522 _l
132 534 164 544 195 550 _c
226 556 256 560 286 560 _c
365 560 424 539 463 498 _c
502 457 522 395 522 312 _c
_cl}_e}_d
/e{{615 0 55 -13 562 560 _sc
562 296 _m
562 252 _l
149 252 _l
153 190 171 142 205 110 _c
238 78 284 62 344 62 _c
378 62 412 66 444 74 _c
476 82 509 95 541 113 _c
541 28 _l
509 14 476 3 442 -3 _c
408 -9 373 -13 339 -13 _c
251 -13 182 12 131 62 _c
80 112 55 181 55 268 _c
55 357 79 428 127 481 _c
175 533 241 560 323 560 _c
397 560 455 536 498 489 _c
}_e{540 441 562 377 562 296 _c
472 322 _m
471 371 457 410 431 440 _c
404 469 368 484 324 484 _c
274 484 234 469 204 441 _c
174 413 156 373 152 322 _c
472 322 _l
_cl}_e}_d
/i{278 0 94 0 184 760 _sc
94 547 _m
184 547 _l
184 0 _l
94 0 _l
94 547 _l
94 760 _m
184 760 _l
184 646 _l
94 646 _l
94 760 _l
_cl}_d
/n{634 0 91 0 549 560 _sc
549 330 _m
549 0 _l
459 0 _l
459 327 _l
459 379 448 417 428 443 _c
408 469 378 482 338 482 _c
289 482 251 466 223 435 _c
195 404 181 362 181 309 _c
181 0 _l
91 0 _l
91 547 _l
181 547 _l
181 462 _l
202 494 227 519 257 535 _c
286 551 320 560 358 560 _c
420 560 468 540 500 501 _c
532 462 549 405 549 330 _c
_cl}_d
/o{612 0 55 -13 557 560 _sc
306 484 _m
258 484 220 465 192 427 _c
164 389 150 338 150 273 _c
150 207 163 156 191 118 _c
219 80 257 62 306 62 _c
354 62 392 80 420 118 _c
448 156 462 207 462 273 _c
462 337 448 389 420 427 _c
392 465 354 484 306 484 _c
306 560 _m
384 560 445 534 490 484 _c
534 433 557 363 557 273 _c
557 183 534 113 490 63 _c
445 12 384 -13 306 -13 _c
227 -13 165 12 121 63 _c
77 113 55 183 55 273 _c
55 363 77 433 121 484 _c
165 534 227 560 306 560 _c
_cl}_d
/r{411 0 91 0 411 560 _sc
411 463 _m
401 469 390 473 378 476 _c
366 478 353 480 339 480 _c
288 480 249 463 222 430 _c
194 397 181 350 181 288 _c
181 0 _l
91 0 _l
91 547 _l
181 547 _l
181 462 _l
199 495 224 520 254 536 _c
284 552 321 560 365 560 _c
371 560 378 559 386 559 _c
393 558 401 557 411 555 _c
411 463 _l
_cl}_d
/t{392 0 27 0 368 702 _sc
183 702 _m
183 547 _l
368 547 _l
368 477 _l
183 477 _l
183 180 _l
183 135 189 106 201 94 _c
213 81 238 75 276 75 _c
368 75 _l
368 0 _l
276 0 _l
206 0 158 13 132 39 _c
106 65 93 112 93 180 _c
93 477 _l
27 477 _l
27 547 _l
93 547 _l
93 702 _l
183 702 _l
_cl}_d
/minus{838 0 106 272 732 355 _sc
106 355 _m
732 355 _l
732 272 _l
106 272 _l
106 355 _l
_cl}_d
end readonly def

/BuildGlyph
 {exch begin
 CharStrings exch
 2 copy known not{pop /.notdef}if
 true 3 1 roll get exec
 end}_d

/BuildChar {
 1 index /Encoding get exch get
 1 index /BuildGlyph get exec
}_d

FontName currentdict end definefont pop
%!PS-Adobe-3.0 Resource-Font
%%Title: DejaVu Sans Oblique
%%Copyright: Copyright (c) 2003 by Bitstream, Inc. All Rights Reserved. Copyright (c) 2006 by Tavmjong Bah. All Rights Reserved. DejaVu changes are in public domain 
%%Creator: Converted from TrueType to type 3 by PPR
25 dict begin
/_d{bind def}bind def
/_m{moveto}_d
/_l{lineto}_d
/_cl{closepath eofill}_d
/_c{curveto}_d
/_sc{7 -1 roll{setcachedevice}{pop pop pop pop pop pop}ifelse}_d
/_e{exec}_d
/FontName /DejaVuSans-Oblique def
/PaintType 0 def
/FontMatrix[.001 0 0 .001 0 0]def
/FontBBox[-1016 -350 1659 1068]def
/FontType 3 def
/Encoding [ /A /B /C /X /b /d /e /f /g /l /o /s /t ] def
/FontInfo 10 dict dup begin
/FamilyName (DejaVu Sans) def
/FullName (DejaVu Sans Oblique) def
/Notice (Copyright (c) 2003 by Bitstream, Inc. All Rights Reserved. Copyright (c) 2006 by Tavmjong Bah. All Rights Reserved. DejaVu changes are in public domain ) def
/Weight (Oblique) def
/Version (Version 2.35) def
/ItalicAngle -11.0 def
/isFixedPitch false def
/UnderlinePosition -130 def
/UnderlineThickness 90 def
end readonly def
/CharStrings 14 dict dup begin
/.notdef 0 def
/A{684 0 -52 0 615 729 _sc
368 729 _m
480 729 _l
615 0 _l
512 0 _l
482 187 _l
154 187 _l
51 0 _l
-52 0 _l
368 729 _l
404 632 _m
199 269 _l
467 269 _l
404 632 _l
_cl}_d
/B{{686 0 27 0 625 729 _sc
169 729 _m
421 729 _l
489 729 540 716 574 691 _c
608 665 625 627 625 576 _c
625 529 610 489 581 455 _c
552 421 514 400 467 393 _c
507 383 537 366 557 340 _c
577 314 588 280 588 238 _c
588 164 560 106 506 64 _c
452 21 378 0 284 0 _c
27 0 _l
169 729 _l
193 348 _m
141 81 _l
300 81 _l
359 81 405 94 437 122 _c
469 149 486 188 486 238 _c
}_e{486 276 475 303 454 321 _c
432 339 398 348 351 348 _c
193 348 _l
251 648 _m
208 428 _l
355 428 _l
407 428 448 439 478 462 _c
507 485 522 517 522 557 _c
522 588 512 611 492 626 _c
472 640 440 648 397 648 _c
251 648 _l
_cl}_e}_d
/C{{698 0 42 -13 695 742 _sc
695 673 _m
675 569 _l
643 600 610 623 575 639 _c
540 654 502 662 462 662 _c
406 662 357 648 315 622 _c
273 595 236 554 206 500 _c
186 464 171 427 161 388 _c
151 349 146 310 146 270 _c
146 203 163 152 197 118 _c
231 83 281 66 347 66 _c
392 66 435 73 477 87 _c
519 101 559 123 599 153 _c
576 36 _l
537 19 498 7 458 -1 _c
}_e{418 -9 379 -13 340 -13 _c
246 -13 173 12 121 62 _c
68 112 42 183 42 274 _c
42 332 52 389 72 445 _c
92 501 120 552 158 598 _c
198 647 243 683 294 707 _c
345 730 404 742 472 742 _c
514 742 553 736 590 725 _c
627 713 662 696 695 673 _c
_cl}_e}_d
/X{685 0 -42 0 703 729 _sc
137 729 _m
237 729 _l
362 466 _l
588 729 _l
703 729 _l
403 381 _l
584 0 _l
485 0 _l
338 307 _l
72 0 _l
-42 0 _l
298 392 _l
137 729 _l
_cl}_d
/b{{635 0 36 -13 587 760 _sc
495 334 _m
495 381 484 418 462 445 _c
440 471 411 485 373 485 _c
345 485 319 478 295 464 _c
271 450 250 431 232 406 _c
213 378 198 347 187 311 _c
176 275 171 240 171 205 _c
171 160 181 125 203 99 _c
224 73 253 61 291 61 _c
319 61 345 67 369 81 _c
393 94 415 113 433 139 _c
451 165 466 196 478 232 _c
489 268 495 302 495 334 _c
216 464 _m
}_e{238 494 265 517 299 534 _c
332 551 367 560 404 560 _c
460 560 504 541 537 503 _c
570 465 587 414 587 350 _c
587 297 577 246 558 197 _c
538 147 511 103 475 65 _c
451 39 424 20 394 7 _c
363 -6 331 -13 298 -13 _c
262 -13 232 -5 206 11 _c
180 27 158 51 142 83 _c
126 0 _l
36 0 _l
184 760 _l
274 760 _l
216 464 _l
_cl}_e}_d
/d{{635 0 46 -13 639 760 _sc
418 82 _m
394 50 365 27 332 11 _c
299 -5 263 -13 223 -13 _c
168 -13 125 5 93 42 _c
61 79 46 130 46 195 _c
46 249 55 300 75 349 _c
94 398 122 442 158 481 _c
182 507 209 526 239 540 _c
269 553 301 560 335 560 _c
370 560 401 551 428 534 _c
454 517 475 493 490 462 _c
549 760 _l
639 760 _l
491 0 _l
401 0 _l
418 82 _l
139 211 _m
}_e{139 163 149 126 171 100 _c
192 74 222 61 260 61 _c
288 61 314 67 338 81 _c
362 95 383 115 401 141 _c
420 168 435 200 446 236 _c
457 272 463 307 463 342 _c
463 387 452 422 431 448 _c
409 473 380 486 343 486 _c
314 486 287 479 263 466 _c
239 452 218 433 201 408 _c
182 381 167 350 156 314 _c
144 278 139 243 139 211 _c
_cl}_e}_d
/e{{615 0 46 -13 571 560 _sc
481 322 _m
481 327 482 332 483 338 _c
483 344 484 349 484 355 _c
484 395 472 426 449 449 _c
425 472 394 484 354 484 _c
309 484 270 469 236 441 _c
202 413 176 373 158 322 _c
481 322 _l
559 252 _m
141 252 _l
139 239 137 229 137 222 _c
136 215 136 209 136 204 _c
136 158 150 123 178 99 _c
206 74 245 62 296 62 _c
334 62 371 66 406 75 _c
}_e{441 83 474 96 504 114 _c
487 25 _l
454 11 420 2 386 -4 _c
352 -10 317 -13 282 -13 _c
206 -13 147 5 107 41 _c
66 77 46 128 46 195 _c
46 251 56 304 76 353 _c
96 402 126 446 166 485 _c
191 509 221 527 256 540 _c
291 553 328 560 368 560 _c
430 560 479 541 516 504 _c
552 467 571 417 571 355 _c
571 340 570 324 568 307 _c
566 289 563 271 559 252 _c
_cl}_e}_d
/f{352 0 68 0 478 760 _sc
478 760 _m
464 685 _l
378 685 _l
345 685 321 678 307 665 _c
292 652 281 629 274 595 _c
264 547 _l
412 547 _l
399 477 _l
251 477 _l
158 0 _l
68 0 _l
161 477 _l
75 477 _l
88 547 _l
174 547 _l
181 585 _l
193 649 215 695 246 721 _c
277 747 326 760 393 760 _c
478 760 _l
_cl}_d
/g{{635 0 32 -207 596 560 _sc
596 547 _m
503 68 _l
485 -24 450 -92 400 -138 _c
349 -184 281 -207 196 -207 _c
164 -207 134 -204 107 -200 _c
80 -195 55 -188 32 -178 _c
49 -91 _l
71 -105 94 -115 119 -122 _c
143 -129 170 -133 198 -133 _c
255 -133 302 -117 339 -86 _c
375 -55 399 -11 411 47 _c
419 88 _l
393 59 364 37 331 22 _c
298 7 262 0 224 0 _c
168 0 125 18 93 55 _c
}_e{61 91 46 142 46 206 _c
46 256 55 306 75 354 _c
94 402 121 445 156 483 _c
178 507 205 526 236 540 _c
267 553 299 560 333 560 _c
369 560 401 551 429 534 _c
456 517 476 493 490 462 _c
506 547 _l
596 547 _l
461 346 _m
461 390 450 425 429 449 _c
408 473 379 485 341 485 _c
317 485 294 480 273 471 _c
251 461 233 448 218 431 _c
193 403 174 370 160 332 _c
}_e{146 294 139 255 139 215 _c
139 169 149 135 170 111 _c
191 87 221 75 261 75 _c
318 75 366 100 404 152 _c
442 204 461 268 461 346 _c
_cl}_e}_d
/l{278 0 35 0 273 760 _sc
183 760 _m
273 760 _l
125 0 _l
35 0 _l
183 760 _l
_cl}_d
/o{{612 0 46 -13 566 560 _sc
254 -13 _m
190 -13 139 6 102 45 _c
64 84 46 138 46 207 _c
46 247 52 287 65 328 _c
77 369 94 404 115 432 _c
147 476 183 508 223 529 _c
263 549 308 560 358 560 _c
420 560 470 540 508 502 _c
546 463 566 412 566 350 _c
566 306 559 263 547 220 _c
534 177 517 142 497 114 _c
465 70 429 37 389 17 _c
349 -3 304 -13 254 -13 _c
139 210 _m
}_e{139 160 149 123 170 99 _c
190 74 222 62 264 62 _c
324 62 373 88 413 141 _c
453 193 473 260 473 341 _c
473 388 462 424 441 448 _c
420 472 389 484 348 484 _c
314 484 283 476 257 460 _c
231 444 207 420 187 388 _c
171 364 159 336 151 305 _c
143 274 139 242 139 210 _c
_cl}_e}_d
/s{{521 0 11 -13 500 560 _sc
500 531 _m
483 446 _l
459 458 433 468 407 475 _c
381 481 354 485 326 485 _c
278 485 241 477 214 461 _c
187 445 174 423 174 395 _c
174 363 205 338 269 321 _c
273 319 277 318 279 318 _c
308 309 _l
368 292 408 274 428 256 _c
448 238 458 213 458 182 _c
458 124 435 77 389 41 _c
343 5 282 -13 208 -13 _c
179 -13 149 -10 117 -5 _c
}_e{85 0 49 8 11 20 _c
29 113 _l
61 95 94 82 126 74 _c
158 65 188 61 218 61 _c
262 61 297 70 325 89 _c
352 108 366 132 366 161 _c
366 192 330 217 258 237 _c
249 239 _l
218 247 _l
172 259 138 274 117 294 _c
96 314 86 339 86 370 _c
86 428 107 475 151 509 _c
195 543 254 560 330 560 _c
360 560 389 557 417 552 _c
445 547 472 540 500 531 _c
_cl}_e}_d
/t{{392 0 64 0 423 702 _sc
423 547 _m
409 477 _l
230 477 _l
172 180 _l
170 169 168 160 167 152 _c
166 144 166 139 166 135 _c
166 114 172 99 185 89 _c
197 79 217 75 245 75 _c
336 75 _l
321 0 _l
235 0 _l
181 0 141 10 115 31 _c
89 52 76 84 76 126 _c
76 133 76 141 77 150 _c
78 159 80 169 82 180 _c
140 477 _l
64 477 _l
78 547 _l
153 547 _l
183 702 _l
}_e{273 702 _l
243 547 _l
423 547 _l
_cl}_e}_d
end readonly def

/BuildGlyph
 {exch begin
 CharStrings exch
 2 copy known not{pop /.notdef}if
 true 3 1 roll get exec
 end}_d

/BuildChar {
 1 index /Encoding get exch get
 1 index /BuildGlyph get exec
}_d

FontName currentdict end definefont pop
end
%%EndProlog
mpldict begin
75.6 223.2 translate
460.8 345.6 0 0 clipbox
gsave
0 0 m
460.8 0 l
460.8 345.6 l
0 345.6 l
cl
1.000 setgray
fill
grestore
gsave
57.6 38.016 m
414.72 38.016 l
414.72 304.128 l
57.6 304.128 l
cl
1.000 setgray
fill
grestore
0.800 setlinewidth
1 setlinejoin
0 setlinecap
[] 0 setdash
0.000 setgray
gsave
/o {
gsave
newpath
translate
0.8 setlinewidth
1 setlinejoin
0 setlinecap
0 0 m
0 -3.5 l

gsave
0.000 setgray
fill
grestore
stroke
grestore
} bind def
73.8327 38.016 o
grestore
/DejaVuSans findfont
10.000 scalefont
setfont
gsave
70.653040 23.422250 translate
0.000000 rotate
0.000000 0.000000 m /zero glyphshow
grestore
gsave
/o {
gsave
newpath
translate
0.8 setlinewidth
1 setlinejoin
0 setlinecap
0 0 m
0 -3.5 l

gsave
0.000 setgray
fill
grestore
stroke
grestore
} bind def
138.777 38.016 o
grestore
gsave
126.057875 23.422250 translate
0.000000 rotate
0.000000 0.000000 m /one glyphshow
6.362305 0.000000 m /zero glyphshow
12.724609 0.000000 m /zero glyphshow
19.086914 0.000000 m /zero glyphshow
grestore
gsave
/o {
gsave
newpath
translate
0.8 setlinewidth
1 setlinejoin
0 setlinecap
0 0 m
0 -3.5 l

gsave
0.000 setgray
fill
grestore
stroke
grestore
} bind def
203.721 38.016 o
grestore
gsave
191.001773 23.422250 translate
0.000000 rotate
0.000000 0.000000 m /two glyphshow
6.362305 0.000000 m /zero glyphshow
12.724609 0.000000 m /zero glyphshow
19.086914 0.000000 m /zero glyphshow
grestore
gsave
/o {
gsave
newpath
translate
0.8 setlinewidth
1 setlinejoin
0 setlinecap
0 0 m
0 -3.5 l

gsave
0.000 setgray
fill
grestore
stroke
grestore
} bind def
268.664 38.016 o
grestore
gsave
255.945671 23.422250 translate
0.000000 rotate
0.000000 0.000000 m /three glyphshow
6.362305 0.000000 m /zero glyphshow
12.724609 0.000000 m /zero glyphshow
19.086914 0.000000 m /zero glyphshow
grestore
gsave
/o {
gsave
newpath
translate
0.8 setlinewidth
1 setlinejoin
0 setlinecap
0 0 m
0 -3.5 l

gsave
0.000 setgray
fill
grestore
stroke
grestore
} bind def
333.608 38.016 o
grestore
gsave
320.889569 23.422250 translate
0.000000 rotate
0.000000 0.000000 m /four glyphshow
6.362305 0.000000 m /zero glyphshow
12.724609 0.000000 m /zero glyphshow
19.086914 0.000000 m /zero glyphshow
grestore
gsave
/o {
gsave
newpath
translate
0.8 setlinewidth
1 setlinejoin
0 setlinecap
0 0 m
0 -3.5 l

gsave
0.000 setgray
fill
grestore
stroke
grestore
} bind def
398.552 38.016 o
grestore
gsave
385.833467 23.422250 translate
0.000000 rotate
0.000000 0.000000 m /five glyphshow
6.362305 0.000000 m /zero glyphshow
12.724609 0.000000 m /zero glyphshow
19.086914 0.000000 m /zero glyphshow
grestore
/DejaVuSans findfont
14.000 scalefont
setfont
gsave
206.480312 6.703500 translate
0.000000 rotate
0.000000 0.000000 m /I glyphshow
4.128906 0.000000 m /t glyphshow
9.618164 0.000000 m /e glyphshow
18.231445 0.000000 m /r glyphshow
23.987305 0.000000 m /a glyphshow
32.566406 0.000000 m /t glyphshow
38.055664 0.000000 m /i glyphshow
41.945312 0.000000 m /o glyphshow
50.510742 0.000000 m /n glyphshow
grestore
gsave
/o {
gsave
newpath
translate
0.8 setlinewidth
1 setlinejoin
0 setlinecap
0 0 m
-3.5 0 l

gsave
0.000 setgray
fill
grestore
stroke
grestore
} bind def
57.6 40.7104 o
grestore
/DejaVuSans findfont
10.000 scalefont
setfont
gsave
29.506250 36.913543 translate
0.000000 rotate
0.000000 0.000000 m /minus glyphshow
8.378906 0.000000 m /one glyphshow
14.741211 0.000000 m /five glyphshow
grestore
gsave
/o {
gsave
newpath
translate
0.8 setlinewidth
1 setlinejoin
0 setlinecap
0 0 m
-3.5 0 l

gsave
0.000 setgray
fill
grestore
stroke
grestore
} bind def
57.6 98.6962 o
grestore
gsave
29.506250 94.899282 translate
0.000000 rotate
0.000000 0.000000 m /minus glyphshow
8.378906 0.000000 m /one glyphshow
14.741211 0.000000 m /zero glyphshow
grestore
gsave
/o {
gsave
newpath
translate
0.8 setlinewidth
1 setlinejoin
0 setlinecap
0 0 m
-3.5 0 l

gsave
0.000 setgray
fill
grestore
stroke
grestore
} bind def
57.6 156.682 o
grestore
gsave
35.865625 152.885020 translate
0.000000 rotate
0.000000 0.000000 m /minus glyphshow
8.378906 0.000000 m /five glyphshow
grestore
gsave
/o {
gsave
newpath
translate
0.8 setlinewidth
1 setlinejoin
0 setlinecap
0 0 m
-3.5 0 l

gsave
0.000 setgray
fill
grestore
stroke
grestore
} bind def
57.6 214.668 o
grestore
gsave
44.240625 210.870758 translate
0.000000 rotate
0.000000 0.000000 m /zero glyphshow
grestore
gsave
/o {
gsave
newpath
translate
0.8 setlinewidth
1 setlinejoin
0 setlinecap
0 0 m
-3.5 0 l

gsave
0.000 setgray
fill
grestore
stroke
grestore
} bind def
57.6 272.653 o
grestore
gsave
44.240625 268.856497 translate
0.000000 rotate
0.000000 0.000000 m /five glyphshow
grestore
gsave
22.506250 133.572000 translate
90.000000 rotate
/DejaVuSans-Oblique findfont
14.0 scalefont
setfont
0.000000 0.359375 moveto
/l glyphshow

3.889648 0.359375 moveto
/o glyphshow

12.455078 0.359375 moveto
/g glyphshow

21.341797 0.359375 moveto
/f glyphshow

/DejaVuSans findfont
9.8 scalefont
setfont
26.270508 -1.937500 moveto
/six glyphshow

/DejaVuSans findfont
14.0 scalefont
setfont
32.888379 0.359375 moveto
/parenleft glyphshow

/DejaVuSans-Oblique findfont
14.0 scalefont
setfont
38.350293 0.359375 moveto
/X glyphshow

/DejaVuSans-Oblique findfont
9.8 scalefont
setfont
47.941113 -1.937500 moveto
/b glyphshow

54.161816 -1.937500 moveto
/e glyphshow

60.191113 -1.937500 moveto
/s glyphshow

65.296875 -1.937500 moveto
/t glyphshow

/DejaVuSans findfont
14.0 scalefont
setfont
69.522168 0.359375 moveto
/parenright glyphshow


grestore
1.500 setlinewidth
2 setlinecap
0.122 0.467 0.706 setrgbcolor
gsave
357.1 266.1 57.6 38.02 clipbox
73.832727 291.943666 m
76.820147 289.116115 l
78.054081 287.617942 l
79.677678 285.570115 l
80.002398 285.06486 l
80.392061 284.648171 l
80.71678 284.276404 l
83.963975 280.324905 l
84.54847 279.365549 l
85.197909 278.427963 l
85.327797 278.263102 l
85.522629 278.031706 l
85.782404 277.471495 l
90.003758 269.727799 l
90.263533 269.028423 l
90.458365 268.437692 l
90.848029 267.877447 l
92.017019 265.559568 l
92.926233 263.457496 l
92.991177 263.411038 l
93.186009 262.800945 l
93.575672 262.116451 l
93.770504 261.785791 l
94.03028 261.383755 l
94.225111 261.166624 l
94.744662 260.593693 l
95.264214 259.224159 l
95.523989 259.041574 l
95.848709 258.2838 l
95.913653 258.245232 l
96.36826 257.01333 l
96.628035 256.900236 l
96.952755 256.136749 l
97.147587 256.008527 l
97.342418 255.775178 l
97.53725 255.304445 l
97.667138 255.135111 l
97.861969 254.35264 l
97.991857 254.242739 l
98.186689 253.788603 l
98.251633 253.743185 l
98.70624 252.550345 l
98.966016 251.890739 l
99.160847 251.140528 l
99.225791 251.10547 l
99.485567 250.482189 l
99.550511 250.436858 l
99.745343 249.846786 l
99.810286 249.804894 l
100.005118 249.120366 l
100.524669 248.050923 l
100.914333 247.613106 l
101.174108 246.606958 l
101.303996 246.528553 l
101.693659 245.470156 l
101.758603 245.413707 l
101.953435 244.777581 l
102.083323 244.620812 l
102.213211 242.72445 l
102.343098 242.485224 l
102.53793 241.728249 l
102.667818 241.627368 l
102.992537 240.817389 l
103.382201 240.526805 l
103.512089 239.964599 l
103.641976 239.903744 l
103.901752 239.51286 l
104.03164 239.369402 l
104.421303 238.877355 l
104.746023 238.735055 l
104.87591 236.513306 l
105.135686 236.246601 l
105.265574 234.990168 l
105.395462 234.807905 l
105.525349 234.738419 l
106.109845 234.095664 l
106.239732 233.154719 l
106.36962 233.032931 l
106.564452 232.173307 l
106.759283 232.013509 l
106.954115 231.69486 l
107.278835 231.471643 l
107.473666 231.394132 l
107.668498 230.966631 l
108.252993 230.438743 l
108.447825 230.236713 l
108.772544 230.092791 l
109.227152 229.680993 l
109.357039 229.626346 l
109.486927 228.396089 l
109.551871 228.370172 l
109.681759 226.78961 l
110.071422 225.548762 l
110.331198 225.345018 l
110.52603 224.808767 l
110.785805 224.613379 l
110.850749 224.596365 l
111.110525 223.955297 l
111.3703 223.79665 l
111.500188 223.097209 l
111.759964 222.898511 l
112.084683 222.77186 l
112.279515 222.496412 l
112.799066 222.067398 l
113.123785 221.610708 l
113.253673 221.56483 l
113.383561 220.798208 l
113.513449 220.681084 l
114.227832 220.248439 l
114.487607 220.09138 l
114.747383 219.991171 l
114.942215 219.682997 l
115.137046 219.55985 l
115.266934 219.263192 l
116.306036 219.029372 l
117.150307 218.342101 l
117.410083 218.282358 l
117.539971 217.792096 l
118.124466 217.513271 l
118.514129 217.456118 l
118.708961 217.289638 l
118.903792 217.189244 l
119.03368 216.663387 l
119.748063 216.520203 l
120.267614 216.361472 l
120.52739 215.03805 l
120.657278 215.00138 l
120.787165 214.734757 l
120.981997 214.627252 l
121.826268 213.49345 l
121.956156 212.43108 l
122.021099 212.392534 l
122.150987 210.75019 l
122.605595 210.586724 l
122.995258 210.170939 l
123.125146 208.908162 l
123.449865 208.716473 l
123.709641 208.280975 l
124.03436 208.162459 l
124.164248 207.932039 l
124.35908 207.852223 l
124.618855 207.233649 l
124.813687 207.201835 l
125.008519 207.067437 l
125.722902 206.918971 l
125.852789 206.309102 l
126.112565 206.232745 l
126.307397 206.045522 l
126.69706 205.914518 l
126.891892 205.456344 l
127.086724 205.241871 l
127.801106 204.973309 l
128.645377 204.745451 l
128.775265 203.681251 l
128.840209 203.58958 l
129.03504 202.649877 l
129.294816 202.400869 l
129.619536 202.209371 l
129.814367 202.096982 l
130.009199 201.903326 l
130.52875 201.210564 l
130.788526 199.945437 l
131.048301 199.575031 l
131.502909 199.464611 l
131.567852 199.355308 l
131.69774 198.774572 l
131.892572 198.758761 l
132.02246 198.560104 l
132.347179 198.402095 l
132.542011 198.329099 l
132.736843 197.802345 l
132.931674 197.66844 l
133.061562 197.66153 l
133.386282 196.854348 l
133.516169 196.518378 l
133.581113 196.507708 l
133.840889 196.184798 l
134.490328 195.936877 l
134.68516 195.721636 l
134.879991 195.474208 l
135.269655 195.303455 l
135.724262 194.74052 l
135.85415 194.681959 l
135.984038 194.026219 l
136.308757 193.848304 l
136.503589 193.468705 l
137.153028 193.27663 l
138.062242 192.607931 l
138.257074 192.570824 l
138.322018 192.492561 l
138.451906 192.155694 l
138.646737 192.04938 l
138.841569 191.889699 l
138.906513 191.809333 l
139.036401 190.255745 l
139.231232 190.032763 l
139.815728 189.740983 l
140.595054 189.106788 l
140.724942 188.765319 l
140.789886 188.755921 l
140.919774 188.605059 l
141.634157 188.42651 l
141.828988 188.140235 l
142.02382 187.93608 l
142.34854 187.856972 l
142.478427 187.604709 l
143.127866 187.420267 l
143.257754 186.723786 l
143.647417 186.658512 l
143.907193 186.501655 l
144.491688 186.176051 l
144.816408 185.697487 l
145.076183 185.653992 l
145.335959 185.373486 l
145.660678 185.258641 l
145.725622 185.253798 l
145.85551 184.915443 l
146.569893 184.692238 l
146.764725 184.55345 l
147.0245 184.500741 l
147.219332 184.332324 l
147.673939 184.250675 l
147.803827 183.969659 l
147.998659 182.901536 l
148.258434 182.86585 l
148.453266 182.338897 l
148.777985 182.23585 l
148.972817 182.062934 l
149.102705 182.052472 l
149.232593 181.682213 l
149.427424 181.597021 l
149.557312 181.498066 l
149.882032 181.438637 l
150.141807 180.818519 l
150.466527 180.692252 l
150.596415 180.596803 l
150.85619 180.485838 l
150.921134 180.484549 l
151.051022 179.555205 l
151.18091 179.545383 l
151.310797 179.342385 l
152.02518 179.121378 l
152.220012 179.001673 l
152.3499 178.98005 l
152.479788 178.846733 l
153.583834 178.686432 l
153.908553 178.065504 l
154.038441 178.037999 l
154.233273 177.670208 l
154.363161 177.565876 l
154.557992 177.445466 l
155.142487 177.329528 l
155.467207 177.188798 l
155.726982 177.079197 l
155.791926 177.074569 l
155.986758 176.849209 l
156.311478 176.605121 l
156.506309 176.37331 l
156.960917 176.192076 l
157.155748 175.869519 l
157.870131 175.544199 l
158.324738 175.206387 l
158.84429 175.079065 l
158.974177 174.943775 l
159.233953 174.883419 l
159.558672 174.371923 l
159.883392 174.236561 l
160.01328 173.916988 l
160.662719 173.816182 l
160.922494 173.391191 l
161.052382 172.832104 l
161.506989 172.584512 l
162.221372 172.336093 l
162.35126 171.040655 l
162.67598 170.861671 l
163.000699 170.554829 l
163.195531 170.311296 l
163.325419 169.737335 l
163.52025 169.683499 l
163.909914 169.102385 l
163.974858 169.090857 l
164.169689 168.856866 l
164.949016 168.520765 l
165.403623 167.891953 l
166.377782 167.449794 l
166.572613 167.071255 l
167.092165 166.918551 l
167.286996 166.749987 l
167.741604 166.500369 l
168.131267 165.341955 l
168.261155 165.270374 l
168.780706 164.673815 l
168.910594 164.610582 l
169.105425 164.298444 l
169.365201 164.132903 l
169.560033 163.737231 l
169.819808 163.650474 l
170.079584 163.356779 l
170.209472 162.618729 l
170.469247 162.269368 l
170.664079 161.966769 l
170.988798 161.760172 l
171.118686 161.553013 l
171.248574 161.529467 l
171.378462 161.193363 l
171.703181 161.053016 l
171.833069 161.026222 l
172.027901 160.641822 l
172.287676 160.427884 l
172.612396 160.194051 l
172.807228 160.034009 l
172.937115 160.011645 l
173.067003 159.861421 l
173.326779 159.736719 l
173.586554 159.636474 l
173.84633 159.318713 l
174.495769 158.551385 l
174.755545 158.430638 l
175.01532 158.230336 l
175.210152 157.844403 l
175.469927 157.781999 l
175.599815 157.00199 l
175.989479 156.404977 l
176.119366 156.397011 l
176.314198 156.155576 l
177.3533 155.553086 l
177.548132 155.475181 l
177.872852 154.903195 l
178.067683 154.795154 l
178.197571 154.42706 l
178.392403 154.379018 l
178.522291 153.954858 l
178.84701 153.859096 l
179.17173 153.644677 l
179.301617 153.605549 l
179.626337 153.056658 l
180.405664 152.324001 l
180.925215 152.207709 l
180.990159 152.117764 l
181.120047 151.814498 l
181.444766 151.708192 l
181.769486 151.588097 l
182.159149 151.365339 l
182.418925 150.497596 l
182.808588 150.36372 l
183.00342 150.262632 l
183.393083 149.444007 l
183.977578 149.324399 l
184.107466 149.080755 l
184.237354 148.397018 l
184.432185 148.282805 l
184.497129 148.280036 l
184.691961 148.118767 l
185.081624 147.854246 l
185.471288 147.748502 l
185.601176 146.950666 l
185.925895 146.886618 l
186.120727 146.545528 l
186.315558 146.396893 l
186.51039 146.306034 l
187.289717 145.422448 l
187.419605 144.948485 l
187.744324 144.858965 l
187.939156 144.722112 l
188.198931 144.577327 l
188.588595 144.388464 l
188.718483 143.93257 l
188.84837 143.902649 l
189.043202 143.652481 l
189.302978 143.457935 l
189.367922 143.434594 l
189.627697 142.882842 l
189.887473 142.758668 l
190.082304 141.981442 l
190.34208 141.138664 l
190.991519 140.863758 l
191.381182 140.675271 l
191.705902 140.566267 l
191.83579 140.363512 l
192.160509 140.137961 l
192.68006 139.74604 l
192.809948 139.311961 l
193.134668 139.145692 l
193.654219 138.951954 l
193.913994 137.510781 l
194.108826 137.309352 l
194.303658 137.176964 l
194.433546 136.869219 l
194.49849 136.861592 l
194.628377 136.512187 l
195.147928 136.342732 l
195.34276 136.126528 l
195.537592 136.033272 l
195.927255 135.834742 l
196.187031 135.216016 l
196.706582 134.842666 l
197.161189 134.531695 l
197.940516 134.279705 l
198.265236 134.085012 l
198.330179 134.024743 l
198.525011 133.574228 l
199.434226 133.213989 l
199.629057 132.505733 l
199.758945 132.449984 l
200.148609 131.70357 l
200.278496 131.621239 l
200.473328 131.443297 l
200.538272 131.423577 l
200.927935 130.698369 l
201.122767 130.645632 l
201.382543 130.310568 l
201.51243 129.985014 l
201.902094 129.871151 l
202.031982 129.479242 l
202.161869 129.468034 l
202.226813 129.349216 l
202.356701 128.20641 l
202.551533 127.934186 l
202.811308 127.845152 l
202.941196 127.542255 l
203.00614 127.513813 l
203.136028 127.102964 l
203.395804 126.997322 l
203.590635 126.758908 l
203.785467 126.62483 l
204.045243 126.425856 l
204.17513 126.180162 l
204.434906 126.076966 l
204.564794 125.681651 l
204.629738 125.677047 l
204.824569 125.400365 l
205.409064 125.163468 l
205.733784 125.039329 l
205.928616 124.714071 l
206.058503 124.673687 l
206.253335 124.419897 l
206.772886 124.062646 l
206.902774 123.605141 l
207.16255 123.522776 l
207.617157 123.215125 l
207.747045 123.169436 l
207.941876 122.920062 l
208.526371 122.616236 l
208.721203 122.344146 l
209.110867 122.205603 l
209.305698 121.912002 l
210.214913 121.648663 l
210.409744 121.245926 l
210.474688 121.243345 l
210.66952 120.985782 l
210.864352 120.887824 l
211.124127 120.603305 l
211.189071 120.592825 l
211.448847 119.387583 l
211.578735 118.120503 l
211.708622 118.062032 l
212.423005 117.133829 l
212.617837 116.953902 l
212.812669 115.680285 l
213.0075 115.478305 l
213.202332 115.378252 l
213.33222 114.979625 l
213.462108 114.86818 l
213.656939 114.737293 l
213.786827 114.631996 l
213.981659 114.512018 l
214.176491 114.433012 l
214.696042 113.777606 l
215.085705 113.656675 l
215.150649 113.620318 l
215.280537 112.060897 l
215.475369 111.908237 l
215.605256 111.634829 l
215.929976 111.487669 l
216.124808 111.231373 l
216.384583 111.067832 l
216.774246 110.522469 l
216.969078 110.435032 l
217.228854 110.200652 l
218.073124 109.817759 l
218.267956 109.453968 l
218.527732 109.350689 l
218.917395 109.069335 l
219.047283 108.387704 l
219.112227 108.356738 l
219.242115 107.350566 l
219.566834 107.227967 l
219.956497 106.836907 l
220.151329 106.772155 l
220.281217 106.379958 l
220.540993 106.066602 l
220.67088 105.493587 l
220.800768 105.432306 l
220.930656 105.09178 l
221.515151 104.708094 l
221.709983 104.68941 l
221.904814 104.477232 l
221.969758 104.473395 l
222.099646 103.868136 l
222.294478 103.657975 l
222.878973 103.504799 l
223.008861 103.26872 l
223.203692 103.238036 l
223.268636 103.099637 l
223.398524 102.506399 l
223.853131 102.034517 l
224.047963 100.086442 l
224.437626 99.97231 l
224.632458 99.80175 l
224.762346 99.730195 l
225.216953 99.155772 l
225.606617 98.966016 l
225.801448 98.835847 l
225.931336 98.541543 l
227.035382 97.925843 l
227.16527 97.695983 l
227.554934 97.548167 l
228.204373 97.311582 l
228.33426 96.582178 l
228.529092 96.530762 l
228.65898 96.001961 l
228.788868 95.89159 l
229.178531 95.729541 l
229.308419 95.519928 l
229.892914 95.403819 l
230.607297 94.895422 l
230.737185 93.972807 l
230.99696 93.953771 l
231.126848 93.761155 l
231.386624 93.658453 l
231.451567 93.59467 l
231.646399 93.256136 l
231.711343 93.242207 l
231.841231 92.899667 l
231.971119 92.879539 l
232.101006 92.535319 l
232.945277 92.17737 l
233.075165 91.94754 l
233.399884 91.756956 l
233.529772 91.385786 l
233.724604 91.06322 l
233.984379 90.81478 l
234.049323 90.813587 l
234.309099 90.573028 l
234.633818 90.346828 l
235.15337 90.199144 l
235.283257 90.059778 l
235.413145 90.055033 l
235.802809 89.479065 l
236.062584 89.437482 l
236.257416 89.093615 l
236.517191 88.695765 l
236.647079 88.613887 l
236.971799 88.40024 l
237.621238 88.245815 l
238.010901 88.058783 l
238.205733 87.906863 l
238.270677 87.862027 l
238.400564 87.59858 l
238.725284 87.2401 l
239.374723 82.77577 l
239.82933 81.84195 l
240.15405 81.641589 l
240.608657 81.224198 l
240.673601 81.194276 l
240.868433 80.865125 l
241.063264 80.651023 l
241.387984 80.58154 l
241.647759 80.407771 l
242.167311 80.286112 l
243.076525 79.986049 l
243.206413 79.701373 l
243.336301 79.188859 l
243.466189 79.088637 l
243.725964 78.764993 l
243.790908 78.757841 l
244.310459 77.588074 l
244.83001 77.449768 l
244.959898 77.252426 l
245.544393 77.118238 l
245.804169 76.583971 l
246.388664 76.293978 l
246.518552 75.834239 l
246.583496 75.823996 l
246.778327 75.506978 l
246.973159 75.275734 l
247.232935 75.150693 l
247.557654 74.195411 l
247.81743 74.069635 l
248.142149 73.559279 l
248.207093 73.558127 l
248.401925 73.152136 l
248.466869 73.13034 l
248.596756 72.965778 l
248.726644 72.91751 l
248.98642 72.67605 l
249.246195 72.620995 l
249.441027 72.198481 l
249.700803 72.071861 l
249.830691 71.572439 l
250.090466 71.401379 l
250.545073 71.255473 l
250.934737 70.978396 l
251.129568 70.701104 l
251.3244 70.619831 l
251.779007 70.396373 l
251.908895 70.148399 l
252.038783 70.045241 l
252.363503 69.816743 l
252.623278 69.582104 l
252.883054 69.42105 l
253.012941 68.633413 l
253.142829 68.546126 l
253.207773 68.461445 l
253.402605 68.080028 l
253.792268 67.911025 l
253.922156 67.336013 l
254.766427 67.146117 l
254.961258 66.965644 l
255.221034 66.798867 l
255.350922 66.665143 l
256.130249 66.531714 l
256.260136 65.825714 l
256.454968 65.721367 l
256.6498 65.536205 l
256.779688 65.506448 l
256.909575 64.988853 l
257.429127 64.903979 l
258.208453 64.806011 l
258.338341 63.90329 l
258.663061 63.826833 l
259.3125 63.758423 l
259.572275 63.587312 l
259.637219 63.583319 l
259.832051 63.450615 l
259.896995 63.428054 l
260.026882 62.927849 l
260.286658 62.842377 l
260.936097 62.351022 l
262.234975 62.236512 l
263.598797 62.041634 l
263.728685 61.919805 l
268.859253 61.717453 l
398.487273 61.717453 l
398.487273 61.717453 l
stroke
grestore
1.000 setlinewidth
0 setlinecap
gsave
357.1 266.1 57.6 38.02 clipbox
/o {
gsave
newpath
translate
1.0 setlinewidth
1 setlinejoin
0 setlinecap
0 -3 m
0.795609 -3 1.55874 -2.683901 2.12132 -2.12132 c
2.683901 -1.55874 3 -0.795609 3 0 c
3 0.795609 2.683901 1.55874 2.12132 2.12132 c
1.55874 2.683901 0.795609 3 0 3 c
-0.795609 3 -1.55874 2.683901 -2.12132 2.12132 c
-2.683901 1.55874 -3 0.795609 -3 0 c
-3 -0.795609 -2.683901 -1.55874 -2.12132 -2.12132 c
-1.55874 -2.683901 -0.795609 -3 0 -3 c
cl

gsave
0.122 0.467 0.706 setrgbcolor
fill
grestore
stroke
grestore
} bind def
73.8327 291.944 o
120.203 216.367 o
166.573 167.071 o
212.943 115.507 o
259.312 63.7584 o
305.682 61.7175 o
352.052 61.7175 o
398.422 61.7175 o
grestore
1.500 setlinewidth
2 setlinecap
1.000 0.498 0.055 setrgbcolor
gsave
357.1 266.1 57.6 38.02 clipbox
73.832727 292.032 m
74.612054 291.012222 l
76.950034 287.691379 l
77.274754 287.03365 l
78.054081 285.855677 l
78.443744 285.190302 l
78.638576 284.897601 l
80.327117 281.921662 l
80.521949 281.624915 l
80.781724 281.19198 l
82.275434 278.038787 l
82.665097 276.955284 l
84.483527 272.678668 l
84.743302 271.864656 l
84.87319 271.465716 l
85.068022 270.814179 l
85.327797 270.285809 l
86.04218 268.398575 l
86.626675 267.087257 l
86.951395 266.312853 l
89.094543 260.344085 l
89.354319 259.360095 l
89.419263 259.180744 l
89.549151 258.428787 l
89.743982 258.124664 l
89.938814 257.382422 l
90.19859 256.456212 l
90.977916 254.194568 l
91.432524 252.258846 l
91.497467 252.187781 l
91.822187 251.134093 l
92.53657 249.0798 l
92.926233 248.20983 l
93.380841 246.593897 l
93.510728 246.368607 l
93.770504 245.722805 l
93.965336 244.247714 l
94.354999 243.116886 l
94.549831 242.652412 l
94.87455 241.815493 l
95.19927 241.132753 l
95.913653 239.421168 l
96.238372 238.804713 l
96.36826 238.494889 l
96.563092 237.308693 l
96.887811 236.953653 l
97.017699 236.615305 l
97.147587 236.561157 l
97.407362 236.31584 l
97.602194 236.207248 l
97.797026 235.902097 l
98.251633 235.58749 l
98.446465 234.909435 l
98.70624 234.64661 l
98.901072 234.274074 l
99.485567 233.947761 l
99.680399 233.302255 l
99.745343 233.274048 l
99.87523 233.073374 l
99.940174 233.051112 l
100.19995 232.529551 l
100.459725 232.42679 l
100.979277 230.856092 l
101.04422 230.823852 l
101.239052 230.576884 l
101.433884 230.297157 l
101.563772 229.680366 l
102.083323 229.388459 l
102.213211 229.195743 l
102.343098 229.112323 l
102.53793 228.867979 l
102.732762 228.808478 l
102.86265 228.348848 l
102.992537 227.802312 l
103.252313 227.693338 l
103.317257 227.686093 l
103.577032 227.018137 l
104.161528 226.591709 l
104.616135 226.232299 l
104.746023 226.17191 l
105.135686 225.82096 l
105.525349 225.662545 l
105.785125 225.465089 l
105.979957 225.101691 l
106.174788 224.953872 l
106.499508 224.120865 l
106.824227 223.879428 l
106.889171 223.860735 l
107.148947 223.297358 l
107.408722 222.783331 l
107.668498 221.705769 l
107.993218 221.360973 l
108.317937 220.716894 l
108.577713 220.449319 l
108.7076 219.58185 l
109.097264 219.043208 l
109.227152 218.928483 l
109.292096 218.85144 l
109.616815 218.035239 l
110.071422 217.193402 l
110.136366 217.165807 l
110.331198 216.5589 l
110.590973 216.264721 l
111.175469 215.136471 l
111.500188 214.780924 l
111.889851 214.096434 l
112.669178 212.54732 l
114.033 210.995277 l
114.162888 210.473465 l
114.227832 210.458474 l
114.552551 210.002792 l
114.877271 209.768365 l
115.007159 209.531155 l
115.072102 209.509691 l
115.396822 208.850222 l
115.591654 208.725944 l
115.721541 207.800903 l
116.046261 207.579773 l
116.306036 207.45239 l
116.565812 207.222302 l
116.955475 206.976689 l
117.085363 206.445783 l
118.449185 205.206469 l
119.03368 205.032626 l
119.163568 204.969726 l
119.3584 204.500924 l
120.007839 204.092654 l
120.20267 203.52593 l
120.397502 203.322944 l
120.52739 202.585611 l
120.852109 202.035881 l
121.176829 201.822782 l
121.501548 201.53196 l
121.761324 201.156213 l
121.891212 200.724565 l
122.150987 200.378308 l
122.345819 199.903371 l
122.735482 199.343693 l
122.930314 198.867665 l
123.060202 198.703449 l
123.255034 198.48646 l
123.514809 198.377185 l
123.839529 197.5986 l
124.03436 197.25513 l
124.229192 197.006998 l
124.553912 196.488015 l
125.138407 195.380259 l
125.268294 194.510009 l
125.52807 194.364854 l
125.722902 194.235168 l
126.307397 194.037927 l
126.502228 193.839108 l
126.69706 193.153579 l
126.956836 192.723954 l
127.086724 192.684986 l
127.216611 192.236176 l
127.606275 191.995977 l
127.736163 191.717807 l
127.801106 191.685043 l
127.995938 191.24604 l
128.385601 190.906599 l
128.580433 190.542477 l
129.164928 190.107862 l
129.424704 189.803728 l
129.944255 189.597648 l
130.074143 189.475221 l
130.204031 189.13768 l
130.593694 188.8095 l
130.918414 188.642387 l
131.373021 188.43554 l
131.567852 188.140925 l
131.892572 188.046086 l
132.02246 186.81711 l
132.152348 186.758787 l
132.347179 186.532348 l
132.606955 186.390556 l
132.671899 186.386057 l
133.256394 185.564988 l
133.711001 185.211122 l
134.230552 184.95777 l
134.620216 184.481062 l
134.750103 183.065835 l
134.879991 182.969166 l
135.009879 182.892838 l
135.204711 182.16475 l
135.52943 182.007302 l
135.659318 181.924722 l
135.919094 181.340272 l
135.984038 181.270379 l
136.178869 180.830619 l
136.568533 180.611549 l
136.828308 180.547064 l
136.958196 179.980638 l
137.282915 179.836312 l
137.802467 178.426033 l
138.776625 177.6288 l
138.906513 176.946976 l
139.231232 176.754531 l
139.426064 176.462466 l
139.68584 176.230133 l
140.140447 175.000214 l
140.205391 174.964152 l
140.335279 174.275589 l
140.400223 174.244844 l
140.85483 173.255544 l
140.919774 173.232225 l
141.504269 172.055962 l
141.634157 172.009474 l
142.34854 169.48891 l
142.543371 169.231539 l
142.803147 168.947749 l
142.933035 168.1902 l
142.997979 168.123499 l
143.51753 166.396452 l
143.582474 166.374851 l
143.777305 166.140153 l
143.907193 166.008858 l
144.037081 165.85958 l
144.68652 163.996742 l
144.946295 163.724673 l
146.18023 161.990483 l
146.375061 161.694834 l
146.569893 161.555941 l
146.699781 161.077722 l
147.34922 160.655178 l
147.544051 160.371569 l
147.803827 160.190766 l
147.998659 159.786686 l
148.19349 159.166204 l
148.583154 158.791773 l
149.492368 156.892969 l
149.622256 156.112722 l
149.817088 156.004035 l
149.946976 155.750292 l
150.531471 154.390501 l
150.596415 154.333911 l
150.726302 153.871742 l
150.85619 153.821841 l
150.986078 153.381137 l
151.505629 152.240889 l
151.635517 152.216241 l
152.02518 151.527859 l
152.155068 151.369922 l
152.284956 151.240694 l
152.479788 150.675837 l
152.544731 150.667216 l
152.804507 149.92556 l
152.934395 149.752216 l
153.129227 149.156326 l
153.324058 149.0774 l
153.51889 148.759226 l
153.713722 148.599434 l
153.908553 148.552206 l
154.103385 148.215737 l
154.298217 148.067801 l
154.947656 146.775266 l
155.207431 145.911879 l
155.337319 145.839338 l
155.597095 144.716251 l
155.726982 144.565114 l
156.116646 143.880327 l
156.376421 143.712043 l
157.35058 142.222412 l
157.610356 141.493796 l
157.805187 141.319649 l
158.064963 141.129272 l
158.51957 140.683991 l
158.714402 140.596949 l
158.909233 140.029403 l
159.104065 139.822872 l
159.428785 139.228672 l
159.68856 139.002799 l
159.883392 138.805191 l
160.402943 138.251134 l
160.922494 137.467099 l
161.117326 137.390901 l
161.571933 136.804469 l
161.636877 136.777983 l
161.831709 136.342819 l
162.156428 135.871287 l
162.286316 135.358385 l
162.481148 134.876237 l
162.805867 133.25588 l
162.935755 133.01808 l
163.390362 132.833609 l
163.585194 132.421916 l
163.650138 132.398173 l
163.84497 132.233232 l
163.909914 132.229219 l
164.234633 131.736069 l
164.429465 131.660141 l
164.624296 131.421189 l
164.819128 131.335386 l
165.078904 130.462164 l
165.208792 130.410063 l
165.728343 128.973727 l
166.312838 128.370658 l
166.50767 127.897637 l
166.637557 127.842599 l
166.767445 127.500746 l
167.092165 127.313676 l
167.286996 127.062695 l
167.416884 127.029832 l
167.611716 126.740267 l
167.806547 126.548687 l
168.196211 125.490886 l
168.261155 125.443081 l
168.52093 124.629775 l
168.650818 124.551402 l
168.780706 123.983263 l
168.84565 123.978985 l
169.040482 123.404401 l
169.170369 123.01028 l
169.300257 122.403608 l
169.624977 122.273362 l
169.884752 122.00682 l
170.33936 121.500688 l
170.534191 121.118166 l
170.858911 120.70161 l
171.053742 120.446153 l
171.18363 120.23817 l
171.313518 120.160814 l
171.50835 119.89819 l
171.833069 119.615095 l
171.962957 119.569888 l
172.222733 118.597625 l
172.287676 118.510187 l
172.547452 117.79738 l
172.612396 117.759921 l
172.807228 116.956899 l
172.872172 116.952487 l
173.067003 116.591626 l
173.261835 116.394049 l
173.586554 114.087883 l
173.716442 113.954546 l
173.911274 113.599485 l
174.041162 113.52317 l
174.300937 113.258492 l
174.820488 112.883341 l
175.080264 112.315167 l
175.210152 112.185154 l
175.404984 111.581947 l
175.534871 111.223609 l
175.924535 110.865103 l
176.119366 110.374982 l
176.249254 110.32763 l
176.703861 109.702348 l
176.833749 109.148549 l
177.093525 109.019938 l
177.288357 108.608126 l
177.3533 108.590354 l
177.613076 108.125819 l
177.872852 107.753382 l
178.717122 107.085986 l
178.84701 106.502081 l
179.366561 106.291098 l
179.626337 106.030238 l
179.756225 104.806121 l
180.016 104.445842 l
180.665439 102.361285 l
180.925215 102.23944 l
181.249934 102.118351 l
181.379822 102.053417 l
181.574654 101.732398 l
181.704542 100.86958 l
181.899373 100.777688 l
182.289037 99.760979 l
182.743644 99.188154 l
182.873532 98.353525 l
182.938476 98.327406 l
183.133307 97.777117 l
183.328139 97.733735 l
183.458027 96.904914 l
183.652859 96.777211 l
183.782746 96.236434 l
184.042522 96.102935 l
184.627017 95.818865 l
184.756905 94.167664 l
185.081624 93.85246 l
185.3414 93.318468 l
185.471288 93.110545 l
186.055783 92.52744 l
186.250614 92.290825 l
186.51039 91.984562 l
186.640278 91.874281 l
186.770166 91.298846 l
187.354661 91.021485 l
187.67938 90.36453 l
188.0041 90.203991 l
188.523651 90.0286 l
189.238034 89.875813 l
189.367922 88.716109 l
189.692641 88.625904 l
189.822529 88.433041 l
190.212192 85.457137 l
190.407024 85.086179 l
190.6668 84.940145 l
190.991519 84.751421 l
191.056463 84.712971 l
191.121407 84.492706 l
191.251295 83.563833 l
191.640958 83.396242 l
191.900734 83.069479 l
192.030621 83.04505 l
192.225453 82.765219 l
192.290397 82.743142 l
192.420285 81.310646 l
194.043882 80.68279 l
194.368602 80.408698 l
194.953097 80.292185 l
195.147928 80.100968 l
195.277816 78.583374 l
195.34276 78.566098 l
195.472648 77.021797 l
195.732424 76.937373 l
195.927255 76.847626 l
196.251975 76.527467 l
196.381863 76.093267 l
196.576694 76.01297 l
196.706582 75.689137 l
196.771526 75.683921 l
196.966358 75.170415 l
197.615797 74.861056 l
197.745684 70.078371 l
197.875572 70.056193 l
198.070404 69.874123 l
198.135348 69.778955 l
198.330179 69.125367 l
198.525011 69.032668 l
199.109506 68.490531 l
199.17445 68.475994 l
199.369282 68.144778 l
199.434226 68.142474 l
199.694001 67.823502 l
199.758945 67.808134 l
199.888833 67.563987 l
200.018721 67.448819 l
200.408384 65.302197 l
200.538272 65.039832 l
200.66816 64.879808 l
200.798048 64.830868 l
200.927935 64.418713 l
201.252655 64.303069 l
201.317599 64.266219 l
201.577374 63.801896 l
202.421645 63.356601 l
202.681421 62.746302 l
202.876252 62.673965 l
203.136028 62.294754 l
203.265916 62.128407 l
203.33086 62.11802 l
203.525691 61.882016 l
203.720523 61.815823 l
203.850411 61.285099 l
204.369962 60.917093 l
204.49985 60.866235 l
204.629738 58.815156 l
204.824569 58.473169 l
205.798728 57.71612 l
206.188391 57.394746 l
206.318279 57.276987 l
206.578055 57.244976 l
206.707942 56.963629 l
207.032662 56.882787 l
207.16255 56.523306 l
207.422325 56.494377 l
207.617157 56.373132 l
208.201652 56.313283 l
208.396484 56.002134 l
208.786147 55.889159 l
209.045923 55.801636 l
209.50053 55.677266 l
210.214913 55.515281 l
210.344801 55.250749 l
210.604576 55.221937 l
210.734464 55.047747 l
211.124127 55.047719 l
211.254015 54.913304 l
213.267276 54.864036 l
213.397164 54.704439 l
215.605256 54.701156 l
322.308081 54.601878 l
322.762688 54.583139 l
323.542015 54.551571 l
323.736846 54.460273 l
324.191454 54.35668 l
324.321341 54.163905 l
327.178873 54.060814 l
328.412807 54.000091 l
328.542695 53.520776 l
329.906517 53.353733 l
330.361124 53.336243 l
330.491012 53.089819 l
330.945619 53.008262 l
331.205395 52.93 l
332.309441 52.866351 l
332.439329 52.499488 l
332.95888 52.321933 l
333.738207 52.222825 l
334.062926 52.151722 l
334.452589 52.048063 l
334.647421 51.99011 l
335.881355 51.788566 l
336.725626 51.661394 l
336.920458 51.488117 l
337.504953 51.449817 l
337.699784 51.345741 l
338.479111 51.252523 l
338.673943 51.03282 l
339.193494 50.921894 l
340.037765 50.777513 l
340.29754 50.666429 l
346.921818 50.22785 l
347.11665 50.165478 l
350.883396 50.112 l
398.487273 50.112 l
398.487273 50.112 l
stroke
grestore
1.000 setlinewidth
0 setlinejoin
0 setlinecap
gsave
357.1 266.1 57.6 38.02 clipbox
/o {
gsave
newpath
translate
1.0 setlinewidth
0 setlinejoin
0 setlinecap
-3 -3 m
3 -3 l
3 3 l
-3 3 l
cl

gsave
1.000 0.498 0.055 setrgbcolor
fill
grestore
stroke
grestore
} bind def
73.8327 292.032 o
120.203 203.526 o
166.573 127.889 o
212.943 54.864 o
259.312 54.7012 o
305.682 54.7012 o
352.052 50.112 o
398.422 50.112 o
grestore
0.800 setlinewidth
2 setlinecap
[] 0 setdash
0.000 setgray
gsave
57.6 38.016 m
57.6 304.128 l
stroke
grestore
gsave
414.72 38.016 m
414.72 304.128 l
stroke
grestore
gsave
57.6 38.016 m
414.72 38.016 l
stroke
grestore
gsave
57.6 304.128 m
414.72 304.128 l
stroke
grestore
1.000 setlinewidth
0 setlinecap
0.800 setgray
gsave
348.72 265.456125 m
407.72 265.456125 l
409.053333 265.456125 409.72 266.122792 409.72 267.456125 c
409.72 297.128 l
409.72 298.461333 409.053333 299.128 407.72 299.128 c
348.72 299.128 l
347.386667 299.128 346.72 298.461333 346.72 297.128 c
346.72 267.456125 l
346.72 266.122792 347.386667 265.456125 348.72 265.456125 c
cl
gsave
1.000 setgray
fill
grestore
stroke
grestore
1.500 setlinewidth
1 setlinejoin
2 setlinecap
[] 0 setdash
0.122 0.467 0.706 setrgbcolor
gsave
350.72 291.03425 m
370.72 291.03425 l
stroke
grestore
1.000 setlinewidth
0 setlinecap
gsave
/o {
gsave
newpath
translate
1.0 setlinewidth
1 setlinejoin
0 setlinecap
0 -3 m
0.795609 -3 1.55874 -2.683901 2.12132 -2.12132 c
2.683901 -1.55874 3 -0.795609 3 0 c
3 0.795609 2.683901 1.55874 2.12132 2.12132 c
1.55874 2.683901 0.795609 3 0 3 c
-0.795609 3 -1.55874 2.683901 -2.12132 2.12132 c
-2.683901 1.55874 -3 0.795609 -3 0 c
-3 -0.795609 -2.683901 -1.55874 -2.12132 -2.12132 c
-1.55874 -2.683901 -0.795609 -3 0 -3 c
cl

gsave
0.122 0.467 0.706 setrgbcolor
fill
grestore
stroke
grestore
} bind def
360.72 291.034 o
grestore
0.000 setgray
gsave
378.720000 287.534250 translate
0.000000 rotate
/DejaVuSans-Oblique findfont
10.0 scalefont
setfont
0.000000 0.578125 moveto
/A glyphshow

6.840820 0.578125 moveto
/B glyphshow

13.701172 0.578125 moveto
/C glyphshow


grestore
1.500 setlinewidth
2 setlinecap
1.000 0.498 0.055 setrgbcolor
gsave
350.72 275.03425 m
370.72 275.03425 l
stroke
grestore
1.000 setlinewidth
0 setlinejoin
0 setlinecap
gsave
/o {
gsave
newpath
translate
1.0 setlinewidth
0 setlinejoin
0 setlinecap
-3 -3 m
3 -3 l
3 3 l
-3 3 l
cl

gsave
1.000 0.498 0.055 setrgbcolor
fill
grestore
stroke
grestore
} bind def
360.72 275.034 o
grestore
0.000 setgray
gsave
378.720000 271.534250 translate
0.000000 rotate
/DejaVuSans-Oblique findfont
10.0 scalefont
setfont
0.000000 0.856250 moveto
/A glyphshow

6.840820 0.856250 moveto
/B glyphshow

13.701172 0.856250 moveto
/C glyphshow

/DejaVuSans-Oblique findfont
7.0 scalefont
setfont
21.403646 4.684375 moveto
/d glyphshow


grestore

end
showpage
